digraph "oneDegreeRelationshipsDiagram" {
  graph [    rankdir="RL"    bgcolor="#ffffff"    label="\nGenerated by SchemaSpy"    labeljust="l"    nodesep="0.18"    ranksep="0.46"    fontname="Helvetica"    fontsize="11"    ration="compress"  ];  node [    fontname="Helvetica"    fontsize="11"    shape="plaintext"  ];  edge [    arrowsize="0.8"  ];
  "Adobe_variablesTable" [
   label=<
    <TABLE BORDER="2" CELLBORDER="1" CELLSPACING="0" BGCOLOR="#ffffff">
      <TR><TD COLSPAN="4"  BGCOLOR="#f5f5f5"><TABLE BORDER="0" CELLSPACING="0"><TR><TD ALIGN="LEFT" FIXEDSIZE="TRUE" WIDTH="127" HEIGHT="16"><B>Adobe_variablesTable</B></TD><TD ALIGN="RIGHT">[table]</TD></TR></TABLE></TD></TR>
      <TR><TD PORT="id_local" COLSPAN="2" ALIGN="LEFT"><TABLE BORDER="0" CELLSPACING="0" ALIGN="LEFT"><TR ALIGN="LEFT"><TD ALIGN="LEFT" FIXEDSIZE="TRUE" WIDTH="15" HEIGHT="16"><IMG SRC="../../images/primaryKeys.png"/></TD><TD ALIGN="LEFT" FIXEDSIZE="TRUE" WIDTH="127" HEIGHT="16">id_local</TD></TR></TABLE></TD><TD PORT="id_local.type" ALIGN="LEFT">integer[2000000000,10]</TD></TR>
      <TR><TD PORT="id_global" COLSPAN="2" BGCOLOR="#ffffff" ALIGN="LEFT"><TABLE BORDER="0" CELLSPACING="0" ALIGN="LEFT"><TR ALIGN="LEFT"><TD ALIGN="LEFT" FIXEDSIZE="TRUE" WIDTH="15" HEIGHT="16"></TD><TD ALIGN="LEFT" FIXEDSIZE="TRUE" WIDTH="127" HEIGHT="16">id_global</TD></TR></TABLE></TD><TD PORT="id_global.type" ALIGN="LEFT">[2000000000,10]</TD></TR>
      <TR><TD PORT="name" COLSPAN="2" ALIGN="LEFT"><TABLE BORDER="0" CELLSPACING="0" ALIGN="LEFT"><TR ALIGN="LEFT"><TD ALIGN="LEFT" FIXEDSIZE="TRUE" WIDTH="15" HEIGHT="16"></TD><TD ALIGN="LEFT" FIXEDSIZE="TRUE" WIDTH="127" HEIGHT="16">name</TD></TR></TABLE></TD><TD PORT="name.type" ALIGN="LEFT">[2000000000,10]</TD></TR>
      <TR><TD PORT="type" COLSPAN="2" ALIGN="LEFT"><TABLE BORDER="0" CELLSPACING="0" ALIGN="LEFT"><TR ALIGN="LEFT"><TD ALIGN="LEFT" FIXEDSIZE="TRUE" WIDTH="15" HEIGHT="16"></TD><TD ALIGN="LEFT" FIXEDSIZE="TRUE" WIDTH="127" HEIGHT="16">type</TD></TR></TABLE></TD><TD PORT="type.type" ALIGN="LEFT">[2000000000,10]</TD></TR>
      <TR><TD PORT="value" COLSPAN="2" ALIGN="LEFT"><TABLE BORDER="0" CELLSPACING="0" ALIGN="LEFT"><TR ALIGN="LEFT"><TD ALIGN="LEFT" FIXEDSIZE="TRUE" WIDTH="15" HEIGHT="16"></TD><TD ALIGN="LEFT" FIXEDSIZE="TRUE" WIDTH="127" HEIGHT="16">value</TD></TR></TABLE></TD><TD PORT="value.type" ALIGN="LEFT">[2000000000,10]</TD></TR>
      <TR><TD ALIGN="LEFT" BGCOLOR="#ffffff">&lt; 0</TD><TD ALIGN="RIGHT" BGCOLOR="#ffffff">  </TD><TD ALIGN="RIGHT" BGCOLOR="#ffffff">0 &gt;</TD></TR>
    </TABLE>>
    URL="../../tables/Adobe_variablesTable.html"
    target="_top"
    tooltip="Adobe_variablesTable"
  ];
}
