<?xml version="1.0" encoding="UTF-8" standalone="no"?>
<!DOCTYPE svg PUBLIC "-//W3C//DTD SVG 1.1//EN"
 "http://www.w3.org/Graphics/SVG/1.1/DTD/svg11.dtd">
<!-- Generated by graphviz version 2.40.1 (20161225.0304)
 -->
<!-- Title: oneDegreeRelationshipsDiagram Pages: 1 -->
<svg width="543pt" height="426pt"
 viewBox="0.00 0.00 543.00 426.20" xmlns="http://www.w3.org/2000/svg" xmlns:xlink="http://www.w3.org/1999/xlink">
<g id="graph0" class="graph" transform="scale(1 1) rotate(0) translate(4 422.2)">
<title>oneDegreeRelationshipsDiagram</title>
<polygon fill="#ffffff" stroke="transparent" points="-4,4 -4,-422.2 539,-422.2 539,4 -4,4"/>
<text text-anchor="middle" x="72.4936" y="-7.3" font-family="Helvetica,sans-Serif" font-size="11.00" fill="#000000">Generated by SchemaSpy</text>
<!-- Adobe_AdditionalMetadata -->
<g id="node1" class="node">
<title>Adobe_AdditionalMetadata</title>
<g id="a_node1"><a xlink:href="../../tables/Adobe_AdditionalMetadata.html" xlink:title="Adobe_AdditionalMetadata" target="_top">
<polygon fill="#ffffff" stroke="transparent" points="218,-38.2 218,-414.2 527,-414.2 527,-38.2 218,-38.2"/>
<polygon fill="#f5f5f5" stroke="transparent" points="220.5,-389.2 220.5,-412.2 525.5,-412.2 525.5,-389.2 220.5,-389.2"/>
<polygon fill="none" stroke="#000000" points="220.5,-389.2 220.5,-412.2 525.5,-412.2 525.5,-389.2 220.5,-389.2"/>
<text text-anchor="start" x="225.5" y="-397.8" font-family="Helvetica,sans-Serif" font-weight="bold" font-size="11.00" fill="#000000">Adobe_AdditionalMetadata</text>
<text text-anchor="start" x="490.5437" y="-397.3" font-family="Helvetica,sans-Serif" font-size="11.00" fill="#000000">[table]</text>
<polygon fill="none" stroke="#000000" points="220.5,-367.2 220.5,-389.2 403.5,-389.2 403.5,-367.2 220.5,-367.2"/>
<image xlink:href="../../images/primaryKeys.png" width="11px" height="12px" preserveAspectRatio="xMinYMin meet" x="225.5" y="-384.2"/>
<text text-anchor="start" x="240.5" y="-374.3" font-family="Helvetica,sans-Serif" font-size="11.00" fill="#000000">id_local</text>
<polygon fill="none" stroke="#000000" points="403.5,-367.2 403.5,-389.2 525.5,-389.2 525.5,-367.2 403.5,-367.2"/>
<text text-anchor="start" x="406.4156" y="-374.9" font-family="Helvetica,sans-Serif" font-size="11.00" fill="#000000">integer[2000000000,10]</text>
<polygon fill="#ffffff" stroke="transparent" points="220.5,-345.2 220.5,-367.2 403.5,-367.2 403.5,-345.2 220.5,-345.2"/>
<polygon fill="none" stroke="#000000" points="220.5,-345.2 220.5,-367.2 403.5,-367.2 403.5,-345.2 220.5,-345.2"/>
<text text-anchor="start" x="240.5" y="-352.3" font-family="Helvetica,sans-Serif" font-size="11.00" fill="#000000">id_global</text>
<polygon fill="none" stroke="#000000" points="403.5,-345.2 403.5,-367.2 525.5,-367.2 525.5,-345.2 403.5,-345.2"/>
<text text-anchor="start" x="406.5" y="-352.9" font-family="Helvetica,sans-Serif" font-size="11.00" fill="#000000">[2000000000,10]</text>
<polygon fill="none" stroke="#000000" points="220.5,-323.2 220.5,-345.2 403.5,-345.2 403.5,-323.2 220.5,-323.2"/>
<text text-anchor="start" x="240.5" y="-330.3" font-family="Helvetica,sans-Serif" font-size="11.00" fill="#000000">additionalInfoSet</text>
<polygon fill="none" stroke="#000000" points="403.5,-323.2 403.5,-345.2 525.5,-345.2 525.5,-323.2 403.5,-323.2"/>
<text text-anchor="start" x="406.4156" y="-330.9" font-family="Helvetica,sans-Serif" font-size="11.00" fill="#000000">integer[2000000000,10]</text>
<polygon fill="none" stroke="#000000" points="220.5,-301.2 220.5,-323.2 403.5,-323.2 403.5,-301.2 220.5,-301.2"/>
<text text-anchor="start" x="240.5" y="-308.3" font-family="Helvetica,sans-Serif" font-size="11.00" fill="#000000">embeddedXmp</text>
<polygon fill="none" stroke="#000000" points="403.5,-301.2 403.5,-323.2 525.5,-323.2 525.5,-301.2 403.5,-301.2"/>
<text text-anchor="start" x="406.4156" y="-308.9" font-family="Helvetica,sans-Serif" font-size="11.00" fill="#000000">integer[2000000000,10]</text>
<polygon fill="#ffffff" stroke="transparent" points="220.5,-279.2 220.5,-301.2 403.5,-301.2 403.5,-279.2 220.5,-279.2"/>
<polygon fill="none" stroke="#000000" points="220.5,-279.2 220.5,-301.2 403.5,-301.2 403.5,-279.2 220.5,-279.2"/>
<text text-anchor="start" x="240.5" y="-286.3" font-family="Helvetica,sans-Serif" font-size="11.00" fill="#000000">externalXmpIsDirty</text>
<polygon fill="none" stroke="#000000" points="403.5,-279.2 403.5,-301.2 525.5,-301.2 525.5,-279.2 403.5,-279.2"/>
<text text-anchor="start" x="406.4156" y="-286.9" font-family="Helvetica,sans-Serif" font-size="11.00" fill="#000000">integer[2000000000,10]</text>
<polygon fill="#ffffff" stroke="transparent" points="220.5,-257.2 220.5,-279.2 403.5,-279.2 403.5,-257.2 220.5,-257.2"/>
<polygon fill="none" stroke="#000000" points="220.5,-257.2 220.5,-279.2 403.5,-279.2 403.5,-257.2 220.5,-257.2"/>
<image xlink:href="../../images/foreignKeys.png" width="11px" height="12px" preserveAspectRatio="xMinYMin meet" x="225.5" y="-274.2"/>
<text text-anchor="start" x="240.5" y="-264.3" font-family="Helvetica,sans-Serif" font-size="11.00" fill="#000000">image</text>
<polygon fill="none" stroke="#000000" points="403.5,-257.2 403.5,-279.2 525.5,-279.2 525.5,-257.2 403.5,-257.2"/>
<text text-anchor="start" x="406.4156" y="-264.9" font-family="Helvetica,sans-Serif" font-size="11.00" fill="#000000">integer[2000000000,10]</text>
<polygon fill="none" stroke="#000000" points="220.5,-235.2 220.5,-257.2 403.5,-257.2 403.5,-235.2 220.5,-235.2"/>
<text text-anchor="start" x="240.5" y="-242.3" font-family="Helvetica,sans-Serif" font-size="11.00" fill="#000000">incrementalWhiteBalance</text>
<polygon fill="none" stroke="#000000" points="403.5,-235.2 403.5,-257.2 525.5,-257.2 525.5,-235.2 403.5,-235.2"/>
<text text-anchor="start" x="406.4156" y="-242.9" font-family="Helvetica,sans-Serif" font-size="11.00" fill="#000000">integer[2000000000,10]</text>
<polygon fill="none" stroke="#000000" points="220.5,-213.2 220.5,-235.2 403.5,-235.2 403.5,-213.2 220.5,-213.2"/>
<text text-anchor="start" x="240.5" y="-220.3" font-family="Helvetica,sans-Serif" font-size="11.00" fill="#000000">internalXmpDigest</text>
<polygon fill="none" stroke="#000000" points="403.5,-213.2 403.5,-235.2 525.5,-235.2 525.5,-213.2 403.5,-213.2"/>
<text text-anchor="start" x="406.5" y="-220.9" font-family="Helvetica,sans-Serif" font-size="11.00" fill="#000000">[2000000000,10]</text>
<polygon fill="none" stroke="#000000" points="220.5,-191.2 220.5,-213.2 403.5,-213.2 403.5,-191.2 220.5,-191.2"/>
<text text-anchor="start" x="240.5" y="-198.3" font-family="Helvetica,sans-Serif" font-size="11.00" fill="#000000">isRawFile</text>
<polygon fill="none" stroke="#000000" points="403.5,-191.2 403.5,-213.2 525.5,-213.2 525.5,-191.2 403.5,-191.2"/>
<text text-anchor="start" x="406.4156" y="-198.9" font-family="Helvetica,sans-Serif" font-size="11.00" fill="#000000">integer[2000000000,10]</text>
<polygon fill="none" stroke="#000000" points="220.5,-169.2 220.5,-191.2 403.5,-191.2 403.5,-169.2 220.5,-169.2"/>
<text text-anchor="start" x="240.5" y="-176.3" font-family="Helvetica,sans-Serif" font-size="11.00" fill="#000000">lastSynchronizedHash</text>
<polygon fill="none" stroke="#000000" points="403.5,-169.2 403.5,-191.2 525.5,-191.2 525.5,-169.2 403.5,-169.2"/>
<text text-anchor="start" x="406.5" y="-176.9" font-family="Helvetica,sans-Serif" font-size="11.00" fill="#000000">[2000000000,10]</text>
<polygon fill="none" stroke="#000000" points="220.5,-147.2 220.5,-169.2 403.5,-169.2 403.5,-147.2 220.5,-147.2"/>
<text text-anchor="start" x="240.5" y="-154.3" font-family="Helvetica,sans-Serif" font-size="11.00" fill="#000000">lastSynchronizedTimestamp</text>
<polygon fill="none" stroke="#000000" points="403.5,-147.2 403.5,-169.2 525.5,-169.2 525.5,-147.2 403.5,-147.2"/>
<text text-anchor="start" x="406.5" y="-154.9" font-family="Helvetica,sans-Serif" font-size="11.00" fill="#000000">[2000000000,10]</text>
<polygon fill="none" stroke="#000000" points="220.5,-125.2 220.5,-147.2 403.5,-147.2 403.5,-125.2 220.5,-125.2"/>
<text text-anchor="start" x="240.5" y="-132.3" font-family="Helvetica,sans-Serif" font-size="11.00" fill="#000000">metadataPresetID</text>
<polygon fill="none" stroke="#000000" points="403.5,-125.2 403.5,-147.2 525.5,-147.2 525.5,-125.2 403.5,-125.2"/>
<text text-anchor="start" x="406.5" y="-132.9" font-family="Helvetica,sans-Serif" font-size="11.00" fill="#000000">[2000000000,10]</text>
<polygon fill="none" stroke="#000000" points="220.5,-103.2 220.5,-125.2 403.5,-125.2 403.5,-103.2 220.5,-103.2"/>
<text text-anchor="start" x="240.5" y="-110.3" font-family="Helvetica,sans-Serif" font-size="11.00" fill="#000000">metadataVersion</text>
<polygon fill="none" stroke="#000000" points="403.5,-103.2 403.5,-125.2 525.5,-125.2 525.5,-103.2 403.5,-103.2"/>
<text text-anchor="start" x="406.5" y="-110.9" font-family="Helvetica,sans-Serif" font-size="11.00" fill="#000000">[2000000000,10]</text>
<polygon fill="none" stroke="#000000" points="220.5,-81.2 220.5,-103.2 403.5,-103.2 403.5,-81.2 220.5,-81.2"/>
<text text-anchor="start" x="240.5" y="-88.3" font-family="Helvetica,sans-Serif" font-size="11.00" fill="#000000">monochrome</text>
<polygon fill="none" stroke="#000000" points="403.5,-81.2 403.5,-103.2 525.5,-103.2 525.5,-81.2 403.5,-81.2"/>
<text text-anchor="start" x="406.4156" y="-88.9" font-family="Helvetica,sans-Serif" font-size="11.00" fill="#000000">integer[2000000000,10]</text>
<polygon fill="none" stroke="#000000" points="220.5,-59.2 220.5,-81.2 403.5,-81.2 403.5,-59.2 220.5,-59.2"/>
<text text-anchor="start" x="240.5" y="-66.3" font-family="Helvetica,sans-Serif" font-size="11.00" fill="#000000">xmp</text>
<polygon fill="none" stroke="#000000" points="403.5,-59.2 403.5,-81.2 525.5,-81.2 525.5,-59.2 403.5,-59.2"/>
<text text-anchor="start" x="406.5" y="-66.9" font-family="Helvetica,sans-Serif" font-size="11.00" fill="#000000">[2000000000,10]</text>
<polygon fill="#ffffff" stroke="transparent" points="220.5,-40.2 220.5,-59.2 316.5,-59.2 316.5,-40.2 220.5,-40.2"/>
<polygon fill="none" stroke="#000000" points="220.5,-40.2 220.5,-59.2 316.5,-59.2 316.5,-40.2 220.5,-40.2"/>
<text text-anchor="start" x="223.5" y="-46.3" font-family="Helvetica,sans-Serif" font-size="11.00" fill="#000000">&lt; 1</text>
<polygon fill="#ffffff" stroke="transparent" points="316.5,-40.2 316.5,-59.2 403.5,-59.2 403.5,-40.2 316.5,-40.2"/>
<polygon fill="none" stroke="#000000" points="316.5,-40.2 316.5,-59.2 403.5,-59.2 403.5,-40.2 316.5,-40.2"/>
<text text-anchor="start" x="394.3862" y="-46.3" font-family="Helvetica,sans-Serif" font-size="11.00" fill="#000000"> &#160;</text>
<polygon fill="#ffffff" stroke="transparent" points="403.5,-40.2 403.5,-59.2 525.5,-59.2 525.5,-40.2 403.5,-40.2"/>
<polygon fill="none" stroke="#000000" points="403.5,-40.2 403.5,-59.2 525.5,-59.2 525.5,-40.2 403.5,-40.2"/>
<text text-anchor="start" x="506.9053" y="-46.3" font-family="Helvetica,sans-Serif" font-size="11.00" fill="#000000">0 &gt;</text>
<polygon fill="none" stroke="#000000" stroke-width="2" points="219,-39.2 219,-413.2 526,-413.2 526,-39.2 219,-39.2"/>
</a>
</g>
</g>
<!-- Adobe_images -->
<g id="node2" class="node">
<title>Adobe_images</title>
<g id="a_node2"><a xlink:href="../../tables/Adobe_images.html" xlink:title="Adobe_images" target="_top">
<polygon fill="#ffffff" stroke="transparent" points="8,-87.7 8,-302.7 169,-302.7 169,-87.7 8,-87.7"/>
<polygon fill="#f5f5f5" stroke="transparent" points="8.5,-279.2 8.5,-302.2 169.5,-302.2 169.5,-279.2 8.5,-279.2"/>
<polygon fill="none" stroke="#000000" points="8.5,-279.2 8.5,-302.2 169.5,-302.2 169.5,-279.2 8.5,-279.2"/>
<text text-anchor="start" x="13.5" y="-287.8" font-family="Helvetica,sans-Serif" font-weight="bold" font-size="11.00" fill="#000000">Adobe_images</text>
<text text-anchor="start" x="134.5437" y="-287.3" font-family="Helvetica,sans-Serif" font-size="11.00" fill="#000000">[table]</text>
<polygon fill="none" stroke="#000000" points="8.5,-257.2 8.5,-279.2 169.5,-279.2 169.5,-257.2 8.5,-257.2"/>
<image xlink:href="../../images/primaryKeys.png" width="11px" height="12px" preserveAspectRatio="xMinYMin meet" x="13.5" y="-274.2"/>
<text text-anchor="start" x="28.5" y="-264.3" font-family="Helvetica,sans-Serif" font-size="11.00" fill="#000000">id_local</text>
<polygon fill="#ffffff" stroke="transparent" points="8.5,-235.2 8.5,-257.2 169.5,-257.2 169.5,-235.2 8.5,-235.2"/>
<polygon fill="none" stroke="#000000" points="8.5,-235.2 8.5,-257.2 169.5,-257.2 169.5,-235.2 8.5,-235.2"/>
<text text-anchor="start" x="28.5" y="-242.3" font-family="Helvetica,sans-Serif" font-size="11.00" fill="#000000">id_global</text>
<polygon fill="#ffffff" stroke="transparent" points="8.5,-213.2 8.5,-235.2 169.5,-235.2 169.5,-213.2 8.5,-213.2"/>
<polygon fill="none" stroke="#000000" points="8.5,-213.2 8.5,-235.2 169.5,-235.2 169.5,-213.2 8.5,-213.2"/>
<text text-anchor="start" x="28.5" y="-220.3" font-family="Helvetica,sans-Serif" font-size="11.00" fill="#000000">captureTime</text>
<polygon fill="#ffffff" stroke="transparent" points="8.5,-191.2 8.5,-213.2 169.5,-213.2 169.5,-191.2 8.5,-191.2"/>
<polygon fill="none" stroke="#000000" points="8.5,-191.2 8.5,-213.2 169.5,-213.2 169.5,-191.2 8.5,-191.2"/>
<image xlink:href="../../images/foreignKeys.png" width="11px" height="12px" preserveAspectRatio="xMinYMin meet" x="13.5" y="-208.2"/>
<text text-anchor="start" x="28.5" y="-198.3" font-family="Helvetica,sans-Serif" font-size="11.00" fill="#000000">masterImage</text>
<polygon fill="#ffffff" stroke="transparent" points="8.5,-169.2 8.5,-191.2 169.5,-191.2 169.5,-169.2 8.5,-169.2"/>
<polygon fill="none" stroke="#000000" points="8.5,-169.2 8.5,-191.2 169.5,-191.2 169.5,-169.2 8.5,-169.2"/>
<text text-anchor="start" x="28.5" y="-176.3" font-family="Helvetica,sans-Serif" font-size="11.00" fill="#000000">originalRootEntity</text>
<polygon fill="#ffffff" stroke="transparent" points="8.5,-147.2 8.5,-169.2 169.5,-169.2 169.5,-147.2 8.5,-147.2"/>
<polygon fill="none" stroke="#000000" points="8.5,-147.2 8.5,-169.2 169.5,-169.2 169.5,-147.2 8.5,-147.2"/>
<text text-anchor="start" x="28.5" y="-154.3" font-family="Helvetica,sans-Serif" font-size="11.00" fill="#000000">rating</text>
<polygon fill="#ffffff" stroke="transparent" points="8.5,-125.2 8.5,-147.2 169.5,-147.2 169.5,-125.2 8.5,-125.2"/>
<polygon fill="none" stroke="#000000" points="8.5,-125.2 8.5,-147.2 169.5,-147.2 169.5,-125.2 8.5,-125.2"/>
<image xlink:href="../../images/foreignKeys.png" width="11px" height="12px" preserveAspectRatio="xMinYMin meet" x="13.5" y="-142.2"/>
<text text-anchor="start" x="28.5" y="-132.3" font-family="Helvetica,sans-Serif" font-size="11.00" fill="#000000">rootFile</text>
<polygon fill="none" stroke="#000000" points="8.5,-106.2 8.5,-125.2 169.5,-125.2 169.5,-106.2 8.5,-106.2"/>
<text text-anchor="start" x="11.5" y="-112.3" font-family="Helvetica,sans-Serif" font-size="11.00" fill="#000000">...</text>
<polygon fill="#ffffff" stroke="transparent" points="8.5,-87.2 8.5,-106.2 79.5,-106.2 79.5,-87.2 8.5,-87.2"/>
<polygon fill="none" stroke="#000000" points="8.5,-87.2 8.5,-106.2 79.5,-106.2 79.5,-87.2 8.5,-87.2"/>
<text text-anchor="start" x="11.5" y="-93.3" font-family="Helvetica,sans-Serif" font-size="11.00" fill="#000000">&lt; 2</text>
<polygon fill="#ffffff" stroke="transparent" points="79.5,-87.2 79.5,-106.2 116.5,-106.2 116.5,-87.2 79.5,-87.2"/>
<polygon fill="none" stroke="#000000" points="79.5,-87.2 79.5,-106.2 116.5,-106.2 116.5,-87.2 79.5,-87.2"/>
<text text-anchor="start" x="107.3862" y="-93.3" font-family="Helvetica,sans-Serif" font-size="11.00" fill="#000000"> &#160;</text>
<polygon fill="#ffffff" stroke="transparent" points="116.5,-87.2 116.5,-106.2 169.5,-106.2 169.5,-87.2 116.5,-87.2"/>
<polygon fill="none" stroke="#000000" points="116.5,-87.2 116.5,-106.2 169.5,-106.2 169.5,-87.2 116.5,-87.2"/>
<text text-anchor="start" x="144.7904" y="-93.3" font-family="Helvetica,sans-Serif" font-size="11.00" fill="#000000">31 &gt;</text>
</a>
</g>
</g>
<!-- Adobe_AdditionalMetadata&#45;&gt;Adobe_images -->
<g id="edge1" class="edge">
<title>Adobe_AdditionalMetadata:w&#45;&gt;Adobe_images:e</title>
<path fill="none" stroke="#000000" d="M205.776,-268.2C193.7815,-268.2 186.3229,-268.2 169.5,-268.2"/>
<polygon fill="#000000" stroke="#000000" points="212.5,-268.2001 220.5,-271.8 216.5,-268.2 220.5,-268.2 220.5,-268.2 220.5,-268.2 216.5,-268.2 220.5,-264.6 212.5,-268.2001 212.5,-268.2001"/>
<ellipse fill="none" stroke="#000000" cx="209.3" cy="-268.2001" rx="3.2" ry="3.2"/>
</g>
</g>
</svg>
