<?xml version="1.0" encoding="UTF-8" standalone="no"?>
<!DOCTYPE svg PUBLIC "-//W3C//DTD SVG 1.1//EN"
 "http://www.w3.org/Graphics/SVG/1.1/DTD/svg11.dtd">
<!-- Generated by graphviz version 2.40.1 (20161225.0304)
 -->
<!-- Title: oneDegreeRelationshipsDiagram Pages: 1 -->
<svg width="519pt" height="311pt"
 viewBox="0.00 0.00 519.00 310.70" xmlns="http://www.w3.org/2000/svg" xmlns:xlink="http://www.w3.org/1999/xlink">
<g id="graph0" class="graph" transform="scale(1 1) rotate(0) translate(4 306.7)">
<title>oneDegreeRelationshipsDiagram</title>
<polygon fill="#ffffff" stroke="transparent" points="-4,4 -4,-306.7 515,-306.7 515,4 -4,4"/>
<text text-anchor="middle" x="72.4936" y="-7.3" font-family="Helvetica,sans-Serif" font-size="11.00" fill="#000000">Generated by SchemaSpy</text>
<!-- Adobe_imageProperties -->
<g id="node1" class="node">
<title>Adobe_imageProperties</title>
<g id="a_node1"><a xlink:href="../../tables/Adobe_imageProperties.html" xlink:title="Adobe_imageProperties" target="_top">
<polygon fill="#ffffff" stroke="transparent" points="218,-164.7 218,-298.7 503,-298.7 503,-164.7 218,-164.7"/>
<polygon fill="#f5f5f5" stroke="transparent" points="220.5,-273.7 220.5,-296.7 501.5,-296.7 501.5,-273.7 220.5,-273.7"/>
<polygon fill="none" stroke="#000000" points="220.5,-273.7 220.5,-296.7 501.5,-296.7 501.5,-273.7 220.5,-273.7"/>
<text text-anchor="start" x="225.5" y="-282.3" font-family="Helvetica,sans-Serif" font-weight="bold" font-size="11.00" fill="#000000">Adobe_imageProperties</text>
<text text-anchor="start" x="466.5437" y="-281.8" font-family="Helvetica,sans-Serif" font-size="11.00" fill="#000000">[table]</text>
<polygon fill="none" stroke="#000000" points="220.5,-251.7 220.5,-273.7 379.5,-273.7 379.5,-251.7 220.5,-251.7"/>
<image xlink:href="../../images/primaryKeys.png" width="11px" height="12px" preserveAspectRatio="xMinYMin meet" x="225.5" y="-268.7"/>
<text text-anchor="start" x="240.5" y="-258.8" font-family="Helvetica,sans-Serif" font-size="11.00" fill="#000000">id_local</text>
<polygon fill="none" stroke="#000000" points="379.5,-251.7 379.5,-273.7 501.5,-273.7 501.5,-251.7 379.5,-251.7"/>
<text text-anchor="start" x="382.4156" y="-259.4" font-family="Helvetica,sans-Serif" font-size="11.00" fill="#000000">integer[2000000000,10]</text>
<polygon fill="#ffffff" stroke="transparent" points="220.5,-229.7 220.5,-251.7 379.5,-251.7 379.5,-229.7 220.5,-229.7"/>
<polygon fill="none" stroke="#000000" points="220.5,-229.7 220.5,-251.7 379.5,-251.7 379.5,-229.7 220.5,-229.7"/>
<text text-anchor="start" x="240.5" y="-236.8" font-family="Helvetica,sans-Serif" font-size="11.00" fill="#000000">id_global</text>
<polygon fill="none" stroke="#000000" points="379.5,-229.7 379.5,-251.7 501.5,-251.7 501.5,-229.7 379.5,-229.7"/>
<text text-anchor="start" x="382.5" y="-237.4" font-family="Helvetica,sans-Serif" font-size="11.00" fill="#000000">[2000000000,10]</text>
<polygon fill="#ffffff" stroke="transparent" points="220.5,-207.7 220.5,-229.7 379.5,-229.7 379.5,-207.7 220.5,-207.7"/>
<polygon fill="none" stroke="#000000" points="220.5,-207.7 220.5,-229.7 379.5,-229.7 379.5,-207.7 220.5,-207.7"/>
<image xlink:href="../../images/foreignKeys.png" width="11px" height="12px" preserveAspectRatio="xMinYMin meet" x="225.5" y="-224.7"/>
<text text-anchor="start" x="240.5" y="-214.8" font-family="Helvetica,sans-Serif" font-size="11.00" fill="#000000">image</text>
<polygon fill="none" stroke="#000000" points="379.5,-207.7 379.5,-229.7 501.5,-229.7 501.5,-207.7 379.5,-207.7"/>
<text text-anchor="start" x="382.4156" y="-215.4" font-family="Helvetica,sans-Serif" font-size="11.00" fill="#000000">integer[2000000000,10]</text>
<polygon fill="none" stroke="#000000" points="220.5,-185.7 220.5,-207.7 379.5,-207.7 379.5,-185.7 220.5,-185.7"/>
<text text-anchor="start" x="240.5" y="-192.8" font-family="Helvetica,sans-Serif" font-size="11.00" fill="#000000">propertiesString</text>
<polygon fill="none" stroke="#000000" points="379.5,-185.7 379.5,-207.7 501.5,-207.7 501.5,-185.7 379.5,-185.7"/>
<text text-anchor="start" x="382.5" y="-193.4" font-family="Helvetica,sans-Serif" font-size="11.00" fill="#000000">[2000000000,10]</text>
<polygon fill="#ffffff" stroke="transparent" points="220.5,-166.7 220.5,-185.7 304.5,-185.7 304.5,-166.7 220.5,-166.7"/>
<polygon fill="none" stroke="#000000" points="220.5,-166.7 220.5,-185.7 304.5,-185.7 304.5,-166.7 220.5,-166.7"/>
<text text-anchor="start" x="223.5" y="-172.8" font-family="Helvetica,sans-Serif" font-size="11.00" fill="#000000">&lt; 1</text>
<polygon fill="#ffffff" stroke="transparent" points="304.5,-166.7 304.5,-185.7 379.5,-185.7 379.5,-166.7 304.5,-166.7"/>
<polygon fill="none" stroke="#000000" points="304.5,-166.7 304.5,-185.7 379.5,-185.7 379.5,-166.7 304.5,-166.7"/>
<text text-anchor="start" x="370.3862" y="-172.8" font-family="Helvetica,sans-Serif" font-size="11.00" fill="#000000"> &#160;</text>
<polygon fill="#ffffff" stroke="transparent" points="379.5,-166.7 379.5,-185.7 501.5,-185.7 501.5,-166.7 379.5,-166.7"/>
<polygon fill="none" stroke="#000000" points="379.5,-166.7 379.5,-185.7 501.5,-185.7 501.5,-166.7 379.5,-166.7"/>
<text text-anchor="start" x="482.9053" y="-172.8" font-family="Helvetica,sans-Serif" font-size="11.00" fill="#000000">0 &gt;</text>
<polygon fill="none" stroke="#000000" stroke-width="2" points="219,-165.7 219,-297.7 502,-297.7 502,-165.7 219,-165.7"/>
</a>
</g>
</g>
<!-- Adobe_images -->
<g id="node2" class="node">
<title>Adobe_images</title>
<g id="a_node2"><a xlink:href="../../tables/Adobe_images.html" xlink:title="Adobe_images" target="_top">
<polygon fill="#ffffff" stroke="transparent" points="8,-38.2 8,-253.2 169,-253.2 169,-38.2 8,-38.2"/>
<polygon fill="#f5f5f5" stroke="transparent" points="8.5,-229.7 8.5,-252.7 169.5,-252.7 169.5,-229.7 8.5,-229.7"/>
<polygon fill="none" stroke="#000000" points="8.5,-229.7 8.5,-252.7 169.5,-252.7 169.5,-229.7 8.5,-229.7"/>
<text text-anchor="start" x="13.5" y="-238.3" font-family="Helvetica,sans-Serif" font-weight="bold" font-size="11.00" fill="#000000">Adobe_images</text>
<text text-anchor="start" x="134.5437" y="-237.8" font-family="Helvetica,sans-Serif" font-size="11.00" fill="#000000">[table]</text>
<polygon fill="none" stroke="#000000" points="8.5,-207.7 8.5,-229.7 169.5,-229.7 169.5,-207.7 8.5,-207.7"/>
<image xlink:href="../../images/primaryKeys.png" width="11px" height="12px" preserveAspectRatio="xMinYMin meet" x="13.5" y="-224.7"/>
<text text-anchor="start" x="28.5" y="-214.8" font-family="Helvetica,sans-Serif" font-size="11.00" fill="#000000">id_local</text>
<polygon fill="#ffffff" stroke="transparent" points="8.5,-185.7 8.5,-207.7 169.5,-207.7 169.5,-185.7 8.5,-185.7"/>
<polygon fill="none" stroke="#000000" points="8.5,-185.7 8.5,-207.7 169.5,-207.7 169.5,-185.7 8.5,-185.7"/>
<text text-anchor="start" x="28.5" y="-192.8" font-family="Helvetica,sans-Serif" font-size="11.00" fill="#000000">id_global</text>
<polygon fill="#ffffff" stroke="transparent" points="8.5,-163.7 8.5,-185.7 169.5,-185.7 169.5,-163.7 8.5,-163.7"/>
<polygon fill="none" stroke="#000000" points="8.5,-163.7 8.5,-185.7 169.5,-185.7 169.5,-163.7 8.5,-163.7"/>
<text text-anchor="start" x="28.5" y="-170.8" font-family="Helvetica,sans-Serif" font-size="11.00" fill="#000000">captureTime</text>
<polygon fill="#ffffff" stroke="transparent" points="8.5,-141.7 8.5,-163.7 169.5,-163.7 169.5,-141.7 8.5,-141.7"/>
<polygon fill="none" stroke="#000000" points="8.5,-141.7 8.5,-163.7 169.5,-163.7 169.5,-141.7 8.5,-141.7"/>
<image xlink:href="../../images/foreignKeys.png" width="11px" height="12px" preserveAspectRatio="xMinYMin meet" x="13.5" y="-158.7"/>
<text text-anchor="start" x="28.5" y="-148.8" font-family="Helvetica,sans-Serif" font-size="11.00" fill="#000000">masterImage</text>
<polygon fill="#ffffff" stroke="transparent" points="8.5,-119.7 8.5,-141.7 169.5,-141.7 169.5,-119.7 8.5,-119.7"/>
<polygon fill="none" stroke="#000000" points="8.5,-119.7 8.5,-141.7 169.5,-141.7 169.5,-119.7 8.5,-119.7"/>
<text text-anchor="start" x="28.5" y="-126.8" font-family="Helvetica,sans-Serif" font-size="11.00" fill="#000000">originalRootEntity</text>
<polygon fill="#ffffff" stroke="transparent" points="8.5,-97.7 8.5,-119.7 169.5,-119.7 169.5,-97.7 8.5,-97.7"/>
<polygon fill="none" stroke="#000000" points="8.5,-97.7 8.5,-119.7 169.5,-119.7 169.5,-97.7 8.5,-97.7"/>
<text text-anchor="start" x="28.5" y="-104.8" font-family="Helvetica,sans-Serif" font-size="11.00" fill="#000000">rating</text>
<polygon fill="#ffffff" stroke="transparent" points="8.5,-75.7 8.5,-97.7 169.5,-97.7 169.5,-75.7 8.5,-75.7"/>
<polygon fill="none" stroke="#000000" points="8.5,-75.7 8.5,-97.7 169.5,-97.7 169.5,-75.7 8.5,-75.7"/>
<image xlink:href="../../images/foreignKeys.png" width="11px" height="12px" preserveAspectRatio="xMinYMin meet" x="13.5" y="-92.7"/>
<text text-anchor="start" x="28.5" y="-82.8" font-family="Helvetica,sans-Serif" font-size="11.00" fill="#000000">rootFile</text>
<polygon fill="none" stroke="#000000" points="8.5,-56.7 8.5,-75.7 169.5,-75.7 169.5,-56.7 8.5,-56.7"/>
<text text-anchor="start" x="11.5" y="-62.8" font-family="Helvetica,sans-Serif" font-size="11.00" fill="#000000">...</text>
<polygon fill="#ffffff" stroke="transparent" points="8.5,-37.7 8.5,-56.7 79.5,-56.7 79.5,-37.7 8.5,-37.7"/>
<polygon fill="none" stroke="#000000" points="8.5,-37.7 8.5,-56.7 79.5,-56.7 79.5,-37.7 8.5,-37.7"/>
<text text-anchor="start" x="11.5" y="-43.8" font-family="Helvetica,sans-Serif" font-size="11.00" fill="#000000">&lt; 2</text>
<polygon fill="#ffffff" stroke="transparent" points="79.5,-37.7 79.5,-56.7 116.5,-56.7 116.5,-37.7 79.5,-37.7"/>
<polygon fill="none" stroke="#000000" points="79.5,-37.7 79.5,-56.7 116.5,-56.7 116.5,-37.7 79.5,-37.7"/>
<text text-anchor="start" x="107.3862" y="-43.8" font-family="Helvetica,sans-Serif" font-size="11.00" fill="#000000"> &#160;</text>
<polygon fill="#ffffff" stroke="transparent" points="116.5,-37.7 116.5,-56.7 169.5,-56.7 169.5,-37.7 116.5,-37.7"/>
<polygon fill="none" stroke="#000000" points="116.5,-37.7 116.5,-56.7 169.5,-56.7 169.5,-37.7 116.5,-37.7"/>
<text text-anchor="start" x="144.7904" y="-43.8" font-family="Helvetica,sans-Serif" font-size="11.00" fill="#000000">31 &gt;</text>
</a>
</g>
</g>
<!-- Adobe_imageProperties&#45;&gt;Adobe_images -->
<g id="edge1" class="edge">
<title>Adobe_imageProperties:w&#45;&gt;Adobe_images:e</title>
<path fill="none" stroke="#000000" d="M205.776,-218.7C193.7815,-218.7 186.3229,-218.7 169.5,-218.7"/>
<polygon fill="#000000" stroke="#000000" points="212.5,-218.7001 220.5,-222.3 216.5,-218.7 220.5,-218.7 220.5,-218.7 220.5,-218.7 216.5,-218.7 220.5,-215.1 212.5,-218.7001 212.5,-218.7001"/>
<ellipse fill="none" stroke="#000000" cx="209.3" cy="-218.7001" rx="3.2" ry="3.2"/>
</g>
</g>
</svg>
