<?xml version="1.0" encoding="UTF-8" standalone="no"?>
<!DOCTYPE svg PUBLIC "-//W3C//DTD SVG 1.1//EN"
 "http://www.w3.org/Graphics/SVG/1.1/DTD/svg11.dtd">
<!-- Generated by graphviz version 2.40.1 (20161225.0304)
 -->
<!-- Title: oneDegreeRelationshipsDiagram Pages: 1 -->
<svg width="475pt" height="201pt"
 viewBox="0.00 0.00 475.00 200.70" xmlns="http://www.w3.org/2000/svg" xmlns:xlink="http://www.w3.org/1999/xlink">
<g id="graph0" class="graph" transform="scale(1 1) rotate(0) translate(4 196.7)">
<title>oneDegreeRelationshipsDiagram</title>
<polygon fill="#ffffff" stroke="transparent" points="-4,4 -4,-196.7 471,-196.7 471,4 -4,4"/>
<text text-anchor="middle" x="72.4936" y="-7.3" font-family="Helvetica,sans-Serif" font-size="11.00" fill="#000000">Generated by SchemaSpy</text>
<!-- Adobe_faceProperties -->
<g id="node1" class="node">
<title>Adobe_faceProperties</title>
<g id="a_node1"><a xlink:href="../../tables/Adobe_faceProperties.html" xlink:title="Adobe_faceProperties" target="_top">
<polygon fill="#ffffff" stroke="transparent" points="185,-76.7 185,-188.7 459,-188.7 459,-76.7 185,-76.7"/>
<polygon fill="#f5f5f5" stroke="transparent" points="187,-163.7 187,-186.7 457,-186.7 457,-163.7 187,-163.7"/>
<polygon fill="none" stroke="#000000" points="187,-163.7 187,-186.7 457,-186.7 457,-163.7 187,-163.7"/>
<text text-anchor="start" x="192" y="-172.3" font-family="Helvetica,sans-Serif" font-weight="bold" font-size="11.00" fill="#000000">Adobe_faceProperties</text>
<text text-anchor="start" x="422.0437" y="-171.8" font-family="Helvetica,sans-Serif" font-size="11.00" fill="#000000">[table]</text>
<polygon fill="none" stroke="#000000" points="187,-141.7 187,-163.7 335,-163.7 335,-141.7 187,-141.7"/>
<image xlink:href="../../images/primaryKeys.png" width="11px" height="12px" preserveAspectRatio="xMinYMin meet" x="192" y="-158.7"/>
<text text-anchor="start" x="207" y="-148.8" font-family="Helvetica,sans-Serif" font-size="11.00" fill="#000000">id_local</text>
<polygon fill="none" stroke="#000000" points="335,-141.7 335,-163.7 457,-163.7 457,-141.7 335,-141.7"/>
<text text-anchor="start" x="337.9156" y="-149.4" font-family="Helvetica,sans-Serif" font-size="11.00" fill="#000000">integer[2000000000,10]</text>
<polygon fill="#ffffff" stroke="transparent" points="187,-119.7 187,-141.7 335,-141.7 335,-119.7 187,-119.7"/>
<polygon fill="none" stroke="#000000" points="187,-119.7 187,-141.7 335,-141.7 335,-119.7 187,-119.7"/>
<image xlink:href="../../images/foreignKeys.png" width="11px" height="12px" preserveAspectRatio="xMinYMin meet" x="192" y="-136.7"/>
<text text-anchor="start" x="207" y="-126.8" font-family="Helvetica,sans-Serif" font-size="11.00" fill="#000000">face</text>
<polygon fill="none" stroke="#000000" points="335,-119.7 335,-141.7 457,-141.7 457,-119.7 335,-119.7"/>
<text text-anchor="start" x="337.9156" y="-127.4" font-family="Helvetica,sans-Serif" font-size="11.00" fill="#000000">integer[2000000000,10]</text>
<polygon fill="none" stroke="#000000" points="187,-97.7 187,-119.7 335,-119.7 335,-97.7 187,-97.7"/>
<text text-anchor="start" x="207" y="-104.8" font-family="Helvetica,sans-Serif" font-size="11.00" fill="#000000">propertiesString</text>
<polygon fill="none" stroke="#000000" points="335,-97.7 335,-119.7 457,-119.7 457,-97.7 335,-97.7"/>
<text text-anchor="start" x="338" y="-105.4" font-family="Helvetica,sans-Serif" font-size="11.00" fill="#000000">[2000000000,10]</text>
<polygon fill="#ffffff" stroke="transparent" points="187,-78.7 187,-97.7 265,-97.7 265,-78.7 187,-78.7"/>
<polygon fill="none" stroke="#000000" points="187,-78.7 187,-97.7 265,-97.7 265,-78.7 187,-78.7"/>
<text text-anchor="start" x="190" y="-84.8" font-family="Helvetica,sans-Serif" font-size="11.00" fill="#000000">&lt; 1</text>
<polygon fill="#ffffff" stroke="transparent" points="265,-78.7 265,-97.7 335,-97.7 335,-78.7 265,-78.7"/>
<polygon fill="none" stroke="#000000" points="265,-78.7 265,-97.7 335,-97.7 335,-78.7 265,-78.7"/>
<text text-anchor="start" x="325.8862" y="-84.8" font-family="Helvetica,sans-Serif" font-size="11.00" fill="#000000"> &#160;</text>
<polygon fill="#ffffff" stroke="transparent" points="335,-78.7 335,-97.7 457,-97.7 457,-78.7 335,-78.7"/>
<polygon fill="none" stroke="#000000" points="335,-78.7 335,-97.7 457,-97.7 457,-78.7 335,-78.7"/>
<text text-anchor="start" x="438.4053" y="-84.8" font-family="Helvetica,sans-Serif" font-size="11.00" fill="#000000">0 &gt;</text>
<polygon fill="none" stroke="#000000" stroke-width="2" points="186,-77.7 186,-187.7 458,-187.7 458,-77.7 186,-77.7"/>
</a>
</g>
</g>
<!-- AgLibraryFace -->
<g id="node2" class="node">
<title>AgLibraryFace</title>
<g id="a_node2"><a xlink:href="../../tables/AgLibraryFace.html" xlink:title="AgLibraryFace" target="_top">
<polygon fill="#ffffff" stroke="transparent" points="8,-38.2 8,-165.2 136,-165.2 136,-38.2 8,-38.2"/>
<polygon fill="#f5f5f5" stroke="transparent" points="8,-141.7 8,-164.7 136,-164.7 136,-141.7 8,-141.7"/>
<polygon fill="none" stroke="#000000" points="8,-141.7 8,-164.7 136,-164.7 136,-141.7 8,-141.7"/>
<text text-anchor="start" x="13" y="-150.3" font-family="Helvetica,sans-Serif" font-weight="bold" font-size="11.00" fill="#000000">AgLibraryFace</text>
<text text-anchor="start" x="101.0437" y="-149.8" font-family="Helvetica,sans-Serif" font-size="11.00" fill="#000000">[table]</text>
<polygon fill="none" stroke="#000000" points="8,-119.7 8,-141.7 136,-141.7 136,-119.7 8,-119.7"/>
<image xlink:href="../../images/primaryKeys.png" width="11px" height="12px" preserveAspectRatio="xMinYMin meet" x="13" y="-136.7"/>
<text text-anchor="start" x="28" y="-126.8" font-family="Helvetica,sans-Serif" font-size="11.00" fill="#000000">id_local</text>
<polygon fill="#ffffff" stroke="transparent" points="8,-97.7 8,-119.7 136,-119.7 136,-97.7 8,-97.7"/>
<polygon fill="none" stroke="#000000" points="8,-97.7 8,-119.7 136,-119.7 136,-97.7 8,-97.7"/>
<text text-anchor="start" x="28" y="-104.8" font-family="Helvetica,sans-Serif" font-size="11.00" fill="#000000">cluster</text>
<polygon fill="#ffffff" stroke="transparent" points="8,-75.7 8,-97.7 136,-97.7 136,-75.7 8,-75.7"/>
<polygon fill="none" stroke="#000000" points="8,-75.7 8,-97.7 136,-97.7 136,-75.7 8,-75.7"/>
<image xlink:href="../../images/foreignKeys.png" width="11px" height="12px" preserveAspectRatio="xMinYMin meet" x="13" y="-92.7"/>
<text text-anchor="start" x="28" y="-82.8" font-family="Helvetica,sans-Serif" font-size="11.00" fill="#000000">image</text>
<polygon fill="none" stroke="#000000" points="8,-56.7 8,-75.7 136,-75.7 136,-56.7 8,-56.7"/>
<text text-anchor="start" x="11" y="-62.8" font-family="Helvetica,sans-Serif" font-size="11.00" fill="#000000">...</text>
<polygon fill="#ffffff" stroke="transparent" points="8,-37.7 8,-56.7 66,-56.7 66,-37.7 8,-37.7"/>
<polygon fill="none" stroke="#000000" points="8,-37.7 8,-56.7 66,-56.7 66,-37.7 8,-37.7"/>
<text text-anchor="start" x="11" y="-43.8" font-family="Helvetica,sans-Serif" font-size="11.00" fill="#000000">&lt; 1</text>
<polygon fill="#ffffff" stroke="transparent" points="66,-37.7 66,-56.7 96,-56.7 96,-37.7 66,-37.7"/>
<polygon fill="none" stroke="#000000" points="66,-37.7 66,-56.7 96,-56.7 96,-37.7 66,-37.7"/>
<text text-anchor="start" x="86.8862" y="-43.8" font-family="Helvetica,sans-Serif" font-size="11.00" fill="#000000"> &#160;</text>
<polygon fill="#ffffff" stroke="transparent" points="96,-37.7 96,-56.7 136,-56.7 136,-37.7 96,-37.7"/>
<polygon fill="none" stroke="#000000" points="96,-37.7 96,-56.7 136,-56.7 136,-37.7 96,-37.7"/>
<text text-anchor="start" x="117.4053" y="-43.8" font-family="Helvetica,sans-Serif" font-size="11.00" fill="#000000">3 &gt;</text>
</a>
</g>
</g>
<!-- Adobe_faceProperties&#45;&gt;AgLibraryFace -->
<g id="edge1" class="edge">
<title>Adobe_faceProperties:w&#45;&gt;AgLibraryFace:e</title>
<path fill="none" stroke="#000000" d="M172.276,-130.7C160.2815,-130.7 152.8229,-130.7 136,-130.7"/>
<polygon fill="#000000" stroke="#000000" points="179,-130.7001 187,-134.3 183,-130.7 187,-130.7 187,-130.7 187,-130.7 183,-130.7 187,-127.1 179,-130.7001 179,-130.7001"/>
<ellipse fill="none" stroke="#000000" cx="175.8" cy="-130.7001" rx="3.2" ry="3.2"/>
</g>
</g>
</svg>
