<?xml version="1.0" encoding="UTF-8" standalone="no"?>
<!DOCTYPE svg PUBLIC "-//W3C//DTD SVG 1.1//EN"
 "http://www.w3.org/Graphics/SVG/1.1/DTD/svg11.dtd">
<!-- Generated by graphviz version 2.40.1 (20161225.0304)
 -->
<!-- Title: oneDegreeRelationshipsDiagram Pages: 1 -->
<svg width="611pt" height="289pt"
 viewBox="0.00 0.00 611.00 288.70" xmlns="http://www.w3.org/2000/svg" xmlns:xlink="http://www.w3.org/1999/xlink">
<g id="graph0" class="graph" transform="scale(1 1) rotate(0) translate(4 284.7)">
<title>oneDegreeRelationshipsDiagram</title>
<polygon fill="#ffffff" stroke="transparent" points="-4,4 -4,-284.7 607,-284.7 607,4 -4,4"/>
<text text-anchor="middle" x="72.4936" y="-7.3" font-family="Helvetica,sans-Serif" font-size="11.00" fill="#000000">Generated by SchemaSpy</text>
<!-- Adobe_libraryImageFaceProcessHistory -->
<g id="node1" class="node">
<title>Adobe_libraryImageFaceProcessHistory</title>
<g id="a_node1"><a xlink:href="../../tables/Adobe_libraryImageFaceProcessHistory.html" xlink:title="Adobe_libraryImageFaceProcessHistory" target="_top">
<polygon fill="#ffffff" stroke="transparent" points="218,-142.7 218,-276.7 595,-276.7 595,-142.7 218,-142.7"/>
<polygon fill="#f5f5f5" stroke="transparent" points="220.5,-251.7 220.5,-274.7 593.5,-274.7 593.5,-251.7 220.5,-251.7"/>
<polygon fill="none" stroke="#000000" points="220.5,-251.7 220.5,-274.7 593.5,-274.7 593.5,-251.7 220.5,-251.7"/>
<text text-anchor="start" x="225.5" y="-260.3" font-family="Helvetica,sans-Serif" font-weight="bold" font-size="11.00" fill="#000000">Adobe_libraryImageFaceProcessHistory</text>
<text text-anchor="start" x="558.5437" y="-259.8" font-family="Helvetica,sans-Serif" font-size="11.00" fill="#000000">[table]</text>
<polygon fill="none" stroke="#000000" points="220.5,-229.7 220.5,-251.7 471.5,-251.7 471.5,-229.7 220.5,-229.7"/>
<image xlink:href="../../images/primaryKeys.png" width="11px" height="12px" preserveAspectRatio="xMinYMin meet" x="225.5" y="-246.7"/>
<text text-anchor="start" x="240.5" y="-236.8" font-family="Helvetica,sans-Serif" font-size="11.00" fill="#000000">id_local</text>
<polygon fill="none" stroke="#000000" points="471.5,-229.7 471.5,-251.7 593.5,-251.7 593.5,-229.7 471.5,-229.7"/>
<text text-anchor="start" x="474.4156" y="-237.4" font-family="Helvetica,sans-Serif" font-size="11.00" fill="#000000">integer[2000000000,10]</text>
<polygon fill="#ffffff" stroke="transparent" points="220.5,-207.7 220.5,-229.7 471.5,-229.7 471.5,-207.7 220.5,-207.7"/>
<polygon fill="none" stroke="#000000" points="220.5,-207.7 220.5,-229.7 471.5,-229.7 471.5,-207.7 220.5,-207.7"/>
<image xlink:href="../../images/foreignKeys.png" width="11px" height="12px" preserveAspectRatio="xMinYMin meet" x="225.5" y="-224.7"/>
<text text-anchor="start" x="240.5" y="-214.8" font-family="Helvetica,sans-Serif" font-size="11.00" fill="#000000">image</text>
<polygon fill="none" stroke="#000000" points="471.5,-207.7 471.5,-229.7 593.5,-229.7 593.5,-207.7 471.5,-207.7"/>
<text text-anchor="start" x="474.4156" y="-215.4" font-family="Helvetica,sans-Serif" font-size="11.00" fill="#000000">integer[2000000000,10]</text>
<polygon fill="none" stroke="#000000" points="220.5,-185.7 220.5,-207.7 471.5,-207.7 471.5,-185.7 220.5,-185.7"/>
<text text-anchor="start" x="240.5" y="-192.8" font-family="Helvetica,sans-Serif" font-size="11.00" fill="#000000">lastFaceDetector</text>
<polygon fill="none" stroke="#000000" points="471.5,-185.7 471.5,-207.7 593.5,-207.7 593.5,-185.7 471.5,-185.7"/>
<text text-anchor="start" x="474.5" y="-193.4" font-family="Helvetica,sans-Serif" font-size="11.00" fill="#000000">[2000000000,10]</text>
<polygon fill="none" stroke="#000000" points="220.5,-163.7 220.5,-185.7 471.5,-185.7 471.5,-163.7 220.5,-163.7"/>
<text text-anchor="start" x="240.5" y="-170.8" font-family="Helvetica,sans-Serif" font-size="11.00" fill="#000000">lastFaceRecognizer</text>
<polygon fill="none" stroke="#000000" points="471.5,-163.7 471.5,-185.7 593.5,-185.7 593.5,-163.7 471.5,-163.7"/>
<text text-anchor="start" x="474.5" y="-171.4" font-family="Helvetica,sans-Serif" font-size="11.00" fill="#000000">[2000000000,10]</text>
<polygon fill="#ffffff" stroke="transparent" points="220.5,-144.7 220.5,-163.7 350.5,-163.7 350.5,-144.7 220.5,-144.7"/>
<polygon fill="none" stroke="#000000" points="220.5,-144.7 220.5,-163.7 350.5,-163.7 350.5,-144.7 220.5,-144.7"/>
<text text-anchor="start" x="223.5" y="-150.8" font-family="Helvetica,sans-Serif" font-size="11.00" fill="#000000">&lt; 1</text>
<polygon fill="#ffffff" stroke="transparent" points="350.5,-144.7 350.5,-163.7 471.5,-163.7 471.5,-144.7 350.5,-144.7"/>
<polygon fill="none" stroke="#000000" points="350.5,-144.7 350.5,-163.7 471.5,-163.7 471.5,-144.7 350.5,-144.7"/>
<text text-anchor="start" x="462.3862" y="-150.8" font-family="Helvetica,sans-Serif" font-size="11.00" fill="#000000"> &#160;</text>
<polygon fill="#ffffff" stroke="transparent" points="471.5,-144.7 471.5,-163.7 593.5,-163.7 593.5,-144.7 471.5,-144.7"/>
<polygon fill="none" stroke="#000000" points="471.5,-144.7 471.5,-163.7 593.5,-163.7 593.5,-144.7 471.5,-144.7"/>
<text text-anchor="start" x="574.9053" y="-150.8" font-family="Helvetica,sans-Serif" font-size="11.00" fill="#000000">0 &gt;</text>
<polygon fill="none" stroke="#000000" stroke-width="2" points="219,-143.7 219,-275.7 594,-275.7 594,-143.7 219,-143.7"/>
</a>
</g>
</g>
<!-- Adobe_images -->
<g id="node2" class="node">
<title>Adobe_images</title>
<g id="a_node2"><a xlink:href="../../tables/Adobe_images.html" xlink:title="Adobe_images" target="_top">
<polygon fill="#ffffff" stroke="transparent" points="8,-38.2 8,-253.2 169,-253.2 169,-38.2 8,-38.2"/>
<polygon fill="#f5f5f5" stroke="transparent" points="8.5,-229.7 8.5,-252.7 169.5,-252.7 169.5,-229.7 8.5,-229.7"/>
<polygon fill="none" stroke="#000000" points="8.5,-229.7 8.5,-252.7 169.5,-252.7 169.5,-229.7 8.5,-229.7"/>
<text text-anchor="start" x="13.5" y="-238.3" font-family="Helvetica,sans-Serif" font-weight="bold" font-size="11.00" fill="#000000">Adobe_images</text>
<text text-anchor="start" x="134.5437" y="-237.8" font-family="Helvetica,sans-Serif" font-size="11.00" fill="#000000">[table]</text>
<polygon fill="none" stroke="#000000" points="8.5,-207.7 8.5,-229.7 169.5,-229.7 169.5,-207.7 8.5,-207.7"/>
<image xlink:href="../../images/primaryKeys.png" width="11px" height="12px" preserveAspectRatio="xMinYMin meet" x="13.5" y="-224.7"/>
<text text-anchor="start" x="28.5" y="-214.8" font-family="Helvetica,sans-Serif" font-size="11.00" fill="#000000">id_local</text>
<polygon fill="#ffffff" stroke="transparent" points="8.5,-185.7 8.5,-207.7 169.5,-207.7 169.5,-185.7 8.5,-185.7"/>
<polygon fill="none" stroke="#000000" points="8.5,-185.7 8.5,-207.7 169.5,-207.7 169.5,-185.7 8.5,-185.7"/>
<text text-anchor="start" x="28.5" y="-192.8" font-family="Helvetica,sans-Serif" font-size="11.00" fill="#000000">id_global</text>
<polygon fill="#ffffff" stroke="transparent" points="8.5,-163.7 8.5,-185.7 169.5,-185.7 169.5,-163.7 8.5,-163.7"/>
<polygon fill="none" stroke="#000000" points="8.5,-163.7 8.5,-185.7 169.5,-185.7 169.5,-163.7 8.5,-163.7"/>
<text text-anchor="start" x="28.5" y="-170.8" font-family="Helvetica,sans-Serif" font-size="11.00" fill="#000000">captureTime</text>
<polygon fill="#ffffff" stroke="transparent" points="8.5,-141.7 8.5,-163.7 169.5,-163.7 169.5,-141.7 8.5,-141.7"/>
<polygon fill="none" stroke="#000000" points="8.5,-141.7 8.5,-163.7 169.5,-163.7 169.5,-141.7 8.5,-141.7"/>
<image xlink:href="../../images/foreignKeys.png" width="11px" height="12px" preserveAspectRatio="xMinYMin meet" x="13.5" y="-158.7"/>
<text text-anchor="start" x="28.5" y="-148.8" font-family="Helvetica,sans-Serif" font-size="11.00" fill="#000000">masterImage</text>
<polygon fill="#ffffff" stroke="transparent" points="8.5,-119.7 8.5,-141.7 169.5,-141.7 169.5,-119.7 8.5,-119.7"/>
<polygon fill="none" stroke="#000000" points="8.5,-119.7 8.5,-141.7 169.5,-141.7 169.5,-119.7 8.5,-119.7"/>
<text text-anchor="start" x="28.5" y="-126.8" font-family="Helvetica,sans-Serif" font-size="11.00" fill="#000000">originalRootEntity</text>
<polygon fill="#ffffff" stroke="transparent" points="8.5,-97.7 8.5,-119.7 169.5,-119.7 169.5,-97.7 8.5,-97.7"/>
<polygon fill="none" stroke="#000000" points="8.5,-97.7 8.5,-119.7 169.5,-119.7 169.5,-97.7 8.5,-97.7"/>
<text text-anchor="start" x="28.5" y="-104.8" font-family="Helvetica,sans-Serif" font-size="11.00" fill="#000000">rating</text>
<polygon fill="#ffffff" stroke="transparent" points="8.5,-75.7 8.5,-97.7 169.5,-97.7 169.5,-75.7 8.5,-75.7"/>
<polygon fill="none" stroke="#000000" points="8.5,-75.7 8.5,-97.7 169.5,-97.7 169.5,-75.7 8.5,-75.7"/>
<image xlink:href="../../images/foreignKeys.png" width="11px" height="12px" preserveAspectRatio="xMinYMin meet" x="13.5" y="-92.7"/>
<text text-anchor="start" x="28.5" y="-82.8" font-family="Helvetica,sans-Serif" font-size="11.00" fill="#000000">rootFile</text>
<polygon fill="none" stroke="#000000" points="8.5,-56.7 8.5,-75.7 169.5,-75.7 169.5,-56.7 8.5,-56.7"/>
<text text-anchor="start" x="11.5" y="-62.8" font-family="Helvetica,sans-Serif" font-size="11.00" fill="#000000">...</text>
<polygon fill="#ffffff" stroke="transparent" points="8.5,-37.7 8.5,-56.7 79.5,-56.7 79.5,-37.7 8.5,-37.7"/>
<polygon fill="none" stroke="#000000" points="8.5,-37.7 8.5,-56.7 79.5,-56.7 79.5,-37.7 8.5,-37.7"/>
<text text-anchor="start" x="11.5" y="-43.8" font-family="Helvetica,sans-Serif" font-size="11.00" fill="#000000">&lt; 2</text>
<polygon fill="#ffffff" stroke="transparent" points="79.5,-37.7 79.5,-56.7 116.5,-56.7 116.5,-37.7 79.5,-37.7"/>
<polygon fill="none" stroke="#000000" points="79.5,-37.7 79.5,-56.7 116.5,-56.7 116.5,-37.7 79.5,-37.7"/>
<text text-anchor="start" x="107.3862" y="-43.8" font-family="Helvetica,sans-Serif" font-size="11.00" fill="#000000"> &#160;</text>
<polygon fill="#ffffff" stroke="transparent" points="116.5,-37.7 116.5,-56.7 169.5,-56.7 169.5,-37.7 116.5,-37.7"/>
<polygon fill="none" stroke="#000000" points="116.5,-37.7 116.5,-56.7 169.5,-56.7 169.5,-37.7 116.5,-37.7"/>
<text text-anchor="start" x="144.7904" y="-43.8" font-family="Helvetica,sans-Serif" font-size="11.00" fill="#000000">31 &gt;</text>
</a>
</g>
</g>
<!-- Adobe_libraryImageFaceProcessHistory&#45;&gt;Adobe_images -->
<g id="edge1" class="edge">
<title>Adobe_libraryImageFaceProcessHistory:w&#45;&gt;Adobe_images:e</title>
<path fill="none" stroke="#000000" d="M205.776,-218.7C193.7815,-218.7 186.3229,-218.7 169.5,-218.7"/>
<polygon fill="#000000" stroke="#000000" points="212.5,-218.7001 220.5,-222.3 216.5,-218.7 220.5,-218.7 220.5,-218.7 220.5,-218.7 216.5,-218.7 220.5,-215.1 212.5,-218.7001 212.5,-218.7001"/>
<ellipse fill="none" stroke="#000000" cx="209.3" cy="-218.7001" rx="3.2" ry="3.2"/>
</g>
</g>
</svg>
