<?xml version="1.0" encoding="UTF-8" standalone="no"?>
<!DOCTYPE svg PUBLIC "-//W3C//DTD SVG 1.1//EN"
 "http://www.w3.org/Graphics/SVG/1.1/DTD/svg11.dtd">
<!-- Generated by graphviz version 2.40.1 (20161225.0304)
 -->
<!-- Title: twoDegreesRelationshipsDiagram Pages: 1 -->
<svg width="648pt" height="327pt"
 viewBox="0.00 0.00 648.00 326.70" xmlns="http://www.w3.org/2000/svg" xmlns:xlink="http://www.w3.org/1999/xlink">
<g id="graph0" class="graph" transform="scale(1 1) rotate(0) translate(4 322.7)">
<title>twoDegreesRelationshipsDiagram</title>
<polygon fill="#ffffff" stroke="transparent" points="-4,4 -4,-322.7 644,-322.7 644,4 -4,4"/>
<text text-anchor="middle" x="72.4936" y="-7.3" font-family="Helvetica,sans-Serif" font-size="11.00" fill="#000000">Generated by SchemaSpy</text>
<!-- Adobe_faceProperties -->
<g id="node1" class="node">
<title>Adobe_faceProperties</title>
<g id="a_node1"><a xlink:href="../../tables/Adobe_faceProperties.html" xlink:title="Adobe_faceProperties" target="_top">
<polygon fill="#ffffff" stroke="transparent" points="358,-202.7 358,-314.7 632,-314.7 632,-202.7 358,-202.7"/>
<polygon fill="#f5f5f5" stroke="transparent" points="360,-289.7 360,-312.7 630,-312.7 630,-289.7 360,-289.7"/>
<polygon fill="none" stroke="#000000" points="360,-289.7 360,-312.7 630,-312.7 630,-289.7 360,-289.7"/>
<text text-anchor="start" x="365" y="-298.3" font-family="Helvetica,sans-Serif" font-weight="bold" font-size="11.00" fill="#000000">Adobe_faceProperties</text>
<text text-anchor="start" x="595.0437" y="-297.8" font-family="Helvetica,sans-Serif" font-size="11.00" fill="#000000">[table]</text>
<polygon fill="none" stroke="#000000" points="360,-267.7 360,-289.7 508,-289.7 508,-267.7 360,-267.7"/>
<image xlink:href="../../images/primaryKeys.png" width="11px" height="12px" preserveAspectRatio="xMinYMin meet" x="365" y="-284.7"/>
<text text-anchor="start" x="380" y="-274.8" font-family="Helvetica,sans-Serif" font-size="11.00" fill="#000000">id_local</text>
<polygon fill="none" stroke="#000000" points="508,-267.7 508,-289.7 630,-289.7 630,-267.7 508,-267.7"/>
<text text-anchor="start" x="510.9156" y="-275.4" font-family="Helvetica,sans-Serif" font-size="11.00" fill="#000000">integer[2000000000,10]</text>
<polygon fill="#ffffff" stroke="transparent" points="360,-245.7 360,-267.7 508,-267.7 508,-245.7 360,-245.7"/>
<polygon fill="none" stroke="#000000" points="360,-245.7 360,-267.7 508,-267.7 508,-245.7 360,-245.7"/>
<image xlink:href="../../images/foreignKeys.png" width="11px" height="12px" preserveAspectRatio="xMinYMin meet" x="365" y="-262.7"/>
<text text-anchor="start" x="380" y="-252.8" font-family="Helvetica,sans-Serif" font-size="11.00" fill="#000000">face</text>
<polygon fill="none" stroke="#000000" points="508,-245.7 508,-267.7 630,-267.7 630,-245.7 508,-245.7"/>
<text text-anchor="start" x="510.9156" y="-253.4" font-family="Helvetica,sans-Serif" font-size="11.00" fill="#000000">integer[2000000000,10]</text>
<polygon fill="none" stroke="#000000" points="360,-223.7 360,-245.7 508,-245.7 508,-223.7 360,-223.7"/>
<text text-anchor="start" x="380" y="-230.8" font-family="Helvetica,sans-Serif" font-size="11.00" fill="#000000">propertiesString</text>
<polygon fill="none" stroke="#000000" points="508,-223.7 508,-245.7 630,-245.7 630,-223.7 508,-223.7"/>
<text text-anchor="start" x="511" y="-231.4" font-family="Helvetica,sans-Serif" font-size="11.00" fill="#000000">[2000000000,10]</text>
<polygon fill="#ffffff" stroke="transparent" points="360,-204.7 360,-223.7 438,-223.7 438,-204.7 360,-204.7"/>
<polygon fill="none" stroke="#000000" points="360,-204.7 360,-223.7 438,-223.7 438,-204.7 360,-204.7"/>
<text text-anchor="start" x="363" y="-210.8" font-family="Helvetica,sans-Serif" font-size="11.00" fill="#000000">&lt; 1</text>
<polygon fill="#ffffff" stroke="transparent" points="438,-204.7 438,-223.7 508,-223.7 508,-204.7 438,-204.7"/>
<polygon fill="none" stroke="#000000" points="438,-204.7 438,-223.7 508,-223.7 508,-204.7 438,-204.7"/>
<text text-anchor="start" x="498.8862" y="-210.8" font-family="Helvetica,sans-Serif" font-size="11.00" fill="#000000"> &#160;</text>
<polygon fill="#ffffff" stroke="transparent" points="508,-204.7 508,-223.7 630,-223.7 630,-204.7 508,-204.7"/>
<polygon fill="none" stroke="#000000" points="508,-204.7 508,-223.7 630,-223.7 630,-204.7 508,-204.7"/>
<text text-anchor="start" x="611.4053" y="-210.8" font-family="Helvetica,sans-Serif" font-size="11.00" fill="#000000">0 &gt;</text>
<polygon fill="none" stroke="#000000" stroke-width="2" points="359,-203.7 359,-313.7 631,-313.7 631,-203.7 359,-203.7"/>
</a>
</g>
</g>
<!-- AgLibraryFace -->
<g id="node2" class="node">
<title>AgLibraryFace</title>
<g id="a_node2"><a xlink:href="../../tables/AgLibraryFace.html" xlink:title="AgLibraryFace" target="_top">
<polygon fill="#ffffff" stroke="transparent" points="181,-55.2 181,-182.2 309,-182.2 309,-55.2 181,-55.2"/>
<polygon fill="#f5f5f5" stroke="transparent" points="181,-158.7 181,-181.7 309,-181.7 309,-158.7 181,-158.7"/>
<polygon fill="none" stroke="#000000" points="181,-158.7 181,-181.7 309,-181.7 309,-158.7 181,-158.7"/>
<text text-anchor="start" x="186" y="-167.3" font-family="Helvetica,sans-Serif" font-weight="bold" font-size="11.00" fill="#000000">AgLibraryFace</text>
<text text-anchor="start" x="274.0437" y="-166.8" font-family="Helvetica,sans-Serif" font-size="11.00" fill="#000000">[table]</text>
<polygon fill="none" stroke="#000000" points="181,-136.7 181,-158.7 309,-158.7 309,-136.7 181,-136.7"/>
<image xlink:href="../../images/primaryKeys.png" width="11px" height="12px" preserveAspectRatio="xMinYMin meet" x="186" y="-153.7"/>
<text text-anchor="start" x="201" y="-143.8" font-family="Helvetica,sans-Serif" font-size="11.00" fill="#000000">id_local</text>
<polygon fill="#ffffff" stroke="transparent" points="181,-114.7 181,-136.7 309,-136.7 309,-114.7 181,-114.7"/>
<polygon fill="none" stroke="#000000" points="181,-114.7 181,-136.7 309,-136.7 309,-114.7 181,-114.7"/>
<text text-anchor="start" x="201" y="-121.8" font-family="Helvetica,sans-Serif" font-size="11.00" fill="#000000">cluster</text>
<polygon fill="#ffffff" stroke="transparent" points="181,-92.7 181,-114.7 309,-114.7 309,-92.7 181,-92.7"/>
<polygon fill="none" stroke="#000000" points="181,-92.7 181,-114.7 309,-114.7 309,-92.7 181,-92.7"/>
<image xlink:href="../../images/foreignKeys.png" width="11px" height="12px" preserveAspectRatio="xMinYMin meet" x="186" y="-109.7"/>
<text text-anchor="start" x="201" y="-99.8" font-family="Helvetica,sans-Serif" font-size="11.00" fill="#000000">image</text>
<polygon fill="none" stroke="#000000" points="181,-73.7 181,-92.7 309,-92.7 309,-73.7 181,-73.7"/>
<text text-anchor="start" x="184" y="-79.8" font-family="Helvetica,sans-Serif" font-size="11.00" fill="#000000">...</text>
<polygon fill="#ffffff" stroke="transparent" points="181,-54.7 181,-73.7 239,-73.7 239,-54.7 181,-54.7"/>
<polygon fill="none" stroke="#000000" points="181,-54.7 181,-73.7 239,-73.7 239,-54.7 181,-54.7"/>
<text text-anchor="start" x="184" y="-60.8" font-family="Helvetica,sans-Serif" font-size="11.00" fill="#000000">&lt; 1</text>
<polygon fill="#ffffff" stroke="transparent" points="239,-54.7 239,-73.7 269,-73.7 269,-54.7 239,-54.7"/>
<polygon fill="none" stroke="#000000" points="239,-54.7 239,-73.7 269,-73.7 269,-54.7 239,-54.7"/>
<text text-anchor="start" x="259.8862" y="-60.8" font-family="Helvetica,sans-Serif" font-size="11.00" fill="#000000"> &#160;</text>
<polygon fill="#ffffff" stroke="transparent" points="269,-54.7 269,-73.7 309,-73.7 309,-54.7 269,-54.7"/>
<polygon fill="none" stroke="#000000" points="269,-54.7 269,-73.7 309,-73.7 309,-54.7 269,-54.7"/>
<text text-anchor="start" x="290.4053" y="-60.8" font-family="Helvetica,sans-Serif" font-size="11.00" fill="#000000">3 &gt;</text>
</a>
</g>
</g>
<!-- Adobe_faceProperties&#45;&gt;AgLibraryFace -->
<g id="edge1" class="edge">
<title>Adobe_faceProperties:w&#45;&gt;AgLibraryFace:e</title>
<path fill="none" stroke="#000000" d="M345.719,-252.8206C317.7911,-233.4034 356.4261,-147.7 309,-147.7"/>
<polygon fill="#000000" stroke="#000000" points="352.2798,-254.6028 359.0563,-260.1741 356.1399,-255.6514 360,-256.7 360,-256.7 360,-256.7 356.1399,-255.6514 360.9437,-253.2259 352.2798,-254.6028 352.2798,-254.6028"/>
<ellipse fill="none" stroke="#000000" cx="349.1917" cy="-253.7639" rx="3.2" ry="3.2"/>
</g>
<!-- Adobe_images -->
<g id="node3" class="node">
<title>Adobe_images</title>
<g id="a_node3"><a xlink:href="../../tables/Adobe_images.html" xlink:title="Adobe_images" target="_top">
<polygon fill="#ffffff" stroke="transparent" points="8,-76.2 8,-137.2 132,-137.2 132,-76.2 8,-76.2"/>
<polygon fill="#f5f5f5" stroke="transparent" points="8,-113.7 8,-136.7 132,-136.7 132,-113.7 8,-113.7"/>
<polygon fill="none" stroke="#000000" points="8,-113.7 8,-136.7 132,-136.7 132,-113.7 8,-113.7"/>
<text text-anchor="start" x="13" y="-122.3" font-family="Helvetica,sans-Serif" font-weight="bold" font-size="11.00" fill="#000000">Adobe_images</text>
<text text-anchor="start" x="97.5219" y="-121.8" font-family="Helvetica,sans-Serif" font-size="11.00" fill="#000000">[table]</text>
<polygon fill="none" stroke="#000000" points="8,-94.7 8,-113.7 132,-113.7 132,-94.7 8,-94.7"/>
<text text-anchor="start" x="11" y="-100.8" font-family="Helvetica,sans-Serif" font-size="11.00" fill="#000000">...</text>
<polygon fill="#ffffff" stroke="transparent" points="8,-75.7 8,-94.7 61,-94.7 61,-75.7 8,-75.7"/>
<polygon fill="none" stroke="#000000" points="8,-75.7 8,-94.7 61,-94.7 61,-75.7 8,-75.7"/>
<text text-anchor="start" x="11" y="-81.8" font-family="Helvetica,sans-Serif" font-size="11.00" fill="#000000">&lt; 2</text>
<polygon fill="#ffffff" stroke="transparent" points="61,-75.7 61,-94.7 89,-94.7 89,-75.7 61,-75.7"/>
<polygon fill="none" stroke="#000000" points="61,-75.7 61,-94.7 89,-94.7 89,-75.7 61,-75.7"/>
<text text-anchor="start" x="79.8862" y="-81.8" font-family="Helvetica,sans-Serif" font-size="11.00" fill="#000000"> &#160;</text>
<polygon fill="#ffffff" stroke="transparent" points="89,-75.7 89,-94.7 132,-94.7 132,-75.7 89,-75.7"/>
<polygon fill="none" stroke="#000000" points="89,-75.7 89,-94.7 132,-94.7 132,-75.7 89,-75.7"/>
<text text-anchor="start" x="107.2904" y="-81.8" font-family="Helvetica,sans-Serif" font-size="11.00" fill="#000000">31 &gt;</text>
</a>
</g>
</g>
<!-- AgLibraryFace&#45;&gt;Adobe_images -->
<g id="edge2" class="edge">
<title>AgLibraryFace:w&#45;&gt;Adobe_images:e</title>
<path fill="none" stroke="#000000" d="M166.4909,-103.7C155.1774,-103.7 147.9931,-103.7 132,-103.7"/>
<polygon fill="#000000" stroke="#000000" points="173,-103.7001 181,-107.3 177,-103.7 181,-103.7 181,-103.7 181,-103.7 177,-103.7 181,-100.1 173,-103.7001 173,-103.7001"/>
<ellipse fill="none" stroke="#000000" cx="169.8" cy="-103.7001" rx="3.2" ry="3.2"/>
</g>
<!-- AgLibraryFaceData -->
<g id="node4" class="node">
<title>AgLibraryFaceData</title>
<g id="a_node4"><a xlink:href="../../tables/AgLibraryFaceData.html" xlink:title="AgLibraryFaceData" target="_top">
<polygon fill="#ffffff" stroke="transparent" points="420.5,-120.2 420.5,-181.2 569.5,-181.2 569.5,-120.2 420.5,-120.2"/>
<polygon fill="#f5f5f5" stroke="transparent" points="421,-157.7 421,-180.7 570,-180.7 570,-157.7 421,-157.7"/>
<polygon fill="none" stroke="#000000" points="421,-157.7 421,-180.7 570,-180.7 570,-157.7 421,-157.7"/>
<text text-anchor="start" x="426" y="-166.3" font-family="Helvetica,sans-Serif" font-weight="bold" font-size="11.00" fill="#000000">AgLibraryFaceData</text>
<text text-anchor="start" x="535.5219" y="-165.8" font-family="Helvetica,sans-Serif" font-size="11.00" fill="#000000">[table]</text>
<polygon fill="none" stroke="#000000" points="421,-138.7 421,-157.7 570,-157.7 570,-138.7 421,-138.7"/>
<text text-anchor="start" x="424" y="-144.8" font-family="Helvetica,sans-Serif" font-size="11.00" fill="#000000">...</text>
<polygon fill="#ffffff" stroke="transparent" points="421,-119.7 421,-138.7 494,-138.7 494,-119.7 421,-119.7"/>
<polygon fill="none" stroke="#000000" points="421,-119.7 421,-138.7 494,-138.7 494,-119.7 421,-119.7"/>
<text text-anchor="start" x="424" y="-125.8" font-family="Helvetica,sans-Serif" font-size="11.00" fill="#000000">&lt; 1</text>
<polygon fill="#ffffff" stroke="transparent" points="494,-119.7 494,-138.7 532,-138.7 532,-119.7 494,-119.7"/>
<polygon fill="none" stroke="#000000" points="494,-119.7 494,-138.7 532,-138.7 532,-119.7 494,-119.7"/>
<text text-anchor="start" x="522.8862" y="-125.8" font-family="Helvetica,sans-Serif" font-size="11.00" fill="#000000"> &#160;</text>
<polygon fill="#ffffff" stroke="transparent" points="532,-119.7 532,-138.7 570,-138.7 570,-119.7 532,-119.7"/>
<polygon fill="none" stroke="#000000" points="532,-119.7 532,-138.7 570,-138.7 570,-119.7 532,-119.7"/>
<text text-anchor="start" x="560.8862" y="-125.8" font-family="Helvetica,sans-Serif" font-size="11.00" fill="#000000"> &#160;</text>
</a>
</g>
</g>
<!-- AgLibraryFaceData&#45;&gt;AgLibraryFace -->
<g id="edge3" class="edge">
<title>AgLibraryFaceData:w&#45;&gt;AgLibraryFace:e</title>
<path fill="none" stroke="#000000" d="M406.4083,-147.7C368.1819,-147.7 353.5278,-147.7 309,-147.7"/>
<polygon fill="#000000" stroke="#000000" points="413,-147.7001 421,-151.3 417,-147.7 421,-147.7 421,-147.7 421,-147.7 417,-147.7 421,-144.1 413,-147.7001 413,-147.7001"/>
<ellipse fill="none" stroke="#000000" cx="409.8" cy="-147.7001" rx="3.2" ry="3.2"/>
</g>
<!-- AgLibraryKeywordFace -->
<g id="node5" class="node">
<title>AgLibraryKeywordFace</title>
<g id="a_node5"><a xlink:href="../../tables/AgLibraryKeywordFace.html" xlink:title="AgLibraryKeywordFace" target="_top">
<polygon fill="#ffffff" stroke="transparent" points="408.5,-38.2 408.5,-99.2 581.5,-99.2 581.5,-38.2 408.5,-38.2"/>
<polygon fill="#f5f5f5" stroke="transparent" points="409,-75.7 409,-98.7 582,-98.7 582,-75.7 409,-75.7"/>
<polygon fill="none" stroke="#000000" points="409,-75.7 409,-98.7 582,-98.7 582,-75.7 409,-75.7"/>
<text text-anchor="start" x="414" y="-84.3" font-family="Helvetica,sans-Serif" font-weight="bold" font-size="11.00" fill="#000000">AgLibraryKeywordFace</text>
<text text-anchor="start" x="547.5219" y="-83.8" font-family="Helvetica,sans-Serif" font-size="11.00" fill="#000000">[table]</text>
<polygon fill="none" stroke="#000000" points="409,-56.7 409,-75.7 582,-75.7 582,-56.7 409,-56.7"/>
<text text-anchor="start" x="412" y="-62.8" font-family="Helvetica,sans-Serif" font-size="11.00" fill="#000000">...</text>
<polygon fill="#ffffff" stroke="transparent" points="409,-37.7 409,-56.7 494,-56.7 494,-37.7 409,-37.7"/>
<polygon fill="none" stroke="#000000" points="409,-37.7 409,-56.7 494,-56.7 494,-37.7 409,-37.7"/>
<text text-anchor="start" x="412" y="-43.8" font-family="Helvetica,sans-Serif" font-size="11.00" fill="#000000">&lt; 2</text>
<polygon fill="#ffffff" stroke="transparent" points="494,-37.7 494,-56.7 538,-56.7 538,-37.7 494,-37.7"/>
<polygon fill="none" stroke="#000000" points="494,-37.7 494,-56.7 538,-56.7 538,-37.7 494,-37.7"/>
<text text-anchor="start" x="528.8862" y="-43.8" font-family="Helvetica,sans-Serif" font-size="11.00" fill="#000000"> &#160;</text>
<polygon fill="#ffffff" stroke="transparent" points="538,-37.7 538,-56.7 582,-56.7 582,-37.7 538,-37.7"/>
<polygon fill="none" stroke="#000000" points="538,-37.7 538,-56.7 582,-56.7 582,-37.7 538,-37.7"/>
<text text-anchor="start" x="572.8862" y="-43.8" font-family="Helvetica,sans-Serif" font-size="11.00" fill="#000000"> &#160;</text>
</a>
</g>
</g>
<!-- AgLibraryKeywordFace&#45;&gt;AgLibraryFace -->
<g id="edge4" class="edge">
<title>AgLibraryKeywordFace:w&#45;&gt;AgLibraryFace:e</title>
<path fill="none" stroke="#000000" d="M394.6486,-67.6169C375.1859,-73.5684 370.8212,-92.3711 350,-109.7 330.9034,-125.5936 333.8452,-147.7 309,-147.7"/>
<polygon fill="#000000" stroke="#000000" points="401.0704,-66.7592 409.4766,-69.2683 405.0352,-66.2296 409,-65.7 409,-65.7 409,-65.7 405.0352,-66.2296 408.5234,-62.1317 401.0704,-66.7592 401.0704,-66.7592"/>
<ellipse fill="none" stroke="#000000" cx="397.8986" cy="-67.1828" rx="3.2" ry="3.2"/>
</g>
</g>
</svg>
