<?xml version="1.0" encoding="UTF-8" standalone="no"?>
<!DOCTYPE svg PUBLIC "-//W3C//DTD SVG 1.1//EN"
 "http://www.w3.org/Graphics/SVG/1.1/DTD/svg11.dtd">
<!-- Generated by graphviz version 2.40.1 (20161225.0304)
 -->
<!-- Title: twoDegreesRelationshipsDiagram Pages: 1 -->
<svg width="1116pt" height="2455pt"
 viewBox="0.00 0.00 1116.00 2455.20" xmlns="http://www.w3.org/2000/svg" xmlns:xlink="http://www.w3.org/1999/xlink">
<g id="graph0" class="graph" transform="scale(1 1) rotate(0) translate(4 2451.2)">
<title>twoDegreesRelationshipsDiagram</title>
<polygon fill="#ffffff" stroke="transparent" points="-4,4 -4,-2451.2 1112,-2451.2 1112,4 -4,4"/>
<text text-anchor="middle" x="72.4936" y="-7.3" font-family="Helvetica,sans-Serif" font-size="11.00" fill="#000000">Generated by SchemaSpy</text>
<!-- Adobe_AdditionalMetadata -->
<g id="node1" class="node">
<title>Adobe_AdditionalMetadata</title>
<g id="a_node1"><a xlink:href="../../tables/Adobe_AdditionalMetadata.html" xlink:title="Adobe_AdditionalMetadata" target="_top">
<polygon fill="#ffffff" stroke="transparent" points="475,-2382.2 475,-2443.2 668,-2443.2 668,-2382.2 475,-2382.2"/>
<polygon fill="#f5f5f5" stroke="transparent" points="475.5,-2419.7 475.5,-2442.7 668.5,-2442.7 668.5,-2419.7 475.5,-2419.7"/>
<polygon fill="none" stroke="#000000" points="475.5,-2419.7 475.5,-2442.7 668.5,-2442.7 668.5,-2419.7 475.5,-2419.7"/>
<text text-anchor="start" x="480.5" y="-2428.3" font-family="Helvetica,sans-Serif" font-weight="bold" font-size="11.00" fill="#000000">Adobe_AdditionalMetadata</text>
<text text-anchor="start" x="634.0219" y="-2427.8" font-family="Helvetica,sans-Serif" font-size="11.00" fill="#000000">[table]</text>
<polygon fill="none" stroke="#000000" points="475.5,-2400.7 475.5,-2419.7 668.5,-2419.7 668.5,-2400.7 475.5,-2400.7"/>
<text text-anchor="start" x="478.5" y="-2406.8" font-family="Helvetica,sans-Serif" font-size="11.00" fill="#000000">...</text>
<polygon fill="#ffffff" stroke="transparent" points="475.5,-2381.7 475.5,-2400.7 570.5,-2400.7 570.5,-2381.7 475.5,-2381.7"/>
<polygon fill="none" stroke="#000000" points="475.5,-2381.7 475.5,-2400.7 570.5,-2400.7 570.5,-2381.7 475.5,-2381.7"/>
<text text-anchor="start" x="478.5" y="-2387.8" font-family="Helvetica,sans-Serif" font-size="11.00" fill="#000000">&lt; 1</text>
<polygon fill="#ffffff" stroke="transparent" points="570.5,-2381.7 570.5,-2400.7 619.5,-2400.7 619.5,-2381.7 570.5,-2381.7"/>
<polygon fill="none" stroke="#000000" points="570.5,-2381.7 570.5,-2400.7 619.5,-2400.7 619.5,-2381.7 570.5,-2381.7"/>
<text text-anchor="start" x="610.3862" y="-2387.8" font-family="Helvetica,sans-Serif" font-size="11.00" fill="#000000"> &#160;</text>
<polygon fill="#ffffff" stroke="transparent" points="619.5,-2381.7 619.5,-2400.7 668.5,-2400.7 668.5,-2381.7 619.5,-2381.7"/>
<polygon fill="none" stroke="#000000" points="619.5,-2381.7 619.5,-2400.7 668.5,-2400.7 668.5,-2381.7 619.5,-2381.7"/>
<text text-anchor="start" x="659.3862" y="-2387.8" font-family="Helvetica,sans-Serif" font-size="11.00" fill="#000000"> &#160;</text>
</a>
</g>
</g>
<!-- Adobe_images -->
<g id="node2" class="node">
<title>Adobe_images</title>
<g id="a_node2"><a xlink:href="../../tables/Adobe_images.html" xlink:title="Adobe_images" target="_top">
<polygon fill="#ffffff" stroke="transparent" points="173,-1074.2 173,-1289.2 334,-1289.2 334,-1074.2 173,-1074.2"/>
<polygon fill="#f5f5f5" stroke="transparent" points="173.5,-1265.7 173.5,-1288.7 334.5,-1288.7 334.5,-1265.7 173.5,-1265.7"/>
<polygon fill="none" stroke="#000000" points="173.5,-1265.7 173.5,-1288.7 334.5,-1288.7 334.5,-1265.7 173.5,-1265.7"/>
<text text-anchor="start" x="178.5" y="-1274.3" font-family="Helvetica,sans-Serif" font-weight="bold" font-size="11.00" fill="#000000">Adobe_images</text>
<text text-anchor="start" x="299.5437" y="-1273.8" font-family="Helvetica,sans-Serif" font-size="11.00" fill="#000000">[table]</text>
<polygon fill="none" stroke="#000000" points="173.5,-1243.7 173.5,-1265.7 334.5,-1265.7 334.5,-1243.7 173.5,-1243.7"/>
<image xlink:href="../../images/primaryKeys.png" width="11px" height="12px" preserveAspectRatio="xMinYMin meet" x="178.5" y="-1260.7"/>
<text text-anchor="start" x="193.5" y="-1250.8" font-family="Helvetica,sans-Serif" font-size="11.00" fill="#000000">id_local</text>
<polygon fill="#ffffff" stroke="transparent" points="173.5,-1221.7 173.5,-1243.7 334.5,-1243.7 334.5,-1221.7 173.5,-1221.7"/>
<polygon fill="none" stroke="#000000" points="173.5,-1221.7 173.5,-1243.7 334.5,-1243.7 334.5,-1221.7 173.5,-1221.7"/>
<text text-anchor="start" x="193.5" y="-1228.8" font-family="Helvetica,sans-Serif" font-size="11.00" fill="#000000">id_global</text>
<polygon fill="#ffffff" stroke="transparent" points="173.5,-1199.7 173.5,-1221.7 334.5,-1221.7 334.5,-1199.7 173.5,-1199.7"/>
<polygon fill="none" stroke="#000000" points="173.5,-1199.7 173.5,-1221.7 334.5,-1221.7 334.5,-1199.7 173.5,-1199.7"/>
<text text-anchor="start" x="193.5" y="-1206.8" font-family="Helvetica,sans-Serif" font-size="11.00" fill="#000000">captureTime</text>
<polygon fill="#ffffff" stroke="transparent" points="173.5,-1177.7 173.5,-1199.7 334.5,-1199.7 334.5,-1177.7 173.5,-1177.7"/>
<polygon fill="none" stroke="#000000" points="173.5,-1177.7 173.5,-1199.7 334.5,-1199.7 334.5,-1177.7 173.5,-1177.7"/>
<image xlink:href="../../images/foreignKeys.png" width="11px" height="12px" preserveAspectRatio="xMinYMin meet" x="178.5" y="-1194.7"/>
<text text-anchor="start" x="193.5" y="-1184.8" font-family="Helvetica,sans-Serif" font-size="11.00" fill="#000000">masterImage</text>
<polygon fill="#ffffff" stroke="transparent" points="173.5,-1155.7 173.5,-1177.7 334.5,-1177.7 334.5,-1155.7 173.5,-1155.7"/>
<polygon fill="none" stroke="#000000" points="173.5,-1155.7 173.5,-1177.7 334.5,-1177.7 334.5,-1155.7 173.5,-1155.7"/>
<text text-anchor="start" x="193.5" y="-1162.8" font-family="Helvetica,sans-Serif" font-size="11.00" fill="#000000">originalRootEntity</text>
<polygon fill="#ffffff" stroke="transparent" points="173.5,-1133.7 173.5,-1155.7 334.5,-1155.7 334.5,-1133.7 173.5,-1133.7"/>
<polygon fill="none" stroke="#000000" points="173.5,-1133.7 173.5,-1155.7 334.5,-1155.7 334.5,-1133.7 173.5,-1133.7"/>
<text text-anchor="start" x="193.5" y="-1140.8" font-family="Helvetica,sans-Serif" font-size="11.00" fill="#000000">rating</text>
<polygon fill="#ffffff" stroke="transparent" points="173.5,-1111.7 173.5,-1133.7 334.5,-1133.7 334.5,-1111.7 173.5,-1111.7"/>
<polygon fill="none" stroke="#000000" points="173.5,-1111.7 173.5,-1133.7 334.5,-1133.7 334.5,-1111.7 173.5,-1111.7"/>
<image xlink:href="../../images/foreignKeys.png" width="11px" height="12px" preserveAspectRatio="xMinYMin meet" x="178.5" y="-1128.7"/>
<text text-anchor="start" x="193.5" y="-1118.8" font-family="Helvetica,sans-Serif" font-size="11.00" fill="#000000">rootFile</text>
<polygon fill="none" stroke="#000000" points="173.5,-1092.7 173.5,-1111.7 334.5,-1111.7 334.5,-1092.7 173.5,-1092.7"/>
<text text-anchor="start" x="176.5" y="-1098.8" font-family="Helvetica,sans-Serif" font-size="11.00" fill="#000000">...</text>
<polygon fill="#ffffff" stroke="transparent" points="173.5,-1073.7 173.5,-1092.7 244.5,-1092.7 244.5,-1073.7 173.5,-1073.7"/>
<polygon fill="none" stroke="#000000" points="173.5,-1073.7 173.5,-1092.7 244.5,-1092.7 244.5,-1073.7 173.5,-1073.7"/>
<text text-anchor="start" x="176.5" y="-1079.8" font-family="Helvetica,sans-Serif" font-size="11.00" fill="#000000">&lt; 2</text>
<polygon fill="#ffffff" stroke="transparent" points="244.5,-1073.7 244.5,-1092.7 281.5,-1092.7 281.5,-1073.7 244.5,-1073.7"/>
<polygon fill="none" stroke="#000000" points="244.5,-1073.7 244.5,-1092.7 281.5,-1092.7 281.5,-1073.7 244.5,-1073.7"/>
<text text-anchor="start" x="272.3862" y="-1079.8" font-family="Helvetica,sans-Serif" font-size="11.00" fill="#000000"> &#160;</text>
<polygon fill="#ffffff" stroke="transparent" points="281.5,-1073.7 281.5,-1092.7 334.5,-1092.7 334.5,-1073.7 281.5,-1073.7"/>
<polygon fill="none" stroke="#000000" points="281.5,-1073.7 281.5,-1092.7 334.5,-1092.7 334.5,-1073.7 281.5,-1073.7"/>
<text text-anchor="start" x="309.7904" y="-1079.8" font-family="Helvetica,sans-Serif" font-size="11.00" fill="#000000">31 &gt;</text>
</a>
</g>
</g>
<!-- Adobe_AdditionalMetadata&#45;&gt;Adobe_images -->
<g id="edge1" class="edge">
<title>Adobe_AdditionalMetadata:w&#45;&gt;Adobe_images:e</title>
<path fill="none" stroke="#000000" d="M460.8702,-2409.6772C422.3647,-2409.4126 399.8617,-2406.3214 375,-2371.7 338.7799,-2321.2613 396.5963,-1254.7 334.5,-1254.7"/>
<polygon fill="#000000" stroke="#000000" points="467.5,-2409.6875 475.4944,-2413.3 471.5,-2409.6938 475.5,-2409.7 475.5,-2409.7 475.5,-2409.7 471.5,-2409.6938 475.5056,-2406.1 467.5,-2409.6875 467.5,-2409.6875"/>
<ellipse fill="none" stroke="#000000" cx="464.3" cy="-2409.6825" rx="3.2" ry="3.2"/>
</g>
<!-- AgLibraryFile -->
<g id="node6" class="node">
<title>AgLibraryFile</title>
<g id="a_node6"><a xlink:href="../../tables/AgLibraryFile.html" xlink:title="AgLibraryFile" target="_top">
<polygon fill="#ffffff" stroke="transparent" points="8,-1095.2 8,-1156.2 124,-1156.2 124,-1095.2 8,-1095.2"/>
<polygon fill="#f5f5f5" stroke="transparent" points="8,-1132.7 8,-1155.7 124,-1155.7 124,-1132.7 8,-1132.7"/>
<polygon fill="none" stroke="#000000" points="8,-1132.7 8,-1155.7 124,-1155.7 124,-1132.7 8,-1132.7"/>
<text text-anchor="start" x="13" y="-1141.3" font-family="Helvetica,sans-Serif" font-weight="bold" font-size="11.00" fill="#000000">AgLibraryFile</text>
<text text-anchor="start" x="89.5219" y="-1140.8" font-family="Helvetica,sans-Serif" font-size="11.00" fill="#000000">[table]</text>
<polygon fill="none" stroke="#000000" points="8,-1113.7 8,-1132.7 124,-1132.7 124,-1113.7 8,-1113.7"/>
<text text-anchor="start" x="11" y="-1119.8" font-family="Helvetica,sans-Serif" font-size="11.00" fill="#000000">...</text>
<polygon fill="#ffffff" stroke="transparent" points="8,-1094.7 8,-1113.7 60,-1113.7 60,-1094.7 8,-1094.7"/>
<polygon fill="none" stroke="#000000" points="8,-1094.7 8,-1113.7 60,-1113.7 60,-1094.7 8,-1094.7"/>
<text text-anchor="start" x="11" y="-1100.8" font-family="Helvetica,sans-Serif" font-size="11.00" fill="#000000">&lt; 1</text>
<polygon fill="#ffffff" stroke="transparent" points="60,-1094.7 60,-1113.7 87,-1113.7 87,-1094.7 60,-1094.7"/>
<polygon fill="none" stroke="#000000" points="60,-1094.7 60,-1113.7 87,-1113.7 87,-1094.7 60,-1094.7"/>
<text text-anchor="start" x="77.8862" y="-1100.8" font-family="Helvetica,sans-Serif" font-size="11.00" fill="#000000"> &#160;</text>
<polygon fill="#ffffff" stroke="transparent" points="87,-1094.7 87,-1113.7 124,-1113.7 124,-1094.7 87,-1094.7"/>
<polygon fill="none" stroke="#000000" points="87,-1094.7 87,-1113.7 124,-1113.7 124,-1094.7 87,-1094.7"/>
<text text-anchor="start" x="105.4053" y="-1100.8" font-family="Helvetica,sans-Serif" font-size="11.00" fill="#000000">2 &gt;</text>
</a>
</g>
</g>
<!-- Adobe_images&#45;&gt;AgLibraryFile -->
<g id="edge5" class="edge">
<title>Adobe_images:w&#45;&gt;AgLibraryFile:e</title>
<path fill="none" stroke="#000000" d="M158.8428,-1122.7C147.4139,-1122.7 140.1563,-1122.7 124,-1122.7"/>
<polygon fill="#000000" stroke="#000000" points="165.5,-1122.7001 173.5,-1126.3 169.5,-1122.7 173.5,-1122.7 173.5,-1122.7 173.5,-1122.7 169.5,-1122.7 173.5,-1119.1 165.5,-1122.7001 165.5,-1122.7001"/>
<ellipse fill="none" stroke="#000000" cx="162.3" cy="-1122.7001" rx="3.2" ry="3.2"/>
</g>
<!-- Adobe_imageDevelopSettings -->
<g id="node3" class="node">
<title>Adobe_imageDevelopSettings</title>
<g id="a_node3"><a xlink:href="../../tables/Adobe_imageDevelopSettings.html" xlink:title="Adobe_imageDevelopSettings" target="_top">
<polygon fill="#ffffff" stroke="transparent" points="466,-2300.2 466,-2361.2 677,-2361.2 677,-2300.2 466,-2300.2"/>
<polygon fill="#f5f5f5" stroke="transparent" points="466.5,-2337.7 466.5,-2360.7 677.5,-2360.7 677.5,-2337.7 466.5,-2337.7"/>
<polygon fill="none" stroke="#000000" points="466.5,-2337.7 466.5,-2360.7 677.5,-2360.7 677.5,-2337.7 466.5,-2337.7"/>
<text text-anchor="start" x="471.5" y="-2346.3" font-family="Helvetica,sans-Serif" font-weight="bold" font-size="11.00" fill="#000000">Adobe_imageDevelopSettings</text>
<text text-anchor="start" x="643.0219" y="-2345.8" font-family="Helvetica,sans-Serif" font-size="11.00" fill="#000000">[table]</text>
<polygon fill="none" stroke="#000000" points="466.5,-2318.7 466.5,-2337.7 677.5,-2337.7 677.5,-2318.7 466.5,-2318.7"/>
<text text-anchor="start" x="469.5" y="-2324.8" font-family="Helvetica,sans-Serif" font-size="11.00" fill="#000000">...</text>
<polygon fill="#ffffff" stroke="transparent" points="466.5,-2299.7 466.5,-2318.7 565.5,-2318.7 565.5,-2299.7 466.5,-2299.7"/>
<polygon fill="none" stroke="#000000" points="466.5,-2299.7 466.5,-2318.7 565.5,-2318.7 565.5,-2299.7 466.5,-2299.7"/>
<text text-anchor="start" x="469.5" y="-2305.8" font-family="Helvetica,sans-Serif" font-size="11.00" fill="#000000">&lt; 1</text>
<polygon fill="#ffffff" stroke="transparent" points="565.5,-2299.7 565.5,-2318.7 616.5,-2318.7 616.5,-2299.7 565.5,-2299.7"/>
<polygon fill="none" stroke="#000000" points="565.5,-2299.7 565.5,-2318.7 616.5,-2318.7 616.5,-2299.7 565.5,-2299.7"/>
<text text-anchor="start" x="607.3862" y="-2305.8" font-family="Helvetica,sans-Serif" font-size="11.00" fill="#000000"> &#160;</text>
<polygon fill="#ffffff" stroke="transparent" points="616.5,-2299.7 616.5,-2318.7 677.5,-2318.7 677.5,-2299.7 616.5,-2299.7"/>
<polygon fill="none" stroke="#000000" points="616.5,-2299.7 616.5,-2318.7 677.5,-2318.7 677.5,-2299.7 616.5,-2299.7"/>
<text text-anchor="start" x="658.9053" y="-2305.8" font-family="Helvetica,sans-Serif" font-size="11.00" fill="#000000">1 &gt;</text>
</a>
</g>
</g>
<!-- Adobe_imageDevelopSettings&#45;&gt;Adobe_images -->
<g id="edge2" class="edge">
<title>Adobe_imageDevelopSettings:w&#45;&gt;Adobe_images:e</title>
<path fill="none" stroke="#000000" d="M451.8748,-2327.5712C417.1984,-2326.7932 397.2103,-2321.6043 375,-2289.7 342.1227,-2242.4729 392.044,-1254.7 334.5,-1254.7"/>
<polygon fill="#000000" stroke="#000000" points="458.5003,-2327.6295 466.4683,-2331.2999 462.5002,-2327.6647 466.5,-2327.7 466.5,-2327.7 466.5,-2327.7 462.5002,-2327.6647 466.5317,-2324.1001 458.5003,-2327.6295 458.5003,-2327.6295"/>
<ellipse fill="none" stroke="#000000" cx="455.3004" cy="-2327.6013" rx="3.2" ry="3.2"/>
</g>
<!-- Adobe_imageProofSettings -->
<g id="node4" class="node">
<title>Adobe_imageProofSettings</title>
<g id="a_node4"><a xlink:href="../../tables/Adobe_imageProofSettings.html" xlink:title="Adobe_imageProofSettings" target="_top">
<polygon fill="#ffffff" stroke="transparent" points="473.5,-2218.2 473.5,-2279.2 669.5,-2279.2 669.5,-2218.2 473.5,-2218.2"/>
<polygon fill="#f5f5f5" stroke="transparent" points="473.5,-2255.7 473.5,-2278.7 669.5,-2278.7 669.5,-2255.7 473.5,-2255.7"/>
<polygon fill="none" stroke="#000000" points="473.5,-2255.7 473.5,-2278.7 669.5,-2278.7 669.5,-2255.7 473.5,-2255.7"/>
<text text-anchor="start" x="478.5" y="-2264.3" font-family="Helvetica,sans-Serif" font-weight="bold" font-size="11.00" fill="#000000">Adobe_imageProofSettings</text>
<text text-anchor="start" x="635.0219" y="-2263.8" font-family="Helvetica,sans-Serif" font-size="11.00" fill="#000000">[table]</text>
<polygon fill="none" stroke="#000000" points="473.5,-2236.7 473.5,-2255.7 669.5,-2255.7 669.5,-2236.7 473.5,-2236.7"/>
<text text-anchor="start" x="476.5" y="-2242.8" font-family="Helvetica,sans-Serif" font-size="11.00" fill="#000000">...</text>
<polygon fill="#ffffff" stroke="transparent" points="473.5,-2217.7 473.5,-2236.7 569.5,-2236.7 569.5,-2217.7 473.5,-2217.7"/>
<polygon fill="none" stroke="#000000" points="473.5,-2217.7 473.5,-2236.7 569.5,-2236.7 569.5,-2217.7 473.5,-2217.7"/>
<text text-anchor="start" x="476.5" y="-2223.8" font-family="Helvetica,sans-Serif" font-size="11.00" fill="#000000">&lt; 1</text>
<polygon fill="#ffffff" stroke="transparent" points="569.5,-2217.7 569.5,-2236.7 619.5,-2236.7 619.5,-2217.7 569.5,-2217.7"/>
<polygon fill="none" stroke="#000000" points="569.5,-2217.7 569.5,-2236.7 619.5,-2236.7 619.5,-2217.7 569.5,-2217.7"/>
<text text-anchor="start" x="610.3862" y="-2223.8" font-family="Helvetica,sans-Serif" font-size="11.00" fill="#000000"> &#160;</text>
<polygon fill="#ffffff" stroke="transparent" points="619.5,-2217.7 619.5,-2236.7 669.5,-2236.7 669.5,-2217.7 619.5,-2217.7"/>
<polygon fill="none" stroke="#000000" points="619.5,-2217.7 619.5,-2236.7 669.5,-2236.7 669.5,-2217.7 619.5,-2217.7"/>
<text text-anchor="start" x="660.3862" y="-2223.8" font-family="Helvetica,sans-Serif" font-size="11.00" fill="#000000"> &#160;</text>
</a>
</g>
</g>
<!-- Adobe_imageProofSettings&#45;&gt;Adobe_images -->
<g id="edge3" class="edge">
<title>Adobe_imageProofSettings:w&#45;&gt;Adobe_images:e</title>
<path fill="none" stroke="#000000" d="M458.8846,-2245.6541C421.2424,-2245.2688 399.3679,-2241.6506 375,-2207.7 344.1003,-2164.649 387.4922,-1254.7 334.5,-1254.7"/>
<polygon fill="#000000" stroke="#000000" points="465.5,-2245.6748 473.4887,-2249.3 469.5,-2245.6874 473.5,-2245.7 473.5,-2245.7 473.5,-2245.7 469.5,-2245.6874 473.5113,-2242.1 465.5,-2245.6748 465.5,-2245.6748"/>
<ellipse fill="none" stroke="#000000" cx="462.3001" cy="-2245.6648" rx="3.2" ry="3.2"/>
</g>
<!-- Adobe_imageProperties -->
<g id="node5" class="node">
<title>Adobe_imageProperties</title>
<g id="a_node5"><a xlink:href="../../tables/Adobe_imageProperties.html" xlink:title="Adobe_imageProperties" target="_top">
<polygon fill="#ffffff" stroke="transparent" points="483,-2136.2 483,-2197.2 660,-2197.2 660,-2136.2 483,-2136.2"/>
<polygon fill="#f5f5f5" stroke="transparent" points="483.5,-2173.7 483.5,-2196.7 660.5,-2196.7 660.5,-2173.7 483.5,-2173.7"/>
<polygon fill="none" stroke="#000000" points="483.5,-2173.7 483.5,-2196.7 660.5,-2196.7 660.5,-2173.7 483.5,-2173.7"/>
<text text-anchor="start" x="488.5" y="-2182.3" font-family="Helvetica,sans-Serif" font-weight="bold" font-size="11.00" fill="#000000">Adobe_imageProperties</text>
<text text-anchor="start" x="626.0219" y="-2181.8" font-family="Helvetica,sans-Serif" font-size="11.00" fill="#000000">[table]</text>
<polygon fill="none" stroke="#000000" points="483.5,-2154.7 483.5,-2173.7 660.5,-2173.7 660.5,-2154.7 483.5,-2154.7"/>
<text text-anchor="start" x="486.5" y="-2160.8" font-family="Helvetica,sans-Serif" font-size="11.00" fill="#000000">...</text>
<polygon fill="#ffffff" stroke="transparent" points="483.5,-2135.7 483.5,-2154.7 570.5,-2154.7 570.5,-2135.7 483.5,-2135.7"/>
<polygon fill="none" stroke="#000000" points="483.5,-2135.7 483.5,-2154.7 570.5,-2154.7 570.5,-2135.7 483.5,-2135.7"/>
<text text-anchor="start" x="486.5" y="-2141.8" font-family="Helvetica,sans-Serif" font-size="11.00" fill="#000000">&lt; 1</text>
<polygon fill="#ffffff" stroke="transparent" points="570.5,-2135.7 570.5,-2154.7 615.5,-2154.7 615.5,-2135.7 570.5,-2135.7"/>
<polygon fill="none" stroke="#000000" points="570.5,-2135.7 570.5,-2154.7 615.5,-2154.7 615.5,-2135.7 570.5,-2135.7"/>
<text text-anchor="start" x="606.3862" y="-2141.8" font-family="Helvetica,sans-Serif" font-size="11.00" fill="#000000"> &#160;</text>
<polygon fill="#ffffff" stroke="transparent" points="615.5,-2135.7 615.5,-2154.7 660.5,-2154.7 660.5,-2135.7 615.5,-2135.7"/>
<polygon fill="none" stroke="#000000" points="615.5,-2135.7 615.5,-2154.7 660.5,-2154.7 660.5,-2135.7 615.5,-2135.7"/>
<text text-anchor="start" x="651.3862" y="-2141.8" font-family="Helvetica,sans-Serif" font-size="11.00" fill="#000000"> &#160;</text>
</a>
</g>
</g>
<!-- Adobe_imageProperties&#45;&gt;Adobe_images -->
<g id="edge4" class="edge">
<title>Adobe_imageProperties:w&#45;&gt;Adobe_images:e</title>
<path fill="none" stroke="#000000" d="M468.9247,-2163.7422C427.0138,-2163.8569 402.4809,-2162.595 375,-2125.7 346.0638,-2086.8511 382.9412,-1254.7 334.5,-1254.7"/>
<polygon fill="#000000" stroke="#000000" points="475.5,-2163.7232 483.5105,-2167.3 479.5,-2163.7116 483.5,-2163.7 483.5,-2163.7 483.5,-2163.7 479.5,-2163.7116 483.4895,-2160.1 475.5,-2163.7232 475.5,-2163.7232"/>
<ellipse fill="none" stroke="#000000" cx="472.3" cy="-2163.7325" rx="3.2" ry="3.2"/>
</g>
<!-- Adobe_libraryImageDevelopHistoryStep -->
<g id="node7" class="node">
<title>Adobe_libraryImageDevelopHistoryStep</title>
<g id="a_node7"><a xlink:href="../../tables/Adobe_libraryImageDevelopHistoryStep.html" xlink:title="Adobe_libraryImageDevelopHistoryStep" target="_top">
<polygon fill="#ffffff" stroke="transparent" points="437.5,-2054.2 437.5,-2115.2 705.5,-2115.2 705.5,-2054.2 437.5,-2054.2"/>
<polygon fill="#f5f5f5" stroke="transparent" points="437.5,-2091.7 437.5,-2114.7 705.5,-2114.7 705.5,-2091.7 437.5,-2091.7"/>
<polygon fill="none" stroke="#000000" points="437.5,-2091.7 437.5,-2114.7 705.5,-2114.7 705.5,-2091.7 437.5,-2091.7"/>
<text text-anchor="start" x="442.5" y="-2100.3" font-family="Helvetica,sans-Serif" font-weight="bold" font-size="11.00" fill="#000000">Adobe_libraryImageDevelopHistoryStep</text>
<text text-anchor="start" x="671.0219" y="-2099.8" font-family="Helvetica,sans-Serif" font-size="11.00" fill="#000000">[table]</text>
<polygon fill="none" stroke="#000000" points="437.5,-2072.7 437.5,-2091.7 705.5,-2091.7 705.5,-2072.7 437.5,-2072.7"/>
<text text-anchor="start" x="440.5" y="-2078.8" font-family="Helvetica,sans-Serif" font-size="11.00" fill="#000000">...</text>
<polygon fill="#ffffff" stroke="transparent" points="437.5,-2053.7 437.5,-2072.7 569.5,-2072.7 569.5,-2053.7 437.5,-2053.7"/>
<polygon fill="none" stroke="#000000" points="437.5,-2053.7 437.5,-2072.7 569.5,-2072.7 569.5,-2053.7 437.5,-2053.7"/>
<text text-anchor="start" x="440.5" y="-2059.8" font-family="Helvetica,sans-Serif" font-size="11.00" fill="#000000">&lt; 1</text>
<polygon fill="#ffffff" stroke="transparent" points="569.5,-2053.7 569.5,-2072.7 637.5,-2072.7 637.5,-2053.7 569.5,-2053.7"/>
<polygon fill="none" stroke="#000000" points="569.5,-2053.7 569.5,-2072.7 637.5,-2072.7 637.5,-2053.7 569.5,-2053.7"/>
<text text-anchor="start" x="628.3862" y="-2059.8" font-family="Helvetica,sans-Serif" font-size="11.00" fill="#000000"> &#160;</text>
<polygon fill="#ffffff" stroke="transparent" points="637.5,-2053.7 637.5,-2072.7 705.5,-2072.7 705.5,-2053.7 637.5,-2053.7"/>
<polygon fill="none" stroke="#000000" points="637.5,-2053.7 637.5,-2072.7 705.5,-2072.7 705.5,-2053.7 637.5,-2053.7"/>
<text text-anchor="start" x="696.3862" y="-2059.8" font-family="Helvetica,sans-Serif" font-size="11.00" fill="#000000"> &#160;</text>
</a>
</g>
</g>
<!-- Adobe_libraryImageDevelopHistoryStep&#45;&gt;Adobe_images -->
<g id="edge6" class="edge">
<title>Adobe_libraryImageDevelopHistoryStep:w&#45;&gt;Adobe_images:e</title>
<path fill="none" stroke="#000000" d="M422.9484,-2080.8517C400.5259,-2077.9119 388.923,-2067.038 375,-2043.7 330.0262,-1968.314 422.2821,-1254.7 334.5,-1254.7"/>
<polygon fill="#000000" stroke="#000000" points="429.5136,-2081.2344 437.2905,-2085.2939 433.5068,-2081.4672 437.5,-2081.7 437.5,-2081.7 437.5,-2081.7 433.5068,-2081.4672 437.7095,-2078.1061 429.5136,-2081.2344 429.5136,-2081.2344"/>
<ellipse fill="none" stroke="#000000" cx="426.319" cy="-2081.0481" rx="3.2" ry="3.2"/>
</g>
<!-- Adobe_libraryImageDevelopSnapshot -->
<g id="node8" class="node">
<title>Adobe_libraryImageDevelopSnapshot</title>
<g id="a_node8"><a xlink:href="../../tables/Adobe_libraryImageDevelopSnapshot.html" xlink:title="Adobe_libraryImageDevelopSnapshot" target="_top">
<polygon fill="#ffffff" stroke="transparent" points="444,-1972.2 444,-2033.2 699,-2033.2 699,-1972.2 444,-1972.2"/>
<polygon fill="#f5f5f5" stroke="transparent" points="444.5,-2009.7 444.5,-2032.7 699.5,-2032.7 699.5,-2009.7 444.5,-2009.7"/>
<polygon fill="none" stroke="#000000" points="444.5,-2009.7 444.5,-2032.7 699.5,-2032.7 699.5,-2009.7 444.5,-2009.7"/>
<text text-anchor="start" x="449.5" y="-2018.3" font-family="Helvetica,sans-Serif" font-weight="bold" font-size="11.00" fill="#000000">Adobe_libraryImageDevelopSnapshot</text>
<text text-anchor="start" x="665.0219" y="-2017.8" font-family="Helvetica,sans-Serif" font-size="11.00" fill="#000000">[table]</text>
<polygon fill="none" stroke="#000000" points="444.5,-1990.7 444.5,-2009.7 699.5,-2009.7 699.5,-1990.7 444.5,-1990.7"/>
<text text-anchor="start" x="447.5" y="-1996.8" font-family="Helvetica,sans-Serif" font-size="11.00" fill="#000000">...</text>
<polygon fill="#ffffff" stroke="transparent" points="444.5,-1971.7 444.5,-1990.7 570.5,-1990.7 570.5,-1971.7 444.5,-1971.7"/>
<polygon fill="none" stroke="#000000" points="444.5,-1971.7 444.5,-1990.7 570.5,-1990.7 570.5,-1971.7 444.5,-1971.7"/>
<text text-anchor="start" x="447.5" y="-1977.8" font-family="Helvetica,sans-Serif" font-size="11.00" fill="#000000">&lt; 1</text>
<polygon fill="#ffffff" stroke="transparent" points="570.5,-1971.7 570.5,-1990.7 634.5,-1990.7 634.5,-1971.7 570.5,-1971.7"/>
<polygon fill="none" stroke="#000000" points="570.5,-1971.7 570.5,-1990.7 634.5,-1990.7 634.5,-1971.7 570.5,-1971.7"/>
<text text-anchor="start" x="625.3862" y="-1977.8" font-family="Helvetica,sans-Serif" font-size="11.00" fill="#000000"> &#160;</text>
<polygon fill="#ffffff" stroke="transparent" points="634.5,-1971.7 634.5,-1990.7 699.5,-1990.7 699.5,-1971.7 634.5,-1971.7"/>
<polygon fill="none" stroke="#000000" points="634.5,-1971.7 634.5,-1990.7 699.5,-1990.7 699.5,-1971.7 634.5,-1971.7"/>
<text text-anchor="start" x="690.3862" y="-1977.8" font-family="Helvetica,sans-Serif" font-size="11.00" fill="#000000"> &#160;</text>
</a>
</g>
</g>
<!-- Adobe_libraryImageDevelopSnapshot&#45;&gt;Adobe_images -->
<g id="edge7" class="edge">
<title>Adobe_libraryImageDevelopSnapshot:w&#45;&gt;Adobe_images:e</title>
<path fill="none" stroke="#000000" d="M430.0513,-1999.1116C404.6261,-1996.7784 391.0216,-1987.0385 375,-1961.7 332.9488,-1895.1949 413.1843,-1254.7 334.5,-1254.7"/>
<polygon fill="#000000" stroke="#000000" points="436.5066,-1999.3744 444.3535,-2003.297 440.5033,-1999.5372 444.5,-1999.7 444.5,-1999.7 444.5,-1999.7 440.5033,-1999.5372 444.6465,-1996.103 436.5066,-1999.3744 436.5066,-1999.3744"/>
<ellipse fill="none" stroke="#000000" cx="433.3093" cy="-1999.2442" rx="3.2" ry="3.2"/>
</g>
<!-- Adobe_libraryImageFaceProcessHistory -->
<g id="node9" class="node">
<title>Adobe_libraryImageFaceProcessHistory</title>
<g id="a_node9"><a xlink:href="../../tables/Adobe_libraryImageFaceProcessHistory.html" xlink:title="Adobe_libraryImageFaceProcessHistory" target="_top">
<polygon fill="#ffffff" stroke="transparent" points="383,-1816.7 383,-1950.7 760,-1950.7 760,-1816.7 383,-1816.7"/>
<polygon fill="#f5f5f5" stroke="transparent" points="385.5,-1925.7 385.5,-1948.7 758.5,-1948.7 758.5,-1925.7 385.5,-1925.7"/>
<polygon fill="none" stroke="#000000" points="385.5,-1925.7 385.5,-1948.7 758.5,-1948.7 758.5,-1925.7 385.5,-1925.7"/>
<text text-anchor="start" x="390.5" y="-1934.3" font-family="Helvetica,sans-Serif" font-weight="bold" font-size="11.00" fill="#000000">Adobe_libraryImageFaceProcessHistory</text>
<text text-anchor="start" x="723.5437" y="-1933.8" font-family="Helvetica,sans-Serif" font-size="11.00" fill="#000000">[table]</text>
<polygon fill="none" stroke="#000000" points="385.5,-1903.7 385.5,-1925.7 636.5,-1925.7 636.5,-1903.7 385.5,-1903.7"/>
<image xlink:href="../../images/primaryKeys.png" width="11px" height="12px" preserveAspectRatio="xMinYMin meet" x="390.5" y="-1920.7"/>
<text text-anchor="start" x="405.5" y="-1910.8" font-family="Helvetica,sans-Serif" font-size="11.00" fill="#000000">id_local</text>
<polygon fill="none" stroke="#000000" points="636.5,-1903.7 636.5,-1925.7 758.5,-1925.7 758.5,-1903.7 636.5,-1903.7"/>
<text text-anchor="start" x="639.4156" y="-1911.4" font-family="Helvetica,sans-Serif" font-size="11.00" fill="#000000">integer[2000000000,10]</text>
<polygon fill="#ffffff" stroke="transparent" points="385.5,-1881.7 385.5,-1903.7 636.5,-1903.7 636.5,-1881.7 385.5,-1881.7"/>
<polygon fill="none" stroke="#000000" points="385.5,-1881.7 385.5,-1903.7 636.5,-1903.7 636.5,-1881.7 385.5,-1881.7"/>
<image xlink:href="../../images/foreignKeys.png" width="11px" height="12px" preserveAspectRatio="xMinYMin meet" x="390.5" y="-1898.7"/>
<text text-anchor="start" x="405.5" y="-1888.8" font-family="Helvetica,sans-Serif" font-size="11.00" fill="#000000">image</text>
<polygon fill="none" stroke="#000000" points="636.5,-1881.7 636.5,-1903.7 758.5,-1903.7 758.5,-1881.7 636.5,-1881.7"/>
<text text-anchor="start" x="639.4156" y="-1889.4" font-family="Helvetica,sans-Serif" font-size="11.00" fill="#000000">integer[2000000000,10]</text>
<polygon fill="none" stroke="#000000" points="385.5,-1859.7 385.5,-1881.7 636.5,-1881.7 636.5,-1859.7 385.5,-1859.7"/>
<text text-anchor="start" x="405.5" y="-1866.8" font-family="Helvetica,sans-Serif" font-size="11.00" fill="#000000">lastFaceDetector</text>
<polygon fill="none" stroke="#000000" points="636.5,-1859.7 636.5,-1881.7 758.5,-1881.7 758.5,-1859.7 636.5,-1859.7"/>
<text text-anchor="start" x="639.5" y="-1867.4" font-family="Helvetica,sans-Serif" font-size="11.00" fill="#000000">[2000000000,10]</text>
<polygon fill="none" stroke="#000000" points="385.5,-1837.7 385.5,-1859.7 636.5,-1859.7 636.5,-1837.7 385.5,-1837.7"/>
<text text-anchor="start" x="405.5" y="-1844.8" font-family="Helvetica,sans-Serif" font-size="11.00" fill="#000000">lastFaceRecognizer</text>
<polygon fill="none" stroke="#000000" points="636.5,-1837.7 636.5,-1859.7 758.5,-1859.7 758.5,-1837.7 636.5,-1837.7"/>
<text text-anchor="start" x="639.5" y="-1845.4" font-family="Helvetica,sans-Serif" font-size="11.00" fill="#000000">[2000000000,10]</text>
<polygon fill="#ffffff" stroke="transparent" points="385.5,-1818.7 385.5,-1837.7 515.5,-1837.7 515.5,-1818.7 385.5,-1818.7"/>
<polygon fill="none" stroke="#000000" points="385.5,-1818.7 385.5,-1837.7 515.5,-1837.7 515.5,-1818.7 385.5,-1818.7"/>
<text text-anchor="start" x="388.5" y="-1824.8" font-family="Helvetica,sans-Serif" font-size="11.00" fill="#000000">&lt; 1</text>
<polygon fill="#ffffff" stroke="transparent" points="515.5,-1818.7 515.5,-1837.7 636.5,-1837.7 636.5,-1818.7 515.5,-1818.7"/>
<polygon fill="none" stroke="#000000" points="515.5,-1818.7 515.5,-1837.7 636.5,-1837.7 636.5,-1818.7 515.5,-1818.7"/>
<text text-anchor="start" x="627.3862" y="-1824.8" font-family="Helvetica,sans-Serif" font-size="11.00" fill="#000000"> &#160;</text>
<polygon fill="#ffffff" stroke="transparent" points="636.5,-1818.7 636.5,-1837.7 758.5,-1837.7 758.5,-1818.7 636.5,-1818.7"/>
<polygon fill="none" stroke="#000000" points="636.5,-1818.7 636.5,-1837.7 758.5,-1837.7 758.5,-1818.7 636.5,-1818.7"/>
<text text-anchor="start" x="739.9053" y="-1824.8" font-family="Helvetica,sans-Serif" font-size="11.00" fill="#000000">0 &gt;</text>
<polygon fill="none" stroke="#000000" stroke-width="2" points="384,-1817.7 384,-1949.7 759,-1949.7 759,-1817.7 384,-1817.7"/>
</a>
</g>
</g>
<!-- Adobe_libraryImageFaceProcessHistory&#45;&gt;Adobe_images -->
<g id="edge8" class="edge">
<title>Adobe_libraryImageFaceProcessHistory:w&#45;&gt;Adobe_images:e</title>
<path fill="none" stroke="#000000" d="M373.3852,-1884.6333C325.7856,-1810.7791 400.8925,-1254.7 334.5,-1254.7"/>
<polygon fill="#000000" stroke="#000000" points="378.8411,-1888.2661 383.5048,-1895.6965 382.1705,-1890.4831 385.5,-1892.7 385.5,-1892.7 385.5,-1892.7 382.1705,-1890.4831 387.4952,-1889.7035 378.8411,-1888.2661 378.8411,-1888.2661"/>
<ellipse fill="none" stroke="#000000" cx="376.1775" cy="-1886.4926" rx="3.2" ry="3.2"/>
</g>
<!-- AgHarvestedDNGMetadata -->
<g id="node10" class="node">
<title>AgHarvestedDNGMetadata</title>
<g id="a_node10"><a xlink:href="../../tables/AgHarvestedDNGMetadata.html" xlink:title="AgHarvestedDNGMetadata" target="_top">
<polygon fill="#ffffff" stroke="transparent" points="476,-1734.2 476,-1795.2 667,-1795.2 667,-1734.2 476,-1734.2"/>
<polygon fill="#f5f5f5" stroke="transparent" points="476.5,-1771.7 476.5,-1794.7 667.5,-1794.7 667.5,-1771.7 476.5,-1771.7"/>
<polygon fill="none" stroke="#000000" points="476.5,-1771.7 476.5,-1794.7 667.5,-1794.7 667.5,-1771.7 476.5,-1771.7"/>
<text text-anchor="start" x="481.5" y="-1780.3" font-family="Helvetica,sans-Serif" font-weight="bold" font-size="11.00" fill="#000000">AgHarvestedDNGMetadata</text>
<text text-anchor="start" x="633.0219" y="-1779.8" font-family="Helvetica,sans-Serif" font-size="11.00" fill="#000000">[table]</text>
<polygon fill="none" stroke="#000000" points="476.5,-1752.7 476.5,-1771.7 667.5,-1771.7 667.5,-1752.7 476.5,-1752.7"/>
<text text-anchor="start" x="479.5" y="-1758.8" font-family="Helvetica,sans-Serif" font-size="11.00" fill="#000000">...</text>
<polygon fill="#ffffff" stroke="transparent" points="476.5,-1733.7 476.5,-1752.7 570.5,-1752.7 570.5,-1733.7 476.5,-1733.7"/>
<polygon fill="none" stroke="#000000" points="476.5,-1733.7 476.5,-1752.7 570.5,-1752.7 570.5,-1733.7 476.5,-1733.7"/>
<text text-anchor="start" x="479.5" y="-1739.8" font-family="Helvetica,sans-Serif" font-size="11.00" fill="#000000">&lt; 1</text>
<polygon fill="#ffffff" stroke="transparent" points="570.5,-1733.7 570.5,-1752.7 618.5,-1752.7 618.5,-1733.7 570.5,-1733.7"/>
<polygon fill="none" stroke="#000000" points="570.5,-1733.7 570.5,-1752.7 618.5,-1752.7 618.5,-1733.7 570.5,-1733.7"/>
<text text-anchor="start" x="609.3862" y="-1739.8" font-family="Helvetica,sans-Serif" font-size="11.00" fill="#000000"> &#160;</text>
<polygon fill="#ffffff" stroke="transparent" points="618.5,-1733.7 618.5,-1752.7 667.5,-1752.7 667.5,-1733.7 618.5,-1733.7"/>
<polygon fill="none" stroke="#000000" points="618.5,-1733.7 618.5,-1752.7 667.5,-1752.7 667.5,-1733.7 618.5,-1733.7"/>
<text text-anchor="start" x="658.3862" y="-1739.8" font-family="Helvetica,sans-Serif" font-size="11.00" fill="#000000"> &#160;</text>
</a>
</g>
</g>
<!-- AgHarvestedDNGMetadata&#45;&gt;Adobe_images -->
<g id="edge9" class="edge">
<title>AgHarvestedDNGMetadata:w&#45;&gt;Adobe_images:e</title>
<path fill="none" stroke="#000000" d="M462.0249,-1761.6663C423.1706,-1761.3462 401.0544,-1758.019 375,-1723.7 343.3726,-1682.0403 386.805,-1254.7 334.5,-1254.7"/>
<polygon fill="#000000" stroke="#000000" points="468.5,-1761.6813 476.4916,-1765.3 472.5,-1761.6907 476.5,-1761.7 476.5,-1761.7 476.5,-1761.7 472.5,-1761.6907 476.5084,-1758.1 468.5,-1761.6813 468.5,-1761.6813"/>
<ellipse fill="none" stroke="#000000" cx="465.3" cy="-1761.6739" rx="3.2" ry="3.2"/>
</g>
<!-- AgHarvestedExifMetadata -->
<g id="node11" class="node">
<title>AgHarvestedExifMetadata</title>
<g id="a_node11"><a xlink:href="../../tables/AgHarvestedExifMetadata.html" xlink:title="AgHarvestedExifMetadata" target="_top">
<polygon fill="#ffffff" stroke="transparent" points="478,-1652.2 478,-1713.2 665,-1713.2 665,-1652.2 478,-1652.2"/>
<polygon fill="#f5f5f5" stroke="transparent" points="478.5,-1689.7 478.5,-1712.7 665.5,-1712.7 665.5,-1689.7 478.5,-1689.7"/>
<polygon fill="none" stroke="#000000" points="478.5,-1689.7 478.5,-1712.7 665.5,-1712.7 665.5,-1689.7 478.5,-1689.7"/>
<text text-anchor="start" x="483.5" y="-1698.3" font-family="Helvetica,sans-Serif" font-weight="bold" font-size="11.00" fill="#000000">AgHarvestedExifMetadata</text>
<text text-anchor="start" x="631.0219" y="-1697.8" font-family="Helvetica,sans-Serif" font-size="11.00" fill="#000000">[table]</text>
<polygon fill="none" stroke="#000000" points="478.5,-1670.7 478.5,-1689.7 665.5,-1689.7 665.5,-1670.7 478.5,-1670.7"/>
<text text-anchor="start" x="481.5" y="-1676.8" font-family="Helvetica,sans-Serif" font-size="11.00" fill="#000000">...</text>
<polygon fill="#ffffff" stroke="transparent" points="478.5,-1651.7 478.5,-1670.7 570.5,-1670.7 570.5,-1651.7 478.5,-1651.7"/>
<polygon fill="none" stroke="#000000" points="478.5,-1651.7 478.5,-1670.7 570.5,-1670.7 570.5,-1651.7 478.5,-1651.7"/>
<text text-anchor="start" x="481.5" y="-1657.8" font-family="Helvetica,sans-Serif" font-size="11.00" fill="#000000">&lt; 4</text>
<polygon fill="#ffffff" stroke="transparent" points="570.5,-1651.7 570.5,-1670.7 617.5,-1670.7 617.5,-1651.7 570.5,-1651.7"/>
<polygon fill="none" stroke="#000000" points="570.5,-1651.7 570.5,-1670.7 617.5,-1670.7 617.5,-1651.7 570.5,-1651.7"/>
<text text-anchor="start" x="608.3862" y="-1657.8" font-family="Helvetica,sans-Serif" font-size="11.00" fill="#000000"> &#160;</text>
<polygon fill="#ffffff" stroke="transparent" points="617.5,-1651.7 617.5,-1670.7 665.5,-1670.7 665.5,-1651.7 617.5,-1651.7"/>
<polygon fill="none" stroke="#000000" points="617.5,-1651.7 617.5,-1670.7 665.5,-1670.7 665.5,-1651.7 617.5,-1651.7"/>
<text text-anchor="start" x="656.3862" y="-1657.8" font-family="Helvetica,sans-Serif" font-size="11.00" fill="#000000"> &#160;</text>
</a>
</g>
</g>
<!-- AgHarvestedExifMetadata&#45;&gt;Adobe_images -->
<g id="edge10" class="edge">
<title>AgHarvestedExifMetadata:w&#45;&gt;Adobe_images:e</title>
<path fill="none" stroke="#000000" d="M464.04,-1679.677C424.3866,-1679.4159 401.9896,-1676.3612 375,-1641.7 321.8749,-1573.4745 420.9696,-1254.7 334.5,-1254.7"/>
<polygon fill="#000000" stroke="#000000" points="470.5,-1679.6872 478.4942,-1683.3 474.5,-1679.6936 478.5,-1679.7 478.5,-1679.7 478.5,-1679.7 474.5,-1679.6936 478.5058,-1676.1 470.5,-1679.6872 470.5,-1679.6872"/>
<ellipse fill="none" stroke="#000000" cx="467.3" cy="-1679.6821" rx="3.2" ry="3.2"/>
</g>
<!-- AgHarvestedIptcMetadata -->
<g id="node12" class="node">
<title>AgHarvestedIptcMetadata</title>
<g id="a_node12"><a xlink:href="../../tables/AgHarvestedIptcMetadata.html" xlink:title="AgHarvestedIptcMetadata" target="_top">
<polygon fill="#ffffff" stroke="transparent" points="478.5,-1570.2 478.5,-1631.2 664.5,-1631.2 664.5,-1570.2 478.5,-1570.2"/>
<polygon fill="#f5f5f5" stroke="transparent" points="478.5,-1607.7 478.5,-1630.7 664.5,-1630.7 664.5,-1607.7 478.5,-1607.7"/>
<polygon fill="none" stroke="#000000" points="478.5,-1607.7 478.5,-1630.7 664.5,-1630.7 664.5,-1607.7 478.5,-1607.7"/>
<text text-anchor="start" x="483.5" y="-1616.3" font-family="Helvetica,sans-Serif" font-weight="bold" font-size="11.00" fill="#000000">AgHarvestedIptcMetadata</text>
<text text-anchor="start" x="630.0219" y="-1615.8" font-family="Helvetica,sans-Serif" font-size="11.00" fill="#000000">[table]</text>
<polygon fill="none" stroke="#000000" points="478.5,-1588.7 478.5,-1607.7 664.5,-1607.7 664.5,-1588.7 478.5,-1588.7"/>
<text text-anchor="start" x="481.5" y="-1594.8" font-family="Helvetica,sans-Serif" font-size="11.00" fill="#000000">...</text>
<polygon fill="#ffffff" stroke="transparent" points="478.5,-1569.7 478.5,-1588.7 569.5,-1588.7 569.5,-1569.7 478.5,-1569.7"/>
<polygon fill="none" stroke="#000000" points="478.5,-1569.7 478.5,-1588.7 569.5,-1588.7 569.5,-1569.7 478.5,-1569.7"/>
<text text-anchor="start" x="481.5" y="-1575.8" font-family="Helvetica,sans-Serif" font-size="11.00" fill="#000000">&lt; 8</text>
<polygon fill="#ffffff" stroke="transparent" points="569.5,-1569.7 569.5,-1588.7 616.5,-1588.7 616.5,-1569.7 569.5,-1569.7"/>
<polygon fill="none" stroke="#000000" points="569.5,-1569.7 569.5,-1588.7 616.5,-1588.7 616.5,-1569.7 569.5,-1569.7"/>
<text text-anchor="start" x="607.3862" y="-1575.8" font-family="Helvetica,sans-Serif" font-size="11.00" fill="#000000"> &#160;</text>
<polygon fill="#ffffff" stroke="transparent" points="616.5,-1569.7 616.5,-1588.7 664.5,-1588.7 664.5,-1569.7 616.5,-1569.7"/>
<polygon fill="none" stroke="#000000" points="616.5,-1569.7 616.5,-1588.7 664.5,-1588.7 664.5,-1569.7 616.5,-1569.7"/>
<text text-anchor="start" x="655.3862" y="-1575.8" font-family="Helvetica,sans-Serif" font-size="11.00" fill="#000000"> &#160;</text>
</a>
</g>
</g>
<!-- AgHarvestedIptcMetadata&#45;&gt;Adobe_images -->
<g id="edge11" class="edge">
<title>AgHarvestedIptcMetadata:w&#45;&gt;Adobe_images:e</title>
<path fill="none" stroke="#000000" d="M463.8891,-1597.5736C423.9296,-1596.7362 402.2697,-1590.871 375,-1555.7 333.645,-1502.3625 401.9917,-1254.7 334.5,-1254.7"/>
<polygon fill="#000000" stroke="#000000" points="470.5003,-1597.6308 478.4688,-1601.2999 474.5001,-1597.6654 478.5,-1597.7 478.5,-1597.7 478.5,-1597.7 474.5001,-1597.6654 478.5312,-1594.1001 470.5003,-1597.6308 470.5003,-1597.6308"/>
<ellipse fill="none" stroke="#000000" cx="467.3004" cy="-1597.6031" rx="3.2" ry="3.2"/>
</g>
<!-- AgLibraryCollectionImage -->
<g id="node13" class="node">
<title>AgLibraryCollectionImage</title>
<g id="a_node13"><a xlink:href="../../tables/AgLibraryCollectionImage.html" xlink:title="AgLibraryCollectionImage" target="_top">
<polygon fill="#ffffff" stroke="transparent" points="477.5,-1460.2 477.5,-1521.2 665.5,-1521.2 665.5,-1460.2 477.5,-1460.2"/>
<polygon fill="#f5f5f5" stroke="transparent" points="477.5,-1497.7 477.5,-1520.7 665.5,-1520.7 665.5,-1497.7 477.5,-1497.7"/>
<polygon fill="none" stroke="#000000" points="477.5,-1497.7 477.5,-1520.7 665.5,-1520.7 665.5,-1497.7 477.5,-1497.7"/>
<text text-anchor="start" x="482.5" y="-1506.3" font-family="Helvetica,sans-Serif" font-weight="bold" font-size="11.00" fill="#000000">AgLibraryCollectionImage</text>
<text text-anchor="start" x="631.0219" y="-1505.8" font-family="Helvetica,sans-Serif" font-size="11.00" fill="#000000">[table]</text>
<polygon fill="none" stroke="#000000" points="477.5,-1478.7 477.5,-1497.7 665.5,-1497.7 665.5,-1478.7 477.5,-1478.7"/>
<text text-anchor="start" x="480.5" y="-1484.8" font-family="Helvetica,sans-Serif" font-size="11.00" fill="#000000">...</text>
<polygon fill="#ffffff" stroke="transparent" points="477.5,-1459.7 477.5,-1478.7 565.5,-1478.7 565.5,-1459.7 477.5,-1459.7"/>
<polygon fill="none" stroke="#000000" points="477.5,-1459.7 477.5,-1478.7 565.5,-1478.7 565.5,-1459.7 477.5,-1459.7"/>
<text text-anchor="start" x="480.5" y="-1465.8" font-family="Helvetica,sans-Serif" font-size="11.00" fill="#000000">&lt; 2</text>
<polygon fill="#ffffff" stroke="transparent" points="565.5,-1459.7 565.5,-1478.7 610.5,-1478.7 610.5,-1459.7 565.5,-1459.7"/>
<polygon fill="none" stroke="#000000" points="565.5,-1459.7 565.5,-1478.7 610.5,-1478.7 610.5,-1459.7 565.5,-1459.7"/>
<text text-anchor="start" x="601.3862" y="-1465.8" font-family="Helvetica,sans-Serif" font-size="11.00" fill="#000000"> &#160;</text>
<polygon fill="#ffffff" stroke="transparent" points="610.5,-1459.7 610.5,-1478.7 665.5,-1478.7 665.5,-1459.7 610.5,-1459.7"/>
<polygon fill="none" stroke="#000000" points="610.5,-1459.7 610.5,-1478.7 665.5,-1478.7 665.5,-1459.7 610.5,-1459.7"/>
<text text-anchor="start" x="646.9053" y="-1465.8" font-family="Helvetica,sans-Serif" font-size="11.00" fill="#000000">3 &gt;</text>
</a>
</g>
</g>
<!-- AgLibraryCollectionImage&#45;&gt;Adobe_images -->
<g id="edge12" class="edge">
<title>AgLibraryCollectionImage:w&#45;&gt;Adobe_images:e</title>
<path fill="none" stroke="#000000" d="M463.0541,-1487.5323C423.6654,-1486.4703 403.2781,-1479.5863 375,-1445.7 319.4012,-1379.0749 421.2763,-1254.7 334.5,-1254.7"/>
<polygon fill="#000000" stroke="#000000" points="469.5005,-1487.6071 477.4582,-1491.2998 473.5003,-1487.6536 477.5,-1487.7 477.5,-1487.7 477.5,-1487.7 473.5003,-1487.6536 477.5418,-1484.1002 469.5005,-1487.6071 469.5005,-1487.6071"/>
<ellipse fill="none" stroke="#000000" cx="466.3008" cy="-1487.5699" rx="3.2" ry="3.2"/>
</g>
<!-- AgLibraryCollectionImageChangeCounter -->
<g id="node14" class="node">
<title>AgLibraryCollectionImageChangeCounter</title>
<g id="a_node14"><a xlink:href="../../tables/AgLibraryCollectionImageChangeCounter.html" xlink:title="AgLibraryCollectionImageChangeCounter" target="_top">
<polygon fill="#ffffff" stroke="transparent" points="815.5,-1511.2 815.5,-1572.2 1093.5,-1572.2 1093.5,-1511.2 815.5,-1511.2"/>
<polygon fill="#f5f5f5" stroke="transparent" points="815.5,-1548.7 815.5,-1571.7 1093.5,-1571.7 1093.5,-1548.7 815.5,-1548.7"/>
<polygon fill="none" stroke="#000000" points="815.5,-1548.7 815.5,-1571.7 1093.5,-1571.7 1093.5,-1548.7 815.5,-1548.7"/>
<text text-anchor="start" x="820.5" y="-1557.3" font-family="Helvetica,sans-Serif" font-weight="bold" font-size="11.00" fill="#000000">AgLibraryCollectionImageChangeCounter</text>
<text text-anchor="start" x="1059.0219" y="-1556.8" font-family="Helvetica,sans-Serif" font-size="11.00" fill="#000000">[table]</text>
<polygon fill="none" stroke="#000000" points="815.5,-1529.7 815.5,-1548.7 1093.5,-1548.7 1093.5,-1529.7 815.5,-1529.7"/>
<text text-anchor="start" x="818.5" y="-1535.8" font-family="Helvetica,sans-Serif" font-size="11.00" fill="#000000">...</text>
<polygon fill="#ffffff" stroke="transparent" points="815.5,-1510.7 815.5,-1529.7 952.5,-1529.7 952.5,-1510.7 815.5,-1510.7"/>
<polygon fill="none" stroke="#000000" points="815.5,-1510.7 815.5,-1529.7 952.5,-1529.7 952.5,-1510.7 815.5,-1510.7"/>
<text text-anchor="start" x="818.5" y="-1516.8" font-family="Helvetica,sans-Serif" font-size="11.00" fill="#000000">&lt; 3</text>
<polygon fill="#ffffff" stroke="transparent" points="952.5,-1510.7 952.5,-1529.7 1022.5,-1529.7 1022.5,-1510.7 952.5,-1510.7"/>
<polygon fill="none" stroke="#000000" points="952.5,-1510.7 952.5,-1529.7 1022.5,-1529.7 1022.5,-1510.7 952.5,-1510.7"/>
<text text-anchor="start" x="1013.3862" y="-1516.8" font-family="Helvetica,sans-Serif" font-size="11.00" fill="#000000"> &#160;</text>
<polygon fill="#ffffff" stroke="transparent" points="1022.5,-1510.7 1022.5,-1529.7 1093.5,-1529.7 1093.5,-1510.7 1022.5,-1510.7"/>
<polygon fill="none" stroke="#000000" points="1022.5,-1510.7 1022.5,-1529.7 1093.5,-1529.7 1093.5,-1510.7 1022.5,-1510.7"/>
<text text-anchor="start" x="1084.3862" y="-1516.8" font-family="Helvetica,sans-Serif" font-size="11.00" fill="#000000"> &#160;</text>
</a>
</g>
</g>
<!-- AgLibraryCollectionImageChangeCounter&#45;&gt;Adobe_images -->
<g id="edge14" class="edge">
<title>AgLibraryCollectionImageChangeCounter:w&#45;&gt;Adobe_images:e</title>
<path fill="none" stroke="#000000" d="M800.8555,-1539.0465C718.2316,-1541.9737 409.1912,-1561.7335 375,-1531.7 328.261,-1490.6445 396.71,-1254.7 334.5,-1254.7"/>
<polygon fill="#000000" stroke="#000000" points="807.5022,-1538.8893 815.5852,-1542.299 811.5011,-1538.7946 815.5,-1538.7 815.5,-1538.7 815.5,-1538.7 811.5011,-1538.7946 815.4148,-1535.101 807.5022,-1538.8893 807.5022,-1538.8893"/>
<ellipse fill="none" stroke="#000000" cx="804.3031" cy="-1538.965" rx="3.2" ry="3.2"/>
</g>
<!-- AgLibraryCollectionImageChangeCounter&#45;&gt;AgLibraryCollectionImage -->
<g id="edge13" class="edge">
<title>AgLibraryCollectionImageChangeCounter:w&#45;&gt;AgLibraryCollectionImage:e</title>
<path fill="none" stroke="#000000" d="M804.8532,-1538.2895C743.9478,-1533.4629 732.2014,-1487.7 665.5,-1487.7"/>
<polygon fill="#000000" stroke="#000000" points="814.8547,-1534.6721 814.5464,-1542.6662 812.9476,-1542.6045 813.2559,-1534.6105 814.8547,-1534.6721"/>
<polyline fill="none" stroke="#000000" points="815.5,-1538.7 811.503,-1538.5458 "/>
<ellipse fill="none" stroke="#000000" cx="808.3053" cy="-1538.4225" rx="3.2" ry="3.2"/>
</g>
<!-- AgLibraryCollectionImageOzAlbumAssetIds -->
<g id="node15" class="node">
<title>AgLibraryCollectionImageOzAlbumAssetIds</title>
<g id="a_node15"><a xlink:href="../../tables/AgLibraryCollectionImageOzAlbumAssetIds.html" xlink:title="AgLibraryCollectionImageOzAlbumAssetIds" target="_top">
<polygon fill="#ffffff" stroke="transparent" points="809,-1422.2 809,-1483.2 1100,-1483.2 1100,-1422.2 809,-1422.2"/>
<polygon fill="#f5f5f5" stroke="transparent" points="809.5,-1459.7 809.5,-1482.7 1100.5,-1482.7 1100.5,-1459.7 809.5,-1459.7"/>
<polygon fill="none" stroke="#000000" points="809.5,-1459.7 809.5,-1482.7 1100.5,-1482.7 1100.5,-1459.7 809.5,-1459.7"/>
<text text-anchor="start" x="814.5" y="-1468.3" font-family="Helvetica,sans-Serif" font-weight="bold" font-size="11.00" fill="#000000">AgLibraryCollectionImageOzAlbumAssetIds</text>
<text text-anchor="start" x="1066.0219" y="-1467.8" font-family="Helvetica,sans-Serif" font-size="11.00" fill="#000000">[table]</text>
<polygon fill="none" stroke="#000000" points="809.5,-1440.7 809.5,-1459.7 1100.5,-1459.7 1100.5,-1440.7 809.5,-1440.7"/>
<text text-anchor="start" x="812.5" y="-1446.8" font-family="Helvetica,sans-Serif" font-size="11.00" fill="#000000">...</text>
<polygon fill="#ffffff" stroke="transparent" points="809.5,-1421.7 809.5,-1440.7 953.5,-1440.7 953.5,-1421.7 809.5,-1421.7"/>
<polygon fill="none" stroke="#000000" points="809.5,-1421.7 809.5,-1440.7 953.5,-1440.7 953.5,-1421.7 809.5,-1421.7"/>
<text text-anchor="start" x="812.5" y="-1427.8" font-family="Helvetica,sans-Serif" font-size="11.00" fill="#000000">&lt; 3</text>
<polygon fill="#ffffff" stroke="transparent" points="953.5,-1421.7 953.5,-1440.7 1026.5,-1440.7 1026.5,-1421.7 953.5,-1421.7"/>
<polygon fill="none" stroke="#000000" points="953.5,-1421.7 953.5,-1440.7 1026.5,-1440.7 1026.5,-1421.7 953.5,-1421.7"/>
<text text-anchor="start" x="1017.3862" y="-1427.8" font-family="Helvetica,sans-Serif" font-size="11.00" fill="#000000"> &#160;</text>
<polygon fill="#ffffff" stroke="transparent" points="1026.5,-1421.7 1026.5,-1440.7 1100.5,-1440.7 1100.5,-1421.7 1026.5,-1421.7"/>
<polygon fill="none" stroke="#000000" points="1026.5,-1421.7 1026.5,-1440.7 1100.5,-1440.7 1100.5,-1421.7 1026.5,-1421.7"/>
<text text-anchor="start" x="1091.3862" y="-1427.8" font-family="Helvetica,sans-Serif" font-size="11.00" fill="#000000"> &#160;</text>
</a>
</g>
</g>
<!-- AgLibraryCollectionImageOzAlbumAssetIds&#45;&gt;Adobe_images -->
<g id="edge16" class="edge">
<title>AgLibraryCollectionImageOzAlbumAssetIds:w&#45;&gt;Adobe_images:e</title>
<path fill="none" stroke="#000000" d="M794.6159,-1449.4055C717.9245,-1447.4391 391.8582,-1435.8596 375,-1421.7 316.518,-1372.5797 410.8737,-1254.7 334.5,-1254.7"/>
<polygon fill="#000000" stroke="#000000" points="801.5016,-1449.5417 809.4287,-1453.2993 805.5008,-1449.6208 809.5,-1449.7 809.5,-1449.7 809.5,-1449.7 805.5008,-1449.6208 809.5713,-1446.1007 801.5016,-1449.5417 801.5016,-1449.5417"/>
<ellipse fill="none" stroke="#000000" cx="798.3022" cy="-1449.4783" rx="3.2" ry="3.2"/>
</g>
<!-- AgLibraryCollectionImageOzAlbumAssetIds&#45;&gt;AgLibraryCollectionImage -->
<g id="edge15" class="edge">
<title>AgLibraryCollectionImageOzAlbumAssetIds:w&#45;&gt;AgLibraryCollectionImage:e</title>
<path fill="none" stroke="#000000" d="M794.9337,-1450.3596C741.1607,-1455.4056 726.5197,-1487.7 665.5,-1487.7"/>
<polygon fill="#000000" stroke="#000000" points="801.5082,-1450.0619 809.6629,-1453.2963 805.5041,-1449.881 809.5,-1449.7 809.5,-1449.7 809.5,-1449.7 805.5041,-1449.881 809.3371,-1446.1037 801.5082,-1450.0619 801.5082,-1450.0619"/>
<ellipse fill="none" stroke="#000000" cx="798.3115" cy="-1450.2067" rx="3.2" ry="3.2"/>
</g>
<!-- AgLibraryCollectionStackImage -->
<g id="node16" class="node">
<title>AgLibraryCollectionStackImage</title>
<g id="a_node16"><a xlink:href="../../tables/AgLibraryCollectionStackImage.html" xlink:title="AgLibraryCollectionStackImage" target="_top">
<polygon fill="#ffffff" stroke="transparent" points="461.5,-1350.2 461.5,-1411.2 681.5,-1411.2 681.5,-1350.2 461.5,-1350.2"/>
<polygon fill="#f5f5f5" stroke="transparent" points="461.5,-1387.7 461.5,-1410.7 681.5,-1410.7 681.5,-1387.7 461.5,-1387.7"/>
<polygon fill="none" stroke="#000000" points="461.5,-1387.7 461.5,-1410.7 681.5,-1410.7 681.5,-1387.7 461.5,-1387.7"/>
<text text-anchor="start" x="466.5" y="-1396.3" font-family="Helvetica,sans-Serif" font-weight="bold" font-size="11.00" fill="#000000">AgLibraryCollectionStackImage</text>
<text text-anchor="start" x="647.0219" y="-1395.8" font-family="Helvetica,sans-Serif" font-size="11.00" fill="#000000">[table]</text>
<polygon fill="none" stroke="#000000" points="461.5,-1368.7 461.5,-1387.7 681.5,-1387.7 681.5,-1368.7 461.5,-1368.7"/>
<text text-anchor="start" x="464.5" y="-1374.8" font-family="Helvetica,sans-Serif" font-size="11.00" fill="#000000">...</text>
<polygon fill="#ffffff" stroke="transparent" points="461.5,-1349.7 461.5,-1368.7 569.5,-1368.7 569.5,-1349.7 461.5,-1349.7"/>
<polygon fill="none" stroke="#000000" points="461.5,-1349.7 461.5,-1368.7 569.5,-1368.7 569.5,-1349.7 461.5,-1349.7"/>
<text text-anchor="start" x="464.5" y="-1355.8" font-family="Helvetica,sans-Serif" font-size="11.00" fill="#000000">&lt; 3</text>
<polygon fill="#ffffff" stroke="transparent" points="569.5,-1349.7 569.5,-1368.7 625.5,-1368.7 625.5,-1349.7 569.5,-1349.7"/>
<polygon fill="none" stroke="#000000" points="569.5,-1349.7 569.5,-1368.7 625.5,-1368.7 625.5,-1349.7 569.5,-1349.7"/>
<text text-anchor="start" x="616.3862" y="-1355.8" font-family="Helvetica,sans-Serif" font-size="11.00" fill="#000000"> &#160;</text>
<polygon fill="#ffffff" stroke="transparent" points="625.5,-1349.7 625.5,-1368.7 681.5,-1368.7 681.5,-1349.7 625.5,-1349.7"/>
<polygon fill="none" stroke="#000000" points="625.5,-1349.7 625.5,-1368.7 681.5,-1368.7 681.5,-1349.7 625.5,-1349.7"/>
<text text-anchor="start" x="672.3862" y="-1355.8" font-family="Helvetica,sans-Serif" font-size="11.00" fill="#000000"> &#160;</text>
</a>
</g>
</g>
<!-- AgLibraryCollectionStackImage&#45;&gt;Adobe_images -->
<g id="edge17" class="edge">
<title>AgLibraryCollectionStackImage:w&#45;&gt;Adobe_images:e</title>
<path fill="none" stroke="#000000" d="M446.9637,-1377.2662C415.6716,-1375.1883 401.3764,-1365.2782 375,-1339.7 344.9588,-1310.5678 376.3469,-1254.7 334.5,-1254.7"/>
<polygon fill="#000000" stroke="#000000" points="453.5036,-1377.4613 461.3926,-1381.2984 457.5018,-1377.5806 461.5,-1377.7 461.5,-1377.7 461.5,-1377.7 457.5018,-1377.5806 461.6074,-1374.1016 453.5036,-1377.4613 453.5036,-1377.4613"/>
<ellipse fill="none" stroke="#000000" cx="450.305" cy="-1377.3658" rx="3.2" ry="3.2"/>
</g>
<!-- AgLibraryFace -->
<g id="node17" class="node">
<title>AgLibraryFace</title>
<g id="a_node17"><a xlink:href="../../tables/AgLibraryFace.html" xlink:title="AgLibraryFace" target="_top">
<polygon fill="#ffffff" stroke="transparent" points="510,-1268.2 510,-1329.2 633,-1329.2 633,-1268.2 510,-1268.2"/>
<polygon fill="#f5f5f5" stroke="transparent" points="510.5,-1305.7 510.5,-1328.7 633.5,-1328.7 633.5,-1305.7 510.5,-1305.7"/>
<polygon fill="none" stroke="#000000" points="510.5,-1305.7 510.5,-1328.7 633.5,-1328.7 633.5,-1305.7 510.5,-1305.7"/>
<text text-anchor="start" x="515.5" y="-1314.3" font-family="Helvetica,sans-Serif" font-weight="bold" font-size="11.00" fill="#000000">AgLibraryFace</text>
<text text-anchor="start" x="599.0219" y="-1313.8" font-family="Helvetica,sans-Serif" font-size="11.00" fill="#000000">[table]</text>
<polygon fill="none" stroke="#000000" points="510.5,-1286.7 510.5,-1305.7 633.5,-1305.7 633.5,-1286.7 510.5,-1286.7"/>
<text text-anchor="start" x="513.5" y="-1292.8" font-family="Helvetica,sans-Serif" font-size="11.00" fill="#000000">...</text>
<polygon fill="#ffffff" stroke="transparent" points="510.5,-1267.7 510.5,-1286.7 565.5,-1286.7 565.5,-1267.7 510.5,-1267.7"/>
<polygon fill="none" stroke="#000000" points="510.5,-1267.7 510.5,-1286.7 565.5,-1286.7 565.5,-1267.7 510.5,-1267.7"/>
<text text-anchor="start" x="513.5" y="-1273.8" font-family="Helvetica,sans-Serif" font-size="11.00" fill="#000000">&lt; 1</text>
<polygon fill="#ffffff" stroke="transparent" points="565.5,-1267.7 565.5,-1286.7 594.5,-1286.7 594.5,-1267.7 565.5,-1267.7"/>
<polygon fill="none" stroke="#000000" points="565.5,-1267.7 565.5,-1286.7 594.5,-1286.7 594.5,-1267.7 565.5,-1267.7"/>
<text text-anchor="start" x="585.3862" y="-1273.8" font-family="Helvetica,sans-Serif" font-size="11.00" fill="#000000"> &#160;</text>
<polygon fill="#ffffff" stroke="transparent" points="594.5,-1267.7 594.5,-1286.7 633.5,-1286.7 633.5,-1267.7 594.5,-1267.7"/>
<polygon fill="none" stroke="#000000" points="594.5,-1267.7 594.5,-1286.7 633.5,-1286.7 633.5,-1267.7 594.5,-1267.7"/>
<text text-anchor="start" x="614.9053" y="-1273.8" font-family="Helvetica,sans-Serif" font-size="11.00" fill="#000000">3 &gt;</text>
</a>
</g>
</g>
<!-- AgLibraryFace&#45;&gt;Adobe_images -->
<g id="edge18" class="edge">
<title>AgLibraryFace:w&#45;&gt;Adobe_images:e</title>
<path fill="none" stroke="#000000" d="M495.7447,-1295.211C427.9327,-1290.5852 409.64,-1254.7 334.5,-1254.7"/>
<polygon fill="#000000" stroke="#000000" points="502.5044,-1295.435 510.3807,-1299.298 506.5022,-1295.5675 510.5,-1295.7 510.5,-1295.7 510.5,-1295.7 506.5022,-1295.5675 510.6193,-1292.102 502.5044,-1295.435 502.5044,-1295.435"/>
<ellipse fill="none" stroke="#000000" cx="499.3061" cy="-1295.3289" rx="3.2" ry="3.2"/>
</g>
<!-- AgLibraryFolderStackImage -->
<g id="node18" class="node">
<title>AgLibraryFolderStackImage</title>
<g id="a_node18"><a xlink:href="../../tables/AgLibraryFolderStackImage.html" xlink:title="AgLibraryFolderStackImage" target="_top">
<polygon fill="#ffffff" stroke="transparent" points="472,-1186.2 472,-1247.2 671,-1247.2 671,-1186.2 472,-1186.2"/>
<polygon fill="#f5f5f5" stroke="transparent" points="472.5,-1223.7 472.5,-1246.7 671.5,-1246.7 671.5,-1223.7 472.5,-1223.7"/>
<polygon fill="none" stroke="#000000" points="472.5,-1223.7 472.5,-1246.7 671.5,-1246.7 671.5,-1223.7 472.5,-1223.7"/>
<text text-anchor="start" x="477.5" y="-1232.3" font-family="Helvetica,sans-Serif" font-weight="bold" font-size="11.00" fill="#000000">AgLibraryFolderStackImage</text>
<text text-anchor="start" x="637.0219" y="-1231.8" font-family="Helvetica,sans-Serif" font-size="11.00" fill="#000000">[table]</text>
<polygon fill="none" stroke="#000000" points="472.5,-1204.7 472.5,-1223.7 671.5,-1223.7 671.5,-1204.7 472.5,-1204.7"/>
<text text-anchor="start" x="475.5" y="-1210.8" font-family="Helvetica,sans-Serif" font-size="11.00" fill="#000000">...</text>
<polygon fill="#ffffff" stroke="transparent" points="472.5,-1185.7 472.5,-1204.7 570.5,-1204.7 570.5,-1185.7 472.5,-1185.7"/>
<polygon fill="none" stroke="#000000" points="472.5,-1185.7 472.5,-1204.7 570.5,-1204.7 570.5,-1185.7 472.5,-1185.7"/>
<text text-anchor="start" x="475.5" y="-1191.8" font-family="Helvetica,sans-Serif" font-size="11.00" fill="#000000">&lt; 2</text>
<polygon fill="#ffffff" stroke="transparent" points="570.5,-1185.7 570.5,-1204.7 620.5,-1204.7 620.5,-1185.7 570.5,-1185.7"/>
<polygon fill="none" stroke="#000000" points="570.5,-1185.7 570.5,-1204.7 620.5,-1204.7 620.5,-1185.7 570.5,-1185.7"/>
<text text-anchor="start" x="611.3862" y="-1191.8" font-family="Helvetica,sans-Serif" font-size="11.00" fill="#000000"> &#160;</text>
<polygon fill="#ffffff" stroke="transparent" points="620.5,-1185.7 620.5,-1204.7 671.5,-1204.7 671.5,-1185.7 620.5,-1185.7"/>
<polygon fill="none" stroke="#000000" points="620.5,-1185.7 620.5,-1204.7 671.5,-1204.7 671.5,-1185.7 620.5,-1185.7"/>
<text text-anchor="start" x="662.3862" y="-1191.8" font-family="Helvetica,sans-Serif" font-size="11.00" fill="#000000"> &#160;</text>
</a>
</g>
</g>
<!-- AgLibraryFolderStackImage&#45;&gt;Adobe_images -->
<g id="edge19" class="edge">
<title>AgLibraryFolderStackImage:w&#45;&gt;Adobe_images:e</title>
<path fill="none" stroke="#000000" d="M458.1115,-1214.4466C406.564,-1220.0035 393.3594,-1254.7 334.5,-1254.7"/>
<polygon fill="#000000" stroke="#000000" points="464.5107,-1214.1146 472.6866,-1217.2952 468.5054,-1213.9073 472.5,-1213.7 472.5,-1213.7 472.5,-1213.7 468.5054,-1213.9073 472.3134,-1210.1048 464.5107,-1214.1146 464.5107,-1214.1146"/>
<ellipse fill="none" stroke="#000000" cx="461.315" cy="-1214.2805" rx="3.2" ry="3.2"/>
</g>
<!-- AgLibraryImageChangeCounter -->
<g id="node19" class="node">
<title>AgLibraryImageChangeCounter</title>
<g id="a_node19"><a xlink:href="../../tables/AgLibraryImageChangeCounter.html" xlink:title="AgLibraryImageChangeCounter" target="_top">
<polygon fill="#ffffff" stroke="transparent" points="461.5,-1104.2 461.5,-1165.2 681.5,-1165.2 681.5,-1104.2 461.5,-1104.2"/>
<polygon fill="#f5f5f5" stroke="transparent" points="461.5,-1141.7 461.5,-1164.7 681.5,-1164.7 681.5,-1141.7 461.5,-1141.7"/>
<polygon fill="none" stroke="#000000" points="461.5,-1141.7 461.5,-1164.7 681.5,-1164.7 681.5,-1141.7 461.5,-1141.7"/>
<text text-anchor="start" x="466.5" y="-1150.3" font-family="Helvetica,sans-Serif" font-weight="bold" font-size="11.00" fill="#000000">AgLibraryImageChangeCounter</text>
<text text-anchor="start" x="647.0219" y="-1149.8" font-family="Helvetica,sans-Serif" font-size="11.00" fill="#000000">[table]</text>
<polygon fill="none" stroke="#000000" points="461.5,-1122.7 461.5,-1141.7 681.5,-1141.7 681.5,-1122.7 461.5,-1122.7"/>
<text text-anchor="start" x="464.5" y="-1128.8" font-family="Helvetica,sans-Serif" font-size="11.00" fill="#000000">...</text>
<polygon fill="#ffffff" stroke="transparent" points="461.5,-1103.7 461.5,-1122.7 569.5,-1122.7 569.5,-1103.7 461.5,-1103.7"/>
<polygon fill="none" stroke="#000000" points="461.5,-1103.7 461.5,-1122.7 569.5,-1122.7 569.5,-1103.7 461.5,-1103.7"/>
<text text-anchor="start" x="464.5" y="-1109.8" font-family="Helvetica,sans-Serif" font-size="11.00" fill="#000000">&lt; 1</text>
<polygon fill="#ffffff" stroke="transparent" points="569.5,-1103.7 569.5,-1122.7 625.5,-1122.7 625.5,-1103.7 569.5,-1103.7"/>
<polygon fill="none" stroke="#000000" points="569.5,-1103.7 569.5,-1122.7 625.5,-1122.7 625.5,-1103.7 569.5,-1103.7"/>
<text text-anchor="start" x="616.3862" y="-1109.8" font-family="Helvetica,sans-Serif" font-size="11.00" fill="#000000"> &#160;</text>
<polygon fill="#ffffff" stroke="transparent" points="625.5,-1103.7 625.5,-1122.7 681.5,-1122.7 681.5,-1103.7 625.5,-1103.7"/>
<polygon fill="none" stroke="#000000" points="625.5,-1103.7 625.5,-1122.7 681.5,-1122.7 681.5,-1103.7 625.5,-1103.7"/>
<text text-anchor="start" x="672.3862" y="-1109.8" font-family="Helvetica,sans-Serif" font-size="11.00" fill="#000000"> &#160;</text>
</a>
</g>
</g>
<!-- AgLibraryImageChangeCounter&#45;&gt;Adobe_images -->
<g id="edge20" class="edge">
<title>AgLibraryImageChangeCounter:w&#45;&gt;Adobe_images:e</title>
<path fill="none" stroke="#000000" d="M451.021,-1132.0023C416.0333,-1134.1536 402.9222,-1147.866 375,-1175.7 347.0562,-1203.5556 373.9562,-1254.7 334.5,-1254.7"/>
<polygon fill="#000000" stroke="#000000" points="460.5849,-1127.7247 460.8157,-1135.7214 459.2164,-1135.7676 458.9856,-1127.7709 460.5849,-1127.7247"/>
<polyline fill="none" stroke="#000000" points="461.5,-1131.7 457.5017,-1131.8154 "/>
<ellipse fill="none" stroke="#000000" cx="454.303" cy="-1131.9077" rx="3.2" ry="3.2"/>
</g>
<!-- AgLibraryImageOzAssetIds -->
<g id="node20" class="node">
<title>AgLibraryImageOzAssetIds</title>
<g id="a_node20"><a xlink:href="../../tables/AgLibraryImageOzAssetIds.html" xlink:title="AgLibraryImageOzAssetIds" target="_top">
<polygon fill="#ffffff" stroke="transparent" points="474,-1022.2 474,-1083.2 669,-1083.2 669,-1022.2 474,-1022.2"/>
<polygon fill="#f5f5f5" stroke="transparent" points="474.5,-1059.7 474.5,-1082.7 669.5,-1082.7 669.5,-1059.7 474.5,-1059.7"/>
<polygon fill="none" stroke="#000000" points="474.5,-1059.7 474.5,-1082.7 669.5,-1082.7 669.5,-1059.7 474.5,-1059.7"/>
<text text-anchor="start" x="479.5" y="-1068.3" font-family="Helvetica,sans-Serif" font-weight="bold" font-size="11.00" fill="#000000">AgLibraryImageOzAssetIds</text>
<text text-anchor="start" x="635.0219" y="-1067.8" font-family="Helvetica,sans-Serif" font-size="11.00" fill="#000000">[table]</text>
<polygon fill="none" stroke="#000000" points="474.5,-1040.7 474.5,-1059.7 669.5,-1059.7 669.5,-1040.7 474.5,-1040.7"/>
<text text-anchor="start" x="477.5" y="-1046.8" font-family="Helvetica,sans-Serif" font-size="11.00" fill="#000000">...</text>
<polygon fill="#ffffff" stroke="transparent" points="474.5,-1021.7 474.5,-1040.7 570.5,-1040.7 570.5,-1021.7 474.5,-1021.7"/>
<polygon fill="none" stroke="#000000" points="474.5,-1021.7 474.5,-1040.7 570.5,-1040.7 570.5,-1021.7 474.5,-1021.7"/>
<text text-anchor="start" x="477.5" y="-1027.8" font-family="Helvetica,sans-Serif" font-size="11.00" fill="#000000">&lt; 1</text>
<polygon fill="#ffffff" stroke="transparent" points="570.5,-1021.7 570.5,-1040.7 619.5,-1040.7 619.5,-1021.7 570.5,-1021.7"/>
<polygon fill="none" stroke="#000000" points="570.5,-1021.7 570.5,-1040.7 619.5,-1040.7 619.5,-1021.7 570.5,-1021.7"/>
<text text-anchor="start" x="610.3862" y="-1027.8" font-family="Helvetica,sans-Serif" font-size="11.00" fill="#000000"> &#160;</text>
<polygon fill="#ffffff" stroke="transparent" points="619.5,-1021.7 619.5,-1040.7 669.5,-1040.7 669.5,-1021.7 619.5,-1021.7"/>
<polygon fill="none" stroke="#000000" points="619.5,-1021.7 619.5,-1040.7 669.5,-1040.7 669.5,-1021.7 619.5,-1021.7"/>
<text text-anchor="start" x="660.3862" y="-1027.8" font-family="Helvetica,sans-Serif" font-size="11.00" fill="#000000"> &#160;</text>
</a>
</g>
</g>
<!-- AgLibraryImageOzAssetIds&#45;&gt;Adobe_images -->
<g id="edge21" class="edge">
<title>AgLibraryImageOzAssetIds:w&#45;&gt;Adobe_images:e</title>
<path fill="none" stroke="#000000" d="M460.1012,-1049.9615C421.8078,-1051.5162 402.8791,-1060.6302 375,-1093.7 327.4418,-1150.1129 408.2848,-1254.7 334.5,-1254.7"/>
<polygon fill="#000000" stroke="#000000" points="466.5013,-1049.8453 474.5654,-1053.2994 470.5007,-1049.7727 474.5,-1049.7 474.5,-1049.7 474.5,-1049.7 470.5007,-1049.7727 474.4346,-1046.1006 466.5013,-1049.8453 466.5013,-1049.8453"/>
<ellipse fill="none" stroke="#000000" cx="463.3018" cy="-1049.9035" rx="3.2" ry="3.2"/>
</g>
<!-- AgLibraryImageSyncedAssetData -->
<g id="node21" class="node">
<title>AgLibraryImageSyncedAssetData</title>
<g id="a_node21"><a xlink:href="../../tables/AgLibraryImageSyncedAssetData.html" xlink:title="AgLibraryImageSyncedAssetData" target="_top">
<polygon fill="#ffffff" stroke="transparent" points="456,-940.2 456,-1001.2 687,-1001.2 687,-940.2 456,-940.2"/>
<polygon fill="#f5f5f5" stroke="transparent" points="456.5,-977.7 456.5,-1000.7 687.5,-1000.7 687.5,-977.7 456.5,-977.7"/>
<polygon fill="none" stroke="#000000" points="456.5,-977.7 456.5,-1000.7 687.5,-1000.7 687.5,-977.7 456.5,-977.7"/>
<text text-anchor="start" x="461.5" y="-986.3" font-family="Helvetica,sans-Serif" font-weight="bold" font-size="11.00" fill="#000000">AgLibraryImageSyncedAssetData</text>
<text text-anchor="start" x="653.0219" y="-985.8" font-family="Helvetica,sans-Serif" font-size="11.00" fill="#000000">[table]</text>
<polygon fill="none" stroke="#000000" points="456.5,-958.7 456.5,-977.7 687.5,-977.7 687.5,-958.7 456.5,-958.7"/>
<text text-anchor="start" x="459.5" y="-964.8" font-family="Helvetica,sans-Serif" font-size="11.00" fill="#000000">...</text>
<polygon fill="#ffffff" stroke="transparent" points="456.5,-939.7 456.5,-958.7 570.5,-958.7 570.5,-939.7 456.5,-939.7"/>
<polygon fill="none" stroke="#000000" points="456.5,-939.7 456.5,-958.7 570.5,-958.7 570.5,-939.7 456.5,-939.7"/>
<text text-anchor="start" x="459.5" y="-945.8" font-family="Helvetica,sans-Serif" font-size="11.00" fill="#000000">&lt; 1</text>
<polygon fill="#ffffff" stroke="transparent" points="570.5,-939.7 570.5,-958.7 628.5,-958.7 628.5,-939.7 570.5,-939.7"/>
<polygon fill="none" stroke="#000000" points="570.5,-939.7 570.5,-958.7 628.5,-958.7 628.5,-939.7 570.5,-939.7"/>
<text text-anchor="start" x="619.3862" y="-945.8" font-family="Helvetica,sans-Serif" font-size="11.00" fill="#000000"> &#160;</text>
<polygon fill="#ffffff" stroke="transparent" points="628.5,-939.7 628.5,-958.7 687.5,-958.7 687.5,-939.7 628.5,-939.7"/>
<polygon fill="none" stroke="#000000" points="628.5,-939.7 628.5,-958.7 687.5,-958.7 687.5,-939.7 628.5,-939.7"/>
<text text-anchor="start" x="678.3862" y="-945.8" font-family="Helvetica,sans-Serif" font-size="11.00" fill="#000000"> &#160;</text>
</a>
</g>
</g>
<!-- AgLibraryImageSyncedAssetData&#45;&gt;Adobe_images -->
<g id="edge22" class="edge">
<title>AgLibraryImageSyncedAssetData:w&#45;&gt;Adobe_images:e</title>
<path fill="none" stroke="#000000" d="M441.7463,-968.2506C410.982,-970.7911 395.8478,-982.5257 375,-1011.7 343.1711,-1056.2412 389.2449,-1254.7 334.5,-1254.7"/>
<polygon fill="#000000" stroke="#000000" points="448.5056,-967.9984 456.6343,-971.2975 452.5028,-967.8492 456.5,-967.7 456.5,-967.7 456.5,-967.7 452.5028,-967.8492 456.3657,-964.1025 448.5056,-967.9984 448.5056,-967.9984"/>
<ellipse fill="none" stroke="#000000" cx="445.3078" cy="-968.1177" rx="3.2" ry="3.2"/>
</g>
<!-- AgLibraryImportImage -->
<g id="node22" class="node">
<title>AgLibraryImportImage</title>
<g id="a_node22"><a xlink:href="../../tables/AgLibraryImportImage.html" xlink:title="AgLibraryImportImage" target="_top">
<polygon fill="#ffffff" stroke="transparent" points="488,-858.2 488,-919.2 655,-919.2 655,-858.2 488,-858.2"/>
<polygon fill="#f5f5f5" stroke="transparent" points="488.5,-895.7 488.5,-918.7 655.5,-918.7 655.5,-895.7 488.5,-895.7"/>
<polygon fill="none" stroke="#000000" points="488.5,-895.7 488.5,-918.7 655.5,-918.7 655.5,-895.7 488.5,-895.7"/>
<text text-anchor="start" x="493.5" y="-904.3" font-family="Helvetica,sans-Serif" font-weight="bold" font-size="11.00" fill="#000000">AgLibraryImportImage</text>
<text text-anchor="start" x="621.0219" y="-903.8" font-family="Helvetica,sans-Serif" font-size="11.00" fill="#000000">[table]</text>
<polygon fill="none" stroke="#000000" points="488.5,-876.7 488.5,-895.7 655.5,-895.7 655.5,-876.7 488.5,-876.7"/>
<text text-anchor="start" x="491.5" y="-882.8" font-family="Helvetica,sans-Serif" font-size="11.00" fill="#000000">...</text>
<polygon fill="#ffffff" stroke="transparent" points="488.5,-857.7 488.5,-876.7 570.5,-876.7 570.5,-857.7 488.5,-857.7"/>
<polygon fill="none" stroke="#000000" points="488.5,-857.7 488.5,-876.7 570.5,-876.7 570.5,-857.7 488.5,-857.7"/>
<text text-anchor="start" x="491.5" y="-863.8" font-family="Helvetica,sans-Serif" font-size="11.00" fill="#000000">&lt; 1</text>
<polygon fill="#ffffff" stroke="transparent" points="570.5,-857.7 570.5,-876.7 612.5,-876.7 612.5,-857.7 570.5,-857.7"/>
<polygon fill="none" stroke="#000000" points="570.5,-857.7 570.5,-876.7 612.5,-876.7 612.5,-857.7 570.5,-857.7"/>
<text text-anchor="start" x="603.3862" y="-863.8" font-family="Helvetica,sans-Serif" font-size="11.00" fill="#000000"> &#160;</text>
<polygon fill="#ffffff" stroke="transparent" points="612.5,-857.7 612.5,-876.7 655.5,-876.7 655.5,-857.7 612.5,-857.7"/>
<polygon fill="none" stroke="#000000" points="612.5,-857.7 612.5,-876.7 655.5,-876.7 655.5,-857.7 612.5,-857.7"/>
<text text-anchor="start" x="646.3862" y="-863.8" font-family="Helvetica,sans-Serif" font-size="11.00" fill="#000000"> &#160;</text>
</a>
</g>
</g>
<!-- AgLibraryImportImage&#45;&gt;Adobe_images -->
<g id="edge23" class="edge">
<title>AgLibraryImportImage:w&#45;&gt;Adobe_images:e</title>
<path fill="none" stroke="#000000" d="M473.9926,-885.7683C429.4371,-886.3147 405.1569,-891.0409 375,-929.7 330.2348,-987.0858 407.2808,-1254.7 334.5,-1254.7"/>
<polygon fill="#000000" stroke="#000000" points="480.5001,-885.7377 488.517,-889.3 484.5,-885.7189 488.5,-885.7 488.5,-885.7 488.5,-885.7 484.5,-885.7189 488.483,-882.1 480.5001,-885.7377 480.5001,-885.7377"/>
<ellipse fill="none" stroke="#000000" cx="477.3001" cy="-885.7528" rx="3.2" ry="3.2"/>
</g>
<!-- AgLibraryIPTC -->
<g id="node23" class="node">
<title>AgLibraryIPTC</title>
<g id="a_node23"><a xlink:href="../../tables/AgLibraryIPTC.html" xlink:title="AgLibraryIPTC" target="_top">
<polygon fill="#ffffff" stroke="transparent" points="510,-776.2 510,-837.2 633,-837.2 633,-776.2 510,-776.2"/>
<polygon fill="#f5f5f5" stroke="transparent" points="510.5,-813.7 510.5,-836.7 633.5,-836.7 633.5,-813.7 510.5,-813.7"/>
<polygon fill="none" stroke="#000000" points="510.5,-813.7 510.5,-836.7 633.5,-836.7 633.5,-813.7 510.5,-813.7"/>
<text text-anchor="start" x="515.5" y="-822.3" font-family="Helvetica,sans-Serif" font-weight="bold" font-size="11.00" fill="#000000">AgLibraryIPTC</text>
<text text-anchor="start" x="599.0219" y="-821.8" font-family="Helvetica,sans-Serif" font-size="11.00" fill="#000000">[table]</text>
<polygon fill="none" stroke="#000000" points="510.5,-794.7 510.5,-813.7 633.5,-813.7 633.5,-794.7 510.5,-794.7"/>
<text text-anchor="start" x="513.5" y="-800.8" font-family="Helvetica,sans-Serif" font-size="11.00" fill="#000000">...</text>
<polygon fill="#ffffff" stroke="transparent" points="510.5,-775.7 510.5,-794.7 570.5,-794.7 570.5,-775.7 510.5,-775.7"/>
<polygon fill="none" stroke="#000000" points="510.5,-775.7 510.5,-794.7 570.5,-794.7 570.5,-775.7 510.5,-775.7"/>
<text text-anchor="start" x="513.5" y="-781.8" font-family="Helvetica,sans-Serif" font-size="11.00" fill="#000000">&lt; 1</text>
<polygon fill="#ffffff" stroke="transparent" points="570.5,-775.7 570.5,-794.7 601.5,-794.7 601.5,-775.7 570.5,-775.7"/>
<polygon fill="none" stroke="#000000" points="570.5,-775.7 570.5,-794.7 601.5,-794.7 601.5,-775.7 570.5,-775.7"/>
<text text-anchor="start" x="592.3862" y="-781.8" font-family="Helvetica,sans-Serif" font-size="11.00" fill="#000000"> &#160;</text>
<polygon fill="#ffffff" stroke="transparent" points="601.5,-775.7 601.5,-794.7 633.5,-794.7 633.5,-775.7 601.5,-775.7"/>
<polygon fill="none" stroke="#000000" points="601.5,-775.7 601.5,-794.7 633.5,-794.7 633.5,-775.7 601.5,-775.7"/>
<text text-anchor="start" x="624.3862" y="-781.8" font-family="Helvetica,sans-Serif" font-size="11.00" fill="#000000"> &#160;</text>
</a>
</g>
</g>
<!-- AgLibraryIPTC&#45;&gt;Adobe_images -->
<g id="edge24" class="edge">
<title>AgLibraryIPTC:w&#45;&gt;Adobe_images:e</title>
<path fill="none" stroke="#000000" d="M495.8628,-803.6286C441.936,-803.1993 411.5348,-802.3352 375,-847.7 317.9899,-918.4887 425.3911,-1254.7 334.5,-1254.7"/>
<polygon fill="#000000" stroke="#000000" points="502.5001,-803.6609 510.4824,-807.3 506.5,-803.6804 510.5,-803.7 510.5,-803.7 510.5,-803.7 506.5,-803.6804 510.5176,-800.1 502.5001,-803.6609 502.5001,-803.6609"/>
<ellipse fill="none" stroke="#000000" cx="499.3001" cy="-803.6453" rx="3.2" ry="3.2"/>
</g>
<!-- AgLibraryKeywordImage -->
<g id="node24" class="node">
<title>AgLibraryKeywordImage</title>
<g id="a_node24"><a xlink:href="../../tables/AgLibraryKeywordImage.html" xlink:title="AgLibraryKeywordImage" target="_top">
<polygon fill="#ffffff" stroke="transparent" points="481,-694.2 481,-755.2 662,-755.2 662,-694.2 481,-694.2"/>
<polygon fill="#f5f5f5" stroke="transparent" points="481.5,-731.7 481.5,-754.7 662.5,-754.7 662.5,-731.7 481.5,-731.7"/>
<polygon fill="none" stroke="#000000" points="481.5,-731.7 481.5,-754.7 662.5,-754.7 662.5,-731.7 481.5,-731.7"/>
<text text-anchor="start" x="486.5" y="-740.3" font-family="Helvetica,sans-Serif" font-weight="bold" font-size="11.00" fill="#000000">AgLibraryKeywordImage</text>
<text text-anchor="start" x="628.0219" y="-739.8" font-family="Helvetica,sans-Serif" font-size="11.00" fill="#000000">[table]</text>
<polygon fill="none" stroke="#000000" points="481.5,-712.7 481.5,-731.7 662.5,-731.7 662.5,-712.7 481.5,-712.7"/>
<text text-anchor="start" x="484.5" y="-718.8" font-family="Helvetica,sans-Serif" font-size="11.00" fill="#000000">...</text>
<polygon fill="#ffffff" stroke="transparent" points="481.5,-693.7 481.5,-712.7 570.5,-712.7 570.5,-693.7 481.5,-693.7"/>
<polygon fill="none" stroke="#000000" points="481.5,-693.7 481.5,-712.7 570.5,-712.7 570.5,-693.7 481.5,-693.7"/>
<text text-anchor="start" x="484.5" y="-699.8" font-family="Helvetica,sans-Serif" font-size="11.00" fill="#000000">&lt; 2</text>
<polygon fill="#ffffff" stroke="transparent" points="570.5,-693.7 570.5,-712.7 616.5,-712.7 616.5,-693.7 570.5,-693.7"/>
<polygon fill="none" stroke="#000000" points="570.5,-693.7 570.5,-712.7 616.5,-712.7 616.5,-693.7 570.5,-693.7"/>
<text text-anchor="start" x="607.3862" y="-699.8" font-family="Helvetica,sans-Serif" font-size="11.00" fill="#000000"> &#160;</text>
<polygon fill="#ffffff" stroke="transparent" points="616.5,-693.7 616.5,-712.7 662.5,-712.7 662.5,-693.7 616.5,-693.7"/>
<polygon fill="none" stroke="#000000" points="616.5,-693.7 616.5,-712.7 662.5,-712.7 662.5,-693.7 616.5,-693.7"/>
<text text-anchor="start" x="653.3862" y="-699.8" font-family="Helvetica,sans-Serif" font-size="11.00" fill="#000000"> &#160;</text>
</a>
</g>
</g>
<!-- AgLibraryKeywordImage&#45;&gt;Adobe_images -->
<g id="edge25" class="edge">
<title>AgLibraryKeywordImage:w&#45;&gt;Adobe_images:e</title>
<path fill="none" stroke="#000000" d="M466.9429,-721.8143C425.2389,-722.6106 402.1975,-728.4621 375,-765.7 342.844,-809.7267 389.0194,-1254.7 334.5,-1254.7"/>
<polygon fill="#000000" stroke="#000000" points="473.5002,-721.7629 481.5283,-725.2999 477.5001,-721.7314 481.5,-721.7 481.5,-721.7 481.5,-721.7 477.5001,-721.7314 481.4717,-718.1001 473.5002,-721.7629 473.5002,-721.7629"/>
<ellipse fill="none" stroke="#000000" cx="470.3003" cy="-721.788" rx="3.2" ry="3.2"/>
</g>
<!-- AgLibraryOzFeedbackInfo -->
<g id="node25" class="node">
<title>AgLibraryOzFeedbackInfo</title>
<g id="a_node25"><a xlink:href="../../tables/AgLibraryOzFeedbackInfo.html" xlink:title="AgLibraryOzFeedbackInfo" target="_top">
<polygon fill="#ffffff" stroke="transparent" points="477.5,-612.2 477.5,-673.2 665.5,-673.2 665.5,-612.2 477.5,-612.2"/>
<polygon fill="#f5f5f5" stroke="transparent" points="477.5,-649.7 477.5,-672.7 665.5,-672.7 665.5,-649.7 477.5,-649.7"/>
<polygon fill="none" stroke="#000000" points="477.5,-649.7 477.5,-672.7 665.5,-672.7 665.5,-649.7 477.5,-649.7"/>
<text text-anchor="start" x="482.5" y="-658.3" font-family="Helvetica,sans-Serif" font-weight="bold" font-size="11.00" fill="#000000">AgLibraryOzFeedbackInfo</text>
<text text-anchor="start" x="631.0219" y="-657.8" font-family="Helvetica,sans-Serif" font-size="11.00" fill="#000000">[table]</text>
<polygon fill="none" stroke="#000000" points="477.5,-630.7 477.5,-649.7 665.5,-649.7 665.5,-630.7 477.5,-630.7"/>
<text text-anchor="start" x="480.5" y="-636.8" font-family="Helvetica,sans-Serif" font-size="11.00" fill="#000000">...</text>
<polygon fill="#ffffff" stroke="transparent" points="477.5,-611.7 477.5,-630.7 569.5,-630.7 569.5,-611.7 477.5,-611.7"/>
<polygon fill="none" stroke="#000000" points="477.5,-611.7 477.5,-630.7 569.5,-630.7 569.5,-611.7 477.5,-611.7"/>
<text text-anchor="start" x="480.5" y="-617.8" font-family="Helvetica,sans-Serif" font-size="11.00" fill="#000000">&lt; 1</text>
<polygon fill="#ffffff" stroke="transparent" points="569.5,-611.7 569.5,-630.7 617.5,-630.7 617.5,-611.7 569.5,-611.7"/>
<polygon fill="none" stroke="#000000" points="569.5,-611.7 569.5,-630.7 617.5,-630.7 617.5,-611.7 569.5,-611.7"/>
<text text-anchor="start" x="608.3862" y="-617.8" font-family="Helvetica,sans-Serif" font-size="11.00" fill="#000000"> &#160;</text>
<polygon fill="#ffffff" stroke="transparent" points="617.5,-611.7 617.5,-630.7 665.5,-630.7 665.5,-611.7 617.5,-611.7"/>
<polygon fill="none" stroke="#000000" points="617.5,-611.7 617.5,-630.7 665.5,-630.7 665.5,-611.7 617.5,-611.7"/>
<text text-anchor="start" x="656.3862" y="-617.8" font-family="Helvetica,sans-Serif" font-size="11.00" fill="#000000"> &#160;</text>
</a>
</g>
</g>
<!-- AgLibraryOzFeedbackInfo&#45;&gt;Adobe_images -->
<g id="edge26" class="edge">
<title>AgLibraryOzFeedbackInfo:w&#45;&gt;Adobe_images:e</title>
<path fill="none" stroke="#000000" d="M462.8871,-639.8524C422.8663,-640.8389 400.7532,-647.4783 375,-683.7 338.1443,-735.5373 398.1038,-1254.7 334.5,-1254.7"/>
<polygon fill="#000000" stroke="#000000" points="469.5004,-639.7835 477.5376,-643.2998 473.5002,-639.7418 477.5,-639.7 477.5,-639.7 477.5,-639.7 473.5002,-639.7418 477.4624,-636.1002 469.5004,-639.7835 469.5004,-639.7835"/>
<ellipse fill="none" stroke="#000000" cx="466.3006" cy="-639.8169" rx="3.2" ry="3.2"/>
</g>
<!-- AgLibraryPublishedCollectionImage -->
<g id="node26" class="node">
<title>AgLibraryPublishedCollectionImage</title>
<g id="a_node26"><a xlink:href="../../tables/AgLibraryPublishedCollectionImage.html" xlink:title="AgLibraryPublishedCollectionImage" target="_top">
<polygon fill="#ffffff" stroke="transparent" points="449,-530.2 449,-591.2 694,-591.2 694,-530.2 449,-530.2"/>
<polygon fill="#f5f5f5" stroke="transparent" points="449.5,-567.7 449.5,-590.7 694.5,-590.7 694.5,-567.7 449.5,-567.7"/>
<polygon fill="none" stroke="#000000" points="449.5,-567.7 449.5,-590.7 694.5,-590.7 694.5,-567.7 449.5,-567.7"/>
<text text-anchor="start" x="454.5" y="-576.3" font-family="Helvetica,sans-Serif" font-weight="bold" font-size="11.00" fill="#000000">AgLibraryPublishedCollectionImage</text>
<text text-anchor="start" x="660.0219" y="-575.8" font-family="Helvetica,sans-Serif" font-size="11.00" fill="#000000">[table]</text>
<polygon fill="none" stroke="#000000" points="449.5,-548.7 449.5,-567.7 694.5,-567.7 694.5,-548.7 449.5,-548.7"/>
<text text-anchor="start" x="452.5" y="-554.8" font-family="Helvetica,sans-Serif" font-size="11.00" fill="#000000">...</text>
<polygon fill="#ffffff" stroke="transparent" points="449.5,-529.7 449.5,-548.7 570.5,-548.7 570.5,-529.7 449.5,-529.7"/>
<polygon fill="none" stroke="#000000" points="449.5,-529.7 449.5,-548.7 570.5,-548.7 570.5,-529.7 449.5,-529.7"/>
<text text-anchor="start" x="452.5" y="-535.8" font-family="Helvetica,sans-Serif" font-size="11.00" fill="#000000">&lt; 2</text>
<polygon fill="#ffffff" stroke="transparent" points="570.5,-529.7 570.5,-548.7 632.5,-548.7 632.5,-529.7 570.5,-529.7"/>
<polygon fill="none" stroke="#000000" points="570.5,-529.7 570.5,-548.7 632.5,-548.7 632.5,-529.7 570.5,-529.7"/>
<text text-anchor="start" x="623.3862" y="-535.8" font-family="Helvetica,sans-Serif" font-size="11.00" fill="#000000"> &#160;</text>
<polygon fill="#ffffff" stroke="transparent" points="632.5,-529.7 632.5,-548.7 694.5,-548.7 694.5,-529.7 632.5,-529.7"/>
<polygon fill="none" stroke="#000000" points="632.5,-529.7 632.5,-548.7 694.5,-548.7 694.5,-529.7 632.5,-529.7"/>
<text text-anchor="start" x="685.3862" y="-535.8" font-family="Helvetica,sans-Serif" font-size="11.00" fill="#000000"> &#160;</text>
</a>
</g>
</g>
<!-- AgLibraryPublishedCollectionImage&#45;&gt;Adobe_images -->
<g id="edge27" class="edge">
<title>AgLibraryPublishedCollectionImage:w&#45;&gt;Adobe_images:e</title>
<path fill="none" stroke="#000000" d="M434.9211,-558.3551C406.6047,-561.1684 392.3412,-573.3921 375,-601.7 337.0263,-663.6884 407.195,-1254.7 334.5,-1254.7"/>
<polygon fill="#000000" stroke="#000000" points="441.5081,-558.0591 449.6616,-561.2964 445.504,-557.8796 449.5,-557.7 449.5,-557.7 449.5,-557.7 445.504,-557.8796 449.3384,-554.1036 441.5081,-558.0591 441.5081,-558.0591"/>
<ellipse fill="none" stroke="#000000" cx="438.3113" cy="-558.2028" rx="3.2" ry="3.2"/>
</g>
<!-- AgLibraryUpdatedImages -->
<g id="node27" class="node">
<title>AgLibraryUpdatedImages</title>
<g id="a_node27"><a xlink:href="../../tables/AgLibraryUpdatedImages.html" xlink:title="AgLibraryUpdatedImages" target="_top">
<polygon fill="#ffffff" stroke="transparent" points="479,-448.2 479,-509.2 664,-509.2 664,-448.2 479,-448.2"/>
<polygon fill="#f5f5f5" stroke="transparent" points="479.5,-485.7 479.5,-508.7 664.5,-508.7 664.5,-485.7 479.5,-485.7"/>
<polygon fill="none" stroke="#000000" points="479.5,-485.7 479.5,-508.7 664.5,-508.7 664.5,-485.7 479.5,-485.7"/>
<text text-anchor="start" x="484.5" y="-494.3" font-family="Helvetica,sans-Serif" font-weight="bold" font-size="11.00" fill="#000000">AgLibraryUpdatedImages</text>
<text text-anchor="start" x="630.0219" y="-493.8" font-family="Helvetica,sans-Serif" font-size="11.00" fill="#000000">[table]</text>
<polygon fill="none" stroke="#000000" points="479.5,-466.7 479.5,-485.7 664.5,-485.7 664.5,-466.7 479.5,-466.7"/>
<text text-anchor="start" x="482.5" y="-472.8" font-family="Helvetica,sans-Serif" font-size="11.00" fill="#000000">...</text>
<polygon fill="#ffffff" stroke="transparent" points="479.5,-447.7 479.5,-466.7 570.5,-466.7 570.5,-447.7 479.5,-447.7"/>
<polygon fill="none" stroke="#000000" points="479.5,-447.7 479.5,-466.7 570.5,-466.7 570.5,-447.7 479.5,-447.7"/>
<text text-anchor="start" x="482.5" y="-453.8" font-family="Helvetica,sans-Serif" font-size="11.00" fill="#000000">&lt; 1</text>
<polygon fill="#ffffff" stroke="transparent" points="570.5,-447.7 570.5,-466.7 617.5,-466.7 617.5,-447.7 570.5,-447.7"/>
<polygon fill="none" stroke="#000000" points="570.5,-447.7 570.5,-466.7 617.5,-466.7 617.5,-447.7 570.5,-447.7"/>
<text text-anchor="start" x="608.3862" y="-453.8" font-family="Helvetica,sans-Serif" font-size="11.00" fill="#000000"> &#160;</text>
<polygon fill="#ffffff" stroke="transparent" points="617.5,-447.7 617.5,-466.7 664.5,-466.7 664.5,-447.7 617.5,-447.7"/>
<polygon fill="none" stroke="#000000" points="617.5,-447.7 617.5,-466.7 664.5,-466.7 664.5,-447.7 617.5,-447.7"/>
<text text-anchor="start" x="655.3862" y="-453.8" font-family="Helvetica,sans-Serif" font-size="11.00" fill="#000000"> &#160;</text>
</a>
</g>
</g>
<!-- AgLibraryUpdatedImages&#45;&gt;Adobe_images -->
<g id="edge28" class="edge">
<title>AgLibraryUpdatedImages:w&#45;&gt;Adobe_images:e</title>
<path fill="none" stroke="#000000" d="M468.9603,-475.7573C425.4601,-476.3054 401.9227,-481.4783 375,-519.7 327.8998,-586.5675 416.2906,-1254.7 334.5,-1254.7"/>
<polygon fill="#000000" stroke="#000000" points="478.6782,-471.7044 478.7218,-479.7043 477.1218,-479.713 477.0782,-471.7131 478.6782,-471.7044"/>
<polyline fill="none" stroke="#000000" points="479.5,-475.7 475.5001,-475.7218 "/>
<ellipse fill="none" stroke="#000000" cx="472.3001" cy="-475.7392" rx="3.2" ry="3.2"/>
</g>
<!-- AgMetadataSearchIndex -->
<g id="node28" class="node">
<title>AgMetadataSearchIndex</title>
<g id="a_node28"><a xlink:href="../../tables/AgMetadataSearchIndex.html" xlink:title="AgMetadataSearchIndex" target="_top">
<polygon fill="#ffffff" stroke="transparent" points="482.5,-366.2 482.5,-427.2 660.5,-427.2 660.5,-366.2 482.5,-366.2"/>
<polygon fill="#f5f5f5" stroke="transparent" points="482.5,-403.7 482.5,-426.7 660.5,-426.7 660.5,-403.7 482.5,-403.7"/>
<polygon fill="none" stroke="#000000" points="482.5,-403.7 482.5,-426.7 660.5,-426.7 660.5,-403.7 482.5,-403.7"/>
<text text-anchor="start" x="487.5" y="-412.3" font-family="Helvetica,sans-Serif" font-weight="bold" font-size="11.00" fill="#000000">AgMetadataSearchIndex</text>
<text text-anchor="start" x="626.0219" y="-411.8" font-family="Helvetica,sans-Serif" font-size="11.00" fill="#000000">[table]</text>
<polygon fill="none" stroke="#000000" points="482.5,-384.7 482.5,-403.7 660.5,-403.7 660.5,-384.7 482.5,-384.7"/>
<text text-anchor="start" x="485.5" y="-390.8" font-family="Helvetica,sans-Serif" font-size="11.00" fill="#000000">...</text>
<polygon fill="#ffffff" stroke="transparent" points="482.5,-365.7 482.5,-384.7 569.5,-384.7 569.5,-365.7 482.5,-365.7"/>
<polygon fill="none" stroke="#000000" points="482.5,-365.7 482.5,-384.7 569.5,-384.7 569.5,-365.7 482.5,-365.7"/>
<text text-anchor="start" x="485.5" y="-371.8" font-family="Helvetica,sans-Serif" font-size="11.00" fill="#000000">&lt; 1</text>
<polygon fill="#ffffff" stroke="transparent" points="569.5,-365.7 569.5,-384.7 614.5,-384.7 614.5,-365.7 569.5,-365.7"/>
<polygon fill="none" stroke="#000000" points="569.5,-365.7 569.5,-384.7 614.5,-384.7 614.5,-365.7 569.5,-365.7"/>
<text text-anchor="start" x="605.3862" y="-371.8" font-family="Helvetica,sans-Serif" font-size="11.00" fill="#000000"> &#160;</text>
<polygon fill="#ffffff" stroke="transparent" points="614.5,-365.7 614.5,-384.7 660.5,-384.7 660.5,-365.7 614.5,-365.7"/>
<polygon fill="none" stroke="#000000" points="614.5,-365.7 614.5,-384.7 660.5,-384.7 660.5,-365.7 614.5,-365.7"/>
<text text-anchor="start" x="651.3862" y="-371.8" font-family="Helvetica,sans-Serif" font-size="11.00" fill="#000000"> &#160;</text>
</a>
</g>
</g>
<!-- AgMetadataSearchIndex&#45;&gt;Adobe_images -->
<g id="edge29" class="edge">
<title>AgMetadataSearchIndex:w&#45;&gt;Adobe_images:e</title>
<path fill="none" stroke="#000000" d="M468.0798,-393.789C425.751,-394.4477 401.9115,-399.6764 375,-437.7 322.4929,-511.888 425.3892,-1254.7 334.5,-1254.7"/>
<polygon fill="#000000" stroke="#000000" points="474.5002,-393.7494 482.5223,-397.2999 478.5001,-393.7247 482.5,-393.7 482.5,-393.7 482.5,-393.7 478.5001,-393.7247 482.4777,-390.1001 474.5002,-393.7494 474.5002,-393.7494"/>
<ellipse fill="none" stroke="#000000" cx="471.3002" cy="-393.7692" rx="3.2" ry="3.2"/>
</g>
<!-- AgOutputImageAsset -->
<g id="node29" class="node">
<title>AgOutputImageAsset</title>
<g id="a_node29"><a xlink:href="../../tables/AgOutputImageAsset.html" xlink:title="AgOutputImageAsset" target="_top">
<polygon fill="#ffffff" stroke="transparent" points="491,-284.2 491,-345.2 652,-345.2 652,-284.2 491,-284.2"/>
<polygon fill="#f5f5f5" stroke="transparent" points="491.5,-321.7 491.5,-344.7 652.5,-344.7 652.5,-321.7 491.5,-321.7"/>
<polygon fill="none" stroke="#000000" points="491.5,-321.7 491.5,-344.7 652.5,-344.7 652.5,-321.7 491.5,-321.7"/>
<text text-anchor="start" x="496.5" y="-330.3" font-family="Helvetica,sans-Serif" font-weight="bold" font-size="11.00" fill="#000000">AgOutputImageAsset</text>
<text text-anchor="start" x="618.0219" y="-329.8" font-family="Helvetica,sans-Serif" font-size="11.00" fill="#000000">[table]</text>
<polygon fill="none" stroke="#000000" points="491.5,-302.7 491.5,-321.7 652.5,-321.7 652.5,-302.7 491.5,-302.7"/>
<text text-anchor="start" x="494.5" y="-308.8" font-family="Helvetica,sans-Serif" font-size="11.00" fill="#000000">...</text>
<polygon fill="#ffffff" stroke="transparent" points="491.5,-283.7 491.5,-302.7 570.5,-302.7 570.5,-283.7 491.5,-283.7"/>
<polygon fill="none" stroke="#000000" points="491.5,-283.7 491.5,-302.7 570.5,-302.7 570.5,-283.7 491.5,-283.7"/>
<text text-anchor="start" x="494.5" y="-289.8" font-family="Helvetica,sans-Serif" font-size="11.00" fill="#000000">&lt; 2</text>
<polygon fill="#ffffff" stroke="transparent" points="570.5,-283.7 570.5,-302.7 611.5,-302.7 611.5,-283.7 570.5,-283.7"/>
<polygon fill="none" stroke="#000000" points="570.5,-283.7 570.5,-302.7 611.5,-302.7 611.5,-283.7 570.5,-283.7"/>
<text text-anchor="start" x="602.3862" y="-289.8" font-family="Helvetica,sans-Serif" font-size="11.00" fill="#000000"> &#160;</text>
<polygon fill="#ffffff" stroke="transparent" points="611.5,-283.7 611.5,-302.7 652.5,-302.7 652.5,-283.7 611.5,-283.7"/>
<polygon fill="none" stroke="#000000" points="611.5,-283.7 611.5,-302.7 652.5,-302.7 652.5,-283.7 611.5,-283.7"/>
<text text-anchor="start" x="643.3862" y="-289.8" font-family="Helvetica,sans-Serif" font-size="11.00" fill="#000000"> &#160;</text>
</a>
</g>
</g>
<!-- AgOutputImageAsset&#45;&gt;Adobe_images -->
<g id="edge30" class="edge">
<title>AgOutputImageAsset:w&#45;&gt;Adobe_images:e</title>
<path fill="none" stroke="#000000" d="M476.9088,-311.7155C430.8577,-311.9359 404.5066,-315.0046 375,-355.7 345.6529,-396.1754 384.4951,-1254.7 334.5,-1254.7"/>
<polygon fill="#000000" stroke="#000000" points="483.5,-311.7085 491.5038,-315.3 487.5,-311.7043 491.5,-311.7 491.5,-311.7 491.5,-311.7 487.5,-311.7043 491.4962,-308.1 483.5,-311.7085 483.5,-311.7085"/>
<ellipse fill="none" stroke="#000000" cx="480.3" cy="-311.7119" rx="3.2" ry="3.2"/>
</g>
<!-- AgSourceColorProfileConstants -->
<g id="node30" class="node">
<title>AgSourceColorProfileConstants</title>
<g id="a_node30"><a xlink:href="../../tables/AgSourceColorProfileConstants.html" xlink:title="AgSourceColorProfileConstants" target="_top">
<polygon fill="#ffffff" stroke="transparent" points="460,-202.2 460,-263.2 683,-263.2 683,-202.2 460,-202.2"/>
<polygon fill="#f5f5f5" stroke="transparent" points="460.5,-239.7 460.5,-262.7 683.5,-262.7 683.5,-239.7 460.5,-239.7"/>
<polygon fill="none" stroke="#000000" points="460.5,-239.7 460.5,-262.7 683.5,-262.7 683.5,-239.7 460.5,-239.7"/>
<text text-anchor="start" x="465.5" y="-248.3" font-family="Helvetica,sans-Serif" font-weight="bold" font-size="11.00" fill="#000000">AgSourceColorProfileConstants</text>
<text text-anchor="start" x="649.0219" y="-247.8" font-family="Helvetica,sans-Serif" font-size="11.00" fill="#000000">[table]</text>
<polygon fill="none" stroke="#000000" points="460.5,-220.7 460.5,-239.7 683.5,-239.7 683.5,-220.7 460.5,-220.7"/>
<text text-anchor="start" x="463.5" y="-226.8" font-family="Helvetica,sans-Serif" font-size="11.00" fill="#000000">...</text>
<polygon fill="#ffffff" stroke="transparent" points="460.5,-201.7 460.5,-220.7 570.5,-220.7 570.5,-201.7 460.5,-201.7"/>
<polygon fill="none" stroke="#000000" points="460.5,-201.7 460.5,-220.7 570.5,-220.7 570.5,-201.7 460.5,-201.7"/>
<text text-anchor="start" x="463.5" y="-207.8" font-family="Helvetica,sans-Serif" font-size="11.00" fill="#000000">&lt; 1</text>
<polygon fill="#ffffff" stroke="transparent" points="570.5,-201.7 570.5,-220.7 626.5,-220.7 626.5,-201.7 570.5,-201.7"/>
<polygon fill="none" stroke="#000000" points="570.5,-201.7 570.5,-220.7 626.5,-220.7 626.5,-201.7 570.5,-201.7"/>
<text text-anchor="start" x="617.3862" y="-207.8" font-family="Helvetica,sans-Serif" font-size="11.00" fill="#000000"> &#160;</text>
<polygon fill="#ffffff" stroke="transparent" points="626.5,-201.7 626.5,-220.7 683.5,-220.7 683.5,-201.7 626.5,-201.7"/>
<polygon fill="none" stroke="#000000" points="626.5,-201.7 626.5,-220.7 683.5,-220.7 683.5,-201.7 626.5,-201.7"/>
<text text-anchor="start" x="674.3862" y="-207.8" font-family="Helvetica,sans-Serif" font-size="11.00" fill="#000000"> &#160;</text>
</a>
</g>
</g>
<!-- AgSourceColorProfileConstants&#45;&gt;Adobe_images -->
<g id="edge31" class="edge">
<title>AgSourceColorProfileConstants:w&#45;&gt;Adobe_images:e</title>
<path fill="none" stroke="#000000" d="M445.9388,-230.0868C412.9303,-232.0445 395.2185,-242.0444 375,-273.7 345.6389,-319.67 389.0464,-1254.7 334.5,-1254.7"/>
<polygon fill="#000000" stroke="#000000" points="452.5028,-229.9125 460.5956,-233.2987 456.5014,-229.8062 460.5,-229.7 460.5,-229.7 460.5,-229.7 456.5014,-229.8062 460.4044,-226.1013 452.5028,-229.9125 452.5028,-229.9125"/>
<ellipse fill="none" stroke="#000000" cx="449.3039" cy="-229.9975" rx="3.2" ry="3.2"/>
</g>
<!-- AgTempImages -->
<g id="node31" class="node">
<title>AgTempImages</title>
<g id="a_node31"><a xlink:href="../../tables/AgTempImages.html" xlink:title="AgTempImages" target="_top">
<polygon fill="#ffffff" stroke="transparent" points="507.5,-120.2 507.5,-181.2 635.5,-181.2 635.5,-120.2 507.5,-120.2"/>
<polygon fill="#f5f5f5" stroke="transparent" points="507.5,-157.7 507.5,-180.7 635.5,-180.7 635.5,-157.7 507.5,-157.7"/>
<polygon fill="none" stroke="#000000" points="507.5,-157.7 507.5,-180.7 635.5,-180.7 635.5,-157.7 507.5,-157.7"/>
<text text-anchor="start" x="512.5" y="-166.3" font-family="Helvetica,sans-Serif" font-weight="bold" font-size="11.00" fill="#000000">AgTempImages</text>
<text text-anchor="start" x="601.0219" y="-165.8" font-family="Helvetica,sans-Serif" font-size="11.00" fill="#000000">[table]</text>
<polygon fill="none" stroke="#000000" points="507.5,-138.7 507.5,-157.7 635.5,-157.7 635.5,-138.7 507.5,-138.7"/>
<text text-anchor="start" x="510.5" y="-144.8" font-family="Helvetica,sans-Serif" font-size="11.00" fill="#000000">...</text>
<polygon fill="#ffffff" stroke="transparent" points="507.5,-119.7 507.5,-138.7 569.5,-138.7 569.5,-119.7 507.5,-119.7"/>
<polygon fill="none" stroke="#000000" points="507.5,-119.7 507.5,-138.7 569.5,-138.7 569.5,-119.7 507.5,-119.7"/>
<text text-anchor="start" x="510.5" y="-125.8" font-family="Helvetica,sans-Serif" font-size="11.00" fill="#000000">&lt; 1</text>
<polygon fill="#ffffff" stroke="transparent" points="569.5,-119.7 569.5,-138.7 602.5,-138.7 602.5,-119.7 569.5,-119.7"/>
<polygon fill="none" stroke="#000000" points="569.5,-119.7 569.5,-138.7 602.5,-138.7 602.5,-119.7 569.5,-119.7"/>
<text text-anchor="start" x="593.3862" y="-125.8" font-family="Helvetica,sans-Serif" font-size="11.00" fill="#000000"> &#160;</text>
<polygon fill="#ffffff" stroke="transparent" points="602.5,-119.7 602.5,-138.7 635.5,-138.7 635.5,-119.7 602.5,-119.7"/>
<polygon fill="none" stroke="#000000" points="602.5,-119.7 602.5,-138.7 635.5,-138.7 635.5,-119.7 602.5,-119.7"/>
<text text-anchor="start" x="626.3862" y="-125.8" font-family="Helvetica,sans-Serif" font-size="11.00" fill="#000000"> &#160;</text>
</a>
</g>
</g>
<!-- AgTempImages&#45;&gt;Adobe_images -->
<g id="edge32" class="edge">
<title>AgTempImages:w&#45;&gt;Adobe_images:e</title>
<path fill="none" stroke="#000000" d="M496.8833,-147.6544C441.5459,-147.2314 410.0785,-144.9899 375,-191.7 339.5112,-238.9564 393.5984,-1254.7 334.5,-1254.7"/>
<polygon fill="#000000" stroke="#000000" points="506.7172,-143.6966 506.6828,-151.6965 505.0828,-151.6896 505.1172,-143.6897 506.7172,-143.6966"/>
<polyline fill="none" stroke="#000000" points="507.5,-147.7 503.5,-147.6828 "/>
<ellipse fill="none" stroke="#000000" cx="500.3001" cy="-147.669" rx="3.2" ry="3.2"/>
</g>
<!-- AgVideoInfo -->
<g id="node32" class="node">
<title>AgVideoInfo</title>
<g id="a_node32"><a xlink:href="../../tables/AgVideoInfo.html" xlink:title="AgVideoInfo" target="_top">
<polygon fill="#ffffff" stroke="transparent" points="517,-38.2 517,-99.2 626,-99.2 626,-38.2 517,-38.2"/>
<polygon fill="#f5f5f5" stroke="transparent" points="517.5,-75.7 517.5,-98.7 626.5,-98.7 626.5,-75.7 517.5,-75.7"/>
<polygon fill="none" stroke="#000000" points="517.5,-75.7 517.5,-98.7 626.5,-98.7 626.5,-75.7 517.5,-75.7"/>
<text text-anchor="start" x="522.5" y="-84.3" font-family="Helvetica,sans-Serif" font-weight="bold" font-size="11.00" fill="#000000">AgVideoInfo</text>
<text text-anchor="start" x="592.0219" y="-83.8" font-family="Helvetica,sans-Serif" font-size="11.00" fill="#000000">[table]</text>
<polygon fill="none" stroke="#000000" points="517.5,-56.7 517.5,-75.7 626.5,-75.7 626.5,-56.7 517.5,-56.7"/>
<text text-anchor="start" x="520.5" y="-62.8" font-family="Helvetica,sans-Serif" font-size="11.00" fill="#000000">...</text>
<polygon fill="#ffffff" stroke="transparent" points="517.5,-37.7 517.5,-56.7 570.5,-56.7 570.5,-37.7 517.5,-37.7"/>
<polygon fill="none" stroke="#000000" points="517.5,-37.7 517.5,-56.7 570.5,-56.7 570.5,-37.7 517.5,-37.7"/>
<text text-anchor="start" x="520.5" y="-43.8" font-family="Helvetica,sans-Serif" font-size="11.00" fill="#000000">&lt; 1</text>
<polygon fill="#ffffff" stroke="transparent" points="570.5,-37.7 570.5,-56.7 598.5,-56.7 598.5,-37.7 570.5,-37.7"/>
<polygon fill="none" stroke="#000000" points="570.5,-37.7 570.5,-56.7 598.5,-56.7 598.5,-37.7 570.5,-37.7"/>
<text text-anchor="start" x="589.3862" y="-43.8" font-family="Helvetica,sans-Serif" font-size="11.00" fill="#000000"> &#160;</text>
<polygon fill="#ffffff" stroke="transparent" points="598.5,-37.7 598.5,-56.7 626.5,-56.7 626.5,-37.7 598.5,-37.7"/>
<polygon fill="none" stroke="#000000" points="598.5,-37.7 598.5,-56.7 626.5,-56.7 626.5,-37.7 598.5,-37.7"/>
<text text-anchor="start" x="617.3862" y="-43.8" font-family="Helvetica,sans-Serif" font-size="11.00" fill="#000000"> &#160;</text>
</a>
</g>
</g>
<!-- AgVideoInfo&#45;&gt;Adobe_images -->
<g id="edge33" class="edge">
<title>AgVideoInfo:w&#45;&gt;Adobe_images:e</title>
<path fill="none" stroke="#000000" d="M502.8662,-65.5806C445.7178,-64.7402 412.2208,-61.0758 375,-109.7 336.3106,-160.2427 398.1509,-1254.7 334.5,-1254.7"/>
<polygon fill="#000000" stroke="#000000" points="509.5003,-65.6347 517.4706,-69.2999 513.5001,-65.6673 517.5,-65.7 517.5,-65.7 517.5,-65.7 513.5001,-65.6673 517.5294,-62.1001 509.5003,-65.6347 509.5003,-65.6347"/>
<ellipse fill="none" stroke="#000000" cx="506.3004" cy="-65.6086" rx="3.2" ry="3.2"/>
</g>
</g>
</svg>
