<?xml version="1.0" encoding="UTF-8" standalone="no"?>
<!DOCTYPE svg PUBLIC "-//W3C//DTD SVG 1.1//EN"
 "http://www.w3.org/Graphics/SVG/1.1/DTD/svg11.dtd">
<!-- Generated by graphviz version 2.40.1 (20161225.0304)
 -->
<!-- Title: twoDegreesRelationshipsDiagramImplied Pages: 1 -->
<svg width="631pt" height="327pt"
 viewBox="0.00 0.00 631.00 326.70" xmlns="http://www.w3.org/2000/svg" xmlns:xlink="http://www.w3.org/1999/xlink">
<g id="graph0" class="graph" transform="scale(1 1) rotate(0) translate(4 322.7)">
<title>twoDegreesRelationshipsDiagramImplied</title>
<polygon fill="#ffffff" stroke="transparent" points="-4,4 -4,-322.7 627,-322.7 627,4 -4,4"/>
<text text-anchor="middle" x="72.4936" y="-7.3" font-family="Helvetica,sans-Serif" font-size="11.00" fill="#000000">Generated by SchemaSpy</text>
<!-- AgDeletedOzAlbumAssetIds -->
<g id="node1" class="node">
<title>AgDeletedOzAlbumAssetIds</title>
<g id="a_node1"><a xlink:href="../../tables/AgDeletedOzAlbumAssetIds.html" xlink:title="AgDeletedOzAlbumAssetIds" target="_top">
<polygon fill="#ffffff" stroke="transparent" points="332,-202.7 332,-314.7 607,-314.7 607,-202.7 332,-202.7"/>
<polygon fill="#f5f5f5" stroke="transparent" points="334.5,-289.7 334.5,-312.7 605.5,-312.7 605.5,-289.7 334.5,-289.7"/>
<polygon fill="none" stroke="#000000" points="334.5,-289.7 334.5,-312.7 605.5,-312.7 605.5,-289.7 334.5,-289.7"/>
<text text-anchor="start" x="339.5" y="-298.3" font-family="Helvetica,sans-Serif" font-weight="bold" font-size="11.00" fill="#000000">AgDeletedOzAlbumAssetIds</text>
<text text-anchor="start" x="570.5437" y="-297.8" font-family="Helvetica,sans-Serif" font-size="11.00" fill="#000000">[table]</text>
<polygon fill="#ffffff" stroke="transparent" points="334.5,-267.7 334.5,-289.7 517.5,-289.7 517.5,-267.7 334.5,-267.7"/>
<polygon fill="none" stroke="#000000" points="334.5,-267.7 334.5,-289.7 517.5,-289.7 517.5,-267.7 334.5,-267.7"/>
<text text-anchor="start" x="354.5" y="-274.8" font-family="Helvetica,sans-Serif" font-size="11.00" fill="#000000">ozCatalogId</text>
<polygon fill="none" stroke="#000000" points="517.5,-267.7 517.5,-289.7 605.5,-289.7 605.5,-267.7 517.5,-267.7"/>
<text text-anchor="start" x="520.2253" y="-275.4" font-family="Helvetica,sans-Serif" font-size="11.00" fill="#000000">[2000000000,10]</text>
<polygon fill="#ffffff" stroke="transparent" points="334.5,-245.7 334.5,-267.7 517.5,-267.7 517.5,-245.7 334.5,-245.7"/>
<polygon fill="none" stroke="#000000" points="334.5,-245.7 334.5,-267.7 517.5,-267.7 517.5,-245.7 334.5,-245.7"/>
<image xlink:href="../../images/foreignKeys.png" width="11px" height="12px" preserveAspectRatio="xMinYMin meet" x="339.5" y="-262.7"/>
<text text-anchor="start" x="354.5" y="-252.8" font-family="Helvetica,sans-Serif" font-size="11.00" fill="#000000">ozAlbumAssetId</text>
<polygon fill="none" stroke="#000000" points="517.5,-245.7 517.5,-267.7 605.5,-267.7 605.5,-245.7 517.5,-245.7"/>
<text text-anchor="start" x="520.2253" y="-253.4" font-family="Helvetica,sans-Serif" font-size="11.00" fill="#000000">[2000000000,10]</text>
<polygon fill="#ffffff" stroke="transparent" points="334.5,-223.7 334.5,-245.7 517.5,-245.7 517.5,-223.7 334.5,-223.7"/>
<polygon fill="none" stroke="#000000" points="334.5,-223.7 334.5,-245.7 517.5,-245.7 517.5,-223.7 334.5,-223.7"/>
<text text-anchor="start" x="354.5" y="-230.8" font-family="Helvetica,sans-Serif" font-size="11.00" fill="#000000">changeCounter</text>
<polygon fill="none" stroke="#000000" points="517.5,-223.7 517.5,-245.7 605.5,-245.7 605.5,-223.7 517.5,-223.7"/>
<text text-anchor="start" x="520.2253" y="-231.4" font-family="Helvetica,sans-Serif" font-size="11.00" fill="#000000">[2000000000,10]</text>
<polygon fill="#ffffff" stroke="transparent" points="334.5,-204.7 334.5,-223.7 430.5,-223.7 430.5,-204.7 334.5,-204.7"/>
<polygon fill="none" stroke="#000000" points="334.5,-204.7 334.5,-223.7 430.5,-223.7 430.5,-204.7 334.5,-204.7"/>
<text text-anchor="start" x="337.5" y="-210.8" font-family="Helvetica,sans-Serif" font-size="11.00" fill="#000000">&lt; 1</text>
<polygon fill="#ffffff" stroke="transparent" points="430.5,-204.7 430.5,-223.7 517.5,-223.7 517.5,-204.7 430.5,-204.7"/>
<polygon fill="none" stroke="#000000" points="430.5,-204.7 430.5,-223.7 517.5,-223.7 517.5,-204.7 430.5,-204.7"/>
<text text-anchor="start" x="508.3862" y="-210.8" font-family="Helvetica,sans-Serif" font-size="11.00" fill="#000000"> &#160;</text>
<polygon fill="#ffffff" stroke="transparent" points="517.5,-204.7 517.5,-223.7 605.5,-223.7 605.5,-204.7 517.5,-204.7"/>
<polygon fill="none" stroke="#000000" points="517.5,-204.7 517.5,-223.7 605.5,-223.7 605.5,-204.7 517.5,-204.7"/>
<text text-anchor="start" x="586.9053" y="-210.8" font-family="Helvetica,sans-Serif" font-size="11.00" fill="#000000">0 &gt;</text>
<polygon fill="none" stroke="#000000" stroke-width="2" points="333,-203.7 333,-313.7 606,-313.7 606,-203.7 333,-203.7"/>
</a>
</g>
</g>
<!-- AgPendingOzAlbumAssetIds_sortOrder -->
<g id="node2" class="node">
<title>AgPendingOzAlbumAssetIds_sortOrder</title>
<g id="a_node2"><a xlink:href="../../tables/AgPendingOzAlbumAssetIds_sortOrder.html" xlink:title="AgPendingOzAlbumAssetIds_sortOrder" target="_top">
<polygon fill="#ffffff" stroke="transparent" points="8,-99.2 8,-182.2 275,-182.2 275,-99.2 8,-99.2"/>
<polygon fill="#f5f5f5" stroke="transparent" points="8.5,-158.7 8.5,-181.7 275.5,-181.7 275.5,-158.7 8.5,-158.7"/>
<polygon fill="none" stroke="#000000" points="8.5,-158.7 8.5,-181.7 275.5,-181.7 275.5,-158.7 8.5,-158.7"/>
<text text-anchor="start" x="13.5" y="-167.3" font-family="Helvetica,sans-Serif" font-weight="bold" font-size="11.00" fill="#000000">AgPendingOzAlbumAssetIds_sortOrder</text>
<text text-anchor="start" x="241.0219" y="-166.8" font-family="Helvetica,sans-Serif" font-size="11.00" fill="#000000">[table]</text>
<polygon fill="none" stroke="#000000" points="8.5,-136.7 8.5,-158.7 275.5,-158.7 275.5,-136.7 8.5,-136.7"/>
<image xlink:href="../../images/primaryKeys.png" width="11px" height="12px" preserveAspectRatio="xMinYMin meet" x="13.5" y="-153.7"/>
<text text-anchor="start" x="37.5" y="-143.8" font-family="Helvetica,sans-Serif" font-size="11.00" fill="#000000">ozAlbumAssetId</text>
<polygon fill="none" stroke="#000000" points="8.5,-117.7 8.5,-136.7 275.5,-136.7 275.5,-117.7 8.5,-117.7"/>
<text text-anchor="start" x="11.5" y="-123.8" font-family="Helvetica,sans-Serif" font-size="11.00" fill="#000000">...</text>
<polygon fill="#ffffff" stroke="transparent" points="8.5,-98.7 8.5,-117.7 131.5,-117.7 131.5,-98.7 8.5,-98.7"/>
<polygon fill="none" stroke="#000000" points="8.5,-98.7 8.5,-117.7 131.5,-117.7 131.5,-98.7 8.5,-98.7"/>
<text text-anchor="start" x="11.5" y="-104.8" font-family="Helvetica,sans-Serif" font-size="11.00" fill="#000000"> &#160;</text>
<polygon fill="#ffffff" stroke="transparent" points="131.5,-98.7 131.5,-117.7 198.5,-117.7 198.5,-98.7 131.5,-98.7"/>
<polygon fill="none" stroke="#000000" points="131.5,-98.7 131.5,-117.7 198.5,-117.7 198.5,-98.7 131.5,-98.7"/>
<text text-anchor="start" x="189.3862" y="-104.8" font-family="Helvetica,sans-Serif" font-size="11.00" fill="#000000"> &#160;</text>
<polygon fill="#ffffff" stroke="transparent" points="198.5,-98.7 198.5,-117.7 275.5,-117.7 275.5,-98.7 198.5,-98.7"/>
<polygon fill="none" stroke="#000000" points="198.5,-98.7 198.5,-117.7 275.5,-117.7 275.5,-98.7 198.5,-98.7"/>
<text text-anchor="start" x="256.9053" y="-104.8" font-family="Helvetica,sans-Serif" font-size="11.00" fill="#000000">3 &gt;</text>
</a>
</g>
</g>
<!-- AgDeletedOzAlbumAssetIds&#45;&gt;AgPendingOzAlbumAssetIds_sortOrder -->
<g id="edge1" class="edge">
<title>AgDeletedOzAlbumAssetIds:w&#45;&gt;AgPendingOzAlbumAssetIds_sortOrder:e</title>
<path fill="none" stroke="#000000" stroke-dasharray="5,2" d="M320.3671,-253.3183C289.0261,-234.9203 324.7762,-147.7 275.5,-147.7"/>
<polygon fill="#000000" stroke="#000000" points="326.7196,-254.8383 333.6622,-260.2012 330.6098,-255.7691 334.5,-256.7 334.5,-256.7 334.5,-256.7 330.6098,-255.7691 335.3378,-253.1988 326.7196,-254.8383 326.7196,-254.8383"/>
<ellipse fill="none" stroke="#000000" cx="323.6075" cy="-254.0936" rx="3.2" ry="3.2"/>
</g>
<!-- AgLibraryCollectionImageOzAlbumAssetIds -->
<g id="node3" class="node">
<title>AgLibraryCollectionImageOzAlbumAssetIds</title>
<g id="a_node3"><a xlink:href="../../tables/AgLibraryCollectionImageOzAlbumAssetIds.html" xlink:title="AgLibraryCollectionImageOzAlbumAssetIds" target="_top">
<polygon fill="#ffffff" stroke="transparent" points="324,-120.2 324,-181.2 615,-181.2 615,-120.2 324,-120.2"/>
<polygon fill="#f5f5f5" stroke="transparent" points="324.5,-157.7 324.5,-180.7 615.5,-180.7 615.5,-157.7 324.5,-157.7"/>
<polygon fill="none" stroke="#000000" points="324.5,-157.7 324.5,-180.7 615.5,-180.7 615.5,-157.7 324.5,-157.7"/>
<text text-anchor="start" x="329.5" y="-166.3" font-family="Helvetica,sans-Serif" font-weight="bold" font-size="11.00" fill="#000000">AgLibraryCollectionImageOzAlbumAssetIds</text>
<text text-anchor="start" x="581.0219" y="-165.8" font-family="Helvetica,sans-Serif" font-size="11.00" fill="#000000">[table]</text>
<polygon fill="none" stroke="#000000" points="324.5,-138.7 324.5,-157.7 615.5,-157.7 615.5,-138.7 324.5,-138.7"/>
<text text-anchor="start" x="327.5" y="-144.8" font-family="Helvetica,sans-Serif" font-size="11.00" fill="#000000">...</text>
<polygon fill="#ffffff" stroke="transparent" points="324.5,-119.7 324.5,-138.7 468.5,-138.7 468.5,-119.7 324.5,-119.7"/>
<polygon fill="none" stroke="#000000" points="324.5,-119.7 324.5,-138.7 468.5,-138.7 468.5,-119.7 324.5,-119.7"/>
<text text-anchor="start" x="327.5" y="-125.8" font-family="Helvetica,sans-Serif" font-size="11.00" fill="#000000">&lt; 4</text>
<polygon fill="#ffffff" stroke="transparent" points="468.5,-119.7 468.5,-138.7 541.5,-138.7 541.5,-119.7 468.5,-119.7"/>
<polygon fill="none" stroke="#000000" points="468.5,-119.7 468.5,-138.7 541.5,-138.7 541.5,-119.7 468.5,-119.7"/>
<text text-anchor="start" x="532.3862" y="-125.8" font-family="Helvetica,sans-Serif" font-size="11.00" fill="#000000"> &#160;</text>
<polygon fill="#ffffff" stroke="transparent" points="541.5,-119.7 541.5,-138.7 615.5,-138.7 615.5,-119.7 541.5,-119.7"/>
<polygon fill="none" stroke="#000000" points="541.5,-119.7 541.5,-138.7 615.5,-138.7 615.5,-119.7 541.5,-119.7"/>
<text text-anchor="start" x="606.3862" y="-125.8" font-family="Helvetica,sans-Serif" font-size="11.00" fill="#000000"> &#160;</text>
</a>
</g>
</g>
<!-- AgLibraryCollectionImageOzAlbumAssetIds&#45;&gt;AgPendingOzAlbumAssetIds_sortOrder -->
<g id="edge2" class="edge">
<title>AgLibraryCollectionImageOzAlbumAssetIds:w&#45;&gt;AgPendingOzAlbumAssetIds_sortOrder:e</title>
<path fill="none" stroke="#000000" stroke-dasharray="5,2" d="M309.9909,-147.7C298.6774,-147.7 291.4931,-147.7 275.5,-147.7"/>
<polygon fill="#000000" stroke="#000000" points="316.5,-147.7001 324.5,-151.3 320.5,-147.7 324.5,-147.7 324.5,-147.7 324.5,-147.7 320.5,-147.7 324.5,-144.1 316.5,-147.7001 316.5,-147.7001"/>
<ellipse fill="none" stroke="#000000" cx="313.3" cy="-147.7001" rx="3.2" ry="3.2"/>
</g>
<!-- AgPendingOzAlbumAssetIds -->
<g id="node4" class="node">
<title>AgPendingOzAlbumAssetIds</title>
<g id="a_node4"><a xlink:href="../../tables/AgPendingOzAlbumAssetIds.html" xlink:title="AgPendingOzAlbumAssetIds" target="_top">
<polygon fill="#ffffff" stroke="transparent" points="367,-38.2 367,-99.2 572,-99.2 572,-38.2 367,-38.2"/>
<polygon fill="#f5f5f5" stroke="transparent" points="367.5,-75.7 367.5,-98.7 572.5,-98.7 572.5,-75.7 367.5,-75.7"/>
<polygon fill="none" stroke="#000000" points="367.5,-75.7 367.5,-98.7 572.5,-98.7 572.5,-75.7 367.5,-75.7"/>
<text text-anchor="start" x="372.5" y="-84.3" font-family="Helvetica,sans-Serif" font-weight="bold" font-size="11.00" fill="#000000">AgPendingOzAlbumAssetIds</text>
<text text-anchor="start" x="538.0219" y="-83.8" font-family="Helvetica,sans-Serif" font-size="11.00" fill="#000000">[table]</text>
<polygon fill="none" stroke="#000000" points="367.5,-56.7 367.5,-75.7 572.5,-75.7 572.5,-56.7 367.5,-56.7"/>
<text text-anchor="start" x="370.5" y="-62.8" font-family="Helvetica,sans-Serif" font-size="11.00" fill="#000000">...</text>
<polygon fill="#ffffff" stroke="transparent" points="367.5,-37.7 367.5,-56.7 468.5,-56.7 468.5,-37.7 367.5,-37.7"/>
<polygon fill="none" stroke="#000000" points="367.5,-37.7 367.5,-56.7 468.5,-56.7 468.5,-37.7 367.5,-37.7"/>
<text text-anchor="start" x="370.5" y="-43.8" font-family="Helvetica,sans-Serif" font-size="11.00" fill="#000000">&lt; 1</text>
<polygon fill="#ffffff" stroke="transparent" points="468.5,-37.7 468.5,-56.7 520.5,-56.7 520.5,-37.7 468.5,-37.7"/>
<polygon fill="none" stroke="#000000" points="468.5,-37.7 468.5,-56.7 520.5,-56.7 520.5,-37.7 468.5,-37.7"/>
<text text-anchor="start" x="511.3862" y="-43.8" font-family="Helvetica,sans-Serif" font-size="11.00" fill="#000000"> &#160;</text>
<polygon fill="#ffffff" stroke="transparent" points="520.5,-37.7 520.5,-56.7 572.5,-56.7 572.5,-37.7 520.5,-37.7"/>
<polygon fill="none" stroke="#000000" points="520.5,-37.7 520.5,-56.7 572.5,-56.7 572.5,-37.7 520.5,-37.7"/>
<text text-anchor="start" x="563.3862" y="-43.8" font-family="Helvetica,sans-Serif" font-size="11.00" fill="#000000"> &#160;</text>
</a>
</g>
</g>
<!-- AgPendingOzAlbumAssetIds&#45;&gt;AgPendingOzAlbumAssetIds_sortOrder -->
<g id="edge3" class="edge">
<title>AgPendingOzAlbumAssetIds:w&#45;&gt;AgPendingOzAlbumAssetIds_sortOrder:e</title>
<path fill="none" stroke="#000000" stroke-dasharray="5,2" d="M353.0169,-68.2303C336.9034,-74.8964 334.0473,-93.5396 316,-109.7 297.6119,-126.1655 300.1827,-147.7 275.5,-147.7"/>
<polygon fill="#000000" stroke="#000000" points="359.6194,-67.0769 368.1196,-69.2463 363.5597,-66.3884 367.5,-65.7 367.5,-65.7 367.5,-65.7 363.5597,-66.3884 366.8804,-62.1537 359.6194,-67.0769 359.6194,-67.0769"/>
<ellipse fill="none" stroke="#000000" cx="356.4671" cy="-67.6276" rx="3.2" ry="3.2"/>
</g>
</g>
</svg>
