digraph "oneDegreeRelationshipsDiagram" {
  graph [    rankdir="RL"    bgcolor="#ffffff"    label="\nGenerated by SchemaSpy"    labeljust="l"    nodesep="0.18"    ranksep="0.46"    fontname="Helvetica"    fontsize="11"    ration="compress"  ];  node [    fontname="Helvetica"    fontsize="11"    shape="plaintext"  ];  edge [    arrowsize="0.8"  ];
  "AgDeletedOzAlbumIds" [
   label=<
    <TABLE BORDER="2" CELLBORDER="1" CELLSPACING="0" BGCOLOR="#ffffff">
      <TR><TD COLSPAN="4"  BGCOLOR="#f5f5f5"><TABLE BORDER="0" CELLSPACING="0"><TR><TD ALIGN="LEFT" FIXEDSIZE="TRUE" WIDTH="129" HEIGHT="16"><B>AgDeletedOzAlbumIds</B></TD><TD ALIGN="RIGHT">[table]</TD></TR></TABLE></TD></TR>
      <TR><TD PORT="ozCatalogId" COLSPAN="2" BGCOLOR="#ffffff" ALIGN="LEFT"><TABLE BORDER="0" CELLSPACING="0" ALIGN="LEFT"><TR ALIGN="LEFT"><TD ALIGN="LEFT" FIXEDSIZE="TRUE" WIDTH="15" HEIGHT="16"></TD><TD ALIGN="LEFT" FIXEDSIZE="TRUE" WIDTH="129" HEIGHT="16">ozCatalogId</TD></TR></TABLE></TD><TD PORT="ozCatalogId.type" ALIGN="LEFT">[2000000000,10]</TD></TR>
      <TR><TD PORT="ozAlbumId" COLSPAN="2" BGCOLOR="#ffffff" ALIGN="LEFT"><TABLE BORDER="0" CELLSPACING="0" ALIGN="LEFT"><TR ALIGN="LEFT"><TD ALIGN="LEFT" FIXEDSIZE="TRUE" WIDTH="15" HEIGHT="16"></TD><TD ALIGN="LEFT" FIXEDSIZE="TRUE" WIDTH="129" HEIGHT="16">ozAlbumId</TD></TR></TABLE></TD><TD PORT="ozAlbumId.type" ALIGN="LEFT">[2000000000,10]</TD></TR>
      <TR><TD PORT="changeCounter" COLSPAN="2" BGCOLOR="#ffffff" ALIGN="LEFT"><TABLE BORDER="0" CELLSPACING="0" ALIGN="LEFT"><TR ALIGN="LEFT"><TD ALIGN="LEFT" FIXEDSIZE="TRUE" WIDTH="15" HEIGHT="16"></TD><TD ALIGN="LEFT" FIXEDSIZE="TRUE" WIDTH="129" HEIGHT="16">changeCounter</TD></TR></TABLE></TD><TD PORT="changeCounter.type" ALIGN="LEFT">[2000000000,10]</TD></TR>
      <TR><TD ALIGN="LEFT" BGCOLOR="#ffffff">&lt; 0</TD><TD ALIGN="RIGHT" BGCOLOR="#ffffff">  </TD><TD ALIGN="RIGHT" BGCOLOR="#ffffff">0 &gt;</TD></TR>
    </TABLE>>
    URL="../../tables/AgDeletedOzAlbumIds.html"
    target="_top"
    tooltip="AgDeletedOzAlbumIds"
  ];
}
