<?xml version="1.0" encoding="UTF-8" standalone="no"?>
<!DOCTYPE svg PUBLIC "-//W3C//DTD SVG 1.1//EN"
 "http://www.w3.org/Graphics/SVG/1.1/DTD/svg11.dtd">
<!-- Generated by graphviz version 2.40.1 (20161225.0304)
 -->
<!-- Title: twoDegreesRelationshipsDiagram Pages: 1 -->
<svg width="666pt" height="267pt"
 viewBox="0.00 0.00 666.00 266.70" xmlns="http://www.w3.org/2000/svg" xmlns:xlink="http://www.w3.org/1999/xlink">
<g id="graph0" class="graph" transform="scale(1 1) rotate(0) translate(4 262.7)">
<title>twoDegreesRelationshipsDiagram</title>
<polygon fill="#ffffff" stroke="transparent" points="-4,4 -4,-262.7 662,-262.7 662,4 -4,4"/>
<text text-anchor="middle" x="72.4936" y="-7.3" font-family="Helvetica,sans-Serif" font-size="11.00" fill="#000000">Generated by SchemaSpy</text>
<!-- Adobe_images -->
<g id="node1" class="node">
<title>Adobe_images</title>
<g id="a_node1"><a xlink:href="../../tables/Adobe_images.html" xlink:title="Adobe_images" target="_top">
<polygon fill="#ffffff" stroke="transparent" points="465.5,-193.7 465.5,-254.7 589.5,-254.7 589.5,-193.7 465.5,-193.7"/>
<polygon fill="#f5f5f5" stroke="transparent" points="465.5,-231.2 465.5,-254.2 589.5,-254.2 589.5,-231.2 465.5,-231.2"/>
<polygon fill="none" stroke="#000000" points="465.5,-231.2 465.5,-254.2 589.5,-254.2 589.5,-231.2 465.5,-231.2"/>
<text text-anchor="start" x="470.5" y="-239.8" font-family="Helvetica,sans-Serif" font-weight="bold" font-size="11.00" fill="#000000">Adobe_images</text>
<text text-anchor="start" x="555.0219" y="-239.3" font-family="Helvetica,sans-Serif" font-size="11.00" fill="#000000">[table]</text>
<polygon fill="none" stroke="#000000" points="465.5,-212.2 465.5,-231.2 589.5,-231.2 589.5,-212.2 465.5,-212.2"/>
<text text-anchor="start" x="468.5" y="-218.3" font-family="Helvetica,sans-Serif" font-size="11.00" fill="#000000">...</text>
<polygon fill="#ffffff" stroke="transparent" points="465.5,-193.2 465.5,-212.2 518.5,-212.2 518.5,-193.2 465.5,-193.2"/>
<polygon fill="none" stroke="#000000" points="465.5,-193.2 465.5,-212.2 518.5,-212.2 518.5,-193.2 465.5,-193.2"/>
<text text-anchor="start" x="468.5" y="-199.3" font-family="Helvetica,sans-Serif" font-size="11.00" fill="#000000">&lt; 2</text>
<polygon fill="#ffffff" stroke="transparent" points="518.5,-193.2 518.5,-212.2 546.5,-212.2 546.5,-193.2 518.5,-193.2"/>
<polygon fill="none" stroke="#000000" points="518.5,-193.2 518.5,-212.2 546.5,-212.2 546.5,-193.2 518.5,-193.2"/>
<text text-anchor="start" x="537.3862" y="-199.3" font-family="Helvetica,sans-Serif" font-size="11.00" fill="#000000"> &#160;</text>
<polygon fill="#ffffff" stroke="transparent" points="546.5,-193.2 546.5,-212.2 589.5,-212.2 589.5,-193.2 546.5,-193.2"/>
<polygon fill="none" stroke="#000000" points="546.5,-193.2 546.5,-212.2 589.5,-212.2 589.5,-193.2 546.5,-193.2"/>
<text text-anchor="start" x="564.7904" y="-199.3" font-family="Helvetica,sans-Serif" font-size="11.00" fill="#000000">31 &gt;</text>
</a>
</g>
</g>
<!-- AgLibraryFile -->
<g id="node2" class="node">
<title>AgLibraryFile</title>
<g id="a_node2"><a xlink:href="../../tables/AgLibraryFile.html" xlink:title="AgLibraryFile" target="_top">
<polygon fill="#ffffff" stroke="transparent" points="189,-41.7 189,-212.7 356,-212.7 356,-41.7 189,-41.7"/>
<polygon fill="#f5f5f5" stroke="transparent" points="189.5,-189.2 189.5,-212.2 356.5,-212.2 356.5,-189.2 189.5,-189.2"/>
<polygon fill="none" stroke="#000000" points="189.5,-189.2 189.5,-212.2 356.5,-212.2 356.5,-189.2 189.5,-189.2"/>
<text text-anchor="start" x="194.5" y="-197.8" font-family="Helvetica,sans-Serif" font-weight="bold" font-size="11.00" fill="#000000">AgLibraryFile</text>
<text text-anchor="start" x="321.5437" y="-197.3" font-family="Helvetica,sans-Serif" font-size="11.00" fill="#000000">[table]</text>
<polygon fill="none" stroke="#000000" points="189.5,-167.2 189.5,-189.2 356.5,-189.2 356.5,-167.2 189.5,-167.2"/>
<image xlink:href="../../images/primaryKeys.png" width="11px" height="12px" preserveAspectRatio="xMinYMin meet" x="194.5" y="-184.2"/>
<text text-anchor="start" x="209.5" y="-174.3" font-family="Helvetica,sans-Serif" font-size="11.00" fill="#000000">id_local</text>
<polygon fill="#ffffff" stroke="transparent" points="189.5,-145.2 189.5,-167.2 356.5,-167.2 356.5,-145.2 189.5,-145.2"/>
<polygon fill="none" stroke="#000000" points="189.5,-145.2 189.5,-167.2 356.5,-167.2 356.5,-145.2 189.5,-145.2"/>
<text text-anchor="start" x="209.5" y="-152.3" font-family="Helvetica,sans-Serif" font-size="11.00" fill="#000000">id_global</text>
<polygon fill="#ffffff" stroke="transparent" points="189.5,-123.2 189.5,-145.2 356.5,-145.2 356.5,-123.2 189.5,-123.2"/>
<polygon fill="none" stroke="#000000" points="189.5,-123.2 189.5,-145.2 356.5,-145.2 356.5,-123.2 189.5,-123.2"/>
<image xlink:href="../../images/foreignKeys.png" width="11px" height="12px" preserveAspectRatio="xMinYMin meet" x="194.5" y="-140.2"/>
<text text-anchor="start" x="209.5" y="-130.3" font-family="Helvetica,sans-Serif" font-size="11.00" fill="#000000">folder</text>
<polygon fill="#ffffff" stroke="transparent" points="189.5,-101.2 189.5,-123.2 356.5,-123.2 356.5,-101.2 189.5,-101.2"/>
<polygon fill="none" stroke="#000000" points="189.5,-101.2 189.5,-123.2 356.5,-123.2 356.5,-101.2 189.5,-101.2"/>
<text text-anchor="start" x="209.5" y="-108.3" font-family="Helvetica,sans-Serif" font-size="11.00" fill="#000000">importHash</text>
<polygon fill="#ffffff" stroke="transparent" points="189.5,-79.2 189.5,-101.2 356.5,-101.2 356.5,-79.2 189.5,-79.2"/>
<polygon fill="none" stroke="#000000" points="189.5,-79.2 189.5,-101.2 356.5,-101.2 356.5,-79.2 189.5,-79.2"/>
<text text-anchor="start" x="209.5" y="-86.3" font-family="Helvetica,sans-Serif" font-size="11.00" fill="#000000">lc_idx_filename</text>
<polygon fill="none" stroke="#000000" points="189.5,-60.2 189.5,-79.2 356.5,-79.2 356.5,-60.2 189.5,-60.2"/>
<text text-anchor="start" x="192.5" y="-66.3" font-family="Helvetica,sans-Serif" font-size="11.00" fill="#000000">...</text>
<polygon fill="#ffffff" stroke="transparent" points="189.5,-41.2 189.5,-60.2 266.5,-60.2 266.5,-41.2 189.5,-41.2"/>
<polygon fill="none" stroke="#000000" points="189.5,-41.2 189.5,-60.2 266.5,-60.2 266.5,-41.2 189.5,-41.2"/>
<text text-anchor="start" x="192.5" y="-47.3" font-family="Helvetica,sans-Serif" font-size="11.00" fill="#000000">&lt; 1</text>
<polygon fill="#ffffff" stroke="transparent" points="266.5,-41.2 266.5,-60.2 306.5,-60.2 306.5,-41.2 266.5,-41.2"/>
<polygon fill="none" stroke="#000000" points="266.5,-41.2 266.5,-60.2 306.5,-60.2 306.5,-41.2 266.5,-41.2"/>
<text text-anchor="start" x="297.3862" y="-47.3" font-family="Helvetica,sans-Serif" font-size="11.00" fill="#000000"> &#160;</text>
<polygon fill="#ffffff" stroke="transparent" points="306.5,-41.2 306.5,-60.2 356.5,-60.2 356.5,-41.2 306.5,-41.2"/>
<polygon fill="none" stroke="#000000" points="306.5,-41.2 306.5,-60.2 356.5,-60.2 356.5,-41.2 306.5,-41.2"/>
<text text-anchor="start" x="337.9053" y="-47.3" font-family="Helvetica,sans-Serif" font-size="11.00" fill="#000000">2 &gt;</text>
</a>
</g>
</g>
<!-- Adobe_images&#45;&gt;AgLibraryFile -->
<g id="edge1" class="edge">
<title>Adobe_images:w&#45;&gt;AgLibraryFile:e</title>
<path fill="none" stroke="#000000" d="M450.9952,-219.9595C411.951,-212.9092 403.2887,-178.2 356.5,-178.2"/>
<polygon fill="#000000" stroke="#000000" points="457.5291,-220.5182 465.1932,-224.7869 461.5145,-220.8591 465.5,-221.2 465.5,-221.2 465.5,-221.2 461.5145,-220.8591 465.8068,-217.6131 457.5291,-220.5182 457.5291,-220.5182"/>
<ellipse fill="none" stroke="#000000" cx="454.3407" cy="-220.2455" rx="3.2" ry="3.2"/>
</g>
<!-- AgLibraryFolder -->
<g id="node4" class="node">
<title>AgLibraryFolder</title>
<g id="a_node4"><a xlink:href="../../tables/AgLibraryFolder.html" xlink:title="AgLibraryFolder" target="_top">
<polygon fill="#ffffff" stroke="transparent" points="8,-106.7 8,-167.7 140,-167.7 140,-106.7 8,-106.7"/>
<polygon fill="#f5f5f5" stroke="transparent" points="8,-144.2 8,-167.2 140,-167.2 140,-144.2 8,-144.2"/>
<polygon fill="none" stroke="#000000" points="8,-144.2 8,-167.2 140,-167.2 140,-144.2 8,-144.2"/>
<text text-anchor="start" x="13" y="-152.8" font-family="Helvetica,sans-Serif" font-weight="bold" font-size="11.00" fill="#000000">AgLibraryFolder</text>
<text text-anchor="start" x="105.5219" y="-152.3" font-family="Helvetica,sans-Serif" font-size="11.00" fill="#000000">[table]</text>
<polygon fill="none" stroke="#000000" points="8,-125.2 8,-144.2 140,-144.2 140,-125.2 8,-125.2"/>
<text text-anchor="start" x="11" y="-131.3" font-family="Helvetica,sans-Serif" font-size="11.00" fill="#000000">...</text>
<polygon fill="#ffffff" stroke="transparent" points="8,-106.2 8,-125.2 68,-125.2 68,-106.2 8,-106.2"/>
<polygon fill="none" stroke="#000000" points="8,-106.2 8,-125.2 68,-125.2 68,-106.2 8,-106.2"/>
<text text-anchor="start" x="11" y="-112.3" font-family="Helvetica,sans-Serif" font-size="11.00" fill="#000000">&lt; 1</text>
<polygon fill="#ffffff" stroke="transparent" points="68,-106.2 68,-125.2 99,-125.2 99,-106.2 68,-106.2"/>
<polygon fill="none" stroke="#000000" points="68,-106.2 68,-125.2 99,-125.2 99,-106.2 68,-106.2"/>
<text text-anchor="start" x="89.8862" y="-112.3" font-family="Helvetica,sans-Serif" font-size="11.00" fill="#000000"> &#160;</text>
<polygon fill="#ffffff" stroke="transparent" points="99,-106.2 99,-125.2 140,-125.2 140,-106.2 99,-106.2"/>
<polygon fill="none" stroke="#000000" points="99,-106.2 99,-125.2 140,-125.2 140,-106.2 99,-106.2"/>
<text text-anchor="start" x="121.4053" y="-112.3" font-family="Helvetica,sans-Serif" font-size="11.00" fill="#000000">2 &gt;</text>
</a>
</g>
</g>
<!-- AgLibraryFile&#45;&gt;AgLibraryFolder -->
<g id="edge3" class="edge">
<title>AgLibraryFile:w&#45;&gt;AgLibraryFolder:e</title>
<path fill="none" stroke="#000000" d="M174.8428,-134.2C163.4139,-134.2 156.1563,-134.2 140,-134.2"/>
<polygon fill="#000000" stroke="#000000" points="181.5,-134.2001 189.5,-137.8 185.5,-134.2 189.5,-134.2 189.5,-134.2 189.5,-134.2 185.5,-134.2 189.5,-130.6 181.5,-134.2001 181.5,-134.2001"/>
<ellipse fill="none" stroke="#000000" cx="178.3" cy="-134.2001" rx="3.2" ry="3.2"/>
</g>
<!-- AgDNGProxyInfo -->
<g id="node3" class="node">
<title>AgDNGProxyInfo</title>
<g id="a_node3"><a xlink:href="../../tables/AgDNGProxyInfo.html" xlink:title="AgDNGProxyInfo" target="_top">
<polygon fill="#ffffff" stroke="transparent" points="405,-38.2 405,-172.2 650,-172.2 650,-38.2 405,-38.2"/>
<polygon fill="#f5f5f5" stroke="transparent" points="407.5,-147.2 407.5,-170.2 648.5,-170.2 648.5,-147.2 407.5,-147.2"/>
<polygon fill="none" stroke="#000000" points="407.5,-147.2 407.5,-170.2 648.5,-170.2 648.5,-147.2 407.5,-147.2"/>
<text text-anchor="start" x="412.5" y="-155.8" font-family="Helvetica,sans-Serif" font-weight="bold" font-size="11.00" fill="#000000">AgDNGProxyInfo</text>
<text text-anchor="start" x="613.5437" y="-155.3" font-family="Helvetica,sans-Serif" font-size="11.00" fill="#000000">[table]</text>
<polygon fill="none" stroke="#000000" points="407.5,-125.2 407.5,-147.2 526.5,-147.2 526.5,-125.2 407.5,-125.2"/>
<image xlink:href="../../images/primaryKeys.png" width="11px" height="12px" preserveAspectRatio="xMinYMin meet" x="412.5" y="-142.2"/>
<text text-anchor="start" x="427.5" y="-132.3" font-family="Helvetica,sans-Serif" font-size="11.00" fill="#000000">id_local</text>
<polygon fill="none" stroke="#000000" points="526.5,-125.2 526.5,-147.2 648.5,-147.2 648.5,-125.2 526.5,-125.2"/>
<text text-anchor="start" x="529.4156" y="-132.9" font-family="Helvetica,sans-Serif" font-size="11.00" fill="#000000">integer[2000000000,10]</text>
<polygon fill="#ffffff" stroke="transparent" points="407.5,-103.2 407.5,-125.2 526.5,-125.2 526.5,-103.2 407.5,-103.2"/>
<polygon fill="none" stroke="#000000" points="407.5,-103.2 407.5,-125.2 526.5,-125.2 526.5,-103.2 407.5,-103.2"/>
<image xlink:href="../../images/foreignKeys.png" width="11px" height="12px" preserveAspectRatio="xMinYMin meet" x="412.5" y="-120.2"/>
<text text-anchor="start" x="427.5" y="-110.3" font-family="Helvetica,sans-Serif" font-size="11.00" fill="#000000">fileUUID</text>
<polygon fill="none" stroke="#000000" points="526.5,-103.2 526.5,-125.2 648.5,-125.2 648.5,-103.2 526.5,-103.2"/>
<text text-anchor="start" x="529.5" y="-110.9" font-family="Helvetica,sans-Serif" font-size="11.00" fill="#000000">[2000000000,10]</text>
<polygon fill="#ffffff" stroke="transparent" points="407.5,-81.2 407.5,-103.2 526.5,-103.2 526.5,-81.2 407.5,-81.2"/>
<polygon fill="none" stroke="#000000" points="407.5,-81.2 407.5,-103.2 526.5,-103.2 526.5,-81.2 407.5,-81.2"/>
<text text-anchor="start" x="427.5" y="-88.3" font-family="Helvetica,sans-Serif" font-size="11.00" fill="#000000">status</text>
<polygon fill="none" stroke="#000000" points="526.5,-81.2 526.5,-103.2 648.5,-103.2 648.5,-81.2 526.5,-81.2"/>
<text text-anchor="start" x="529.5" y="-88.9" font-family="Helvetica,sans-Serif" font-size="11.00" fill="#000000">[2000000000,10]</text>
<polygon fill="#ffffff" stroke="transparent" points="407.5,-59.2 407.5,-81.2 526.5,-81.2 526.5,-59.2 407.5,-59.2"/>
<polygon fill="none" stroke="#000000" points="407.5,-59.2 407.5,-81.2 526.5,-81.2 526.5,-59.2 407.5,-59.2"/>
<text text-anchor="start" x="427.5" y="-66.3" font-family="Helvetica,sans-Serif" font-size="11.00" fill="#000000">statusDateTime</text>
<polygon fill="none" stroke="#000000" points="526.5,-59.2 526.5,-81.2 648.5,-81.2 648.5,-59.2 526.5,-59.2"/>
<text text-anchor="start" x="529.5" y="-66.9" font-family="Helvetica,sans-Serif" font-size="11.00" fill="#000000">[2000000000,10]</text>
<polygon fill="#ffffff" stroke="transparent" points="407.5,-40.2 407.5,-59.2 471.5,-59.2 471.5,-40.2 407.5,-40.2"/>
<polygon fill="none" stroke="#000000" points="407.5,-40.2 407.5,-59.2 471.5,-59.2 471.5,-40.2 407.5,-40.2"/>
<text text-anchor="start" x="410.5" y="-46.3" font-family="Helvetica,sans-Serif" font-size="11.00" fill="#000000">&lt; 1</text>
<polygon fill="#ffffff" stroke="transparent" points="471.5,-40.2 471.5,-59.2 526.5,-59.2 526.5,-40.2 471.5,-40.2"/>
<polygon fill="none" stroke="#000000" points="471.5,-40.2 471.5,-59.2 526.5,-59.2 526.5,-40.2 471.5,-40.2"/>
<text text-anchor="start" x="517.3862" y="-46.3" font-family="Helvetica,sans-Serif" font-size="11.00" fill="#000000"> &#160;</text>
<polygon fill="#ffffff" stroke="transparent" points="526.5,-40.2 526.5,-59.2 648.5,-59.2 648.5,-40.2 526.5,-40.2"/>
<polygon fill="none" stroke="#000000" points="526.5,-40.2 526.5,-59.2 648.5,-59.2 648.5,-40.2 526.5,-40.2"/>
<text text-anchor="start" x="629.9053" y="-46.3" font-family="Helvetica,sans-Serif" font-size="11.00" fill="#000000">0 &gt;</text>
<polygon fill="none" stroke="#000000" stroke-width="2" points="406,-39.2 406,-171.2 649,-171.2 649,-39.2 406,-39.2"/>
</a>
</g>
</g>
<!-- AgDNGProxyInfo&#45;&gt;AgLibraryFile -->
<g id="edge2" class="edge">
<title>AgDNGProxyInfo:w&#45;&gt;AgLibraryFile:e</title>
<path fill="none" stroke="#000000" d="M393.5759,-118.6947C379.7452,-129.5296 379.8991,-156.2 356.5,-156.2"/>
<polygon fill="#000000" stroke="#000000" points="399.8868,-116.6576 408.6059,-117.6259 403.6934,-115.4288 407.5,-114.2 407.5,-114.2 407.5,-114.2 403.6934,-115.4288 406.3941,-110.7741 399.8868,-116.6576 399.8868,-116.6576"/>
<ellipse fill="none" stroke="#000000" cx="396.8416" cy="-117.6406" rx="3.2" ry="3.2"/>
</g>
</g>
</svg>
