<?xml version="1.0" encoding="UTF-8" standalone="no"?>
<!DOCTYPE svg PUBLIC "-//W3C//DTD SVG 1.1//EN"
 "http://www.w3.org/Graphics/SVG/1.1/DTD/svg11.dtd">
<!-- Generated by graphviz version 2.40.1 (20161225.0304)
 -->
<!-- Title: oneDegreeRelationshipsDiagram Pages: 1 -->
<svg width="485pt" height="223pt"
 viewBox="0.00 0.00 485.00 222.70" xmlns="http://www.w3.org/2000/svg" xmlns:xlink="http://www.w3.org/1999/xlink">
<g id="graph0" class="graph" transform="scale(1 1) rotate(0) translate(4 218.7)">
<title>oneDegreeRelationshipsDiagram</title>
<polygon fill="#ffffff" stroke="transparent" points="-4,4 -4,-218.7 481,-218.7 481,4 -4,4"/>
<text text-anchor="middle" x="72.4936" y="-7.3" font-family="Helvetica,sans-Serif" font-size="11.00" fill="#000000">Generated by SchemaSpy</text>
<!-- AgDNGProxyInfo -->
<g id="node1" class="node">
<title>AgDNGProxyInfo</title>
<g id="a_node1"><a xlink:href="../../tables/AgDNGProxyInfo.html" xlink:title="AgDNGProxyInfo" target="_top">
<polygon fill="#ffffff" stroke="transparent" points="224,-76.7 224,-210.7 469,-210.7 469,-76.7 224,-76.7"/>
<polygon fill="#f5f5f5" stroke="transparent" points="226.5,-185.7 226.5,-208.7 467.5,-208.7 467.5,-185.7 226.5,-185.7"/>
<polygon fill="none" stroke="#000000" points="226.5,-185.7 226.5,-208.7 467.5,-208.7 467.5,-185.7 226.5,-185.7"/>
<text text-anchor="start" x="231.5" y="-194.3" font-family="Helvetica,sans-Serif" font-weight="bold" font-size="11.00" fill="#000000">AgDNGProxyInfo</text>
<text text-anchor="start" x="432.5437" y="-193.8" font-family="Helvetica,sans-Serif" font-size="11.00" fill="#000000">[table]</text>
<polygon fill="none" stroke="#000000" points="226.5,-163.7 226.5,-185.7 345.5,-185.7 345.5,-163.7 226.5,-163.7"/>
<image xlink:href="../../images/primaryKeys.png" width="11px" height="12px" preserveAspectRatio="xMinYMin meet" x="231.5" y="-180.7"/>
<text text-anchor="start" x="246.5" y="-170.8" font-family="Helvetica,sans-Serif" font-size="11.00" fill="#000000">id_local</text>
<polygon fill="none" stroke="#000000" points="345.5,-163.7 345.5,-185.7 467.5,-185.7 467.5,-163.7 345.5,-163.7"/>
<text text-anchor="start" x="348.4156" y="-171.4" font-family="Helvetica,sans-Serif" font-size="11.00" fill="#000000">integer[2000000000,10]</text>
<polygon fill="#ffffff" stroke="transparent" points="226.5,-141.7 226.5,-163.7 345.5,-163.7 345.5,-141.7 226.5,-141.7"/>
<polygon fill="none" stroke="#000000" points="226.5,-141.7 226.5,-163.7 345.5,-163.7 345.5,-141.7 226.5,-141.7"/>
<image xlink:href="../../images/foreignKeys.png" width="11px" height="12px" preserveAspectRatio="xMinYMin meet" x="231.5" y="-158.7"/>
<text text-anchor="start" x="246.5" y="-148.8" font-family="Helvetica,sans-Serif" font-size="11.00" fill="#000000">fileUUID</text>
<polygon fill="none" stroke="#000000" points="345.5,-141.7 345.5,-163.7 467.5,-163.7 467.5,-141.7 345.5,-141.7"/>
<text text-anchor="start" x="348.5" y="-149.4" font-family="Helvetica,sans-Serif" font-size="11.00" fill="#000000">[2000000000,10]</text>
<polygon fill="#ffffff" stroke="transparent" points="226.5,-119.7 226.5,-141.7 345.5,-141.7 345.5,-119.7 226.5,-119.7"/>
<polygon fill="none" stroke="#000000" points="226.5,-119.7 226.5,-141.7 345.5,-141.7 345.5,-119.7 226.5,-119.7"/>
<text text-anchor="start" x="246.5" y="-126.8" font-family="Helvetica,sans-Serif" font-size="11.00" fill="#000000">status</text>
<polygon fill="none" stroke="#000000" points="345.5,-119.7 345.5,-141.7 467.5,-141.7 467.5,-119.7 345.5,-119.7"/>
<text text-anchor="start" x="348.5" y="-127.4" font-family="Helvetica,sans-Serif" font-size="11.00" fill="#000000">[2000000000,10]</text>
<polygon fill="#ffffff" stroke="transparent" points="226.5,-97.7 226.5,-119.7 345.5,-119.7 345.5,-97.7 226.5,-97.7"/>
<polygon fill="none" stroke="#000000" points="226.5,-97.7 226.5,-119.7 345.5,-119.7 345.5,-97.7 226.5,-97.7"/>
<text text-anchor="start" x="246.5" y="-104.8" font-family="Helvetica,sans-Serif" font-size="11.00" fill="#000000">statusDateTime</text>
<polygon fill="none" stroke="#000000" points="345.5,-97.7 345.5,-119.7 467.5,-119.7 467.5,-97.7 345.5,-97.7"/>
<text text-anchor="start" x="348.5" y="-105.4" font-family="Helvetica,sans-Serif" font-size="11.00" fill="#000000">[2000000000,10]</text>
<polygon fill="#ffffff" stroke="transparent" points="226.5,-78.7 226.5,-97.7 290.5,-97.7 290.5,-78.7 226.5,-78.7"/>
<polygon fill="none" stroke="#000000" points="226.5,-78.7 226.5,-97.7 290.5,-97.7 290.5,-78.7 226.5,-78.7"/>
<text text-anchor="start" x="229.5" y="-84.8" font-family="Helvetica,sans-Serif" font-size="11.00" fill="#000000">&lt; 1</text>
<polygon fill="#ffffff" stroke="transparent" points="290.5,-78.7 290.5,-97.7 345.5,-97.7 345.5,-78.7 290.5,-78.7"/>
<polygon fill="none" stroke="#000000" points="290.5,-78.7 290.5,-97.7 345.5,-97.7 345.5,-78.7 290.5,-78.7"/>
<text text-anchor="start" x="336.3862" y="-84.8" font-family="Helvetica,sans-Serif" font-size="11.00" fill="#000000"> &#160;</text>
<polygon fill="#ffffff" stroke="transparent" points="345.5,-78.7 345.5,-97.7 467.5,-97.7 467.5,-78.7 345.5,-78.7"/>
<polygon fill="none" stroke="#000000" points="345.5,-78.7 345.5,-97.7 467.5,-97.7 467.5,-78.7 345.5,-78.7"/>
<text text-anchor="start" x="448.9053" y="-84.8" font-family="Helvetica,sans-Serif" font-size="11.00" fill="#000000">0 &gt;</text>
<polygon fill="none" stroke="#000000" stroke-width="2" points="225,-77.7 225,-209.7 468,-209.7 468,-77.7 225,-77.7"/>
</a>
</g>
</g>
<!-- AgLibraryFile -->
<g id="node2" class="node">
<title>AgLibraryFile</title>
<g id="a_node2"><a xlink:href="../../tables/AgLibraryFile.html" xlink:title="AgLibraryFile" target="_top">
<polygon fill="#ffffff" stroke="transparent" points="8,-38.2 8,-209.2 175,-209.2 175,-38.2 8,-38.2"/>
<polygon fill="#f5f5f5" stroke="transparent" points="8.5,-185.7 8.5,-208.7 175.5,-208.7 175.5,-185.7 8.5,-185.7"/>
<polygon fill="none" stroke="#000000" points="8.5,-185.7 8.5,-208.7 175.5,-208.7 175.5,-185.7 8.5,-185.7"/>
<text text-anchor="start" x="13.5" y="-194.3" font-family="Helvetica,sans-Serif" font-weight="bold" font-size="11.00" fill="#000000">AgLibraryFile</text>
<text text-anchor="start" x="140.5437" y="-193.8" font-family="Helvetica,sans-Serif" font-size="11.00" fill="#000000">[table]</text>
<polygon fill="none" stroke="#000000" points="8.5,-163.7 8.5,-185.7 175.5,-185.7 175.5,-163.7 8.5,-163.7"/>
<image xlink:href="../../images/primaryKeys.png" width="11px" height="12px" preserveAspectRatio="xMinYMin meet" x="13.5" y="-180.7"/>
<text text-anchor="start" x="28.5" y="-170.8" font-family="Helvetica,sans-Serif" font-size="11.00" fill="#000000">id_local</text>
<polygon fill="#ffffff" stroke="transparent" points="8.5,-141.7 8.5,-163.7 175.5,-163.7 175.5,-141.7 8.5,-141.7"/>
<polygon fill="none" stroke="#000000" points="8.5,-141.7 8.5,-163.7 175.5,-163.7 175.5,-141.7 8.5,-141.7"/>
<text text-anchor="start" x="28.5" y="-148.8" font-family="Helvetica,sans-Serif" font-size="11.00" fill="#000000">id_global</text>
<polygon fill="#ffffff" stroke="transparent" points="8.5,-119.7 8.5,-141.7 175.5,-141.7 175.5,-119.7 8.5,-119.7"/>
<polygon fill="none" stroke="#000000" points="8.5,-119.7 8.5,-141.7 175.5,-141.7 175.5,-119.7 8.5,-119.7"/>
<image xlink:href="../../images/foreignKeys.png" width="11px" height="12px" preserveAspectRatio="xMinYMin meet" x="13.5" y="-136.7"/>
<text text-anchor="start" x="28.5" y="-126.8" font-family="Helvetica,sans-Serif" font-size="11.00" fill="#000000">folder</text>
<polygon fill="#ffffff" stroke="transparent" points="8.5,-97.7 8.5,-119.7 175.5,-119.7 175.5,-97.7 8.5,-97.7"/>
<polygon fill="none" stroke="#000000" points="8.5,-97.7 8.5,-119.7 175.5,-119.7 175.5,-97.7 8.5,-97.7"/>
<text text-anchor="start" x="28.5" y="-104.8" font-family="Helvetica,sans-Serif" font-size="11.00" fill="#000000">importHash</text>
<polygon fill="#ffffff" stroke="transparent" points="8.5,-75.7 8.5,-97.7 175.5,-97.7 175.5,-75.7 8.5,-75.7"/>
<polygon fill="none" stroke="#000000" points="8.5,-75.7 8.5,-97.7 175.5,-97.7 175.5,-75.7 8.5,-75.7"/>
<text text-anchor="start" x="28.5" y="-82.8" font-family="Helvetica,sans-Serif" font-size="11.00" fill="#000000">lc_idx_filename</text>
<polygon fill="none" stroke="#000000" points="8.5,-56.7 8.5,-75.7 175.5,-75.7 175.5,-56.7 8.5,-56.7"/>
<text text-anchor="start" x="11.5" y="-62.8" font-family="Helvetica,sans-Serif" font-size="11.00" fill="#000000">...</text>
<polygon fill="#ffffff" stroke="transparent" points="8.5,-37.7 8.5,-56.7 85.5,-56.7 85.5,-37.7 8.5,-37.7"/>
<polygon fill="none" stroke="#000000" points="8.5,-37.7 8.5,-56.7 85.5,-56.7 85.5,-37.7 8.5,-37.7"/>
<text text-anchor="start" x="11.5" y="-43.8" font-family="Helvetica,sans-Serif" font-size="11.00" fill="#000000">&lt; 1</text>
<polygon fill="#ffffff" stroke="transparent" points="85.5,-37.7 85.5,-56.7 125.5,-56.7 125.5,-37.7 85.5,-37.7"/>
<polygon fill="none" stroke="#000000" points="85.5,-37.7 85.5,-56.7 125.5,-56.7 125.5,-37.7 85.5,-37.7"/>
<text text-anchor="start" x="116.3862" y="-43.8" font-family="Helvetica,sans-Serif" font-size="11.00" fill="#000000"> &#160;</text>
<polygon fill="#ffffff" stroke="transparent" points="125.5,-37.7 125.5,-56.7 175.5,-56.7 175.5,-37.7 125.5,-37.7"/>
<polygon fill="none" stroke="#000000" points="125.5,-37.7 125.5,-56.7 175.5,-56.7 175.5,-37.7 125.5,-37.7"/>
<text text-anchor="start" x="156.9053" y="-43.8" font-family="Helvetica,sans-Serif" font-size="11.00" fill="#000000">2 &gt;</text>
</a>
</g>
</g>
<!-- AgDNGProxyInfo&#45;&gt;AgLibraryFile -->
<g id="edge1" class="edge">
<title>AgDNGProxyInfo:w&#45;&gt;AgLibraryFile:e</title>
<path fill="none" stroke="#000000" d="M211.776,-152.7C199.7815,-152.7 192.3229,-152.7 175.5,-152.7"/>
<polygon fill="#000000" stroke="#000000" points="218.5,-152.7001 226.5,-156.3 222.5,-152.7 226.5,-152.7 226.5,-152.7 226.5,-152.7 222.5,-152.7 226.5,-149.1 218.5,-152.7001 218.5,-152.7001"/>
<ellipse fill="none" stroke="#000000" cx="215.3" cy="-152.7001" rx="3.2" ry="3.2"/>
</g>
</g>
</svg>
