<?xml version="1.0" encoding="UTF-8" standalone="no"?>
<!DOCTYPE svg PUBLIC "-//W3C//DTD SVG 1.1//EN"
 "http://www.w3.org/Graphics/SVG/1.1/DTD/svg11.dtd">
<!-- Generated by graphviz version 2.40.1 (20161225.0304)
 -->
<!-- Title: oneDegreeRelationshipsDiagram Pages: 1 -->
<svg width="449pt" height="228pt"
 viewBox="0.00 0.00 449.00 228.20" xmlns="http://www.w3.org/2000/svg" xmlns:xlink="http://www.w3.org/1999/xlink">
<g id="graph0" class="graph" transform="scale(1 1) rotate(0) translate(4 224.2)">
<title>oneDegreeRelationshipsDiagram</title>
<polygon fill="#ffffff" stroke="transparent" points="-4,4 -4,-224.2 445,-224.2 445,4 -4,4"/>
<text text-anchor="middle" x="72.4936" y="-7.3" font-family="Helvetica,sans-Serif" font-size="11.00" fill="#000000">Generated by SchemaSpy</text>
<!-- AgFolderContent -->
<g id="node1" class="node">
<title>AgFolderContent</title>
<g id="a_node1"><a xlink:href="../../tables/AgFolderContent.html" xlink:title="AgFolderContent" target="_top">
<polygon fill="#ffffff" stroke="transparent" points="189,-38.2 189,-216.2 433,-216.2 433,-38.2 189,-38.2"/>
<polygon fill="#f5f5f5" stroke="transparent" points="191,-191.2 191,-214.2 431,-214.2 431,-191.2 191,-191.2"/>
<polygon fill="none" stroke="#000000" points="191,-191.2 191,-214.2 431,-214.2 431,-191.2 191,-191.2"/>
<text text-anchor="start" x="196" y="-199.8" font-family="Helvetica,sans-Serif" font-weight="bold" font-size="11.00" fill="#000000">AgFolderContent</text>
<text text-anchor="start" x="396.0437" y="-199.3" font-family="Helvetica,sans-Serif" font-size="11.00" fill="#000000">[table]</text>
<polygon fill="none" stroke="#000000" points="191,-169.2 191,-191.2 309,-191.2 309,-169.2 191,-169.2"/>
<image xlink:href="../../images/primaryKeys.png" width="11px" height="12px" preserveAspectRatio="xMinYMin meet" x="196" y="-186.2"/>
<text text-anchor="start" x="211" y="-176.3" font-family="Helvetica,sans-Serif" font-size="11.00" fill="#000000">id_local</text>
<polygon fill="none" stroke="#000000" points="309,-169.2 309,-191.2 431,-191.2 431,-169.2 309,-169.2"/>
<text text-anchor="start" x="311.9156" y="-176.9" font-family="Helvetica,sans-Serif" font-size="11.00" fill="#000000">integer[2000000000,10]</text>
<polygon fill="#ffffff" stroke="transparent" points="191,-147.2 191,-169.2 309,-169.2 309,-147.2 191,-147.2"/>
<polygon fill="none" stroke="#000000" points="191,-147.2 191,-169.2 309,-169.2 309,-147.2 191,-147.2"/>
<text text-anchor="start" x="211" y="-154.3" font-family="Helvetica,sans-Serif" font-size="11.00" fill="#000000">id_global</text>
<polygon fill="none" stroke="#000000" points="309,-147.2 309,-169.2 431,-169.2 431,-147.2 309,-147.2"/>
<text text-anchor="start" x="312" y="-154.9" font-family="Helvetica,sans-Serif" font-size="11.00" fill="#000000">[2000000000,10]</text>
<polygon fill="#ffffff" stroke="transparent" points="191,-125.2 191,-147.2 309,-147.2 309,-125.2 191,-125.2"/>
<polygon fill="none" stroke="#000000" points="191,-125.2 191,-147.2 309,-147.2 309,-125.2 191,-125.2"/>
<image xlink:href="../../images/foreignKeys.png" width="11px" height="12px" preserveAspectRatio="xMinYMin meet" x="196" y="-142.2"/>
<text text-anchor="start" x="211" y="-132.3" font-family="Helvetica,sans-Serif" font-size="11.00" fill="#000000">containingFolder</text>
<polygon fill="none" stroke="#000000" points="309,-125.2 309,-147.2 431,-147.2 431,-125.2 309,-125.2"/>
<text text-anchor="start" x="311.9156" y="-132.9" font-family="Helvetica,sans-Serif" font-size="11.00" fill="#000000">integer[2000000000,10]</text>
<polygon fill="none" stroke="#000000" points="191,-103.2 191,-125.2 309,-125.2 309,-103.2 191,-103.2"/>
<text text-anchor="start" x="211" y="-110.3" font-family="Helvetica,sans-Serif" font-size="11.00" fill="#000000">content</text>
<polygon fill="none" stroke="#000000" points="309,-103.2 309,-125.2 431,-125.2 431,-103.2 309,-103.2"/>
<text text-anchor="start" x="312" y="-110.9" font-family="Helvetica,sans-Serif" font-size="11.00" fill="#000000">[2000000000,10]</text>
<polygon fill="none" stroke="#000000" points="191,-81.2 191,-103.2 309,-103.2 309,-81.2 191,-81.2"/>
<text text-anchor="start" x="211" y="-88.3" font-family="Helvetica,sans-Serif" font-size="11.00" fill="#000000">name</text>
<polygon fill="none" stroke="#000000" points="309,-81.2 309,-103.2 431,-103.2 431,-81.2 309,-81.2"/>
<text text-anchor="start" x="312" y="-88.9" font-family="Helvetica,sans-Serif" font-size="11.00" fill="#000000">[2000000000,10]</text>
<polygon fill="#ffffff" stroke="transparent" points="191,-59.2 191,-81.2 309,-81.2 309,-59.2 191,-59.2"/>
<polygon fill="none" stroke="#000000" points="191,-59.2 191,-81.2 309,-81.2 309,-59.2 191,-59.2"/>
<text text-anchor="start" x="211" y="-66.3" font-family="Helvetica,sans-Serif" font-size="11.00" fill="#000000">owningModule</text>
<polygon fill="none" stroke="#000000" points="309,-59.2 309,-81.2 431,-81.2 431,-59.2 309,-59.2"/>
<text text-anchor="start" x="312" y="-66.9" font-family="Helvetica,sans-Serif" font-size="11.00" fill="#000000">[2000000000,10]</text>
<polygon fill="#ffffff" stroke="transparent" points="191,-40.2 191,-59.2 254,-59.2 254,-40.2 191,-40.2"/>
<polygon fill="none" stroke="#000000" points="191,-40.2 191,-59.2 254,-59.2 254,-40.2 191,-40.2"/>
<text text-anchor="start" x="194" y="-46.3" font-family="Helvetica,sans-Serif" font-size="11.00" fill="#000000">&lt; 1</text>
<polygon fill="#ffffff" stroke="transparent" points="254,-40.2 254,-59.2 309,-59.2 309,-40.2 254,-40.2"/>
<polygon fill="none" stroke="#000000" points="254,-40.2 254,-59.2 309,-59.2 309,-40.2 254,-40.2"/>
<text text-anchor="start" x="299.8862" y="-46.3" font-family="Helvetica,sans-Serif" font-size="11.00" fill="#000000"> &#160;</text>
<polygon fill="#ffffff" stroke="transparent" points="309,-40.2 309,-59.2 431,-59.2 431,-40.2 309,-40.2"/>
<polygon fill="none" stroke="#000000" points="309,-40.2 309,-59.2 431,-59.2 431,-40.2 309,-40.2"/>
<text text-anchor="start" x="412.4053" y="-46.3" font-family="Helvetica,sans-Serif" font-size="11.00" fill="#000000">0 &gt;</text>
<polygon fill="none" stroke="#000000" stroke-width="2" points="190,-39.2 190,-215.2 432,-215.2 432,-39.2 190,-39.2"/>
</a>
</g>
</g>
<!-- AgLibraryFolder -->
<g id="node2" class="node">
<title>AgLibraryFolder</title>
<g id="a_node2"><a xlink:href="../../tables/AgLibraryFolder.html" xlink:title="AgLibraryFolder" target="_top">
<polygon fill="#ffffff" stroke="transparent" points="8,-40.2 8,-170.2 140,-170.2 140,-40.2 8,-40.2"/>
<polygon fill="#f5f5f5" stroke="transparent" points="8,-147.2 8,-170.2 140,-170.2 140,-147.2 8,-147.2"/>
<polygon fill="none" stroke="#000000" points="8,-147.2 8,-170.2 140,-170.2 140,-147.2 8,-147.2"/>
<text text-anchor="start" x="13" y="-155.8" font-family="Helvetica,sans-Serif" font-weight="bold" font-size="11.00" fill="#000000">AgLibraryFolder</text>
<text text-anchor="start" x="105.5219" y="-155.3" font-family="Helvetica,sans-Serif" font-size="11.00" fill="#000000">[table]</text>
<polygon fill="none" stroke="#000000" points="8,-125.2 8,-147.2 140,-147.2 140,-125.2 8,-125.2"/>
<image xlink:href="../../images/primaryKeys.png" width="11px" height="12px" preserveAspectRatio="xMinYMin meet" x="13" y="-142.2"/>
<text text-anchor="start" x="37" y="-132.3" font-family="Helvetica,sans-Serif" font-size="11.00" fill="#000000">id_local</text>
<polygon fill="#ffffff" stroke="transparent" points="8,-103.2 8,-125.2 140,-125.2 140,-103.2 8,-103.2"/>
<polygon fill="none" stroke="#000000" points="8,-103.2 8,-125.2 140,-125.2 140,-103.2 8,-103.2"/>
<text text-anchor="start" x="37" y="-110.3" font-family="Helvetica,sans-Serif" font-size="11.00" fill="#000000">id_global</text>
<polygon fill="#ffffff" stroke="transparent" points="8,-81.2 8,-103.2 140,-103.2 140,-81.2 8,-81.2"/>
<polygon fill="none" stroke="#000000" points="8,-81.2 8,-103.2 140,-103.2 140,-81.2 8,-81.2"/>
<text text-anchor="start" x="37" y="-88.3" font-family="Helvetica,sans-Serif" font-size="11.00" fill="#000000">pathFromRoot</text>
<polygon fill="#ffffff" stroke="transparent" points="8,-59.2 8,-81.2 140,-81.2 140,-59.2 8,-59.2"/>
<polygon fill="none" stroke="#000000" points="8,-59.2 8,-81.2 140,-81.2 140,-59.2 8,-59.2"/>
<image xlink:href="../../images/foreignKeys.png" width="11px" height="12px" preserveAspectRatio="xMinYMin meet" x="13" y="-76.2"/>
<text text-anchor="start" x="37" y="-66.3" font-family="Helvetica,sans-Serif" font-size="11.00" fill="#000000">rootFolder</text>
<polygon fill="#ffffff" stroke="transparent" points="8,-40.2 8,-59.2 68,-59.2 68,-40.2 8,-40.2"/>
<polygon fill="none" stroke="#000000" points="8,-40.2 8,-59.2 68,-59.2 68,-40.2 8,-40.2"/>
<text text-anchor="start" x="11" y="-46.3" font-family="Helvetica,sans-Serif" font-size="11.00" fill="#000000">&lt; 1</text>
<polygon fill="#ffffff" stroke="transparent" points="68,-40.2 68,-59.2 99,-59.2 99,-40.2 68,-40.2"/>
<polygon fill="none" stroke="#000000" points="68,-40.2 68,-59.2 99,-59.2 99,-40.2 68,-40.2"/>
<text text-anchor="start" x="89.8862" y="-46.3" font-family="Helvetica,sans-Serif" font-size="11.00" fill="#000000"> &#160;</text>
<polygon fill="#ffffff" stroke="transparent" points="99,-40.2 99,-59.2 140,-59.2 140,-40.2 99,-40.2"/>
<polygon fill="none" stroke="#000000" points="99,-40.2 99,-59.2 140,-59.2 140,-40.2 99,-40.2"/>
<text text-anchor="start" x="121.4053" y="-46.3" font-family="Helvetica,sans-Serif" font-size="11.00" fill="#000000">2 &gt;</text>
</a>
</g>
</g>
<!-- AgFolderContent&#45;&gt;AgLibraryFolder -->
<g id="edge1" class="edge">
<title>AgFolderContent:w&#45;&gt;AgLibraryFolder:e</title>
<path fill="none" stroke="#000000" d="M176.276,-136.2C164.2815,-136.2 156.8229,-136.2 140,-136.2"/>
<polygon fill="#000000" stroke="#000000" points="183,-136.2001 191,-139.8 187,-136.2 191,-136.2 191,-136.2 191,-136.2 187,-136.2 191,-132.6 183,-136.2001 183,-136.2001"/>
<ellipse fill="none" stroke="#000000" cx="179.8" cy="-136.2001" rx="3.2" ry="3.2"/>
</g>
</g>
</svg>
