digraph "twoDegreesRelationshipsDiagram" {
  graph [    rankdir="RL"    bgcolor="#ffffff"    label="\nGenerated by SchemaSpy"    labeljust="l"    nodesep="0.18"    ranksep="0.46"    fontname="Helvetica"    fontsize="11"    ration="compress"  ];  node [    fontname="Helvetica"    fontsize="11"    shape="plaintext"  ];  edge [    arrowsize="0.8"  ];
  "AgHarvestedExifMetadata":"cameraModelRef":w -> "AgInternedExifCameraModel":"elipses":e [arrowhead=none dir=back arrowtail=crowodot];
  "AgHarvestedExifMetadata":"cameraSNRef":w -> "AgInternedExifCameraSN":"elipses":e [arrowhead=none dir=back arrowtail=crowodot];
  "AgHarvestedExifMetadata":"image":w -> "Adobe_images":"elipses":e [arrowhead=none dir=back arrowtail=crowodot];
  "AgHarvestedExifMetadata":"lensRef":w -> "AgInternedExifLens":"id_local.type":e [arrowhead=none dir=back arrowtail=crowodot];
  "Adobe_images" [
   label=<
    <TABLE BORDER="0" CELLBORDER="1" CELLSPACING="0" BGCOLOR="#ffffff">
      <TR><TD COLSPAN="3"  BGCOLOR="#f5f5f5"><TABLE BORDER="0" CELLSPACING="0"><TR><TD ALIGN="LEFT" FIXEDSIZE="TRUE" WIDTH="85" HEIGHT="16"><B>Adobe_images</B></TD><TD ALIGN="RIGHT">[table]</TD></TR></TABLE></TD></TR>
      <TR><TD PORT="elipses" COLSPAN="3" ALIGN="LEFT">...</TD></TR>
      <TR><TD ALIGN="LEFT" BGCOLOR="#ffffff">&lt; 2</TD><TD ALIGN="RIGHT" BGCOLOR="#ffffff">  </TD><TD ALIGN="RIGHT" BGCOLOR="#ffffff">31 &gt;</TD></TR>
    </TABLE>>
    URL="../../tables/Adobe_images.html"
    target="_top"
    tooltip="Adobe_images"
  ];
  "AgHarvestedExifMetadata" [
   label=<
    <TABLE BORDER="0" CELLBORDER="1" CELLSPACING="0" BGCOLOR="#ffffff">
      <TR><TD COLSPAN="3"  BGCOLOR="#f5f5f5"><TABLE BORDER="0" CELLSPACING="0"><TR><TD ALIGN="LEFT" FIXEDSIZE="TRUE" WIDTH="148" HEIGHT="16"><B>AgHarvestedExifMetadata</B></TD><TD ALIGN="RIGHT">[table]</TD></TR></TABLE></TD></TR>
      <TR><TD PORT="id_local" COLSPAN="3" ALIGN="LEFT"><TABLE BORDER="0" CELLSPACING="0" ALIGN="LEFT"><TR ALIGN="LEFT"><TD ALIGN="LEFT" FIXEDSIZE="TRUE" WIDTH="15" HEIGHT="16"><IMG SRC="../../images/primaryKeys.png"/></TD><TD ALIGN="LEFT" FIXEDSIZE="TRUE" WIDTH="148" HEIGHT="16">id_local</TD></TR></TABLE></TD></TR>
      <TR><TD PORT="image" COLSPAN="3" BGCOLOR="#ffffff" ALIGN="LEFT"><TABLE BORDER="0" CELLSPACING="0" ALIGN="LEFT"><TR ALIGN="LEFT"><TD ALIGN="LEFT" FIXEDSIZE="TRUE" WIDTH="15" HEIGHT="16"><IMG SRC="../../images/foreignKeys.png"/></TD><TD ALIGN="LEFT" FIXEDSIZE="TRUE" WIDTH="148" HEIGHT="16">image</TD></TR></TABLE></TD></TR>
      <TR><TD PORT="aperture" COLSPAN="3" BGCOLOR="#ffffff" ALIGN="LEFT"><TABLE BORDER="0" CELLSPACING="0" ALIGN="LEFT"><TR ALIGN="LEFT"><TD ALIGN="LEFT" FIXEDSIZE="TRUE" WIDTH="15" HEIGHT="16"></TD><TD ALIGN="LEFT" FIXEDSIZE="TRUE" WIDTH="148" HEIGHT="16">aperture</TD></TR></TABLE></TD></TR>
      <TR><TD PORT="cameraModelRef" COLSPAN="3" BGCOLOR="#ffffff" ALIGN="LEFT"><TABLE BORDER="0" CELLSPACING="0" ALIGN="LEFT"><TR ALIGN="LEFT"><TD ALIGN="LEFT" FIXEDSIZE="TRUE" WIDTH="15" HEIGHT="16"><IMG SRC="../../images/foreignKeys.png"/></TD><TD ALIGN="LEFT" FIXEDSIZE="TRUE" WIDTH="148" HEIGHT="16">cameraModelRef</TD></TR></TABLE></TD></TR>
      <TR><TD PORT="cameraSNRef" COLSPAN="3" BGCOLOR="#ffffff" ALIGN="LEFT"><TABLE BORDER="0" CELLSPACING="0" ALIGN="LEFT"><TR ALIGN="LEFT"><TD ALIGN="LEFT" FIXEDSIZE="TRUE" WIDTH="15" HEIGHT="16"><IMG SRC="../../images/foreignKeys.png"/></TD><TD ALIGN="LEFT" FIXEDSIZE="TRUE" WIDTH="148" HEIGHT="16">cameraSNRef</TD></TR></TABLE></TD></TR>
      <TR><TD PORT="dateDay" COLSPAN="3" BGCOLOR="#ffffff" ALIGN="LEFT"><TABLE BORDER="0" CELLSPACING="0" ALIGN="LEFT"><TR ALIGN="LEFT"><TD ALIGN="LEFT" FIXEDSIZE="TRUE" WIDTH="15" HEIGHT="16"></TD><TD ALIGN="LEFT" FIXEDSIZE="TRUE" WIDTH="148" HEIGHT="16">dateDay</TD></TR></TABLE></TD></TR>
      <TR><TD PORT="dateMonth" COLSPAN="3" BGCOLOR="#ffffff" ALIGN="LEFT"><TABLE BORDER="0" CELLSPACING="0" ALIGN="LEFT"><TR ALIGN="LEFT"><TD ALIGN="LEFT" FIXEDSIZE="TRUE" WIDTH="15" HEIGHT="16"></TD><TD ALIGN="LEFT" FIXEDSIZE="TRUE" WIDTH="148" HEIGHT="16">dateMonth</TD></TR></TABLE></TD></TR>
      <TR><TD PORT="dateYear" COLSPAN="3" BGCOLOR="#ffffff" ALIGN="LEFT"><TABLE BORDER="0" CELLSPACING="0" ALIGN="LEFT"><TR ALIGN="LEFT"><TD ALIGN="LEFT" FIXEDSIZE="TRUE" WIDTH="15" HEIGHT="16"></TD><TD ALIGN="LEFT" FIXEDSIZE="TRUE" WIDTH="148" HEIGHT="16">dateYear</TD></TR></TABLE></TD></TR>
      <TR><TD PORT="flashFired" COLSPAN="3" BGCOLOR="#ffffff" ALIGN="LEFT"><TABLE BORDER="0" CELLSPACING="0" ALIGN="LEFT"><TR ALIGN="LEFT"><TD ALIGN="LEFT" FIXEDSIZE="TRUE" WIDTH="15" HEIGHT="16"></TD><TD ALIGN="LEFT" FIXEDSIZE="TRUE" WIDTH="148" HEIGHT="16">flashFired</TD></TR></TABLE></TD></TR>
      <TR><TD PORT="focalLength" COLSPAN="3" BGCOLOR="#ffffff" ALIGN="LEFT"><TABLE BORDER="0" CELLSPACING="0" ALIGN="LEFT"><TR ALIGN="LEFT"><TD ALIGN="LEFT" FIXEDSIZE="TRUE" WIDTH="15" HEIGHT="16"></TD><TD ALIGN="LEFT" FIXEDSIZE="TRUE" WIDTH="148" HEIGHT="16">focalLength</TD></TR></TABLE></TD></TR>
      <TR><TD PORT="gpsLatitude" COLSPAN="3" BGCOLOR="#ffffff" ALIGN="LEFT"><TABLE BORDER="0" CELLSPACING="0" ALIGN="LEFT"><TR ALIGN="LEFT"><TD ALIGN="LEFT" FIXEDSIZE="TRUE" WIDTH="15" HEIGHT="16"></TD><TD ALIGN="LEFT" FIXEDSIZE="TRUE" WIDTH="148" HEIGHT="16">gpsLatitude</TD></TR></TABLE></TD></TR>
      <TR><TD PORT="gpsLongitude" COLSPAN="3" BGCOLOR="#ffffff" ALIGN="LEFT"><TABLE BORDER="0" CELLSPACING="0" ALIGN="LEFT"><TR ALIGN="LEFT"><TD ALIGN="LEFT" FIXEDSIZE="TRUE" WIDTH="15" HEIGHT="16"></TD><TD ALIGN="LEFT" FIXEDSIZE="TRUE" WIDTH="148" HEIGHT="16">gpsLongitude</TD></TR></TABLE></TD></TR>
      <TR><TD PORT="hasGPS" COLSPAN="3" BGCOLOR="#ffffff" ALIGN="LEFT"><TABLE BORDER="0" CELLSPACING="0" ALIGN="LEFT"><TR ALIGN="LEFT"><TD ALIGN="LEFT" FIXEDSIZE="TRUE" WIDTH="15" HEIGHT="16"></TD><TD ALIGN="LEFT" FIXEDSIZE="TRUE" WIDTH="148" HEIGHT="16">hasGPS</TD></TR></TABLE></TD></TR>
      <TR><TD PORT="isoSpeedRating" COLSPAN="3" BGCOLOR="#ffffff" ALIGN="LEFT"><TABLE BORDER="0" CELLSPACING="0" ALIGN="LEFT"><TR ALIGN="LEFT"><TD ALIGN="LEFT" FIXEDSIZE="TRUE" WIDTH="15" HEIGHT="16"></TD><TD ALIGN="LEFT" FIXEDSIZE="TRUE" WIDTH="148" HEIGHT="16">isoSpeedRating</TD></TR></TABLE></TD></TR>
      <TR><TD PORT="lensRef" COLSPAN="3" BGCOLOR="#ffffff" ALIGN="LEFT"><TABLE BORDER="0" CELLSPACING="0" ALIGN="LEFT"><TR ALIGN="LEFT"><TD ALIGN="LEFT" FIXEDSIZE="TRUE" WIDTH="15" HEIGHT="16"><IMG SRC="../../images/foreignKeys.png"/></TD><TD ALIGN="LEFT" FIXEDSIZE="TRUE" WIDTH="148" HEIGHT="16">lensRef</TD></TR></TABLE></TD></TR>
      <TR><TD PORT="shutterSpeed" COLSPAN="3" BGCOLOR="#ffffff" ALIGN="LEFT"><TABLE BORDER="0" CELLSPACING="0" ALIGN="LEFT"><TR ALIGN="LEFT"><TD ALIGN="LEFT" FIXEDSIZE="TRUE" WIDTH="15" HEIGHT="16"></TD><TD ALIGN="LEFT" FIXEDSIZE="TRUE" WIDTH="148" HEIGHT="16">shutterSpeed</TD></TR></TABLE></TD></TR>
      <TR><TD PORT="elipses" COLSPAN="3" ALIGN="LEFT">...</TD></TR>
      <TR><TD ALIGN="LEFT" BGCOLOR="#ffffff">&lt; 4</TD><TD ALIGN="RIGHT" BGCOLOR="#ffffff">  </TD><TD ALIGN="RIGHT" BGCOLOR="#ffffff">  </TD></TR>
    </TABLE>>
    URL="../../tables/AgHarvestedExifMetadata.html"
    target="_top"
    tooltip="AgHarvestedExifMetadata"
  ];
  "AgInternedExifCameraModel" [
   label=<
    <TABLE BORDER="0" CELLBORDER="1" CELLSPACING="0" BGCOLOR="#ffffff">
      <TR><TD COLSPAN="3"  BGCOLOR="#f5f5f5"><TABLE BORDER="0" CELLSPACING="0"><TR><TD ALIGN="LEFT" FIXEDSIZE="TRUE" WIDTH="164" HEIGHT="16"><B>AgInternedExifCameraModel</B></TD><TD ALIGN="RIGHT">[table]</TD></TR></TABLE></TD></TR>
      <TR><TD PORT="elipses" COLSPAN="3" ALIGN="LEFT">...</TD></TR>
      <TR><TD ALIGN="LEFT" BGCOLOR="#ffffff">  </TD><TD ALIGN="RIGHT" BGCOLOR="#ffffff">  </TD><TD ALIGN="RIGHT" BGCOLOR="#ffffff">1 &gt;</TD></TR>
    </TABLE>>
    URL="../../tables/AgInternedExifCameraModel.html"
    target="_top"
    tooltip="AgInternedExifCameraModel"
  ];
  "AgInternedExifCameraSN" [
   label=<
    <TABLE BORDER="0" CELLBORDER="1" CELLSPACING="0" BGCOLOR="#ffffff">
      <TR><TD COLSPAN="3"  BGCOLOR="#f5f5f5"><TABLE BORDER="0" CELLSPACING="0"><TR><TD ALIGN="LEFT" FIXEDSIZE="TRUE" WIDTH="146" HEIGHT="16"><B>AgInternedExifCameraSN</B></TD><TD ALIGN="RIGHT">[table]</TD></TR></TABLE></TD></TR>
      <TR><TD PORT="elipses" COLSPAN="3" ALIGN="LEFT">...</TD></TR>
      <TR><TD ALIGN="LEFT" BGCOLOR="#ffffff">  </TD><TD ALIGN="RIGHT" BGCOLOR="#ffffff">  </TD><TD ALIGN="RIGHT" BGCOLOR="#ffffff">1 &gt;</TD></TR>
    </TABLE>>
    URL="../../tables/AgInternedExifCameraSN.html"
    target="_top"
    tooltip="AgInternedExifCameraSN"
  ];
  "AgInternedExifLens" [
   label=<
    <TABLE BORDER="2" CELLBORDER="1" CELLSPACING="0" BGCOLOR="#ffffff">
      <TR><TD COLSPAN="4"  BGCOLOR="#f5f5f5"><TABLE BORDER="0" CELLSPACING="0"><TR><TD ALIGN="LEFT" FIXEDSIZE="TRUE" WIDTH="113" HEIGHT="16"><B>AgInternedExifLens</B></TD><TD ALIGN="RIGHT">[table]</TD></TR></TABLE></TD></TR>
      <TR><TD PORT="id_local" COLSPAN="2" ALIGN="LEFT"><TABLE BORDER="0" CELLSPACING="0" ALIGN="LEFT"><TR ALIGN="LEFT"><TD ALIGN="LEFT" FIXEDSIZE="TRUE" WIDTH="15" HEIGHT="16"><IMG SRC="../../images/primaryKeys.png"/></TD><TD ALIGN="LEFT" FIXEDSIZE="TRUE" WIDTH="113" HEIGHT="16">id_local</TD></TR></TABLE></TD><TD PORT="id_local.type" ALIGN="LEFT">integer[2000000000,10]</TD></TR>
      <TR><TD PORT="searchIndex" COLSPAN="2" BGCOLOR="#ffffff" ALIGN="LEFT"><TABLE BORDER="0" CELLSPACING="0" ALIGN="LEFT"><TR ALIGN="LEFT"><TD ALIGN="LEFT" FIXEDSIZE="TRUE" WIDTH="15" HEIGHT="16"></TD><TD ALIGN="LEFT" FIXEDSIZE="TRUE" WIDTH="113" HEIGHT="16">searchIndex</TD></TR></TABLE></TD><TD PORT="searchIndex.type" ALIGN="LEFT">[2000000000,10]</TD></TR>
      <TR><TD PORT="value" COLSPAN="2" BGCOLOR="#ffffff" ALIGN="LEFT"><TABLE BORDER="0" CELLSPACING="0" ALIGN="LEFT"><TR ALIGN="LEFT"><TD ALIGN="LEFT" FIXEDSIZE="TRUE" WIDTH="15" HEIGHT="16"></TD><TD ALIGN="LEFT" FIXEDSIZE="TRUE" WIDTH="113" HEIGHT="16">value</TD></TR></TABLE></TD><TD PORT="value.type" ALIGN="LEFT">[2000000000,10]</TD></TR>
      <TR><TD ALIGN="LEFT" BGCOLOR="#ffffff">&lt; 0</TD><TD ALIGN="RIGHT" BGCOLOR="#ffffff">  </TD><TD ALIGN="RIGHT" BGCOLOR="#ffffff">1 &gt;</TD></TR>
    </TABLE>>
    URL="../../tables/AgInternedExifLens.html"
    target="_top"
    tooltip="AgInternedExifLens"
  ];
}
