<?xml version="1.0" encoding="UTF-8" standalone="no"?>
<!DOCTYPE svg PUBLIC "-//W3C//DTD SVG 1.1//EN"
 "http://www.w3.org/Graphics/SVG/1.1/DTD/svg11.dtd">
<!-- Generated by graphviz version 2.40.1 (20161225.0304)
 -->
<!-- Title: twoDegreesRelationshipsDiagram Pages: 1 -->
<svg width="553pt" height="478pt"
 viewBox="0.00 0.00 553.00 478.20" xmlns="http://www.w3.org/2000/svg" xmlns:xlink="http://www.w3.org/1999/xlink">
<g id="graph0" class="graph" transform="scale(1 1) rotate(0) translate(4 474.2)">
<title>twoDegreesRelationshipsDiagram</title>
<polygon fill="#ffffff" stroke="transparent" points="-4,4 -4,-474.2 549,-474.2 549,4 -4,4"/>
<text text-anchor="middle" x="72.4936" y="-7.3" font-family="Helvetica,sans-Serif" font-size="11.00" fill="#000000">Generated by SchemaSpy</text>
<!-- AgHarvestedExifMetadata -->
<g id="node1" class="node">
<title>AgHarvestedExifMetadata</title>
<g id="a_node1"><a xlink:href="../../tables/AgHarvestedExifMetadata.html" xlink:title="AgHarvestedExifMetadata" target="_top">
<polygon fill="#ffffff" stroke="transparent" points="350,-38.2 350,-451.2 537,-451.2 537,-38.2 350,-38.2"/>
<polygon fill="#f5f5f5" stroke="transparent" points="350.5,-427.7 350.5,-450.7 537.5,-450.7 537.5,-427.7 350.5,-427.7"/>
<polygon fill="none" stroke="#000000" points="350.5,-427.7 350.5,-450.7 537.5,-450.7 537.5,-427.7 350.5,-427.7"/>
<text text-anchor="start" x="355.5" y="-436.3" font-family="Helvetica,sans-Serif" font-weight="bold" font-size="11.00" fill="#000000">AgHarvestedExifMetadata</text>
<text text-anchor="start" x="503.0219" y="-435.8" font-family="Helvetica,sans-Serif" font-size="11.00" fill="#000000">[table]</text>
<polygon fill="none" stroke="#000000" points="350.5,-405.7 350.5,-427.7 537.5,-427.7 537.5,-405.7 350.5,-405.7"/>
<image xlink:href="../../images/primaryKeys.png" width="11px" height="12px" preserveAspectRatio="xMinYMin meet" x="355.5" y="-422.7"/>
<text text-anchor="start" x="379.5" y="-412.8" font-family="Helvetica,sans-Serif" font-size="11.00" fill="#000000">id_local</text>
<polygon fill="#ffffff" stroke="transparent" points="350.5,-383.7 350.5,-405.7 537.5,-405.7 537.5,-383.7 350.5,-383.7"/>
<polygon fill="none" stroke="#000000" points="350.5,-383.7 350.5,-405.7 537.5,-405.7 537.5,-383.7 350.5,-383.7"/>
<image xlink:href="../../images/foreignKeys.png" width="11px" height="12px" preserveAspectRatio="xMinYMin meet" x="355.5" y="-400.7"/>
<text text-anchor="start" x="379.5" y="-390.8" font-family="Helvetica,sans-Serif" font-size="11.00" fill="#000000">image</text>
<polygon fill="#ffffff" stroke="transparent" points="350.5,-361.7 350.5,-383.7 537.5,-383.7 537.5,-361.7 350.5,-361.7"/>
<polygon fill="none" stroke="#000000" points="350.5,-361.7 350.5,-383.7 537.5,-383.7 537.5,-361.7 350.5,-361.7"/>
<text text-anchor="start" x="379.5" y="-368.8" font-family="Helvetica,sans-Serif" font-size="11.00" fill="#000000">aperture</text>
<polygon fill="#ffffff" stroke="transparent" points="350.5,-339.7 350.5,-361.7 537.5,-361.7 537.5,-339.7 350.5,-339.7"/>
<polygon fill="none" stroke="#000000" points="350.5,-339.7 350.5,-361.7 537.5,-361.7 537.5,-339.7 350.5,-339.7"/>
<image xlink:href="../../images/foreignKeys.png" width="11px" height="12px" preserveAspectRatio="xMinYMin meet" x="355.5" y="-356.7"/>
<text text-anchor="start" x="379.5" y="-346.8" font-family="Helvetica,sans-Serif" font-size="11.00" fill="#000000">cameraModelRef</text>
<polygon fill="#ffffff" stroke="transparent" points="350.5,-317.7 350.5,-339.7 537.5,-339.7 537.5,-317.7 350.5,-317.7"/>
<polygon fill="none" stroke="#000000" points="350.5,-317.7 350.5,-339.7 537.5,-339.7 537.5,-317.7 350.5,-317.7"/>
<image xlink:href="../../images/foreignKeys.png" width="11px" height="12px" preserveAspectRatio="xMinYMin meet" x="355.5" y="-334.7"/>
<text text-anchor="start" x="379.5" y="-324.8" font-family="Helvetica,sans-Serif" font-size="11.00" fill="#000000">cameraSNRef</text>
<polygon fill="#ffffff" stroke="transparent" points="350.5,-295.7 350.5,-317.7 537.5,-317.7 537.5,-295.7 350.5,-295.7"/>
<polygon fill="none" stroke="#000000" points="350.5,-295.7 350.5,-317.7 537.5,-317.7 537.5,-295.7 350.5,-295.7"/>
<text text-anchor="start" x="379.5" y="-302.8" font-family="Helvetica,sans-Serif" font-size="11.00" fill="#000000">dateDay</text>
<polygon fill="#ffffff" stroke="transparent" points="350.5,-273.7 350.5,-295.7 537.5,-295.7 537.5,-273.7 350.5,-273.7"/>
<polygon fill="none" stroke="#000000" points="350.5,-273.7 350.5,-295.7 537.5,-295.7 537.5,-273.7 350.5,-273.7"/>
<text text-anchor="start" x="379.5" y="-280.8" font-family="Helvetica,sans-Serif" font-size="11.00" fill="#000000">dateMonth</text>
<polygon fill="#ffffff" stroke="transparent" points="350.5,-251.7 350.5,-273.7 537.5,-273.7 537.5,-251.7 350.5,-251.7"/>
<polygon fill="none" stroke="#000000" points="350.5,-251.7 350.5,-273.7 537.5,-273.7 537.5,-251.7 350.5,-251.7"/>
<text text-anchor="start" x="379.5" y="-258.8" font-family="Helvetica,sans-Serif" font-size="11.00" fill="#000000">dateYear</text>
<polygon fill="#ffffff" stroke="transparent" points="350.5,-229.7 350.5,-251.7 537.5,-251.7 537.5,-229.7 350.5,-229.7"/>
<polygon fill="none" stroke="#000000" points="350.5,-229.7 350.5,-251.7 537.5,-251.7 537.5,-229.7 350.5,-229.7"/>
<text text-anchor="start" x="379.5" y="-236.8" font-family="Helvetica,sans-Serif" font-size="11.00" fill="#000000">flashFired</text>
<polygon fill="#ffffff" stroke="transparent" points="350.5,-207.7 350.5,-229.7 537.5,-229.7 537.5,-207.7 350.5,-207.7"/>
<polygon fill="none" stroke="#000000" points="350.5,-207.7 350.5,-229.7 537.5,-229.7 537.5,-207.7 350.5,-207.7"/>
<text text-anchor="start" x="379.5" y="-214.8" font-family="Helvetica,sans-Serif" font-size="11.00" fill="#000000">focalLength</text>
<polygon fill="#ffffff" stroke="transparent" points="350.5,-185.7 350.5,-207.7 537.5,-207.7 537.5,-185.7 350.5,-185.7"/>
<polygon fill="none" stroke="#000000" points="350.5,-185.7 350.5,-207.7 537.5,-207.7 537.5,-185.7 350.5,-185.7"/>
<text text-anchor="start" x="379.5" y="-192.8" font-family="Helvetica,sans-Serif" font-size="11.00" fill="#000000">gpsLatitude</text>
<polygon fill="#ffffff" stroke="transparent" points="350.5,-163.7 350.5,-185.7 537.5,-185.7 537.5,-163.7 350.5,-163.7"/>
<polygon fill="none" stroke="#000000" points="350.5,-163.7 350.5,-185.7 537.5,-185.7 537.5,-163.7 350.5,-163.7"/>
<text text-anchor="start" x="379.5" y="-170.8" font-family="Helvetica,sans-Serif" font-size="11.00" fill="#000000">gpsLongitude</text>
<polygon fill="#ffffff" stroke="transparent" points="350.5,-141.7 350.5,-163.7 537.5,-163.7 537.5,-141.7 350.5,-141.7"/>
<polygon fill="none" stroke="#000000" points="350.5,-141.7 350.5,-163.7 537.5,-163.7 537.5,-141.7 350.5,-141.7"/>
<text text-anchor="start" x="379.5" y="-148.8" font-family="Helvetica,sans-Serif" font-size="11.00" fill="#000000">hasGPS</text>
<polygon fill="#ffffff" stroke="transparent" points="350.5,-119.7 350.5,-141.7 537.5,-141.7 537.5,-119.7 350.5,-119.7"/>
<polygon fill="none" stroke="#000000" points="350.5,-119.7 350.5,-141.7 537.5,-141.7 537.5,-119.7 350.5,-119.7"/>
<text text-anchor="start" x="379.5" y="-126.8" font-family="Helvetica,sans-Serif" font-size="11.00" fill="#000000">isoSpeedRating</text>
<polygon fill="#ffffff" stroke="transparent" points="350.5,-97.7 350.5,-119.7 537.5,-119.7 537.5,-97.7 350.5,-97.7"/>
<polygon fill="none" stroke="#000000" points="350.5,-97.7 350.5,-119.7 537.5,-119.7 537.5,-97.7 350.5,-97.7"/>
<image xlink:href="../../images/foreignKeys.png" width="11px" height="12px" preserveAspectRatio="xMinYMin meet" x="355.5" y="-114.7"/>
<text text-anchor="start" x="379.5" y="-104.8" font-family="Helvetica,sans-Serif" font-size="11.00" fill="#000000">lensRef</text>
<polygon fill="#ffffff" stroke="transparent" points="350.5,-75.7 350.5,-97.7 537.5,-97.7 537.5,-75.7 350.5,-75.7"/>
<polygon fill="none" stroke="#000000" points="350.5,-75.7 350.5,-97.7 537.5,-97.7 537.5,-75.7 350.5,-75.7"/>
<text text-anchor="start" x="379.5" y="-82.8" font-family="Helvetica,sans-Serif" font-size="11.00" fill="#000000">shutterSpeed</text>
<polygon fill="none" stroke="#000000" points="350.5,-56.7 350.5,-75.7 537.5,-75.7 537.5,-56.7 350.5,-56.7"/>
<text text-anchor="start" x="353.5" y="-62.8" font-family="Helvetica,sans-Serif" font-size="11.00" fill="#000000">...</text>
<polygon fill="#ffffff" stroke="transparent" points="350.5,-37.7 350.5,-56.7 442.5,-56.7 442.5,-37.7 350.5,-37.7"/>
<polygon fill="none" stroke="#000000" points="350.5,-37.7 350.5,-56.7 442.5,-56.7 442.5,-37.7 350.5,-37.7"/>
<text text-anchor="start" x="353.5" y="-43.8" font-family="Helvetica,sans-Serif" font-size="11.00" fill="#000000">&lt; 4</text>
<polygon fill="#ffffff" stroke="transparent" points="442.5,-37.7 442.5,-56.7 489.5,-56.7 489.5,-37.7 442.5,-37.7"/>
<polygon fill="none" stroke="#000000" points="442.5,-37.7 442.5,-56.7 489.5,-56.7 489.5,-37.7 442.5,-37.7"/>
<text text-anchor="start" x="480.3862" y="-43.8" font-family="Helvetica,sans-Serif" font-size="11.00" fill="#000000"> &#160;</text>
<polygon fill="#ffffff" stroke="transparent" points="489.5,-37.7 489.5,-56.7 537.5,-56.7 537.5,-37.7 489.5,-37.7"/>
<polygon fill="none" stroke="#000000" points="489.5,-37.7 489.5,-56.7 537.5,-56.7 537.5,-37.7 489.5,-37.7"/>
<text text-anchor="start" x="528.3862" y="-43.8" font-family="Helvetica,sans-Serif" font-size="11.00" fill="#000000"> &#160;</text>
</a>
</g>
</g>
<!-- AgInternedExifCameraModel -->
<g id="node2" class="node">
<title>AgInternedExifCameraModel</title>
<g id="a_node2"><a xlink:href="../../tables/AgInternedExifCameraModel.html" xlink:title="AgInternedExifCameraModel" target="_top">
<polygon fill="#ffffff" stroke="transparent" points="53,-323.2 53,-384.2 256,-384.2 256,-323.2 53,-323.2"/>
<polygon fill="#f5f5f5" stroke="transparent" points="53.5,-360.7 53.5,-383.7 256.5,-383.7 256.5,-360.7 53.5,-360.7"/>
<polygon fill="none" stroke="#000000" points="53.5,-360.7 53.5,-383.7 256.5,-383.7 256.5,-360.7 53.5,-360.7"/>
<text text-anchor="start" x="58.5" y="-369.3" font-family="Helvetica,sans-Serif" font-weight="bold" font-size="11.00" fill="#000000">AgInternedExifCameraModel</text>
<text text-anchor="start" x="222.0219" y="-368.8" font-family="Helvetica,sans-Serif" font-size="11.00" fill="#000000">[table]</text>
<polygon fill="none" stroke="#000000" points="53.5,-341.7 53.5,-360.7 256.5,-360.7 256.5,-341.7 53.5,-341.7"/>
<text text-anchor="start" x="56.5" y="-347.8" font-family="Helvetica,sans-Serif" font-size="11.00" fill="#000000">...</text>
<polygon fill="#ffffff" stroke="transparent" points="53.5,-322.7 53.5,-341.7 144.5,-341.7 144.5,-322.7 53.5,-322.7"/>
<polygon fill="none" stroke="#000000" points="53.5,-322.7 53.5,-341.7 144.5,-341.7 144.5,-322.7 53.5,-322.7"/>
<text text-anchor="start" x="56.5" y="-328.8" font-family="Helvetica,sans-Serif" font-size="11.00" fill="#000000"> &#160;</text>
<polygon fill="#ffffff" stroke="transparent" points="144.5,-322.7 144.5,-341.7 195.5,-341.7 195.5,-322.7 144.5,-322.7"/>
<polygon fill="none" stroke="#000000" points="144.5,-322.7 144.5,-341.7 195.5,-341.7 195.5,-322.7 144.5,-322.7"/>
<text text-anchor="start" x="186.3862" y="-328.8" font-family="Helvetica,sans-Serif" font-size="11.00" fill="#000000"> &#160;</text>
<polygon fill="#ffffff" stroke="transparent" points="195.5,-322.7 195.5,-341.7 256.5,-341.7 256.5,-322.7 195.5,-322.7"/>
<polygon fill="none" stroke="#000000" points="195.5,-322.7 195.5,-341.7 256.5,-341.7 256.5,-322.7 195.5,-322.7"/>
<text text-anchor="start" x="237.9053" y="-328.8" font-family="Helvetica,sans-Serif" font-size="11.00" fill="#000000">1 &gt;</text>
</a>
</g>
</g>
<!-- AgHarvestedExifMetadata&#45;&gt;AgInternedExifCameraModel -->
<g id="edge1" class="edge">
<title>AgHarvestedExifMetadata:w&#45;&gt;AgInternedExifCameraModel:e</title>
<path fill="none" stroke="#000000" d="M335.7715,-350.7C305.5089,-350.7 292.8924,-350.7 256.5,-350.7"/>
<polygon fill="#000000" stroke="#000000" points="342.5,-350.7001 350.5,-354.3 346.5,-350.7 350.5,-350.7 350.5,-350.7 350.5,-350.7 346.5,-350.7 350.5,-347.1 342.5,-350.7001 342.5,-350.7001"/>
<ellipse fill="none" stroke="#000000" cx="339.3" cy="-350.7001" rx="3.2" ry="3.2"/>
</g>
<!-- AgInternedExifCameraSN -->
<g id="node3" class="node">
<title>AgInternedExifCameraSN</title>
<g id="a_node3"><a xlink:href="../../tables/AgInternedExifCameraSN.html" xlink:title="AgInternedExifCameraSN" target="_top">
<polygon fill="#ffffff" stroke="transparent" points="8,-189.7 8,-301.7 301,-301.7 301,-189.7 8,-189.7"/>
<polygon fill="#f5f5f5" stroke="transparent" points="10.5,-276.7 10.5,-299.7 299.5,-299.7 299.5,-276.7 10.5,-276.7"/>
<polygon fill="none" stroke="#000000" points="10.5,-276.7 10.5,-299.7 299.5,-299.7 299.5,-276.7 10.5,-276.7"/>
<text text-anchor="start" x="15.5" y="-285.3" font-family="Helvetica,sans-Serif" font-weight="bold" font-size="11.00" fill="#000000">AgInternedExifCameraSN</text>
<text text-anchor="start" x="264.5437" y="-284.8" font-family="Helvetica,sans-Serif" font-size="11.00" fill="#000000">[table]</text>
<polygon fill="none" stroke="#000000" points="10.5,-254.7 10.5,-276.7 177.5,-276.7 177.5,-254.7 10.5,-254.7"/>
<image xlink:href="../../images/primaryKeys.png" width="11px" height="12px" preserveAspectRatio="xMinYMin meet" x="15.5" y="-271.7"/>
<text text-anchor="start" x="30.5" y="-261.8" font-family="Helvetica,sans-Serif" font-size="11.00" fill="#000000">id_local</text>
<polygon fill="none" stroke="#000000" points="177.5,-254.7 177.5,-276.7 299.5,-276.7 299.5,-254.7 177.5,-254.7"/>
<text text-anchor="start" x="180.4156" y="-262.4" font-family="Helvetica,sans-Serif" font-size="11.00" fill="#000000">integer[2000000000,10]</text>
<polygon fill="#ffffff" stroke="transparent" points="10.5,-232.7 10.5,-254.7 177.5,-254.7 177.5,-232.7 10.5,-232.7"/>
<polygon fill="none" stroke="#000000" points="10.5,-232.7 10.5,-254.7 177.5,-254.7 177.5,-232.7 10.5,-232.7"/>
<text text-anchor="start" x="30.5" y="-239.8" font-family="Helvetica,sans-Serif" font-size="11.00" fill="#000000">searchIndex</text>
<polygon fill="none" stroke="#000000" points="177.5,-232.7 177.5,-254.7 299.5,-254.7 299.5,-232.7 177.5,-232.7"/>
<text text-anchor="start" x="180.5" y="-240.4" font-family="Helvetica,sans-Serif" font-size="11.00" fill="#000000">[2000000000,10]</text>
<polygon fill="#ffffff" stroke="transparent" points="10.5,-210.7 10.5,-232.7 177.5,-232.7 177.5,-210.7 10.5,-210.7"/>
<polygon fill="none" stroke="#000000" points="10.5,-210.7 10.5,-232.7 177.5,-232.7 177.5,-210.7 10.5,-210.7"/>
<text text-anchor="start" x="30.5" y="-217.8" font-family="Helvetica,sans-Serif" font-size="11.00" fill="#000000">value</text>
<polygon fill="none" stroke="#000000" points="177.5,-210.7 177.5,-232.7 299.5,-232.7 299.5,-210.7 177.5,-210.7"/>
<text text-anchor="start" x="180.5" y="-218.4" font-family="Helvetica,sans-Serif" font-size="11.00" fill="#000000">[2000000000,10]</text>
<polygon fill="#ffffff" stroke="transparent" points="10.5,-191.7 10.5,-210.7 98.5,-210.7 98.5,-191.7 10.5,-191.7"/>
<polygon fill="none" stroke="#000000" points="10.5,-191.7 10.5,-210.7 98.5,-210.7 98.5,-191.7 10.5,-191.7"/>
<text text-anchor="start" x="13.5" y="-197.8" font-family="Helvetica,sans-Serif" font-size="11.00" fill="#000000">&lt; 0</text>
<polygon fill="#ffffff" stroke="transparent" points="98.5,-191.7 98.5,-210.7 177.5,-210.7 177.5,-191.7 98.5,-191.7"/>
<polygon fill="none" stroke="#000000" points="98.5,-191.7 98.5,-210.7 177.5,-210.7 177.5,-191.7 98.5,-191.7"/>
<text text-anchor="start" x="168.3862" y="-197.8" font-family="Helvetica,sans-Serif" font-size="11.00" fill="#000000"> &#160;</text>
<polygon fill="#ffffff" stroke="transparent" points="177.5,-191.7 177.5,-210.7 299.5,-210.7 299.5,-191.7 177.5,-191.7"/>
<polygon fill="none" stroke="#000000" points="177.5,-191.7 177.5,-210.7 299.5,-210.7 299.5,-191.7 177.5,-191.7"/>
<text text-anchor="start" x="280.9053" y="-197.8" font-family="Helvetica,sans-Serif" font-size="11.00" fill="#000000">1 &gt;</text>
<polygon fill="none" stroke="#000000" stroke-width="2" points="9,-190.7 9,-300.7 300,-300.7 300,-190.7 9,-190.7"/>
</a>
</g>
</g>
<!-- AgHarvestedExifMetadata&#45;&gt;AgInternedExifCameraSN -->
<g id="edge2" class="edge">
<title>AgHarvestedExifMetadata:w&#45;&gt;AgInternedExifCameraSN:e</title>
<path fill="none" stroke="#000000" d="M336.4033,-323.7565C320.025,-308.9048 329.3329,-265.7 299.5,-265.7"/>
<polygon fill="#000000" stroke="#000000" points="342.9507,-326.0526 349.3087,-332.0972 346.7254,-327.3763 350.5,-328.7 350.5,-328.7 350.5,-328.7 346.7254,-327.3763 351.6913,-325.3028 342.9507,-326.0526 342.9507,-326.0526"/>
<ellipse fill="none" stroke="#000000" cx="339.931" cy="-324.9936" rx="3.2" ry="3.2"/>
</g>
<!-- Adobe_images -->
<g id="node4" class="node">
<title>Adobe_images</title>
<g id="a_node4"><a xlink:href="../../tables/Adobe_images.html" xlink:title="Adobe_images" target="_top">
<polygon fill="#ffffff" stroke="transparent" points="92.5,-405.2 92.5,-466.2 216.5,-466.2 216.5,-405.2 92.5,-405.2"/>
<polygon fill="#f5f5f5" stroke="transparent" points="92.5,-442.7 92.5,-465.7 216.5,-465.7 216.5,-442.7 92.5,-442.7"/>
<polygon fill="none" stroke="#000000" points="92.5,-442.7 92.5,-465.7 216.5,-465.7 216.5,-442.7 92.5,-442.7"/>
<text text-anchor="start" x="97.5" y="-451.3" font-family="Helvetica,sans-Serif" font-weight="bold" font-size="11.00" fill="#000000">Adobe_images</text>
<text text-anchor="start" x="182.0219" y="-450.8" font-family="Helvetica,sans-Serif" font-size="11.00" fill="#000000">[table]</text>
<polygon fill="none" stroke="#000000" points="92.5,-423.7 92.5,-442.7 216.5,-442.7 216.5,-423.7 92.5,-423.7"/>
<text text-anchor="start" x="95.5" y="-429.8" font-family="Helvetica,sans-Serif" font-size="11.00" fill="#000000">...</text>
<polygon fill="#ffffff" stroke="transparent" points="92.5,-404.7 92.5,-423.7 145.5,-423.7 145.5,-404.7 92.5,-404.7"/>
<polygon fill="none" stroke="#000000" points="92.5,-404.7 92.5,-423.7 145.5,-423.7 145.5,-404.7 92.5,-404.7"/>
<text text-anchor="start" x="95.5" y="-410.8" font-family="Helvetica,sans-Serif" font-size="11.00" fill="#000000">&lt; 2</text>
<polygon fill="#ffffff" stroke="transparent" points="145.5,-404.7 145.5,-423.7 173.5,-423.7 173.5,-404.7 145.5,-404.7"/>
<polygon fill="none" stroke="#000000" points="145.5,-404.7 145.5,-423.7 173.5,-423.7 173.5,-404.7 145.5,-404.7"/>
<text text-anchor="start" x="164.3862" y="-410.8" font-family="Helvetica,sans-Serif" font-size="11.00" fill="#000000"> &#160;</text>
<polygon fill="#ffffff" stroke="transparent" points="173.5,-404.7 173.5,-423.7 216.5,-423.7 216.5,-404.7 173.5,-404.7"/>
<polygon fill="none" stroke="#000000" points="173.5,-404.7 173.5,-423.7 216.5,-423.7 216.5,-404.7 173.5,-404.7"/>
<text text-anchor="start" x="191.7904" y="-410.8" font-family="Helvetica,sans-Serif" font-size="11.00" fill="#000000">31 &gt;</text>
</a>
</g>
</g>
<!-- AgHarvestedExifMetadata&#45;&gt;Adobe_images -->
<g id="edge3" class="edge">
<title>AgHarvestedExifMetadata:w&#45;&gt;Adobe_images:e</title>
<path fill="none" stroke="#000000" d="M335.9361,-395.4591C286.5194,-400.8148 273.205,-432.7 216.5,-432.7"/>
<polygon fill="#000000" stroke="#000000" points="342.5108,-395.1164 350.6874,-398.2951 346.5054,-394.9082 350.5,-394.7 350.5,-394.7 350.5,-394.7 346.5054,-394.9082 350.3126,-391.1049 342.5108,-395.1164 342.5108,-395.1164"/>
<ellipse fill="none" stroke="#000000" cx="339.3152" cy="-395.283" rx="3.2" ry="3.2"/>
</g>
<!-- AgInternedExifLens -->
<g id="node5" class="node">
<title>AgInternedExifLens</title>
<g id="a_node5"><a xlink:href="../../tables/AgInternedExifLens.html" xlink:title="AgInternedExifLens" target="_top">
<polygon fill="#ffffff" stroke="transparent" points="78.5,-81.2 78.5,-142.2 230.5,-142.2 230.5,-81.2 78.5,-81.2"/>
<polygon fill="#f5f5f5" stroke="transparent" points="78.5,-118.7 78.5,-141.7 230.5,-141.7 230.5,-118.7 78.5,-118.7"/>
<polygon fill="none" stroke="#000000" points="78.5,-118.7 78.5,-141.7 230.5,-141.7 230.5,-118.7 78.5,-118.7"/>
<text text-anchor="start" x="83.5" y="-127.3" font-family="Helvetica,sans-Serif" font-weight="bold" font-size="11.00" fill="#000000">AgInternedExifLens</text>
<text text-anchor="start" x="196.0219" y="-126.8" font-family="Helvetica,sans-Serif" font-size="11.00" fill="#000000">[table]</text>
<polygon fill="none" stroke="#000000" points="78.5,-99.7 78.5,-118.7 230.5,-118.7 230.5,-99.7 78.5,-99.7"/>
<text text-anchor="start" x="81.5" y="-105.8" font-family="Helvetica,sans-Serif" font-size="11.00" fill="#000000">...</text>
<polygon fill="#ffffff" stroke="transparent" points="78.5,-80.7 78.5,-99.7 143.5,-99.7 143.5,-80.7 78.5,-80.7"/>
<polygon fill="none" stroke="#000000" points="78.5,-80.7 78.5,-99.7 143.5,-99.7 143.5,-80.7 78.5,-80.7"/>
<text text-anchor="start" x="81.5" y="-86.8" font-family="Helvetica,sans-Serif" font-size="11.00" fill="#000000"> &#160;</text>
<polygon fill="#ffffff" stroke="transparent" points="143.5,-80.7 143.5,-99.7 182.5,-99.7 182.5,-80.7 143.5,-80.7"/>
<polygon fill="none" stroke="#000000" points="143.5,-80.7 143.5,-99.7 182.5,-99.7 182.5,-80.7 143.5,-80.7"/>
<text text-anchor="start" x="173.3862" y="-86.8" font-family="Helvetica,sans-Serif" font-size="11.00" fill="#000000"> &#160;</text>
<polygon fill="#ffffff" stroke="transparent" points="182.5,-80.7 182.5,-99.7 230.5,-99.7 230.5,-80.7 182.5,-80.7"/>
<polygon fill="none" stroke="#000000" points="182.5,-80.7 182.5,-99.7 230.5,-99.7 230.5,-80.7 182.5,-80.7"/>
<text text-anchor="start" x="211.9053" y="-86.8" font-family="Helvetica,sans-Serif" font-size="11.00" fill="#000000">1 &gt;</text>
</a>
</g>
</g>
<!-- AgHarvestedExifMetadata&#45;&gt;AgInternedExifLens -->
<g id="edge4" class="edge">
<title>AgHarvestedExifMetadata:w&#45;&gt;AgInternedExifLens:e</title>
<path fill="none" stroke="#000000" d="M335.9449,-108.7C294.181,-108.7 278.625,-108.7 230.5,-108.7"/>
<polygon fill="#000000" stroke="#000000" points="342.5,-108.7001 350.5,-112.3 346.5,-108.7 350.5,-108.7 350.5,-108.7 350.5,-108.7 346.5,-108.7 350.5,-105.1 342.5,-108.7001 342.5,-108.7001"/>
<ellipse fill="none" stroke="#000000" cx="339.3" cy="-108.7001" rx="3.2" ry="3.2"/>
</g>
</g>
</svg>
