digraph "oneDegreeRelationshipsDiagram" {
  graph [    rankdir="RL"    bgcolor="#ffffff"    label="\nGenerated by SchemaSpy"    labeljust="l"    nodesep="0.18"    ranksep="0.46"    fontname="Helvetica"    fontsize="11"    ration="compress"  ];  node [    fontname="Helvetica"    fontsize="11"    shape="plaintext"  ];  edge [    arrowsize="0.8"  ];
  "AgHarvestedIptcMetadata":"jobIdentifierRef":w -> "AgInternedIptcJobIdentifier":"id_local.type":e [arrowhead=none dir=back arrowtail=crowodot];
  "AgHarvestedIptcMetadata" [
   label=<
    <TABLE BORDER="0" CELLBORDER="1" CELLSPACING="0" BGCOLOR="#ffffff">
      <TR><TD COLSPAN="3"  BGCOLOR="#f5f5f5"><TABLE BORDER="0" CELLSPACING="0"><TR><TD ALIGN="LEFT" FIXEDSIZE="TRUE" WIDTH="147" HEIGHT="16"><B>AgHarvestedIptcMetadata</B></TD><TD ALIGN="RIGHT">[table]</TD></TR></TABLE></TD></TR>
      <TR><TD PORT="id_local" COLSPAN="3" ALIGN="LEFT"><TABLE BORDER="0" CELLSPACING="0" ALIGN="LEFT"><TR ALIGN="LEFT"><TD ALIGN="LEFT" FIXEDSIZE="TRUE" WIDTH="15" HEIGHT="16"><IMG SRC="../../images/primaryKeys.png"/></TD><TD ALIGN="LEFT" FIXEDSIZE="TRUE" WIDTH="147" HEIGHT="16">id_local</TD></TR></TABLE></TD></TR>
      <TR><TD PORT="image" COLSPAN="3" BGCOLOR="#ffffff" ALIGN="LEFT"><TABLE BORDER="0" CELLSPACING="0" ALIGN="LEFT"><TR ALIGN="LEFT"><TD ALIGN="LEFT" FIXEDSIZE="TRUE" WIDTH="15" HEIGHT="16"><IMG SRC="../../images/foreignKeys.png"/></TD><TD ALIGN="LEFT" FIXEDSIZE="TRUE" WIDTH="147" HEIGHT="16">image</TD></TR></TABLE></TD></TR>
      <TR><TD PORT="cityRef" COLSPAN="3" BGCOLOR="#ffffff" ALIGN="LEFT"><TABLE BORDER="0" CELLSPACING="0" ALIGN="LEFT"><TR ALIGN="LEFT"><TD ALIGN="LEFT" FIXEDSIZE="TRUE" WIDTH="15" HEIGHT="16"><IMG SRC="../../images/foreignKeys.png"/></TD><TD ALIGN="LEFT" FIXEDSIZE="TRUE" WIDTH="147" HEIGHT="16">cityRef</TD></TR></TABLE></TD></TR>
      <TR><TD PORT="copyrightState" COLSPAN="3" BGCOLOR="#ffffff" ALIGN="LEFT"><TABLE BORDER="0" CELLSPACING="0" ALIGN="LEFT"><TR ALIGN="LEFT"><TD ALIGN="LEFT" FIXEDSIZE="TRUE" WIDTH="15" HEIGHT="16"></TD><TD ALIGN="LEFT" FIXEDSIZE="TRUE" WIDTH="147" HEIGHT="16">copyrightState</TD></TR></TABLE></TD></TR>
      <TR><TD PORT="countryRef" COLSPAN="3" BGCOLOR="#ffffff" ALIGN="LEFT"><TABLE BORDER="0" CELLSPACING="0" ALIGN="LEFT"><TR ALIGN="LEFT"><TD ALIGN="LEFT" FIXEDSIZE="TRUE" WIDTH="15" HEIGHT="16"><IMG SRC="../../images/foreignKeys.png"/></TD><TD ALIGN="LEFT" FIXEDSIZE="TRUE" WIDTH="147" HEIGHT="16">countryRef</TD></TR></TABLE></TD></TR>
      <TR><TD PORT="creatorRef" COLSPAN="3" BGCOLOR="#ffffff" ALIGN="LEFT"><TABLE BORDER="0" CELLSPACING="0" ALIGN="LEFT"><TR ALIGN="LEFT"><TD ALIGN="LEFT" FIXEDSIZE="TRUE" WIDTH="15" HEIGHT="16"><IMG SRC="../../images/foreignKeys.png"/></TD><TD ALIGN="LEFT" FIXEDSIZE="TRUE" WIDTH="147" HEIGHT="16">creatorRef</TD></TR></TABLE></TD></TR>
      <TR><TD PORT="isoCountryCodeRef" COLSPAN="3" BGCOLOR="#ffffff" ALIGN="LEFT"><TABLE BORDER="0" CELLSPACING="0" ALIGN="LEFT"><TR ALIGN="LEFT"><TD ALIGN="LEFT" FIXEDSIZE="TRUE" WIDTH="15" HEIGHT="16"><IMG SRC="../../images/foreignKeys.png"/></TD><TD ALIGN="LEFT" FIXEDSIZE="TRUE" WIDTH="147" HEIGHT="16">isoCountryCodeRef</TD></TR></TABLE></TD></TR>
      <TR><TD PORT="jobIdentifierRef" COLSPAN="3" BGCOLOR="#ffffff" ALIGN="LEFT"><TABLE BORDER="0" CELLSPACING="0" ALIGN="LEFT"><TR ALIGN="LEFT"><TD ALIGN="LEFT" FIXEDSIZE="TRUE" WIDTH="15" HEIGHT="16"><IMG SRC="../../images/foreignKeys.png"/></TD><TD ALIGN="LEFT" FIXEDSIZE="TRUE" WIDTH="147" HEIGHT="16">jobIdentifierRef</TD></TR></TABLE></TD></TR>
      <TR><TD PORT="locationRef" COLSPAN="3" BGCOLOR="#ffffff" ALIGN="LEFT"><TABLE BORDER="0" CELLSPACING="0" ALIGN="LEFT"><TR ALIGN="LEFT"><TD ALIGN="LEFT" FIXEDSIZE="TRUE" WIDTH="15" HEIGHT="16"><IMG SRC="../../images/foreignKeys.png"/></TD><TD ALIGN="LEFT" FIXEDSIZE="TRUE" WIDTH="147" HEIGHT="16">locationRef</TD></TR></TABLE></TD></TR>
      <TR><TD PORT="stateRef" COLSPAN="3" BGCOLOR="#ffffff" ALIGN="LEFT"><TABLE BORDER="0" CELLSPACING="0" ALIGN="LEFT"><TR ALIGN="LEFT"><TD ALIGN="LEFT" FIXEDSIZE="TRUE" WIDTH="15" HEIGHT="16"><IMG SRC="../../images/foreignKeys.png"/></TD><TD ALIGN="LEFT" FIXEDSIZE="TRUE" WIDTH="147" HEIGHT="16">stateRef</TD></TR></TABLE></TD></TR>
      <TR><TD PORT="elipses" COLSPAN="3" ALIGN="LEFT">...</TD></TR>
      <TR><TD ALIGN="LEFT" BGCOLOR="#ffffff">&lt; 8</TD><TD ALIGN="RIGHT" BGCOLOR="#ffffff">  </TD><TD ALIGN="RIGHT" BGCOLOR="#ffffff">  </TD></TR>
    </TABLE>>
    URL="../../tables/AgHarvestedIptcMetadata.html"
    target="_top"
    tooltip="AgHarvestedIptcMetadata"
  ];
  "AgInternedIptcJobIdentifier" [
   label=<
    <TABLE BORDER="2" CELLBORDER="1" CELLSPACING="0" BGCOLOR="#ffffff">
      <TR><TD COLSPAN="4"  BGCOLOR="#f5f5f5"><TABLE BORDER="0" CELLSPACING="0"><TR><TD ALIGN="LEFT" FIXEDSIZE="TRUE" WIDTH="156" HEIGHT="16"><B>AgInternedIptcJobIdentifier</B></TD><TD ALIGN="RIGHT">[table]</TD></TR></TABLE></TD></TR>
      <TR><TD PORT="id_local" COLSPAN="2" ALIGN="LEFT"><TABLE BORDER="0" CELLSPACING="0" ALIGN="LEFT"><TR ALIGN="LEFT"><TD ALIGN="LEFT" FIXEDSIZE="TRUE" WIDTH="15" HEIGHT="16"><IMG SRC="../../images/primaryKeys.png"/></TD><TD ALIGN="LEFT" FIXEDSIZE="TRUE" WIDTH="156" HEIGHT="16">id_local</TD></TR></TABLE></TD><TD PORT="id_local.type" ALIGN="LEFT">integer[2000000000,10]</TD></TR>
      <TR><TD PORT="searchIndex" COLSPAN="2" BGCOLOR="#ffffff" ALIGN="LEFT"><TABLE BORDER="0" CELLSPACING="0" ALIGN="LEFT"><TR ALIGN="LEFT"><TD ALIGN="LEFT" FIXEDSIZE="TRUE" WIDTH="15" HEIGHT="16"></TD><TD ALIGN="LEFT" FIXEDSIZE="TRUE" WIDTH="156" HEIGHT="16">searchIndex</TD></TR></TABLE></TD><TD PORT="searchIndex.type" ALIGN="LEFT">[2000000000,10]</TD></TR>
      <TR><TD PORT="value" COLSPAN="2" BGCOLOR="#ffffff" ALIGN="LEFT"><TABLE BORDER="0" CELLSPACING="0" ALIGN="LEFT"><TR ALIGN="LEFT"><TD ALIGN="LEFT" FIXEDSIZE="TRUE" WIDTH="15" HEIGHT="16"></TD><TD ALIGN="LEFT" FIXEDSIZE="TRUE" WIDTH="156" HEIGHT="16">value</TD></TR></TABLE></TD><TD PORT="value.type" ALIGN="LEFT">[2000000000,10]</TD></TR>
      <TR><TD ALIGN="LEFT" BGCOLOR="#ffffff">&lt; 0</TD><TD ALIGN="RIGHT" BGCOLOR="#ffffff">  </TD><TD ALIGN="RIGHT" BGCOLOR="#ffffff">1 &gt;</TD></TR>
    </TABLE>>
    URL="../../tables/AgInternedIptcJobIdentifier.html"
    target="_top"
    tooltip="AgInternedIptcJobIdentifier"
  ];
}
