<?xml version="1.0" encoding="UTF-8" standalone="no"?>
<!DOCTYPE svg PUBLIC "-//W3C//DTD SVG 1.1//EN"
 "http://www.w3.org/Graphics/SVG/1.1/DTD/svg11.dtd">
<!-- Generated by graphviz version 2.40.1 (20161225.0304)
 -->
<!-- Title: oneDegreeRelationshipsDiagram Pages: 1 -->
<svg width="571pt" height="463pt"
 viewBox="0.00 0.00 571.00 463.20" xmlns="http://www.w3.org/2000/svg" xmlns:xlink="http://www.w3.org/1999/xlink">
<g id="graph0" class="graph" transform="scale(1 1) rotate(0) translate(4 459.2)">
<title>oneDegreeRelationshipsDiagram</title>
<polygon fill="#ffffff" stroke="transparent" points="-4,4 -4,-459.2 567,-459.2 567,4 -4,4"/>
<text text-anchor="middle" x="72.4936" y="-7.3" font-family="Helvetica,sans-Serif" font-size="11.00" fill="#000000">Generated by SchemaSpy</text>
<!-- AgHarvestedExifMetadata -->
<g id="node1" class="node">
<title>AgHarvestedExifMetadata</title>
<g id="a_node1"><a xlink:href="../../tables/AgHarvestedExifMetadata.html" xlink:title="AgHarvestedExifMetadata" target="_top">
<polygon fill="#ffffff" stroke="transparent" points="368,-38.2 368,-451.2 555,-451.2 555,-38.2 368,-38.2"/>
<polygon fill="#f5f5f5" stroke="transparent" points="368.5,-427.7 368.5,-450.7 555.5,-450.7 555.5,-427.7 368.5,-427.7"/>
<polygon fill="none" stroke="#000000" points="368.5,-427.7 368.5,-450.7 555.5,-450.7 555.5,-427.7 368.5,-427.7"/>
<text text-anchor="start" x="373.5" y="-436.3" font-family="Helvetica,sans-Serif" font-weight="bold" font-size="11.00" fill="#000000">AgHarvestedExifMetadata</text>
<text text-anchor="start" x="521.0219" y="-435.8" font-family="Helvetica,sans-Serif" font-size="11.00" fill="#000000">[table]</text>
<polygon fill="none" stroke="#000000" points="368.5,-405.7 368.5,-427.7 555.5,-427.7 555.5,-405.7 368.5,-405.7"/>
<image xlink:href="../../images/primaryKeys.png" width="11px" height="12px" preserveAspectRatio="xMinYMin meet" x="373.5" y="-422.7"/>
<text text-anchor="start" x="397.5" y="-412.8" font-family="Helvetica,sans-Serif" font-size="11.00" fill="#000000">id_local</text>
<polygon fill="#ffffff" stroke="transparent" points="368.5,-383.7 368.5,-405.7 555.5,-405.7 555.5,-383.7 368.5,-383.7"/>
<polygon fill="none" stroke="#000000" points="368.5,-383.7 368.5,-405.7 555.5,-405.7 555.5,-383.7 368.5,-383.7"/>
<image xlink:href="../../images/foreignKeys.png" width="11px" height="12px" preserveAspectRatio="xMinYMin meet" x="373.5" y="-400.7"/>
<text text-anchor="start" x="397.5" y="-390.8" font-family="Helvetica,sans-Serif" font-size="11.00" fill="#000000">image</text>
<polygon fill="#ffffff" stroke="transparent" points="368.5,-361.7 368.5,-383.7 555.5,-383.7 555.5,-361.7 368.5,-361.7"/>
<polygon fill="none" stroke="#000000" points="368.5,-361.7 368.5,-383.7 555.5,-383.7 555.5,-361.7 368.5,-361.7"/>
<text text-anchor="start" x="397.5" y="-368.8" font-family="Helvetica,sans-Serif" font-size="11.00" fill="#000000">aperture</text>
<polygon fill="#ffffff" stroke="transparent" points="368.5,-339.7 368.5,-361.7 555.5,-361.7 555.5,-339.7 368.5,-339.7"/>
<polygon fill="none" stroke="#000000" points="368.5,-339.7 368.5,-361.7 555.5,-361.7 555.5,-339.7 368.5,-339.7"/>
<image xlink:href="../../images/foreignKeys.png" width="11px" height="12px" preserveAspectRatio="xMinYMin meet" x="373.5" y="-356.7"/>
<text text-anchor="start" x="397.5" y="-346.8" font-family="Helvetica,sans-Serif" font-size="11.00" fill="#000000">cameraModelRef</text>
<polygon fill="#ffffff" stroke="transparent" points="368.5,-317.7 368.5,-339.7 555.5,-339.7 555.5,-317.7 368.5,-317.7"/>
<polygon fill="none" stroke="#000000" points="368.5,-317.7 368.5,-339.7 555.5,-339.7 555.5,-317.7 368.5,-317.7"/>
<image xlink:href="../../images/foreignKeys.png" width="11px" height="12px" preserveAspectRatio="xMinYMin meet" x="373.5" y="-334.7"/>
<text text-anchor="start" x="397.5" y="-324.8" font-family="Helvetica,sans-Serif" font-size="11.00" fill="#000000">cameraSNRef</text>
<polygon fill="#ffffff" stroke="transparent" points="368.5,-295.7 368.5,-317.7 555.5,-317.7 555.5,-295.7 368.5,-295.7"/>
<polygon fill="none" stroke="#000000" points="368.5,-295.7 368.5,-317.7 555.5,-317.7 555.5,-295.7 368.5,-295.7"/>
<text text-anchor="start" x="397.5" y="-302.8" font-family="Helvetica,sans-Serif" font-size="11.00" fill="#000000">dateDay</text>
<polygon fill="#ffffff" stroke="transparent" points="368.5,-273.7 368.5,-295.7 555.5,-295.7 555.5,-273.7 368.5,-273.7"/>
<polygon fill="none" stroke="#000000" points="368.5,-273.7 368.5,-295.7 555.5,-295.7 555.5,-273.7 368.5,-273.7"/>
<text text-anchor="start" x="397.5" y="-280.8" font-family="Helvetica,sans-Serif" font-size="11.00" fill="#000000">dateMonth</text>
<polygon fill="#ffffff" stroke="transparent" points="368.5,-251.7 368.5,-273.7 555.5,-273.7 555.5,-251.7 368.5,-251.7"/>
<polygon fill="none" stroke="#000000" points="368.5,-251.7 368.5,-273.7 555.5,-273.7 555.5,-251.7 368.5,-251.7"/>
<text text-anchor="start" x="397.5" y="-258.8" font-family="Helvetica,sans-Serif" font-size="11.00" fill="#000000">dateYear</text>
<polygon fill="#ffffff" stroke="transparent" points="368.5,-229.7 368.5,-251.7 555.5,-251.7 555.5,-229.7 368.5,-229.7"/>
<polygon fill="none" stroke="#000000" points="368.5,-229.7 368.5,-251.7 555.5,-251.7 555.5,-229.7 368.5,-229.7"/>
<text text-anchor="start" x="397.5" y="-236.8" font-family="Helvetica,sans-Serif" font-size="11.00" fill="#000000">flashFired</text>
<polygon fill="#ffffff" stroke="transparent" points="368.5,-207.7 368.5,-229.7 555.5,-229.7 555.5,-207.7 368.5,-207.7"/>
<polygon fill="none" stroke="#000000" points="368.5,-207.7 368.5,-229.7 555.5,-229.7 555.5,-207.7 368.5,-207.7"/>
<text text-anchor="start" x="397.5" y="-214.8" font-family="Helvetica,sans-Serif" font-size="11.00" fill="#000000">focalLength</text>
<polygon fill="#ffffff" stroke="transparent" points="368.5,-185.7 368.5,-207.7 555.5,-207.7 555.5,-185.7 368.5,-185.7"/>
<polygon fill="none" stroke="#000000" points="368.5,-185.7 368.5,-207.7 555.5,-207.7 555.5,-185.7 368.5,-185.7"/>
<text text-anchor="start" x="397.5" y="-192.8" font-family="Helvetica,sans-Serif" font-size="11.00" fill="#000000">gpsLatitude</text>
<polygon fill="#ffffff" stroke="transparent" points="368.5,-163.7 368.5,-185.7 555.5,-185.7 555.5,-163.7 368.5,-163.7"/>
<polygon fill="none" stroke="#000000" points="368.5,-163.7 368.5,-185.7 555.5,-185.7 555.5,-163.7 368.5,-163.7"/>
<text text-anchor="start" x="397.5" y="-170.8" font-family="Helvetica,sans-Serif" font-size="11.00" fill="#000000">gpsLongitude</text>
<polygon fill="#ffffff" stroke="transparent" points="368.5,-141.7 368.5,-163.7 555.5,-163.7 555.5,-141.7 368.5,-141.7"/>
<polygon fill="none" stroke="#000000" points="368.5,-141.7 368.5,-163.7 555.5,-163.7 555.5,-141.7 368.5,-141.7"/>
<text text-anchor="start" x="397.5" y="-148.8" font-family="Helvetica,sans-Serif" font-size="11.00" fill="#000000">hasGPS</text>
<polygon fill="#ffffff" stroke="transparent" points="368.5,-119.7 368.5,-141.7 555.5,-141.7 555.5,-119.7 368.5,-119.7"/>
<polygon fill="none" stroke="#000000" points="368.5,-119.7 368.5,-141.7 555.5,-141.7 555.5,-119.7 368.5,-119.7"/>
<text text-anchor="start" x="397.5" y="-126.8" font-family="Helvetica,sans-Serif" font-size="11.00" fill="#000000">isoSpeedRating</text>
<polygon fill="#ffffff" stroke="transparent" points="368.5,-97.7 368.5,-119.7 555.5,-119.7 555.5,-97.7 368.5,-97.7"/>
<polygon fill="none" stroke="#000000" points="368.5,-97.7 368.5,-119.7 555.5,-119.7 555.5,-97.7 368.5,-97.7"/>
<image xlink:href="../../images/foreignKeys.png" width="11px" height="12px" preserveAspectRatio="xMinYMin meet" x="373.5" y="-114.7"/>
<text text-anchor="start" x="397.5" y="-104.8" font-family="Helvetica,sans-Serif" font-size="11.00" fill="#000000">lensRef</text>
<polygon fill="#ffffff" stroke="transparent" points="368.5,-75.7 368.5,-97.7 555.5,-97.7 555.5,-75.7 368.5,-75.7"/>
<polygon fill="none" stroke="#000000" points="368.5,-75.7 368.5,-97.7 555.5,-97.7 555.5,-75.7 368.5,-75.7"/>
<text text-anchor="start" x="397.5" y="-82.8" font-family="Helvetica,sans-Serif" font-size="11.00" fill="#000000">shutterSpeed</text>
<polygon fill="none" stroke="#000000" points="368.5,-56.7 368.5,-75.7 555.5,-75.7 555.5,-56.7 368.5,-56.7"/>
<text text-anchor="start" x="371.5" y="-62.8" font-family="Helvetica,sans-Serif" font-size="11.00" fill="#000000">...</text>
<polygon fill="#ffffff" stroke="transparent" points="368.5,-37.7 368.5,-56.7 460.5,-56.7 460.5,-37.7 368.5,-37.7"/>
<polygon fill="none" stroke="#000000" points="368.5,-37.7 368.5,-56.7 460.5,-56.7 460.5,-37.7 368.5,-37.7"/>
<text text-anchor="start" x="371.5" y="-43.8" font-family="Helvetica,sans-Serif" font-size="11.00" fill="#000000">&lt; 4</text>
<polygon fill="#ffffff" stroke="transparent" points="460.5,-37.7 460.5,-56.7 507.5,-56.7 507.5,-37.7 460.5,-37.7"/>
<polygon fill="none" stroke="#000000" points="460.5,-37.7 460.5,-56.7 507.5,-56.7 507.5,-37.7 460.5,-37.7"/>
<text text-anchor="start" x="498.3862" y="-43.8" font-family="Helvetica,sans-Serif" font-size="11.00" fill="#000000"> &#160;</text>
<polygon fill="#ffffff" stroke="transparent" points="507.5,-37.7 507.5,-56.7 555.5,-56.7 555.5,-37.7 507.5,-37.7"/>
<polygon fill="none" stroke="#000000" points="507.5,-37.7 507.5,-56.7 555.5,-56.7 555.5,-37.7 507.5,-37.7"/>
<text text-anchor="start" x="546.3862" y="-43.8" font-family="Helvetica,sans-Serif" font-size="11.00" fill="#000000"> &#160;</text>
</a>
</g>
</g>
<!-- AgInternedExifCameraModel -->
<g id="node2" class="node">
<title>AgInternedExifCameraModel</title>
<g id="a_node2"><a xlink:href="../../tables/AgInternedExifCameraModel.html" xlink:title="AgInternedExifCameraModel" target="_top">
<polygon fill="#ffffff" stroke="transparent" points="8,-274.7 8,-386.7 319,-386.7 319,-274.7 8,-274.7"/>
<polygon fill="#f5f5f5" stroke="transparent" points="10.5,-361.7 10.5,-384.7 317.5,-384.7 317.5,-361.7 10.5,-361.7"/>
<polygon fill="none" stroke="#000000" points="10.5,-361.7 10.5,-384.7 317.5,-384.7 317.5,-361.7 10.5,-361.7"/>
<text text-anchor="start" x="15.5" y="-370.3" font-family="Helvetica,sans-Serif" font-weight="bold" font-size="11.00" fill="#000000">AgInternedExifCameraModel</text>
<text text-anchor="start" x="282.5437" y="-369.8" font-family="Helvetica,sans-Serif" font-size="11.00" fill="#000000">[table]</text>
<polygon fill="none" stroke="#000000" points="10.5,-339.7 10.5,-361.7 195.5,-361.7 195.5,-339.7 10.5,-339.7"/>
<image xlink:href="../../images/primaryKeys.png" width="11px" height="12px" preserveAspectRatio="xMinYMin meet" x="15.5" y="-356.7"/>
<text text-anchor="start" x="30.5" y="-346.8" font-family="Helvetica,sans-Serif" font-size="11.00" fill="#000000">id_local</text>
<polygon fill="none" stroke="#000000" points="195.5,-339.7 195.5,-361.7 317.5,-361.7 317.5,-339.7 195.5,-339.7"/>
<text text-anchor="start" x="198.4156" y="-347.4" font-family="Helvetica,sans-Serif" font-size="11.00" fill="#000000">integer[2000000000,10]</text>
<polygon fill="#ffffff" stroke="transparent" points="10.5,-317.7 10.5,-339.7 195.5,-339.7 195.5,-317.7 10.5,-317.7"/>
<polygon fill="none" stroke="#000000" points="10.5,-317.7 10.5,-339.7 195.5,-339.7 195.5,-317.7 10.5,-317.7"/>
<text text-anchor="start" x="30.5" y="-324.8" font-family="Helvetica,sans-Serif" font-size="11.00" fill="#000000">searchIndex</text>
<polygon fill="none" stroke="#000000" points="195.5,-317.7 195.5,-339.7 317.5,-339.7 317.5,-317.7 195.5,-317.7"/>
<text text-anchor="start" x="198.5" y="-325.4" font-family="Helvetica,sans-Serif" font-size="11.00" fill="#000000">[2000000000,10]</text>
<polygon fill="#ffffff" stroke="transparent" points="10.5,-295.7 10.5,-317.7 195.5,-317.7 195.5,-295.7 10.5,-295.7"/>
<polygon fill="none" stroke="#000000" points="10.5,-295.7 10.5,-317.7 195.5,-317.7 195.5,-295.7 10.5,-295.7"/>
<text text-anchor="start" x="30.5" y="-302.8" font-family="Helvetica,sans-Serif" font-size="11.00" fill="#000000">value</text>
<polygon fill="none" stroke="#000000" points="195.5,-295.7 195.5,-317.7 317.5,-317.7 317.5,-295.7 195.5,-295.7"/>
<text text-anchor="start" x="198.5" y="-303.4" font-family="Helvetica,sans-Serif" font-size="11.00" fill="#000000">[2000000000,10]</text>
<polygon fill="#ffffff" stroke="transparent" points="10.5,-276.7 10.5,-295.7 107.5,-295.7 107.5,-276.7 10.5,-276.7"/>
<polygon fill="none" stroke="#000000" points="10.5,-276.7 10.5,-295.7 107.5,-295.7 107.5,-276.7 10.5,-276.7"/>
<text text-anchor="start" x="13.5" y="-282.8" font-family="Helvetica,sans-Serif" font-size="11.00" fill="#000000">&lt; 0</text>
<polygon fill="#ffffff" stroke="transparent" points="107.5,-276.7 107.5,-295.7 195.5,-295.7 195.5,-276.7 107.5,-276.7"/>
<polygon fill="none" stroke="#000000" points="107.5,-276.7 107.5,-295.7 195.5,-295.7 195.5,-276.7 107.5,-276.7"/>
<text text-anchor="start" x="186.3862" y="-282.8" font-family="Helvetica,sans-Serif" font-size="11.00" fill="#000000"> &#160;</text>
<polygon fill="#ffffff" stroke="transparent" points="195.5,-276.7 195.5,-295.7 317.5,-295.7 317.5,-276.7 195.5,-276.7"/>
<polygon fill="none" stroke="#000000" points="195.5,-276.7 195.5,-295.7 317.5,-295.7 317.5,-276.7 195.5,-276.7"/>
<text text-anchor="start" x="298.9053" y="-282.8" font-family="Helvetica,sans-Serif" font-size="11.00" fill="#000000">1 &gt;</text>
<polygon fill="none" stroke="#000000" stroke-width="2" points="9,-275.7 9,-385.7 318,-385.7 318,-275.7 9,-275.7"/>
</a>
</g>
</g>
<!-- AgHarvestedExifMetadata&#45;&gt;AgInternedExifCameraModel -->
<g id="edge1" class="edge">
<title>AgHarvestedExifMetadata:w&#45;&gt;AgInternedExifCameraModel:e</title>
<path fill="none" stroke="#000000" d="M353.776,-350.7C341.7815,-350.7 334.3229,-350.7 317.5,-350.7"/>
<polygon fill="#000000" stroke="#000000" points="360.5,-350.7001 368.5,-354.3 364.5,-350.7 368.5,-350.7 368.5,-350.7 368.5,-350.7 364.5,-350.7 368.5,-347.1 360.5,-350.7001 360.5,-350.7001"/>
<ellipse fill="none" stroke="#000000" cx="357.3" cy="-350.7001" rx="3.2" ry="3.2"/>
</g>
</g>
</svg>
