<?xml version="1.0" encoding="UTF-8" standalone="no"?>
<!DOCTYPE svg PUBLIC "-//W3C//DTD SVG 1.1//EN"
 "http://www.w3.org/Graphics/SVG/1.1/DTD/svg11.dtd">
<!-- Generated by graphviz version 2.40.1 (20161225.0304)
 -->
<!-- Title: oneDegreeRelationshipsDiagram Pages: 1 -->
<svg width="513pt" height="331pt"
 viewBox="0.00 0.00 513.00 331.20" xmlns="http://www.w3.org/2000/svg" xmlns:xlink="http://www.w3.org/1999/xlink">
<g id="graph0" class="graph" transform="scale(1 1) rotate(0) translate(4 327.2)">
<title>oneDegreeRelationshipsDiagram</title>
<polygon fill="#ffffff" stroke="transparent" points="-4,4 -4,-327.2 509,-327.2 509,4 -4,4"/>
<text text-anchor="middle" x="72.4936" y="-7.3" font-family="Helvetica,sans-Serif" font-size="11.00" fill="#000000">Generated by SchemaSpy</text>
<!-- AgHarvestedIptcMetadata -->
<g id="node1" class="node">
<title>AgHarvestedIptcMetadata</title>
<g id="a_node1"><a xlink:href="../../tables/AgHarvestedIptcMetadata.html" xlink:title="AgHarvestedIptcMetadata" target="_top">
<polygon fill="#ffffff" stroke="transparent" points="311,-38.2 311,-319.2 497,-319.2 497,-38.2 311,-38.2"/>
<polygon fill="#f5f5f5" stroke="transparent" points="311,-295.7 311,-318.7 497,-318.7 497,-295.7 311,-295.7"/>
<polygon fill="none" stroke="#000000" points="311,-295.7 311,-318.7 497,-318.7 497,-295.7 311,-295.7"/>
<text text-anchor="start" x="316" y="-304.3" font-family="Helvetica,sans-Serif" font-weight="bold" font-size="11.00" fill="#000000">AgHarvestedIptcMetadata</text>
<text text-anchor="start" x="462.5219" y="-303.8" font-family="Helvetica,sans-Serif" font-size="11.00" fill="#000000">[table]</text>
<polygon fill="none" stroke="#000000" points="311,-273.7 311,-295.7 497,-295.7 497,-273.7 311,-273.7"/>
<image xlink:href="../../images/primaryKeys.png" width="11px" height="12px" preserveAspectRatio="xMinYMin meet" x="316" y="-290.7"/>
<text text-anchor="start" x="340" y="-280.8" font-family="Helvetica,sans-Serif" font-size="11.00" fill="#000000">id_local</text>
<polygon fill="#ffffff" stroke="transparent" points="311,-251.7 311,-273.7 497,-273.7 497,-251.7 311,-251.7"/>
<polygon fill="none" stroke="#000000" points="311,-251.7 311,-273.7 497,-273.7 497,-251.7 311,-251.7"/>
<image xlink:href="../../images/foreignKeys.png" width="11px" height="12px" preserveAspectRatio="xMinYMin meet" x="316" y="-268.7"/>
<text text-anchor="start" x="340" y="-258.8" font-family="Helvetica,sans-Serif" font-size="11.00" fill="#000000">image</text>
<polygon fill="#ffffff" stroke="transparent" points="311,-229.7 311,-251.7 497,-251.7 497,-229.7 311,-229.7"/>
<polygon fill="none" stroke="#000000" points="311,-229.7 311,-251.7 497,-251.7 497,-229.7 311,-229.7"/>
<image xlink:href="../../images/foreignKeys.png" width="11px" height="12px" preserveAspectRatio="xMinYMin meet" x="316" y="-246.7"/>
<text text-anchor="start" x="340" y="-236.8" font-family="Helvetica,sans-Serif" font-size="11.00" fill="#000000">cityRef</text>
<polygon fill="#ffffff" stroke="transparent" points="311,-207.7 311,-229.7 497,-229.7 497,-207.7 311,-207.7"/>
<polygon fill="none" stroke="#000000" points="311,-207.7 311,-229.7 497,-229.7 497,-207.7 311,-207.7"/>
<text text-anchor="start" x="340" y="-214.8" font-family="Helvetica,sans-Serif" font-size="11.00" fill="#000000">copyrightState</text>
<polygon fill="#ffffff" stroke="transparent" points="311,-185.7 311,-207.7 497,-207.7 497,-185.7 311,-185.7"/>
<polygon fill="none" stroke="#000000" points="311,-185.7 311,-207.7 497,-207.7 497,-185.7 311,-185.7"/>
<image xlink:href="../../images/foreignKeys.png" width="11px" height="12px" preserveAspectRatio="xMinYMin meet" x="316" y="-202.7"/>
<text text-anchor="start" x="340" y="-192.8" font-family="Helvetica,sans-Serif" font-size="11.00" fill="#000000">countryRef</text>
<polygon fill="#ffffff" stroke="transparent" points="311,-163.7 311,-185.7 497,-185.7 497,-163.7 311,-163.7"/>
<polygon fill="none" stroke="#000000" points="311,-163.7 311,-185.7 497,-185.7 497,-163.7 311,-163.7"/>
<image xlink:href="../../images/foreignKeys.png" width="11px" height="12px" preserveAspectRatio="xMinYMin meet" x="316" y="-180.7"/>
<text text-anchor="start" x="340" y="-170.8" font-family="Helvetica,sans-Serif" font-size="11.00" fill="#000000">creatorRef</text>
<polygon fill="#ffffff" stroke="transparent" points="311,-141.7 311,-163.7 497,-163.7 497,-141.7 311,-141.7"/>
<polygon fill="none" stroke="#000000" points="311,-141.7 311,-163.7 497,-163.7 497,-141.7 311,-141.7"/>
<image xlink:href="../../images/foreignKeys.png" width="11px" height="12px" preserveAspectRatio="xMinYMin meet" x="316" y="-158.7"/>
<text text-anchor="start" x="340" y="-148.8" font-family="Helvetica,sans-Serif" font-size="11.00" fill="#000000">isoCountryCodeRef</text>
<polygon fill="#ffffff" stroke="transparent" points="311,-119.7 311,-141.7 497,-141.7 497,-119.7 311,-119.7"/>
<polygon fill="none" stroke="#000000" points="311,-119.7 311,-141.7 497,-141.7 497,-119.7 311,-119.7"/>
<image xlink:href="../../images/foreignKeys.png" width="11px" height="12px" preserveAspectRatio="xMinYMin meet" x="316" y="-136.7"/>
<text text-anchor="start" x="340" y="-126.8" font-family="Helvetica,sans-Serif" font-size="11.00" fill="#000000">jobIdentifierRef</text>
<polygon fill="#ffffff" stroke="transparent" points="311,-97.7 311,-119.7 497,-119.7 497,-97.7 311,-97.7"/>
<polygon fill="none" stroke="#000000" points="311,-97.7 311,-119.7 497,-119.7 497,-97.7 311,-97.7"/>
<image xlink:href="../../images/foreignKeys.png" width="11px" height="12px" preserveAspectRatio="xMinYMin meet" x="316" y="-114.7"/>
<text text-anchor="start" x="340" y="-104.8" font-family="Helvetica,sans-Serif" font-size="11.00" fill="#000000">locationRef</text>
<polygon fill="#ffffff" stroke="transparent" points="311,-75.7 311,-97.7 497,-97.7 497,-75.7 311,-75.7"/>
<polygon fill="none" stroke="#000000" points="311,-75.7 311,-97.7 497,-97.7 497,-75.7 311,-75.7"/>
<image xlink:href="../../images/foreignKeys.png" width="11px" height="12px" preserveAspectRatio="xMinYMin meet" x="316" y="-92.7"/>
<text text-anchor="start" x="340" y="-82.8" font-family="Helvetica,sans-Serif" font-size="11.00" fill="#000000">stateRef</text>
<polygon fill="none" stroke="#000000" points="311,-56.7 311,-75.7 497,-75.7 497,-56.7 311,-56.7"/>
<text text-anchor="start" x="314" y="-62.8" font-family="Helvetica,sans-Serif" font-size="11.00" fill="#000000">...</text>
<polygon fill="#ffffff" stroke="transparent" points="311,-37.7 311,-56.7 402,-56.7 402,-37.7 311,-37.7"/>
<polygon fill="none" stroke="#000000" points="311,-37.7 311,-56.7 402,-56.7 402,-37.7 311,-37.7"/>
<text text-anchor="start" x="314" y="-43.8" font-family="Helvetica,sans-Serif" font-size="11.00" fill="#000000">&lt; 8</text>
<polygon fill="#ffffff" stroke="transparent" points="402,-37.7 402,-56.7 449,-56.7 449,-37.7 402,-37.7"/>
<polygon fill="none" stroke="#000000" points="402,-37.7 402,-56.7 449,-56.7 449,-37.7 402,-37.7"/>
<text text-anchor="start" x="439.8862" y="-43.8" font-family="Helvetica,sans-Serif" font-size="11.00" fill="#000000"> &#160;</text>
<polygon fill="#ffffff" stroke="transparent" points="449,-37.7 449,-56.7 497,-56.7 497,-37.7 449,-37.7"/>
<polygon fill="none" stroke="#000000" points="449,-37.7 449,-56.7 497,-56.7 497,-37.7 449,-37.7"/>
<text text-anchor="start" x="487.8862" y="-43.8" font-family="Helvetica,sans-Serif" font-size="11.00" fill="#000000"> &#160;</text>
</a>
</g>
</g>
<!-- AgInternedIptcCity -->
<g id="node2" class="node">
<title>AgInternedIptcCity</title>
<g id="a_node2"><a xlink:href="../../tables/AgInternedIptcCity.html" xlink:title="AgInternedIptcCity" target="_top">
<polygon fill="#ffffff" stroke="transparent" points="8,-164.7 8,-276.7 262,-276.7 262,-164.7 8,-164.7"/>
<polygon fill="#f5f5f5" stroke="transparent" points="10,-251.7 10,-274.7 260,-274.7 260,-251.7 10,-251.7"/>
<polygon fill="none" stroke="#000000" points="10,-251.7 10,-274.7 260,-274.7 260,-251.7 10,-251.7"/>
<text text-anchor="start" x="15" y="-260.3" font-family="Helvetica,sans-Serif" font-weight="bold" font-size="11.00" fill="#000000">AgInternedIptcCity</text>
<text text-anchor="start" x="225.0437" y="-259.8" font-family="Helvetica,sans-Serif" font-size="11.00" fill="#000000">[table]</text>
<polygon fill="none" stroke="#000000" points="10,-229.7 10,-251.7 138,-251.7 138,-229.7 10,-229.7"/>
<image xlink:href="../../images/primaryKeys.png" width="11px" height="12px" preserveAspectRatio="xMinYMin meet" x="15" y="-246.7"/>
<text text-anchor="start" x="30" y="-236.8" font-family="Helvetica,sans-Serif" font-size="11.00" fill="#000000">id_local</text>
<polygon fill="none" stroke="#000000" points="138,-229.7 138,-251.7 260,-251.7 260,-229.7 138,-229.7"/>
<text text-anchor="start" x="140.9156" y="-237.4" font-family="Helvetica,sans-Serif" font-size="11.00" fill="#000000">integer[2000000000,10]</text>
<polygon fill="#ffffff" stroke="transparent" points="10,-207.7 10,-229.7 138,-229.7 138,-207.7 10,-207.7"/>
<polygon fill="none" stroke="#000000" points="10,-207.7 10,-229.7 138,-229.7 138,-207.7 10,-207.7"/>
<text text-anchor="start" x="30" y="-214.8" font-family="Helvetica,sans-Serif" font-size="11.00" fill="#000000">searchIndex</text>
<polygon fill="none" stroke="#000000" points="138,-207.7 138,-229.7 260,-229.7 260,-207.7 138,-207.7"/>
<text text-anchor="start" x="141" y="-215.4" font-family="Helvetica,sans-Serif" font-size="11.00" fill="#000000">[2000000000,10]</text>
<polygon fill="#ffffff" stroke="transparent" points="10,-185.7 10,-207.7 138,-207.7 138,-185.7 10,-185.7"/>
<polygon fill="none" stroke="#000000" points="10,-185.7 10,-207.7 138,-207.7 138,-185.7 10,-185.7"/>
<text text-anchor="start" x="30" y="-192.8" font-family="Helvetica,sans-Serif" font-size="11.00" fill="#000000">value</text>
<polygon fill="none" stroke="#000000" points="138,-185.7 138,-207.7 260,-207.7 260,-185.7 138,-185.7"/>
<text text-anchor="start" x="141" y="-193.4" font-family="Helvetica,sans-Serif" font-size="11.00" fill="#000000">[2000000000,10]</text>
<polygon fill="#ffffff" stroke="transparent" points="10,-166.7 10,-185.7 78,-185.7 78,-166.7 10,-166.7"/>
<polygon fill="none" stroke="#000000" points="10,-166.7 10,-185.7 78,-185.7 78,-166.7 10,-166.7"/>
<text text-anchor="start" x="13" y="-172.8" font-family="Helvetica,sans-Serif" font-size="11.00" fill="#000000">&lt; 0</text>
<polygon fill="#ffffff" stroke="transparent" points="78,-166.7 78,-185.7 138,-185.7 138,-166.7 78,-166.7"/>
<polygon fill="none" stroke="#000000" points="78,-166.7 78,-185.7 138,-185.7 138,-166.7 78,-166.7"/>
<text text-anchor="start" x="128.8862" y="-172.8" font-family="Helvetica,sans-Serif" font-size="11.00" fill="#000000"> &#160;</text>
<polygon fill="#ffffff" stroke="transparent" points="138,-166.7 138,-185.7 260,-185.7 260,-166.7 138,-166.7"/>
<polygon fill="none" stroke="#000000" points="138,-166.7 138,-185.7 260,-185.7 260,-166.7 138,-166.7"/>
<text text-anchor="start" x="241.4053" y="-172.8" font-family="Helvetica,sans-Serif" font-size="11.00" fill="#000000">1 &gt;</text>
<polygon fill="none" stroke="#000000" stroke-width="2" points="9,-165.7 9,-275.7 261,-275.7 261,-165.7 9,-165.7"/>
</a>
</g>
</g>
<!-- AgHarvestedIptcMetadata&#45;&gt;AgInternedIptcCity -->
<g id="edge1" class="edge">
<title>AgHarvestedIptcMetadata:w&#45;&gt;AgInternedIptcCity:e</title>
<path fill="none" stroke="#000000" d="M296.276,-240.7C284.2815,-240.7 276.8229,-240.7 260,-240.7"/>
<polygon fill="#000000" stroke="#000000" points="303,-240.7001 311,-244.3 307,-240.7 311,-240.7 311,-240.7 311,-240.7 307,-240.7 311,-237.1 303,-240.7001 303,-240.7001"/>
<ellipse fill="none" stroke="#000000" cx="299.8" cy="-240.7001" rx="3.2" ry="3.2"/>
</g>
</g>
</svg>
