<?xml version="1.0" encoding="UTF-8" standalone="no"?>
<!DOCTYPE svg PUBLIC "-//W3C//DTD SVG 1.1//EN"
 "http://www.w3.org/Graphics/SVG/1.1/DTD/svg11.dtd">
<!-- Generated by graphviz version 2.40.1 (20161225.0304)
 -->
<!-- Title: twoDegreesRelationshipsDiagram Pages: 1 -->
<svg width="1035pt" height="2565pt"
 viewBox="0.00 0.00 1035.00 2565.20" xmlns="http://www.w3.org/2000/svg" xmlns:xlink="http://www.w3.org/1999/xlink">
<g id="graph0" class="graph" transform="scale(1 1) rotate(0) translate(4 2561.2)">
<title>twoDegreesRelationshipsDiagram</title>
<polygon fill="#ffffff" stroke="transparent" points="-4,4 -4,-2561.2 1031,-2561.2 1031,4 -4,4"/>
<text text-anchor="middle" x="72.4936" y="-7.3" font-family="Helvetica,sans-Serif" font-size="11.00" fill="#000000">Generated by SchemaSpy</text>
<!-- Adobe_AdditionalMetadata -->
<g id="node1" class="node">
<title>Adobe_AdditionalMetadata</title>
<g id="a_node1"><a xlink:href="../../tables/Adobe_AdditionalMetadata.html" xlink:title="Adobe_AdditionalMetadata" target="_top">
<polygon fill="#ffffff" stroke="transparent" points="434.5,-2492.2 434.5,-2553.2 627.5,-2553.2 627.5,-2492.2 434.5,-2492.2"/>
<polygon fill="#f5f5f5" stroke="transparent" points="435,-2529.7 435,-2552.7 628,-2552.7 628,-2529.7 435,-2529.7"/>
<polygon fill="none" stroke="#000000" points="435,-2529.7 435,-2552.7 628,-2552.7 628,-2529.7 435,-2529.7"/>
<text text-anchor="start" x="440" y="-2538.3" font-family="Helvetica,sans-Serif" font-weight="bold" font-size="11.00" fill="#000000">Adobe_AdditionalMetadata</text>
<text text-anchor="start" x="593.5219" y="-2537.8" font-family="Helvetica,sans-Serif" font-size="11.00" fill="#000000">[table]</text>
<polygon fill="none" stroke="#000000" points="435,-2510.7 435,-2529.7 628,-2529.7 628,-2510.7 435,-2510.7"/>
<text text-anchor="start" x="438" y="-2516.8" font-family="Helvetica,sans-Serif" font-size="11.00" fill="#000000">...</text>
<polygon fill="#ffffff" stroke="transparent" points="435,-2491.7 435,-2510.7 530,-2510.7 530,-2491.7 435,-2491.7"/>
<polygon fill="none" stroke="#000000" points="435,-2491.7 435,-2510.7 530,-2510.7 530,-2491.7 435,-2491.7"/>
<text text-anchor="start" x="438" y="-2497.8" font-family="Helvetica,sans-Serif" font-size="11.00" fill="#000000">&lt; 1</text>
<polygon fill="#ffffff" stroke="transparent" points="530,-2491.7 530,-2510.7 579,-2510.7 579,-2491.7 530,-2491.7"/>
<polygon fill="none" stroke="#000000" points="530,-2491.7 530,-2510.7 579,-2510.7 579,-2491.7 530,-2491.7"/>
<text text-anchor="start" x="569.8862" y="-2497.8" font-family="Helvetica,sans-Serif" font-size="11.00" fill="#000000"> &#160;</text>
<polygon fill="#ffffff" stroke="transparent" points="579,-2491.7 579,-2510.7 628,-2510.7 628,-2491.7 579,-2491.7"/>
<polygon fill="none" stroke="#000000" points="579,-2491.7 579,-2510.7 628,-2510.7 628,-2491.7 579,-2491.7"/>
<text text-anchor="start" x="618.8862" y="-2497.8" font-family="Helvetica,sans-Serif" font-size="11.00" fill="#000000"> &#160;</text>
</a>
</g>
</g>
<!-- Adobe_images -->
<g id="node2" class="node">
<title>Adobe_images</title>
<g id="a_node2"><a xlink:href="../../tables/Adobe_images.html" xlink:title="Adobe_images" target="_top">
<polygon fill="#ffffff" stroke="transparent" points="173,-1258.2 173,-1473.2 334,-1473.2 334,-1258.2 173,-1258.2"/>
<polygon fill="#f5f5f5" stroke="transparent" points="173.5,-1449.7 173.5,-1472.7 334.5,-1472.7 334.5,-1449.7 173.5,-1449.7"/>
<polygon fill="none" stroke="#000000" points="173.5,-1449.7 173.5,-1472.7 334.5,-1472.7 334.5,-1449.7 173.5,-1449.7"/>
<text text-anchor="start" x="178.5" y="-1458.3" font-family="Helvetica,sans-Serif" font-weight="bold" font-size="11.00" fill="#000000">Adobe_images</text>
<text text-anchor="start" x="299.5437" y="-1457.8" font-family="Helvetica,sans-Serif" font-size="11.00" fill="#000000">[table]</text>
<polygon fill="none" stroke="#000000" points="173.5,-1427.7 173.5,-1449.7 334.5,-1449.7 334.5,-1427.7 173.5,-1427.7"/>
<image xlink:href="../../images/primaryKeys.png" width="11px" height="12px" preserveAspectRatio="xMinYMin meet" x="178.5" y="-1444.7"/>
<text text-anchor="start" x="193.5" y="-1434.8" font-family="Helvetica,sans-Serif" font-size="11.00" fill="#000000">id_local</text>
<polygon fill="#ffffff" stroke="transparent" points="173.5,-1405.7 173.5,-1427.7 334.5,-1427.7 334.5,-1405.7 173.5,-1405.7"/>
<polygon fill="none" stroke="#000000" points="173.5,-1405.7 173.5,-1427.7 334.5,-1427.7 334.5,-1405.7 173.5,-1405.7"/>
<text text-anchor="start" x="193.5" y="-1412.8" font-family="Helvetica,sans-Serif" font-size="11.00" fill="#000000">id_global</text>
<polygon fill="#ffffff" stroke="transparent" points="173.5,-1383.7 173.5,-1405.7 334.5,-1405.7 334.5,-1383.7 173.5,-1383.7"/>
<polygon fill="none" stroke="#000000" points="173.5,-1383.7 173.5,-1405.7 334.5,-1405.7 334.5,-1383.7 173.5,-1383.7"/>
<text text-anchor="start" x="193.5" y="-1390.8" font-family="Helvetica,sans-Serif" font-size="11.00" fill="#000000">captureTime</text>
<polygon fill="#ffffff" stroke="transparent" points="173.5,-1361.7 173.5,-1383.7 334.5,-1383.7 334.5,-1361.7 173.5,-1361.7"/>
<polygon fill="none" stroke="#000000" points="173.5,-1361.7 173.5,-1383.7 334.5,-1383.7 334.5,-1361.7 173.5,-1361.7"/>
<image xlink:href="../../images/foreignKeys.png" width="11px" height="12px" preserveAspectRatio="xMinYMin meet" x="178.5" y="-1378.7"/>
<text text-anchor="start" x="193.5" y="-1368.8" font-family="Helvetica,sans-Serif" font-size="11.00" fill="#000000">masterImage</text>
<polygon fill="#ffffff" stroke="transparent" points="173.5,-1339.7 173.5,-1361.7 334.5,-1361.7 334.5,-1339.7 173.5,-1339.7"/>
<polygon fill="none" stroke="#000000" points="173.5,-1339.7 173.5,-1361.7 334.5,-1361.7 334.5,-1339.7 173.5,-1339.7"/>
<text text-anchor="start" x="193.5" y="-1346.8" font-family="Helvetica,sans-Serif" font-size="11.00" fill="#000000">originalRootEntity</text>
<polygon fill="#ffffff" stroke="transparent" points="173.5,-1317.7 173.5,-1339.7 334.5,-1339.7 334.5,-1317.7 173.5,-1317.7"/>
<polygon fill="none" stroke="#000000" points="173.5,-1317.7 173.5,-1339.7 334.5,-1339.7 334.5,-1317.7 173.5,-1317.7"/>
<text text-anchor="start" x="193.5" y="-1324.8" font-family="Helvetica,sans-Serif" font-size="11.00" fill="#000000">rating</text>
<polygon fill="#ffffff" stroke="transparent" points="173.5,-1295.7 173.5,-1317.7 334.5,-1317.7 334.5,-1295.7 173.5,-1295.7"/>
<polygon fill="none" stroke="#000000" points="173.5,-1295.7 173.5,-1317.7 334.5,-1317.7 334.5,-1295.7 173.5,-1295.7"/>
<image xlink:href="../../images/foreignKeys.png" width="11px" height="12px" preserveAspectRatio="xMinYMin meet" x="178.5" y="-1312.7"/>
<text text-anchor="start" x="193.5" y="-1302.8" font-family="Helvetica,sans-Serif" font-size="11.00" fill="#000000">rootFile</text>
<polygon fill="none" stroke="#000000" points="173.5,-1276.7 173.5,-1295.7 334.5,-1295.7 334.5,-1276.7 173.5,-1276.7"/>
<text text-anchor="start" x="176.5" y="-1282.8" font-family="Helvetica,sans-Serif" font-size="11.00" fill="#000000">...</text>
<polygon fill="#ffffff" stroke="transparent" points="173.5,-1257.7 173.5,-1276.7 244.5,-1276.7 244.5,-1257.7 173.5,-1257.7"/>
<polygon fill="none" stroke="#000000" points="173.5,-1257.7 173.5,-1276.7 244.5,-1276.7 244.5,-1257.7 173.5,-1257.7"/>
<text text-anchor="start" x="176.5" y="-1263.8" font-family="Helvetica,sans-Serif" font-size="11.00" fill="#000000">&lt; 2</text>
<polygon fill="#ffffff" stroke="transparent" points="244.5,-1257.7 244.5,-1276.7 281.5,-1276.7 281.5,-1257.7 244.5,-1257.7"/>
<polygon fill="none" stroke="#000000" points="244.5,-1257.7 244.5,-1276.7 281.5,-1276.7 281.5,-1257.7 244.5,-1257.7"/>
<text text-anchor="start" x="272.3862" y="-1263.8" font-family="Helvetica,sans-Serif" font-size="11.00" fill="#000000"> &#160;</text>
<polygon fill="#ffffff" stroke="transparent" points="281.5,-1257.7 281.5,-1276.7 334.5,-1276.7 334.5,-1257.7 281.5,-1257.7"/>
<polygon fill="none" stroke="#000000" points="281.5,-1257.7 281.5,-1276.7 334.5,-1276.7 334.5,-1257.7 281.5,-1257.7"/>
<text text-anchor="start" x="309.7904" y="-1263.8" font-family="Helvetica,sans-Serif" font-size="11.00" fill="#000000">31 &gt;</text>
</a>
</g>
</g>
<!-- Adobe_AdditionalMetadata&#45;&gt;Adobe_images -->
<g id="edge1" class="edge">
<title>Adobe_AdditionalMetadata:w&#45;&gt;Adobe_images:e</title>
<path fill="none" stroke="#000000" d="M420.5884,-2518.7701C399.088,-2515.652 388.1069,-2504.4586 375,-2481.7 346.0602,-2431.4495 392.4881,-1438.7 334.5,-1438.7"/>
<polygon fill="#000000" stroke="#000000" points="427.0166,-2519.1848 434.7682,-2523.2925 431.0083,-2519.4424 435,-2519.7 435,-2519.7 435,-2519.7 431.0083,-2519.4424 435.2318,-2516.1075 427.0166,-2519.1848 427.0166,-2519.1848"/>
<ellipse fill="none" stroke="#000000" cx="423.8232" cy="-2518.9788" rx="3.2" ry="3.2"/>
</g>
<!-- AgLibraryFile -->
<g id="node6" class="node">
<title>AgLibraryFile</title>
<g id="a_node6"><a xlink:href="../../tables/AgLibraryFile.html" xlink:title="AgLibraryFile" target="_top">
<polygon fill="#ffffff" stroke="transparent" points="8,-1279.2 8,-1340.2 124,-1340.2 124,-1279.2 8,-1279.2"/>
<polygon fill="#f5f5f5" stroke="transparent" points="8,-1316.7 8,-1339.7 124,-1339.7 124,-1316.7 8,-1316.7"/>
<polygon fill="none" stroke="#000000" points="8,-1316.7 8,-1339.7 124,-1339.7 124,-1316.7 8,-1316.7"/>
<text text-anchor="start" x="13" y="-1325.3" font-family="Helvetica,sans-Serif" font-weight="bold" font-size="11.00" fill="#000000">AgLibraryFile</text>
<text text-anchor="start" x="89.5219" y="-1324.8" font-family="Helvetica,sans-Serif" font-size="11.00" fill="#000000">[table]</text>
<polygon fill="none" stroke="#000000" points="8,-1297.7 8,-1316.7 124,-1316.7 124,-1297.7 8,-1297.7"/>
<text text-anchor="start" x="11" y="-1303.8" font-family="Helvetica,sans-Serif" font-size="11.00" fill="#000000">...</text>
<polygon fill="#ffffff" stroke="transparent" points="8,-1278.7 8,-1297.7 60,-1297.7 60,-1278.7 8,-1278.7"/>
<polygon fill="none" stroke="#000000" points="8,-1278.7 8,-1297.7 60,-1297.7 60,-1278.7 8,-1278.7"/>
<text text-anchor="start" x="11" y="-1284.8" font-family="Helvetica,sans-Serif" font-size="11.00" fill="#000000">&lt; 1</text>
<polygon fill="#ffffff" stroke="transparent" points="60,-1278.7 60,-1297.7 87,-1297.7 87,-1278.7 60,-1278.7"/>
<polygon fill="none" stroke="#000000" points="60,-1278.7 60,-1297.7 87,-1297.7 87,-1278.7 60,-1278.7"/>
<text text-anchor="start" x="77.8862" y="-1284.8" font-family="Helvetica,sans-Serif" font-size="11.00" fill="#000000"> &#160;</text>
<polygon fill="#ffffff" stroke="transparent" points="87,-1278.7 87,-1297.7 124,-1297.7 124,-1278.7 87,-1278.7"/>
<polygon fill="none" stroke="#000000" points="87,-1278.7 87,-1297.7 124,-1297.7 124,-1278.7 87,-1278.7"/>
<text text-anchor="start" x="105.4053" y="-1284.8" font-family="Helvetica,sans-Serif" font-size="11.00" fill="#000000">2 &gt;</text>
</a>
</g>
</g>
<!-- Adobe_images&#45;&gt;AgLibraryFile -->
<g id="edge5" class="edge">
<title>Adobe_images:w&#45;&gt;AgLibraryFile:e</title>
<path fill="none" stroke="#000000" d="M158.8428,-1306.7C147.4139,-1306.7 140.1563,-1306.7 124,-1306.7"/>
<polygon fill="#000000" stroke="#000000" points="165.5,-1306.7001 173.5,-1310.3 169.5,-1306.7 173.5,-1306.7 173.5,-1306.7 173.5,-1306.7 169.5,-1306.7 173.5,-1303.1 165.5,-1306.7001 165.5,-1306.7001"/>
<ellipse fill="none" stroke="#000000" cx="162.3" cy="-1306.7001" rx="3.2" ry="3.2"/>
</g>
<!-- Adobe_imageDevelopSettings -->
<g id="node3" class="node">
<title>Adobe_imageDevelopSettings</title>
<g id="a_node3"><a xlink:href="../../tables/Adobe_imageDevelopSettings.html" xlink:title="Adobe_imageDevelopSettings" target="_top">
<polygon fill="#ffffff" stroke="transparent" points="425.5,-2410.2 425.5,-2471.2 636.5,-2471.2 636.5,-2410.2 425.5,-2410.2"/>
<polygon fill="#f5f5f5" stroke="transparent" points="426,-2447.7 426,-2470.7 637,-2470.7 637,-2447.7 426,-2447.7"/>
<polygon fill="none" stroke="#000000" points="426,-2447.7 426,-2470.7 637,-2470.7 637,-2447.7 426,-2447.7"/>
<text text-anchor="start" x="431" y="-2456.3" font-family="Helvetica,sans-Serif" font-weight="bold" font-size="11.00" fill="#000000">Adobe_imageDevelopSettings</text>
<text text-anchor="start" x="602.5219" y="-2455.8" font-family="Helvetica,sans-Serif" font-size="11.00" fill="#000000">[table]</text>
<polygon fill="none" stroke="#000000" points="426,-2428.7 426,-2447.7 637,-2447.7 637,-2428.7 426,-2428.7"/>
<text text-anchor="start" x="429" y="-2434.8" font-family="Helvetica,sans-Serif" font-size="11.00" fill="#000000">...</text>
<polygon fill="#ffffff" stroke="transparent" points="426,-2409.7 426,-2428.7 525,-2428.7 525,-2409.7 426,-2409.7"/>
<polygon fill="none" stroke="#000000" points="426,-2409.7 426,-2428.7 525,-2428.7 525,-2409.7 426,-2409.7"/>
<text text-anchor="start" x="429" y="-2415.8" font-family="Helvetica,sans-Serif" font-size="11.00" fill="#000000">&lt; 1</text>
<polygon fill="#ffffff" stroke="transparent" points="525,-2409.7 525,-2428.7 576,-2428.7 576,-2409.7 525,-2409.7"/>
<polygon fill="none" stroke="#000000" points="525,-2409.7 525,-2428.7 576,-2428.7 576,-2409.7 525,-2409.7"/>
<text text-anchor="start" x="566.8862" y="-2415.8" font-family="Helvetica,sans-Serif" font-size="11.00" fill="#000000"> &#160;</text>
<polygon fill="#ffffff" stroke="transparent" points="576,-2409.7 576,-2428.7 637,-2428.7 637,-2409.7 576,-2409.7"/>
<polygon fill="none" stroke="#000000" points="576,-2409.7 576,-2428.7 637,-2428.7 637,-2409.7 576,-2409.7"/>
<text text-anchor="start" x="618.4053" y="-2415.8" font-family="Helvetica,sans-Serif" font-size="11.00" fill="#000000">1 &gt;</text>
</a>
</g>
</g>
<!-- Adobe_imageDevelopSettings&#45;&gt;Adobe_images -->
<g id="edge2" class="edge">
<title>Adobe_imageDevelopSettings:w&#45;&gt;Adobe_images:e</title>
<path fill="none" stroke="#000000" d="M411.4154,-2436.2188C393.8726,-2432.161 385.6301,-2419.8092 375,-2399.7 350.0271,-2352.4582 387.9363,-1438.7 334.5,-1438.7"/>
<polygon fill="#000000" stroke="#000000" points="418.0409,-2436.8916 425.6362,-2441.2816 422.0205,-2437.2958 426,-2437.7 426,-2437.7 426,-2437.7 422.0205,-2437.2958 426.3638,-2434.1184 418.0409,-2436.8916 418.0409,-2436.8916"/>
<ellipse fill="none" stroke="#000000" cx="414.8573" cy="-2436.5683" rx="3.2" ry="3.2"/>
</g>
<!-- Adobe_imageProofSettings -->
<g id="node4" class="node">
<title>Adobe_imageProofSettings</title>
<g id="a_node4"><a xlink:href="../../tables/Adobe_imageProofSettings.html" xlink:title="Adobe_imageProofSettings" target="_top">
<polygon fill="#ffffff" stroke="transparent" points="433,-2328.2 433,-2389.2 629,-2389.2 629,-2328.2 433,-2328.2"/>
<polygon fill="#f5f5f5" stroke="transparent" points="433,-2365.7 433,-2388.7 629,-2388.7 629,-2365.7 433,-2365.7"/>
<polygon fill="none" stroke="#000000" points="433,-2365.7 433,-2388.7 629,-2388.7 629,-2365.7 433,-2365.7"/>
<text text-anchor="start" x="438" y="-2374.3" font-family="Helvetica,sans-Serif" font-weight="bold" font-size="11.00" fill="#000000">Adobe_imageProofSettings</text>
<text text-anchor="start" x="594.5219" y="-2373.8" font-family="Helvetica,sans-Serif" font-size="11.00" fill="#000000">[table]</text>
<polygon fill="none" stroke="#000000" points="433,-2346.7 433,-2365.7 629,-2365.7 629,-2346.7 433,-2346.7"/>
<text text-anchor="start" x="436" y="-2352.8" font-family="Helvetica,sans-Serif" font-size="11.00" fill="#000000">...</text>
<polygon fill="#ffffff" stroke="transparent" points="433,-2327.7 433,-2346.7 529,-2346.7 529,-2327.7 433,-2327.7"/>
<polygon fill="none" stroke="#000000" points="433,-2327.7 433,-2346.7 529,-2346.7 529,-2327.7 433,-2327.7"/>
<text text-anchor="start" x="436" y="-2333.8" font-family="Helvetica,sans-Serif" font-size="11.00" fill="#000000">&lt; 1</text>
<polygon fill="#ffffff" stroke="transparent" points="529,-2327.7 529,-2346.7 579,-2346.7 579,-2327.7 529,-2327.7"/>
<polygon fill="none" stroke="#000000" points="529,-2327.7 529,-2346.7 579,-2346.7 579,-2327.7 529,-2327.7"/>
<text text-anchor="start" x="569.8862" y="-2333.8" font-family="Helvetica,sans-Serif" font-size="11.00" fill="#000000"> &#160;</text>
<polygon fill="#ffffff" stroke="transparent" points="579,-2327.7 579,-2346.7 629,-2346.7 629,-2327.7 579,-2327.7"/>
<polygon fill="none" stroke="#000000" points="579,-2327.7 579,-2346.7 629,-2346.7 629,-2327.7 579,-2327.7"/>
<text text-anchor="start" x="619.8862" y="-2333.8" font-family="Helvetica,sans-Serif" font-size="11.00" fill="#000000"> &#160;</text>
</a>
</g>
</g>
<!-- Adobe_imageProofSettings&#45;&gt;Adobe_images -->
<g id="edge3" class="edge">
<title>Adobe_imageProofSettings:w&#45;&gt;Adobe_images:e</title>
<path fill="none" stroke="#000000" d="M418.3801,-2354.6355C397.8908,-2351.2713 387.5861,-2339.763 375,-2317.7 350.7771,-2275.2382 383.3851,-1438.7 334.5,-1438.7"/>
<polygon fill="#000000" stroke="#000000" points="425.0211,-2355.119 432.7385,-2359.2905 429.0106,-2355.4095 433,-2355.7 433,-2355.7 433,-2355.7 429.0106,-2355.4095 433.2615,-2352.1095 425.0211,-2355.119 425.0211,-2355.119"/>
<ellipse fill="none" stroke="#000000" cx="421.8296" cy="-2354.8866" rx="3.2" ry="3.2"/>
</g>
<!-- Adobe_imageProperties -->
<g id="node5" class="node">
<title>Adobe_imageProperties</title>
<g id="a_node5"><a xlink:href="../../tables/Adobe_imageProperties.html" xlink:title="Adobe_imageProperties" target="_top">
<polygon fill="#ffffff" stroke="transparent" points="442.5,-2246.2 442.5,-2307.2 619.5,-2307.2 619.5,-2246.2 442.5,-2246.2"/>
<polygon fill="#f5f5f5" stroke="transparent" points="443,-2283.7 443,-2306.7 620,-2306.7 620,-2283.7 443,-2283.7"/>
<polygon fill="none" stroke="#000000" points="443,-2283.7 443,-2306.7 620,-2306.7 620,-2283.7 443,-2283.7"/>
<text text-anchor="start" x="448" y="-2292.3" font-family="Helvetica,sans-Serif" font-weight="bold" font-size="11.00" fill="#000000">Adobe_imageProperties</text>
<text text-anchor="start" x="585.5219" y="-2291.8" font-family="Helvetica,sans-Serif" font-size="11.00" fill="#000000">[table]</text>
<polygon fill="none" stroke="#000000" points="443,-2264.7 443,-2283.7 620,-2283.7 620,-2264.7 443,-2264.7"/>
<text text-anchor="start" x="446" y="-2270.8" font-family="Helvetica,sans-Serif" font-size="11.00" fill="#000000">...</text>
<polygon fill="#ffffff" stroke="transparent" points="443,-2245.7 443,-2264.7 530,-2264.7 530,-2245.7 443,-2245.7"/>
<polygon fill="none" stroke="#000000" points="443,-2245.7 443,-2264.7 530,-2264.7 530,-2245.7 443,-2245.7"/>
<text text-anchor="start" x="446" y="-2251.8" font-family="Helvetica,sans-Serif" font-size="11.00" fill="#000000">&lt; 1</text>
<polygon fill="#ffffff" stroke="transparent" points="530,-2245.7 530,-2264.7 575,-2264.7 575,-2245.7 530,-2245.7"/>
<polygon fill="none" stroke="#000000" points="530,-2245.7 530,-2264.7 575,-2264.7 575,-2245.7 530,-2245.7"/>
<text text-anchor="start" x="565.8862" y="-2251.8" font-family="Helvetica,sans-Serif" font-size="11.00" fill="#000000"> &#160;</text>
<polygon fill="#ffffff" stroke="transparent" points="575,-2245.7 575,-2264.7 620,-2264.7 620,-2245.7 575,-2245.7"/>
<polygon fill="none" stroke="#000000" points="575,-2245.7 575,-2264.7 620,-2264.7 620,-2245.7 575,-2245.7"/>
<text text-anchor="start" x="610.8862" y="-2251.8" font-family="Helvetica,sans-Serif" font-size="11.00" fill="#000000"> &#160;</text>
</a>
</g>
</g>
<!-- Adobe_imageProperties&#45;&gt;Adobe_images -->
<g id="edge4" class="edge">
<title>Adobe_imageProperties:w&#45;&gt;Adobe_images:e</title>
<path fill="none" stroke="#000000" d="M428.4556,-2273.0585C403.7027,-2270.5986 390.4887,-2260.6265 375,-2235.7 328.2016,-2160.3857 423.1698,-1438.7 334.5,-1438.7"/>
<polygon fill="#000000" stroke="#000000" points="435.0078,-2273.3474 442.8413,-2277.2965 439.0039,-2273.5237 443,-2273.7 443,-2273.7 443,-2273.7 439.0039,-2273.5237 443.1587,-2270.1035 435.0078,-2273.3474 435.0078,-2273.3474"/>
<ellipse fill="none" stroke="#000000" cx="431.8109" cy="-2273.2064" rx="3.2" ry="3.2"/>
</g>
<!-- Adobe_libraryImageDevelopHistoryStep -->
<g id="node7" class="node">
<title>Adobe_libraryImageDevelopHistoryStep</title>
<g id="a_node7"><a xlink:href="../../tables/Adobe_libraryImageDevelopHistoryStep.html" xlink:title="Adobe_libraryImageDevelopHistoryStep" target="_top">
<polygon fill="#ffffff" stroke="transparent" points="397,-2164.2 397,-2225.2 665,-2225.2 665,-2164.2 397,-2164.2"/>
<polygon fill="#f5f5f5" stroke="transparent" points="397,-2201.7 397,-2224.7 665,-2224.7 665,-2201.7 397,-2201.7"/>
<polygon fill="none" stroke="#000000" points="397,-2201.7 397,-2224.7 665,-2224.7 665,-2201.7 397,-2201.7"/>
<text text-anchor="start" x="402" y="-2210.3" font-family="Helvetica,sans-Serif" font-weight="bold" font-size="11.00" fill="#000000">Adobe_libraryImageDevelopHistoryStep</text>
<text text-anchor="start" x="630.5219" y="-2209.8" font-family="Helvetica,sans-Serif" font-size="11.00" fill="#000000">[table]</text>
<polygon fill="none" stroke="#000000" points="397,-2182.7 397,-2201.7 665,-2201.7 665,-2182.7 397,-2182.7"/>
<text text-anchor="start" x="400" y="-2188.8" font-family="Helvetica,sans-Serif" font-size="11.00" fill="#000000">...</text>
<polygon fill="#ffffff" stroke="transparent" points="397,-2163.7 397,-2182.7 529,-2182.7 529,-2163.7 397,-2163.7"/>
<polygon fill="none" stroke="#000000" points="397,-2163.7 397,-2182.7 529,-2182.7 529,-2163.7 397,-2163.7"/>
<text text-anchor="start" x="400" y="-2169.8" font-family="Helvetica,sans-Serif" font-size="11.00" fill="#000000">&lt; 1</text>
<polygon fill="#ffffff" stroke="transparent" points="529,-2163.7 529,-2182.7 597,-2182.7 597,-2163.7 529,-2163.7"/>
<polygon fill="none" stroke="#000000" points="529,-2163.7 529,-2182.7 597,-2182.7 597,-2163.7 529,-2163.7"/>
<text text-anchor="start" x="587.8862" y="-2169.8" font-family="Helvetica,sans-Serif" font-size="11.00" fill="#000000"> &#160;</text>
<polygon fill="#ffffff" stroke="transparent" points="597,-2163.7 597,-2182.7 665,-2182.7 665,-2163.7 597,-2163.7"/>
<polygon fill="none" stroke="#000000" points="597,-2163.7 597,-2182.7 665,-2182.7 665,-2163.7 597,-2163.7"/>
<text text-anchor="start" x="655.8862" y="-2169.8" font-family="Helvetica,sans-Serif" font-size="11.00" fill="#000000"> &#160;</text>
</a>
</g>
</g>
<!-- Adobe_libraryImageDevelopHistoryStep&#45;&gt;Adobe_images -->
<g id="edge6" class="edge">
<title>Adobe_libraryImageDevelopHistoryStep:w&#45;&gt;Adobe_images:e</title>
<path fill="none" stroke="#000000" d="M384.1166,-2184.2473C324.7481,-2106.043 413.5352,-1438.7 334.5,-1438.7"/>
<polygon fill="#000000" stroke="#000000" points="390.0752,-2187.6941 395.1974,-2194.8162 393.5376,-2189.6971 397,-2191.7 397,-2191.7 397,-2191.7 393.5376,-2189.6971 398.8026,-2188.5838 390.0752,-2187.6941 390.0752,-2187.6941"/>
<ellipse fill="none" stroke="#000000" cx="387.3052" cy="-2186.0918" rx="3.2" ry="3.2"/>
</g>
<!-- Adobe_libraryImageDevelopSnapshot -->
<g id="node8" class="node">
<title>Adobe_libraryImageDevelopSnapshot</title>
<g id="a_node8"><a xlink:href="../../tables/Adobe_libraryImageDevelopSnapshot.html" xlink:title="Adobe_libraryImageDevelopSnapshot" target="_top">
<polygon fill="#ffffff" stroke="transparent" points="403.5,-2082.2 403.5,-2143.2 658.5,-2143.2 658.5,-2082.2 403.5,-2082.2"/>
<polygon fill="#f5f5f5" stroke="transparent" points="404,-2119.7 404,-2142.7 659,-2142.7 659,-2119.7 404,-2119.7"/>
<polygon fill="none" stroke="#000000" points="404,-2119.7 404,-2142.7 659,-2142.7 659,-2119.7 404,-2119.7"/>
<text text-anchor="start" x="409" y="-2128.3" font-family="Helvetica,sans-Serif" font-weight="bold" font-size="11.00" fill="#000000">Adobe_libraryImageDevelopSnapshot</text>
<text text-anchor="start" x="624.5219" y="-2127.8" font-family="Helvetica,sans-Serif" font-size="11.00" fill="#000000">[table]</text>
<polygon fill="none" stroke="#000000" points="404,-2100.7 404,-2119.7 659,-2119.7 659,-2100.7 404,-2100.7"/>
<text text-anchor="start" x="407" y="-2106.8" font-family="Helvetica,sans-Serif" font-size="11.00" fill="#000000">...</text>
<polygon fill="#ffffff" stroke="transparent" points="404,-2081.7 404,-2100.7 530,-2100.7 530,-2081.7 404,-2081.7"/>
<polygon fill="none" stroke="#000000" points="404,-2081.7 404,-2100.7 530,-2100.7 530,-2081.7 404,-2081.7"/>
<text text-anchor="start" x="407" y="-2087.8" font-family="Helvetica,sans-Serif" font-size="11.00" fill="#000000">&lt; 1</text>
<polygon fill="#ffffff" stroke="transparent" points="530,-2081.7 530,-2100.7 594,-2100.7 594,-2081.7 530,-2081.7"/>
<polygon fill="none" stroke="#000000" points="530,-2081.7 530,-2100.7 594,-2100.7 594,-2081.7 530,-2081.7"/>
<text text-anchor="start" x="584.8862" y="-2087.8" font-family="Helvetica,sans-Serif" font-size="11.00" fill="#000000"> &#160;</text>
<polygon fill="#ffffff" stroke="transparent" points="594,-2081.7 594,-2100.7 659,-2100.7 659,-2081.7 594,-2081.7"/>
<polygon fill="none" stroke="#000000" points="594,-2081.7 594,-2100.7 659,-2100.7 659,-2081.7 594,-2081.7"/>
<text text-anchor="start" x="649.8862" y="-2087.8" font-family="Helvetica,sans-Serif" font-size="11.00" fill="#000000"> &#160;</text>
</a>
</g>
</g>
<!-- Adobe_libraryImageDevelopSnapshot&#45;&gt;Adobe_images -->
<g id="edge7" class="edge">
<title>Adobe_libraryImageDevelopSnapshot:w&#45;&gt;Adobe_images:e</title>
<path fill="none" stroke="#000000" d="M390.1458,-2105.5564C381.9783,-2099.0852 380.2908,-2085.847 375,-2071.7 350.3125,-2005.6882 404.9771,-1438.7 334.5,-1438.7"/>
<polygon fill="#000000" stroke="#000000" points="396.3355,-2107.4076 402.9684,-2113.149 400.1677,-2108.5538 404,-2109.7 404,-2109.7 404,-2109.7 400.1677,-2108.5538 405.0316,-2106.251 396.3355,-2107.4076 396.3355,-2107.4076"/>
<ellipse fill="none" stroke="#000000" cx="393.2697" cy="-2106.4906" rx="3.2" ry="3.2"/>
</g>
<!-- Adobe_libraryImageFaceProcessHistory -->
<g id="node9" class="node">
<title>Adobe_libraryImageFaceProcessHistory</title>
<g id="a_node9"><a xlink:href="../../tables/Adobe_libraryImageFaceProcessHistory.html" xlink:title="Adobe_libraryImageFaceProcessHistory" target="_top">
<polygon fill="#ffffff" stroke="transparent" points="396.5,-2000.2 396.5,-2061.2 665.5,-2061.2 665.5,-2000.2 396.5,-2000.2"/>
<polygon fill="#f5f5f5" stroke="transparent" points="397,-2037.7 397,-2060.7 666,-2060.7 666,-2037.7 397,-2037.7"/>
<polygon fill="none" stroke="#000000" points="397,-2037.7 397,-2060.7 666,-2060.7 666,-2037.7 397,-2037.7"/>
<text text-anchor="start" x="402" y="-2046.3" font-family="Helvetica,sans-Serif" font-weight="bold" font-size="11.00" fill="#000000">Adobe_libraryImageFaceProcessHistory</text>
<text text-anchor="start" x="631.5219" y="-2045.8" font-family="Helvetica,sans-Serif" font-size="11.00" fill="#000000">[table]</text>
<polygon fill="none" stroke="#000000" points="397,-2018.7 397,-2037.7 666,-2037.7 666,-2018.7 397,-2018.7"/>
<text text-anchor="start" x="400" y="-2024.8" font-family="Helvetica,sans-Serif" font-size="11.00" fill="#000000">...</text>
<polygon fill="#ffffff" stroke="transparent" points="397,-1999.7 397,-2018.7 530,-2018.7 530,-1999.7 397,-1999.7"/>
<polygon fill="none" stroke="#000000" points="397,-1999.7 397,-2018.7 530,-2018.7 530,-1999.7 397,-1999.7"/>
<text text-anchor="start" x="400" y="-2005.8" font-family="Helvetica,sans-Serif" font-size="11.00" fill="#000000">&lt; 1</text>
<polygon fill="#ffffff" stroke="transparent" points="530,-1999.7 530,-2018.7 598,-2018.7 598,-1999.7 530,-1999.7"/>
<polygon fill="none" stroke="#000000" points="530,-1999.7 530,-2018.7 598,-2018.7 598,-1999.7 530,-1999.7"/>
<text text-anchor="start" x="588.8862" y="-2005.8" font-family="Helvetica,sans-Serif" font-size="11.00" fill="#000000"> &#160;</text>
<polygon fill="#ffffff" stroke="transparent" points="598,-1999.7 598,-2018.7 666,-2018.7 666,-1999.7 598,-1999.7"/>
<polygon fill="none" stroke="#000000" points="598,-1999.7 598,-2018.7 666,-2018.7 666,-1999.7 598,-1999.7"/>
<text text-anchor="start" x="656.8862" y="-2005.8" font-family="Helvetica,sans-Serif" font-size="11.00" fill="#000000"> &#160;</text>
</a>
</g>
</g>
<!-- Adobe_libraryImageFaceProcessHistory&#45;&gt;Adobe_images -->
<g id="edge8" class="edge">
<title>Adobe_libraryImageFaceProcessHistory:w&#45;&gt;Adobe_images:e</title>
<path fill="none" stroke="#000000" d="M383.659,-2021.6547C378.6644,-2014.479 378.7734,-2001.9383 375,-1989.7 356.9126,-1931.0378 395.8874,-1438.7 334.5,-1438.7"/>
<polygon fill="#000000" stroke="#000000" points="389.7132,-2024.3981 395.5141,-2030.9791 393.3566,-2026.049 397,-2027.7 397,-2027.7 397,-2027.7 393.3566,-2026.049 398.4859,-2024.4209 389.7132,-2024.3981 389.7132,-2024.3981"/>
<ellipse fill="none" stroke="#000000" cx="386.7985" cy="-2023.0773" rx="3.2" ry="3.2"/>
</g>
<!-- AgHarvestedDNGMetadata -->
<g id="node10" class="node">
<title>AgHarvestedDNGMetadata</title>
<g id="a_node10"><a xlink:href="../../tables/AgHarvestedDNGMetadata.html" xlink:title="AgHarvestedDNGMetadata" target="_top">
<polygon fill="#ffffff" stroke="transparent" points="435.5,-1918.2 435.5,-1979.2 626.5,-1979.2 626.5,-1918.2 435.5,-1918.2"/>
<polygon fill="#f5f5f5" stroke="transparent" points="436,-1955.7 436,-1978.7 627,-1978.7 627,-1955.7 436,-1955.7"/>
<polygon fill="none" stroke="#000000" points="436,-1955.7 436,-1978.7 627,-1978.7 627,-1955.7 436,-1955.7"/>
<text text-anchor="start" x="441" y="-1964.3" font-family="Helvetica,sans-Serif" font-weight="bold" font-size="11.00" fill="#000000">AgHarvestedDNGMetadata</text>
<text text-anchor="start" x="592.5219" y="-1963.8" font-family="Helvetica,sans-Serif" font-size="11.00" fill="#000000">[table]</text>
<polygon fill="none" stroke="#000000" points="436,-1936.7 436,-1955.7 627,-1955.7 627,-1936.7 436,-1936.7"/>
<text text-anchor="start" x="439" y="-1942.8" font-family="Helvetica,sans-Serif" font-size="11.00" fill="#000000">...</text>
<polygon fill="#ffffff" stroke="transparent" points="436,-1917.7 436,-1936.7 530,-1936.7 530,-1917.7 436,-1917.7"/>
<polygon fill="none" stroke="#000000" points="436,-1917.7 436,-1936.7 530,-1936.7 530,-1917.7 436,-1917.7"/>
<text text-anchor="start" x="439" y="-1923.8" font-family="Helvetica,sans-Serif" font-size="11.00" fill="#000000">&lt; 1</text>
<polygon fill="#ffffff" stroke="transparent" points="530,-1917.7 530,-1936.7 578,-1936.7 578,-1917.7 530,-1917.7"/>
<polygon fill="none" stroke="#000000" points="530,-1917.7 530,-1936.7 578,-1936.7 578,-1917.7 530,-1917.7"/>
<text text-anchor="start" x="568.8862" y="-1923.8" font-family="Helvetica,sans-Serif" font-size="11.00" fill="#000000"> &#160;</text>
<polygon fill="#ffffff" stroke="transparent" points="578,-1917.7 578,-1936.7 627,-1936.7 627,-1917.7 578,-1917.7"/>
<polygon fill="none" stroke="#000000" points="578,-1917.7 578,-1936.7 627,-1936.7 627,-1917.7 578,-1917.7"/>
<text text-anchor="start" x="617.8862" y="-1923.8" font-family="Helvetica,sans-Serif" font-size="11.00" fill="#000000"> &#160;</text>
</a>
</g>
</g>
<!-- AgHarvestedDNGMetadata&#45;&gt;Adobe_images -->
<g id="edge9" class="edge">
<title>AgHarvestedDNGMetadata:w&#45;&gt;Adobe_images:e</title>
<path fill="none" stroke="#000000" d="M421.4482,-1944.7616C399.7824,-1941.6182 388.8889,-1930.3581 375,-1907.7 347.665,-1863.1061 386.805,-1438.7 334.5,-1438.7"/>
<polygon fill="#000000" stroke="#000000" points="428.0166,-1945.1851 435.7683,-1949.2925 432.0083,-1945.4426 436,-1945.7 436,-1945.7 436,-1945.7 432.0083,-1945.4426 436.2317,-1942.1075 428.0166,-1945.1851 428.0166,-1945.1851"/>
<ellipse fill="none" stroke="#000000" cx="424.8232" cy="-1944.9792" rx="3.2" ry="3.2"/>
</g>
<!-- AgHarvestedExifMetadata -->
<g id="node11" class="node">
<title>AgHarvestedExifMetadata</title>
<g id="a_node11"><a xlink:href="../../tables/AgHarvestedExifMetadata.html" xlink:title="AgHarvestedExifMetadata" target="_top">
<polygon fill="#ffffff" stroke="transparent" points="437.5,-1836.2 437.5,-1897.2 624.5,-1897.2 624.5,-1836.2 437.5,-1836.2"/>
<polygon fill="#f5f5f5" stroke="transparent" points="438,-1873.7 438,-1896.7 625,-1896.7 625,-1873.7 438,-1873.7"/>
<polygon fill="none" stroke="#000000" points="438,-1873.7 438,-1896.7 625,-1896.7 625,-1873.7 438,-1873.7"/>
<text text-anchor="start" x="443" y="-1882.3" font-family="Helvetica,sans-Serif" font-weight="bold" font-size="11.00" fill="#000000">AgHarvestedExifMetadata</text>
<text text-anchor="start" x="590.5219" y="-1881.8" font-family="Helvetica,sans-Serif" font-size="11.00" fill="#000000">[table]</text>
<polygon fill="none" stroke="#000000" points="438,-1854.7 438,-1873.7 625,-1873.7 625,-1854.7 438,-1854.7"/>
<text text-anchor="start" x="441" y="-1860.8" font-family="Helvetica,sans-Serif" font-size="11.00" fill="#000000">...</text>
<polygon fill="#ffffff" stroke="transparent" points="438,-1835.7 438,-1854.7 530,-1854.7 530,-1835.7 438,-1835.7"/>
<polygon fill="none" stroke="#000000" points="438,-1835.7 438,-1854.7 530,-1854.7 530,-1835.7 438,-1835.7"/>
<text text-anchor="start" x="441" y="-1841.8" font-family="Helvetica,sans-Serif" font-size="11.00" fill="#000000">&lt; 4</text>
<polygon fill="#ffffff" stroke="transparent" points="530,-1835.7 530,-1854.7 577,-1854.7 577,-1835.7 530,-1835.7"/>
<polygon fill="none" stroke="#000000" points="530,-1835.7 530,-1854.7 577,-1854.7 577,-1835.7 530,-1835.7"/>
<text text-anchor="start" x="567.8862" y="-1841.8" font-family="Helvetica,sans-Serif" font-size="11.00" fill="#000000"> &#160;</text>
<polygon fill="#ffffff" stroke="transparent" points="577,-1835.7 577,-1854.7 625,-1854.7 625,-1835.7 577,-1835.7"/>
<polygon fill="none" stroke="#000000" points="577,-1835.7 577,-1854.7 625,-1854.7 625,-1835.7 577,-1835.7"/>
<text text-anchor="start" x="615.8862" y="-1841.8" font-family="Helvetica,sans-Serif" font-size="11.00" fill="#000000"> &#160;</text>
</a>
</g>
</g>
<!-- AgHarvestedExifMetadata&#45;&gt;Adobe_images -->
<g id="edge10" class="edge">
<title>AgHarvestedExifMetadata:w&#45;&gt;Adobe_images:e</title>
<path fill="none" stroke="#000000" d="M423.4067,-1862.83C400.985,-1859.8237 389.662,-1848.7694 375,-1825.7 328.6182,-1752.7224 420.9696,-1438.7 334.5,-1438.7"/>
<polygon fill="#000000" stroke="#000000" points="430.0142,-1863.2238 437.7857,-1867.2936 434.0071,-1863.4619 438,-1863.7 438,-1863.7 438,-1863.7 434.0071,-1863.4619 438.2143,-1860.1064 430.0142,-1863.2238 430.0142,-1863.2238"/>
<ellipse fill="none" stroke="#000000" cx="426.8199" cy="-1863.0334" rx="3.2" ry="3.2"/>
</g>
<!-- AgHarvestedIptcMetadata -->
<g id="node12" class="node">
<title>AgHarvestedIptcMetadata</title>
<g id="a_node12"><a xlink:href="../../tables/AgHarvestedIptcMetadata.html" xlink:title="AgHarvestedIptcMetadata" target="_top">
<polygon fill="#ffffff" stroke="transparent" points="438,-1754.2 438,-1815.2 624,-1815.2 624,-1754.2 438,-1754.2"/>
<polygon fill="#f5f5f5" stroke="transparent" points="438,-1791.7 438,-1814.7 624,-1814.7 624,-1791.7 438,-1791.7"/>
<polygon fill="none" stroke="#000000" points="438,-1791.7 438,-1814.7 624,-1814.7 624,-1791.7 438,-1791.7"/>
<text text-anchor="start" x="443" y="-1800.3" font-family="Helvetica,sans-Serif" font-weight="bold" font-size="11.00" fill="#000000">AgHarvestedIptcMetadata</text>
<text text-anchor="start" x="589.5219" y="-1799.8" font-family="Helvetica,sans-Serif" font-size="11.00" fill="#000000">[table]</text>
<polygon fill="none" stroke="#000000" points="438,-1772.7 438,-1791.7 624,-1791.7 624,-1772.7 438,-1772.7"/>
<text text-anchor="start" x="441" y="-1778.8" font-family="Helvetica,sans-Serif" font-size="11.00" fill="#000000">...</text>
<polygon fill="#ffffff" stroke="transparent" points="438,-1753.7 438,-1772.7 529,-1772.7 529,-1753.7 438,-1753.7"/>
<polygon fill="none" stroke="#000000" points="438,-1753.7 438,-1772.7 529,-1772.7 529,-1753.7 438,-1753.7"/>
<text text-anchor="start" x="441" y="-1759.8" font-family="Helvetica,sans-Serif" font-size="11.00" fill="#000000">&lt; 8</text>
<polygon fill="#ffffff" stroke="transparent" points="529,-1753.7 529,-1772.7 576,-1772.7 576,-1753.7 529,-1753.7"/>
<polygon fill="none" stroke="#000000" points="529,-1753.7 529,-1772.7 576,-1772.7 576,-1753.7 529,-1753.7"/>
<text text-anchor="start" x="566.8862" y="-1759.8" font-family="Helvetica,sans-Serif" font-size="11.00" fill="#000000"> &#160;</text>
<polygon fill="#ffffff" stroke="transparent" points="576,-1753.7 576,-1772.7 624,-1772.7 624,-1753.7 576,-1753.7"/>
<polygon fill="none" stroke="#000000" points="576,-1753.7 576,-1772.7 624,-1772.7 624,-1753.7 576,-1753.7"/>
<text text-anchor="start" x="614.8862" y="-1759.8" font-family="Helvetica,sans-Serif" font-size="11.00" fill="#000000"> &#160;</text>
</a>
</g>
</g>
<!-- AgHarvestedIptcMetadata&#45;&gt;Adobe_images -->
<g id="edge11" class="edge">
<title>AgHarvestedIptcMetadata:w&#45;&gt;Adobe_images:e</title>
<path fill="none" stroke="#000000" d="M423.4174,-1780.6578C400.4958,-1777.0025 389.9711,-1763.6713 375,-1739.7 339.2483,-1682.4554 401.9917,-1438.7 334.5,-1438.7"/>
<polygon fill="#000000" stroke="#000000" points="430.0204,-1781.1296 437.7433,-1785.2908 434.0102,-1781.4148 438,-1781.7 438,-1781.7 438,-1781.7 434.0102,-1781.4148 438.2567,-1778.1092 430.0204,-1781.1296 430.0204,-1781.1296"/>
<ellipse fill="none" stroke="#000000" cx="426.8285" cy="-1780.9015" rx="3.2" ry="3.2"/>
</g>
<!-- AgLibraryCollectionImage -->
<g id="node13" class="node">
<title>AgLibraryCollectionImage</title>
<g id="a_node13"><a xlink:href="../../tables/AgLibraryCollectionImage.html" xlink:title="AgLibraryCollectionImage" target="_top">
<polygon fill="#ffffff" stroke="transparent" points="437,-1644.2 437,-1705.2 625,-1705.2 625,-1644.2 437,-1644.2"/>
<polygon fill="#f5f5f5" stroke="transparent" points="437,-1681.7 437,-1704.7 625,-1704.7 625,-1681.7 437,-1681.7"/>
<polygon fill="none" stroke="#000000" points="437,-1681.7 437,-1704.7 625,-1704.7 625,-1681.7 437,-1681.7"/>
<text text-anchor="start" x="442" y="-1690.3" font-family="Helvetica,sans-Serif" font-weight="bold" font-size="11.00" fill="#000000">AgLibraryCollectionImage</text>
<text text-anchor="start" x="590.5219" y="-1689.8" font-family="Helvetica,sans-Serif" font-size="11.00" fill="#000000">[table]</text>
<polygon fill="none" stroke="#000000" points="437,-1662.7 437,-1681.7 625,-1681.7 625,-1662.7 437,-1662.7"/>
<text text-anchor="start" x="440" y="-1668.8" font-family="Helvetica,sans-Serif" font-size="11.00" fill="#000000">...</text>
<polygon fill="#ffffff" stroke="transparent" points="437,-1643.7 437,-1662.7 525,-1662.7 525,-1643.7 437,-1643.7"/>
<polygon fill="none" stroke="#000000" points="437,-1643.7 437,-1662.7 525,-1662.7 525,-1643.7 437,-1643.7"/>
<text text-anchor="start" x="440" y="-1649.8" font-family="Helvetica,sans-Serif" font-size="11.00" fill="#000000">&lt; 2</text>
<polygon fill="#ffffff" stroke="transparent" points="525,-1643.7 525,-1662.7 570,-1662.7 570,-1643.7 525,-1643.7"/>
<polygon fill="none" stroke="#000000" points="525,-1643.7 525,-1662.7 570,-1662.7 570,-1643.7 525,-1643.7"/>
<text text-anchor="start" x="560.8862" y="-1649.8" font-family="Helvetica,sans-Serif" font-size="11.00" fill="#000000"> &#160;</text>
<polygon fill="#ffffff" stroke="transparent" points="570,-1643.7 570,-1662.7 625,-1662.7 625,-1643.7 570,-1643.7"/>
<polygon fill="none" stroke="#000000" points="570,-1643.7 570,-1662.7 625,-1662.7 625,-1643.7 570,-1643.7"/>
<text text-anchor="start" x="606.4053" y="-1649.8" font-family="Helvetica,sans-Serif" font-size="11.00" fill="#000000">3 &gt;</text>
</a>
</g>
</g>
<!-- AgLibraryCollectionImage&#45;&gt;Adobe_images -->
<g id="edge12" class="edge">
<title>AgLibraryCollectionImage:w&#45;&gt;Adobe_images:e</title>
<path fill="none" stroke="#000000" d="M422.3479,-1670.5436C400.1628,-1666.6241 390.5294,-1652.7852 375,-1629.7 326.5649,-1557.6988 421.2763,-1438.7 334.5,-1438.7"/>
<polygon fill="#000000" stroke="#000000" points="429.0248,-1671.0705 436.7167,-1675.2888 433.0124,-1671.3853 437,-1671.7 437,-1671.7 437,-1671.7 433.0124,-1671.3853 437.2833,-1668.1112 429.0248,-1671.0705 429.0248,-1671.0705"/>
<ellipse fill="none" stroke="#000000" cx="425.8347" cy="-1670.8187" rx="3.2" ry="3.2"/>
</g>
<!-- AgLibraryCollectionImageChangeCounter -->
<g id="node14" class="node">
<title>AgLibraryCollectionImageChangeCounter</title>
<g id="a_node14"><a xlink:href="../../tables/AgLibraryCollectionImageChangeCounter.html" xlink:title="AgLibraryCollectionImageChangeCounter" target="_top">
<polygon fill="#ffffff" stroke="transparent" points="734.5,-1695.2 734.5,-1756.2 1012.5,-1756.2 1012.5,-1695.2 734.5,-1695.2"/>
<polygon fill="#f5f5f5" stroke="transparent" points="734.5,-1732.7 734.5,-1755.7 1012.5,-1755.7 1012.5,-1732.7 734.5,-1732.7"/>
<polygon fill="none" stroke="#000000" points="734.5,-1732.7 734.5,-1755.7 1012.5,-1755.7 1012.5,-1732.7 734.5,-1732.7"/>
<text text-anchor="start" x="739.5" y="-1741.3" font-family="Helvetica,sans-Serif" font-weight="bold" font-size="11.00" fill="#000000">AgLibraryCollectionImageChangeCounter</text>
<text text-anchor="start" x="978.0219" y="-1740.8" font-family="Helvetica,sans-Serif" font-size="11.00" fill="#000000">[table]</text>
<polygon fill="none" stroke="#000000" points="734.5,-1713.7 734.5,-1732.7 1012.5,-1732.7 1012.5,-1713.7 734.5,-1713.7"/>
<text text-anchor="start" x="737.5" y="-1719.8" font-family="Helvetica,sans-Serif" font-size="11.00" fill="#000000">...</text>
<polygon fill="#ffffff" stroke="transparent" points="734.5,-1694.7 734.5,-1713.7 871.5,-1713.7 871.5,-1694.7 734.5,-1694.7"/>
<polygon fill="none" stroke="#000000" points="734.5,-1694.7 734.5,-1713.7 871.5,-1713.7 871.5,-1694.7 734.5,-1694.7"/>
<text text-anchor="start" x="737.5" y="-1700.8" font-family="Helvetica,sans-Serif" font-size="11.00" fill="#000000">&lt; 3</text>
<polygon fill="#ffffff" stroke="transparent" points="871.5,-1694.7 871.5,-1713.7 941.5,-1713.7 941.5,-1694.7 871.5,-1694.7"/>
<polygon fill="none" stroke="#000000" points="871.5,-1694.7 871.5,-1713.7 941.5,-1713.7 941.5,-1694.7 871.5,-1694.7"/>
<text text-anchor="start" x="932.3862" y="-1700.8" font-family="Helvetica,sans-Serif" font-size="11.00" fill="#000000"> &#160;</text>
<polygon fill="#ffffff" stroke="transparent" points="941.5,-1694.7 941.5,-1713.7 1012.5,-1713.7 1012.5,-1694.7 941.5,-1694.7"/>
<polygon fill="none" stroke="#000000" points="941.5,-1694.7 941.5,-1713.7 1012.5,-1713.7 1012.5,-1694.7 941.5,-1694.7"/>
<text text-anchor="start" x="1003.3862" y="-1700.8" font-family="Helvetica,sans-Serif" font-size="11.00" fill="#000000"> &#160;</text>
</a>
</g>
</g>
<!-- AgLibraryCollectionImageChangeCounter&#45;&gt;Adobe_images -->
<g id="edge14" class="edge">
<title>AgLibraryCollectionImageChangeCounter:w&#45;&gt;Adobe_images:e</title>
<path fill="none" stroke="#000000" d="M719.9092,-1723.1012C630.6368,-1727.4975 431.6018,-1765.5988 375,-1715.7 328.3346,-1674.5609 396.71,-1438.7 334.5,-1438.7"/>
<polygon fill="#000000" stroke="#000000" points="726.503,-1722.9199 734.599,-1726.2986 730.5015,-1722.81 734.5,-1722.7 734.5,-1722.7 734.5,-1722.7 730.5015,-1722.81 734.401,-1719.1014 726.503,-1722.9199 726.503,-1722.9199"/>
<ellipse fill="none" stroke="#000000" cx="723.3042" cy="-1723.0079" rx="3.2" ry="3.2"/>
</g>
<!-- AgLibraryCollectionImageChangeCounter&#45;&gt;AgLibraryCollectionImage -->
<g id="edge13" class="edge">
<title>AgLibraryCollectionImageChangeCounter:w&#45;&gt;AgLibraryCollectionImage:e</title>
<path fill="none" stroke="#000000" d="M723.9044,-1721.979C680.2596,-1715.7803 674.9115,-1671.7 625,-1671.7"/>
<polygon fill="#000000" stroke="#000000" points="733.9734,-1718.6549 733.4303,-1726.6365 731.834,-1726.5278 732.3771,-1718.5463 733.9734,-1718.6549"/>
<polyline fill="none" stroke="#000000" points="734.5,-1722.7 730.5092,-1722.4284 "/>
<ellipse fill="none" stroke="#000000" cx="727.3166" cy="-1722.2112" rx="3.2" ry="3.2"/>
</g>
<!-- AgLibraryCollectionImageOzAlbumAssetIds -->
<g id="node15" class="node">
<title>AgLibraryCollectionImageOzAlbumAssetIds</title>
<g id="a_node15"><a xlink:href="../../tables/AgLibraryCollectionImageOzAlbumAssetIds.html" xlink:title="AgLibraryCollectionImageOzAlbumAssetIds" target="_top">
<polygon fill="#ffffff" stroke="transparent" points="728,-1606.2 728,-1667.2 1019,-1667.2 1019,-1606.2 728,-1606.2"/>
<polygon fill="#f5f5f5" stroke="transparent" points="728.5,-1643.7 728.5,-1666.7 1019.5,-1666.7 1019.5,-1643.7 728.5,-1643.7"/>
<polygon fill="none" stroke="#000000" points="728.5,-1643.7 728.5,-1666.7 1019.5,-1666.7 1019.5,-1643.7 728.5,-1643.7"/>
<text text-anchor="start" x="733.5" y="-1652.3" font-family="Helvetica,sans-Serif" font-weight="bold" font-size="11.00" fill="#000000">AgLibraryCollectionImageOzAlbumAssetIds</text>
<text text-anchor="start" x="985.0219" y="-1651.8" font-family="Helvetica,sans-Serif" font-size="11.00" fill="#000000">[table]</text>
<polygon fill="none" stroke="#000000" points="728.5,-1624.7 728.5,-1643.7 1019.5,-1643.7 1019.5,-1624.7 728.5,-1624.7"/>
<text text-anchor="start" x="731.5" y="-1630.8" font-family="Helvetica,sans-Serif" font-size="11.00" fill="#000000">...</text>
<polygon fill="#ffffff" stroke="transparent" points="728.5,-1605.7 728.5,-1624.7 872.5,-1624.7 872.5,-1605.7 728.5,-1605.7"/>
<polygon fill="none" stroke="#000000" points="728.5,-1605.7 728.5,-1624.7 872.5,-1624.7 872.5,-1605.7 728.5,-1605.7"/>
<text text-anchor="start" x="731.5" y="-1611.8" font-family="Helvetica,sans-Serif" font-size="11.00" fill="#000000">&lt; 3</text>
<polygon fill="#ffffff" stroke="transparent" points="872.5,-1605.7 872.5,-1624.7 945.5,-1624.7 945.5,-1605.7 872.5,-1605.7"/>
<polygon fill="none" stroke="#000000" points="872.5,-1605.7 872.5,-1624.7 945.5,-1624.7 945.5,-1605.7 872.5,-1605.7"/>
<text text-anchor="start" x="936.3862" y="-1611.8" font-family="Helvetica,sans-Serif" font-size="11.00" fill="#000000"> &#160;</text>
<polygon fill="#ffffff" stroke="transparent" points="945.5,-1605.7 945.5,-1624.7 1019.5,-1624.7 1019.5,-1605.7 945.5,-1605.7"/>
<polygon fill="none" stroke="#000000" points="945.5,-1605.7 945.5,-1624.7 1019.5,-1624.7 1019.5,-1605.7 945.5,-1605.7"/>
<text text-anchor="start" x="1010.3862" y="-1611.8" font-family="Helvetica,sans-Serif" font-size="11.00" fill="#000000"> &#160;</text>
</a>
</g>
</g>
<!-- AgLibraryCollectionImageOzAlbumAssetIds&#45;&gt;Adobe_images -->
<g id="edge16" class="edge">
<title>AgLibraryCollectionImageOzAlbumAssetIds:w&#45;&gt;Adobe_images:e</title>
<path fill="none" stroke="#000000" d="M713.6902,-1633.6362C643.1691,-1633.1274 402.4655,-1629.115 375,-1605.7 316.8804,-1556.1515 410.8737,-1438.7 334.5,-1438.7"/>
<polygon fill="#000000" stroke="#000000" points="720.5001,-1633.6655 728.4845,-1637.3 724.5,-1633.6827 728.5,-1633.7 728.5,-1633.7 728.5,-1633.7 724.5,-1633.6827 728.5155,-1630.1 720.5001,-1633.6655 720.5001,-1633.6655"/>
<ellipse fill="none" stroke="#000000" cx="717.3001" cy="-1633.6516" rx="3.2" ry="3.2"/>
</g>
<!-- AgLibraryCollectionImageOzAlbumAssetIds&#45;&gt;AgLibraryCollectionImage -->
<g id="edge15" class="edge">
<title>AgLibraryCollectionImageOzAlbumAssetIds:w&#45;&gt;AgLibraryCollectionImage:e</title>
<path fill="none" stroke="#000000" d="M713.8687,-1634.9643C677.7751,-1641.5579 668.6428,-1671.7 625,-1671.7"/>
<polygon fill="#000000" stroke="#000000" points="720.5297,-1634.3888 728.81,-1637.2866 724.5149,-1634.0444 728.5,-1633.7 728.5,-1633.7 728.5,-1633.7 724.5149,-1634.0444 728.19,-1630.1134 720.5297,-1634.3888 720.5297,-1634.3888"/>
<ellipse fill="none" stroke="#000000" cx="717.3416" cy="-1634.6643" rx="3.2" ry="3.2"/>
</g>
<!-- AgLibraryCollectionStackImage -->
<g id="node16" class="node">
<title>AgLibraryCollectionStackImage</title>
<g id="a_node16"><a xlink:href="../../tables/AgLibraryCollectionStackImage.html" xlink:title="AgLibraryCollectionStackImage" target="_top">
<polygon fill="#ffffff" stroke="transparent" points="421,-1534.2 421,-1595.2 641,-1595.2 641,-1534.2 421,-1534.2"/>
<polygon fill="#f5f5f5" stroke="transparent" points="421,-1571.7 421,-1594.7 641,-1594.7 641,-1571.7 421,-1571.7"/>
<polygon fill="none" stroke="#000000" points="421,-1571.7 421,-1594.7 641,-1594.7 641,-1571.7 421,-1571.7"/>
<text text-anchor="start" x="426" y="-1580.3" font-family="Helvetica,sans-Serif" font-weight="bold" font-size="11.00" fill="#000000">AgLibraryCollectionStackImage</text>
<text text-anchor="start" x="606.5219" y="-1579.8" font-family="Helvetica,sans-Serif" font-size="11.00" fill="#000000">[table]</text>
<polygon fill="none" stroke="#000000" points="421,-1552.7 421,-1571.7 641,-1571.7 641,-1552.7 421,-1552.7"/>
<text text-anchor="start" x="424" y="-1558.8" font-family="Helvetica,sans-Serif" font-size="11.00" fill="#000000">...</text>
<polygon fill="#ffffff" stroke="transparent" points="421,-1533.7 421,-1552.7 529,-1552.7 529,-1533.7 421,-1533.7"/>
<polygon fill="none" stroke="#000000" points="421,-1533.7 421,-1552.7 529,-1552.7 529,-1533.7 421,-1533.7"/>
<text text-anchor="start" x="424" y="-1539.8" font-family="Helvetica,sans-Serif" font-size="11.00" fill="#000000">&lt; 3</text>
<polygon fill="#ffffff" stroke="transparent" points="529,-1533.7 529,-1552.7 585,-1552.7 585,-1533.7 529,-1533.7"/>
<polygon fill="none" stroke="#000000" points="529,-1533.7 529,-1552.7 585,-1552.7 585,-1533.7 529,-1533.7"/>
<text text-anchor="start" x="575.8862" y="-1539.8" font-family="Helvetica,sans-Serif" font-size="11.00" fill="#000000"> &#160;</text>
<polygon fill="#ffffff" stroke="transparent" points="585,-1533.7 585,-1552.7 641,-1552.7 641,-1533.7 585,-1533.7"/>
<polygon fill="none" stroke="#000000" points="585,-1533.7 585,-1552.7 641,-1552.7 641,-1533.7 585,-1533.7"/>
<text text-anchor="start" x="631.8862" y="-1539.8" font-family="Helvetica,sans-Serif" font-size="11.00" fill="#000000"> &#160;</text>
</a>
</g>
</g>
<!-- AgLibraryCollectionStackImage&#45;&gt;Adobe_images -->
<g id="edge17" class="edge">
<title>AgLibraryCollectionStackImage:w&#45;&gt;Adobe_images:e</title>
<path fill="none" stroke="#000000" d="M406.5672,-1559.3854C392.4659,-1554.0398 387.743,-1540.0347 375,-1523.7 349.2605,-1490.7055 376.3469,-1438.7 334.5,-1438.7"/>
<polygon fill="#000000" stroke="#000000" points="413.1009,-1560.4332 420.4299,-1565.2546 417.0505,-1561.0666 421,-1561.7 421,-1561.7 421,-1561.7 417.0505,-1561.0666 421.5701,-1558.1454 413.1009,-1560.4332 413.1009,-1560.4332"/>
<ellipse fill="none" stroke="#000000" cx="409.9413" cy="-1559.9264" rx="3.2" ry="3.2"/>
</g>
<!-- AgLibraryFace -->
<g id="node17" class="node">
<title>AgLibraryFace</title>
<g id="a_node17"><a xlink:href="../../tables/AgLibraryFace.html" xlink:title="AgLibraryFace" target="_top">
<polygon fill="#ffffff" stroke="transparent" points="469.5,-1452.2 469.5,-1513.2 592.5,-1513.2 592.5,-1452.2 469.5,-1452.2"/>
<polygon fill="#f5f5f5" stroke="transparent" points="470,-1489.7 470,-1512.7 593,-1512.7 593,-1489.7 470,-1489.7"/>
<polygon fill="none" stroke="#000000" points="470,-1489.7 470,-1512.7 593,-1512.7 593,-1489.7 470,-1489.7"/>
<text text-anchor="start" x="475" y="-1498.3" font-family="Helvetica,sans-Serif" font-weight="bold" font-size="11.00" fill="#000000">AgLibraryFace</text>
<text text-anchor="start" x="558.5219" y="-1497.8" font-family="Helvetica,sans-Serif" font-size="11.00" fill="#000000">[table]</text>
<polygon fill="none" stroke="#000000" points="470,-1470.7 470,-1489.7 593,-1489.7 593,-1470.7 470,-1470.7"/>
<text text-anchor="start" x="473" y="-1476.8" font-family="Helvetica,sans-Serif" font-size="11.00" fill="#000000">...</text>
<polygon fill="#ffffff" stroke="transparent" points="470,-1451.7 470,-1470.7 525,-1470.7 525,-1451.7 470,-1451.7"/>
<polygon fill="none" stroke="#000000" points="470,-1451.7 470,-1470.7 525,-1470.7 525,-1451.7 470,-1451.7"/>
<text text-anchor="start" x="473" y="-1457.8" font-family="Helvetica,sans-Serif" font-size="11.00" fill="#000000">&lt; 1</text>
<polygon fill="#ffffff" stroke="transparent" points="525,-1451.7 525,-1470.7 554,-1470.7 554,-1451.7 525,-1451.7"/>
<polygon fill="none" stroke="#000000" points="525,-1451.7 525,-1470.7 554,-1470.7 554,-1451.7 525,-1451.7"/>
<text text-anchor="start" x="544.8862" y="-1457.8" font-family="Helvetica,sans-Serif" font-size="11.00" fill="#000000"> &#160;</text>
<polygon fill="#ffffff" stroke="transparent" points="554,-1451.7 554,-1470.7 593,-1470.7 593,-1451.7 554,-1451.7"/>
<polygon fill="none" stroke="#000000" points="554,-1451.7 554,-1470.7 593,-1470.7 593,-1451.7 554,-1451.7"/>
<text text-anchor="start" x="574.4053" y="-1457.8" font-family="Helvetica,sans-Serif" font-size="11.00" fill="#000000">3 &gt;</text>
</a>
</g>
</g>
<!-- AgLibraryFace&#45;&gt;Adobe_images -->
<g id="edge18" class="edge">
<title>AgLibraryFace:w&#45;&gt;Adobe_images:e</title>
<path fill="none" stroke="#000000" d="M455.5324,-1478.9176C405.1376,-1473.2493 392.2574,-1438.7 334.5,-1438.7"/>
<polygon fill="#000000" stroke="#000000" points="462.0117,-1479.2679 469.8056,-1483.2947 466.0058,-1479.484 470,-1479.7 470,-1479.7 470,-1479.7 466.0058,-1479.484 470.1944,-1476.1053 462.0117,-1479.2679 462.0117,-1479.2679"/>
<ellipse fill="none" stroke="#000000" cx="458.8163" cy="-1479.0951" rx="3.2" ry="3.2"/>
</g>
<!-- AgLibraryFolderStackImage -->
<g id="node18" class="node">
<title>AgLibraryFolderStackImage</title>
<g id="a_node18"><a xlink:href="../../tables/AgLibraryFolderStackImage.html" xlink:title="AgLibraryFolderStackImage" target="_top">
<polygon fill="#ffffff" stroke="transparent" points="431.5,-1370.2 431.5,-1431.2 630.5,-1431.2 630.5,-1370.2 431.5,-1370.2"/>
<polygon fill="#f5f5f5" stroke="transparent" points="432,-1407.7 432,-1430.7 631,-1430.7 631,-1407.7 432,-1407.7"/>
<polygon fill="none" stroke="#000000" points="432,-1407.7 432,-1430.7 631,-1430.7 631,-1407.7 432,-1407.7"/>
<text text-anchor="start" x="437" y="-1416.3" font-family="Helvetica,sans-Serif" font-weight="bold" font-size="11.00" fill="#000000">AgLibraryFolderStackImage</text>
<text text-anchor="start" x="596.5219" y="-1415.8" font-family="Helvetica,sans-Serif" font-size="11.00" fill="#000000">[table]</text>
<polygon fill="none" stroke="#000000" points="432,-1388.7 432,-1407.7 631,-1407.7 631,-1388.7 432,-1388.7"/>
<text text-anchor="start" x="435" y="-1394.8" font-family="Helvetica,sans-Serif" font-size="11.00" fill="#000000">...</text>
<polygon fill="#ffffff" stroke="transparent" points="432,-1369.7 432,-1388.7 530,-1388.7 530,-1369.7 432,-1369.7"/>
<polygon fill="none" stroke="#000000" points="432,-1369.7 432,-1388.7 530,-1388.7 530,-1369.7 432,-1369.7"/>
<text text-anchor="start" x="435" y="-1375.8" font-family="Helvetica,sans-Serif" font-size="11.00" fill="#000000">&lt; 2</text>
<polygon fill="#ffffff" stroke="transparent" points="530,-1369.7 530,-1388.7 580,-1388.7 580,-1369.7 530,-1369.7"/>
<polygon fill="none" stroke="#000000" points="530,-1369.7 530,-1388.7 580,-1388.7 580,-1369.7 530,-1369.7"/>
<text text-anchor="start" x="570.8862" y="-1375.8" font-family="Helvetica,sans-Serif" font-size="11.00" fill="#000000"> &#160;</text>
<polygon fill="#ffffff" stroke="transparent" points="580,-1369.7 580,-1388.7 631,-1388.7 631,-1369.7 580,-1369.7"/>
<polygon fill="none" stroke="#000000" points="580,-1369.7 580,-1388.7 631,-1388.7 631,-1369.7 580,-1369.7"/>
<text text-anchor="start" x="621.8862" y="-1375.8" font-family="Helvetica,sans-Serif" font-size="11.00" fill="#000000"> &#160;</text>
</a>
</g>
</g>
<!-- AgLibraryFolderStackImage&#45;&gt;Adobe_images -->
<g id="edge19" class="edge">
<title>AgLibraryFolderStackImage:w&#45;&gt;Adobe_images:e</title>
<path fill="none" stroke="#000000" d="M417.5735,-1399.1592C383.6437,-1406.4629 376.1836,-1438.7 334.5,-1438.7"/>
<polygon fill="#000000" stroke="#000000" points="424.0406,-1398.5051 432.3623,-1401.2817 428.0203,-1398.1026 432,-1397.7 432,-1397.7 432,-1397.7 428.0203,-1398.1026 431.6377,-1394.1183 424.0406,-1398.5051 424.0406,-1398.5051"/>
<ellipse fill="none" stroke="#000000" cx="420.8569" cy="-1398.8272" rx="3.2" ry="3.2"/>
</g>
<!-- AgLibraryImageChangeCounter -->
<g id="node19" class="node">
<title>AgLibraryImageChangeCounter</title>
<g id="a_node19"><a xlink:href="../../tables/AgLibraryImageChangeCounter.html" xlink:title="AgLibraryImageChangeCounter" target="_top">
<polygon fill="#ffffff" stroke="transparent" points="421,-1288.2 421,-1349.2 641,-1349.2 641,-1288.2 421,-1288.2"/>
<polygon fill="#f5f5f5" stroke="transparent" points="421,-1325.7 421,-1348.7 641,-1348.7 641,-1325.7 421,-1325.7"/>
<polygon fill="none" stroke="#000000" points="421,-1325.7 421,-1348.7 641,-1348.7 641,-1325.7 421,-1325.7"/>
<text text-anchor="start" x="426" y="-1334.3" font-family="Helvetica,sans-Serif" font-weight="bold" font-size="11.00" fill="#000000">AgLibraryImageChangeCounter</text>
<text text-anchor="start" x="606.5219" y="-1333.8" font-family="Helvetica,sans-Serif" font-size="11.00" fill="#000000">[table]</text>
<polygon fill="none" stroke="#000000" points="421,-1306.7 421,-1325.7 641,-1325.7 641,-1306.7 421,-1306.7"/>
<text text-anchor="start" x="424" y="-1312.8" font-family="Helvetica,sans-Serif" font-size="11.00" fill="#000000">...</text>
<polygon fill="#ffffff" stroke="transparent" points="421,-1287.7 421,-1306.7 529,-1306.7 529,-1287.7 421,-1287.7"/>
<polygon fill="none" stroke="#000000" points="421,-1287.7 421,-1306.7 529,-1306.7 529,-1287.7 421,-1287.7"/>
<text text-anchor="start" x="424" y="-1293.8" font-family="Helvetica,sans-Serif" font-size="11.00" fill="#000000">&lt; 1</text>
<polygon fill="#ffffff" stroke="transparent" points="529,-1287.7 529,-1306.7 585,-1306.7 585,-1287.7 529,-1287.7"/>
<polygon fill="none" stroke="#000000" points="529,-1287.7 529,-1306.7 585,-1306.7 585,-1287.7 529,-1287.7"/>
<text text-anchor="start" x="575.8862" y="-1293.8" font-family="Helvetica,sans-Serif" font-size="11.00" fill="#000000"> &#160;</text>
<polygon fill="#ffffff" stroke="transparent" points="585,-1287.7 585,-1306.7 641,-1306.7 641,-1287.7 585,-1287.7"/>
<polygon fill="none" stroke="#000000" points="585,-1287.7 585,-1306.7 641,-1306.7 641,-1287.7 585,-1287.7"/>
<text text-anchor="start" x="631.8862" y="-1293.8" font-family="Helvetica,sans-Serif" font-size="11.00" fill="#000000"> &#160;</text>
</a>
</g>
</g>
<!-- AgLibraryImageChangeCounter&#45;&gt;Adobe_images -->
<g id="edge20" class="edge">
<title>AgLibraryImageChangeCounter:w&#45;&gt;Adobe_images:e</title>
<path fill="none" stroke="#000000" d="M410.5744,-1316.9093C392.1656,-1321.7229 389.5325,-1340.2085 375,-1359.7 351.4158,-1391.3318 373.9562,-1438.7 334.5,-1438.7"/>
<polygon fill="#000000" stroke="#000000" points="419.7444,-1311.8188 420.6662,-1319.7655 419.0769,-1319.9499 418.1551,-1312.0032 419.7444,-1311.8188"/>
<polyline fill="none" stroke="#000000" points="421,-1315.7 417.0266,-1316.1609 "/>
<ellipse fill="none" stroke="#000000" cx="413.848" cy="-1316.5296" rx="3.2" ry="3.2"/>
</g>
<!-- AgLibraryImageOzAssetIds -->
<g id="node20" class="node">
<title>AgLibraryImageOzAssetIds</title>
<g id="a_node20"><a xlink:href="../../tables/AgLibraryImageOzAssetIds.html" xlink:title="AgLibraryImageOzAssetIds" target="_top">
<polygon fill="#ffffff" stroke="transparent" points="433.5,-1206.2 433.5,-1267.2 628.5,-1267.2 628.5,-1206.2 433.5,-1206.2"/>
<polygon fill="#f5f5f5" stroke="transparent" points="434,-1243.7 434,-1266.7 629,-1266.7 629,-1243.7 434,-1243.7"/>
<polygon fill="none" stroke="#000000" points="434,-1243.7 434,-1266.7 629,-1266.7 629,-1243.7 434,-1243.7"/>
<text text-anchor="start" x="439" y="-1252.3" font-family="Helvetica,sans-Serif" font-weight="bold" font-size="11.00" fill="#000000">AgLibraryImageOzAssetIds</text>
<text text-anchor="start" x="594.5219" y="-1251.8" font-family="Helvetica,sans-Serif" font-size="11.00" fill="#000000">[table]</text>
<polygon fill="none" stroke="#000000" points="434,-1224.7 434,-1243.7 629,-1243.7 629,-1224.7 434,-1224.7"/>
<text text-anchor="start" x="437" y="-1230.8" font-family="Helvetica,sans-Serif" font-size="11.00" fill="#000000">...</text>
<polygon fill="#ffffff" stroke="transparent" points="434,-1205.7 434,-1224.7 530,-1224.7 530,-1205.7 434,-1205.7"/>
<polygon fill="none" stroke="#000000" points="434,-1205.7 434,-1224.7 530,-1224.7 530,-1205.7 434,-1205.7"/>
<text text-anchor="start" x="437" y="-1211.8" font-family="Helvetica,sans-Serif" font-size="11.00" fill="#000000">&lt; 1</text>
<polygon fill="#ffffff" stroke="transparent" points="530,-1205.7 530,-1224.7 579,-1224.7 579,-1205.7 530,-1205.7"/>
<polygon fill="none" stroke="#000000" points="530,-1205.7 530,-1224.7 579,-1224.7 579,-1205.7 530,-1205.7"/>
<text text-anchor="start" x="569.8862" y="-1211.8" font-family="Helvetica,sans-Serif" font-size="11.00" fill="#000000"> &#160;</text>
<polygon fill="#ffffff" stroke="transparent" points="579,-1205.7 579,-1224.7 629,-1224.7 629,-1205.7 579,-1205.7"/>
<polygon fill="none" stroke="#000000" points="579,-1205.7 579,-1224.7 629,-1224.7 629,-1205.7 579,-1205.7"/>
<text text-anchor="start" x="619.8862" y="-1211.8" font-family="Helvetica,sans-Serif" font-size="11.00" fill="#000000"> &#160;</text>
</a>
</g>
</g>
<!-- AgLibraryImageOzAssetIds&#45;&gt;Adobe_images -->
<g id="edge21" class="edge">
<title>AgLibraryImageOzAssetIds:w&#45;&gt;Adobe_images:e</title>
<path fill="none" stroke="#000000" d="M419.4326,-1235.0907C398.2725,-1239.6334 390.1022,-1255.0577 375,-1277.7 334.0578,-1339.0835 408.2848,-1438.7 334.5,-1438.7"/>
<polygon fill="#000000" stroke="#000000" points="426.0362,-1234.4603 434.3421,-1237.2837 430.0181,-1234.0802 434,-1233.7 434,-1233.7 434,-1233.7 430.0181,-1234.0802 433.6579,-1230.1163 426.0362,-1234.4603 426.0362,-1234.4603"/>
<ellipse fill="none" stroke="#000000" cx="422.8507" cy="-1234.7645" rx="3.2" ry="3.2"/>
</g>
<!-- AgLibraryImageSyncedAssetData -->
<g id="node21" class="node">
<title>AgLibraryImageSyncedAssetData</title>
<g id="a_node21"><a xlink:href="../../tables/AgLibraryImageSyncedAssetData.html" xlink:title="AgLibraryImageSyncedAssetData" target="_top">
<polygon fill="#ffffff" stroke="transparent" points="415.5,-1124.2 415.5,-1185.2 646.5,-1185.2 646.5,-1124.2 415.5,-1124.2"/>
<polygon fill="#f5f5f5" stroke="transparent" points="416,-1161.7 416,-1184.7 647,-1184.7 647,-1161.7 416,-1161.7"/>
<polygon fill="none" stroke="#000000" points="416,-1161.7 416,-1184.7 647,-1184.7 647,-1161.7 416,-1161.7"/>
<text text-anchor="start" x="421" y="-1170.3" font-family="Helvetica,sans-Serif" font-weight="bold" font-size="11.00" fill="#000000">AgLibraryImageSyncedAssetData</text>
<text text-anchor="start" x="612.5219" y="-1169.8" font-family="Helvetica,sans-Serif" font-size="11.00" fill="#000000">[table]</text>
<polygon fill="none" stroke="#000000" points="416,-1142.7 416,-1161.7 647,-1161.7 647,-1142.7 416,-1142.7"/>
<text text-anchor="start" x="419" y="-1148.8" font-family="Helvetica,sans-Serif" font-size="11.00" fill="#000000">...</text>
<polygon fill="#ffffff" stroke="transparent" points="416,-1123.7 416,-1142.7 530,-1142.7 530,-1123.7 416,-1123.7"/>
<polygon fill="none" stroke="#000000" points="416,-1123.7 416,-1142.7 530,-1142.7 530,-1123.7 416,-1123.7"/>
<text text-anchor="start" x="419" y="-1129.8" font-family="Helvetica,sans-Serif" font-size="11.00" fill="#000000">&lt; 1</text>
<polygon fill="#ffffff" stroke="transparent" points="530,-1123.7 530,-1142.7 588,-1142.7 588,-1123.7 530,-1123.7"/>
<polygon fill="none" stroke="#000000" points="530,-1123.7 530,-1142.7 588,-1142.7 588,-1123.7 530,-1123.7"/>
<text text-anchor="start" x="578.8862" y="-1129.8" font-family="Helvetica,sans-Serif" font-size="11.00" fill="#000000"> &#160;</text>
<polygon fill="#ffffff" stroke="transparent" points="588,-1123.7 588,-1142.7 647,-1142.7 647,-1123.7 588,-1123.7"/>
<polygon fill="none" stroke="#000000" points="588,-1123.7 588,-1142.7 647,-1142.7 647,-1123.7 588,-1123.7"/>
<text text-anchor="start" x="637.8862" y="-1129.8" font-family="Helvetica,sans-Serif" font-size="11.00" fill="#000000"> &#160;</text>
</a>
</g>
</g>
<!-- AgLibraryImageSyncedAssetData&#45;&gt;Adobe_images -->
<g id="edge22" class="edge">
<title>AgLibraryImageSyncedAssetData:w&#45;&gt;Adobe_images:e</title>
<path fill="none" stroke="#000000" d="M401.5908,-1154.406C387.7465,-1160.6486 384.2264,-1176.9663 375,-1195.7 350.8123,-1244.8116 389.2449,-1438.7 334.5,-1438.7"/>
<polygon fill="#000000" stroke="#000000" points="408.1374,-1153.1766 416.6645,-1155.2382 412.0687,-1152.4383 416,-1151.7 416,-1151.7 416,-1151.7 412.0687,-1152.4383 415.3355,-1148.1618 408.1374,-1153.1766 408.1374,-1153.1766"/>
<ellipse fill="none" stroke="#000000" cx="404.9924" cy="-1153.7672" rx="3.2" ry="3.2"/>
</g>
<!-- AgLibraryImportImage -->
<g id="node22" class="node">
<title>AgLibraryImportImage</title>
<g id="a_node22"><a xlink:href="../../tables/AgLibraryImportImage.html" xlink:title="AgLibraryImportImage" target="_top">
<polygon fill="#ffffff" stroke="transparent" points="447.5,-1042.2 447.5,-1103.2 614.5,-1103.2 614.5,-1042.2 447.5,-1042.2"/>
<polygon fill="#f5f5f5" stroke="transparent" points="448,-1079.7 448,-1102.7 615,-1102.7 615,-1079.7 448,-1079.7"/>
<polygon fill="none" stroke="#000000" points="448,-1079.7 448,-1102.7 615,-1102.7 615,-1079.7 448,-1079.7"/>
<text text-anchor="start" x="453" y="-1088.3" font-family="Helvetica,sans-Serif" font-weight="bold" font-size="11.00" fill="#000000">AgLibraryImportImage</text>
<text text-anchor="start" x="580.5219" y="-1087.8" font-family="Helvetica,sans-Serif" font-size="11.00" fill="#000000">[table]</text>
<polygon fill="none" stroke="#000000" points="448,-1060.7 448,-1079.7 615,-1079.7 615,-1060.7 448,-1060.7"/>
<text text-anchor="start" x="451" y="-1066.8" font-family="Helvetica,sans-Serif" font-size="11.00" fill="#000000">...</text>
<polygon fill="#ffffff" stroke="transparent" points="448,-1041.7 448,-1060.7 530,-1060.7 530,-1041.7 448,-1041.7"/>
<polygon fill="none" stroke="#000000" points="448,-1041.7 448,-1060.7 530,-1060.7 530,-1041.7 448,-1041.7"/>
<text text-anchor="start" x="451" y="-1047.8" font-family="Helvetica,sans-Serif" font-size="11.00" fill="#000000">&lt; 1</text>
<polygon fill="#ffffff" stroke="transparent" points="530,-1041.7 530,-1060.7 572,-1060.7 572,-1041.7 530,-1041.7"/>
<polygon fill="none" stroke="#000000" points="530,-1041.7 530,-1060.7 572,-1060.7 572,-1041.7 530,-1041.7"/>
<text text-anchor="start" x="562.8862" y="-1047.8" font-family="Helvetica,sans-Serif" font-size="11.00" fill="#000000"> &#160;</text>
<polygon fill="#ffffff" stroke="transparent" points="572,-1041.7 572,-1060.7 615,-1060.7 615,-1041.7 572,-1041.7"/>
<polygon fill="none" stroke="#000000" points="572,-1041.7 572,-1060.7 615,-1060.7 615,-1041.7 572,-1041.7"/>
<text text-anchor="start" x="605.8862" y="-1047.8" font-family="Helvetica,sans-Serif" font-size="11.00" fill="#000000"> &#160;</text>
</a>
</g>
</g>
<!-- AgLibraryImportImage&#45;&gt;Adobe_images -->
<g id="edge23" class="edge">
<title>AgLibraryImportImage:w&#45;&gt;Adobe_images:e</title>
<path fill="none" stroke="#000000" d="M433.3247,-1070.4461C405.9238,-1073.527 392.7365,-1086.4008 375,-1113.7 335.3478,-1174.7307 407.2808,-1438.7 334.5,-1438.7"/>
<polygon fill="#000000" stroke="#000000" points="440.0103,-1070.1062 448.1828,-1073.2954 444.0052,-1069.9031 448,-1069.7 448,-1069.7 448,-1069.7 444.0052,-1069.9031 447.8172,-1066.1046 440.0103,-1070.1062 440.0103,-1070.1062"/>
<ellipse fill="none" stroke="#000000" cx="436.8144" cy="-1070.2687" rx="3.2" ry="3.2"/>
</g>
<!-- AgLibraryIPTC -->
<g id="node23" class="node">
<title>AgLibraryIPTC</title>
<g id="a_node23"><a xlink:href="../../tables/AgLibraryIPTC.html" xlink:title="AgLibraryIPTC" target="_top">
<polygon fill="#ffffff" stroke="transparent" points="469.5,-960.2 469.5,-1021.2 592.5,-1021.2 592.5,-960.2 469.5,-960.2"/>
<polygon fill="#f5f5f5" stroke="transparent" points="470,-997.7 470,-1020.7 593,-1020.7 593,-997.7 470,-997.7"/>
<polygon fill="none" stroke="#000000" points="470,-997.7 470,-1020.7 593,-1020.7 593,-997.7 470,-997.7"/>
<text text-anchor="start" x="475" y="-1006.3" font-family="Helvetica,sans-Serif" font-weight="bold" font-size="11.00" fill="#000000">AgLibraryIPTC</text>
<text text-anchor="start" x="558.5219" y="-1005.8" font-family="Helvetica,sans-Serif" font-size="11.00" fill="#000000">[table]</text>
<polygon fill="none" stroke="#000000" points="470,-978.7 470,-997.7 593,-997.7 593,-978.7 470,-978.7"/>
<text text-anchor="start" x="473" y="-984.8" font-family="Helvetica,sans-Serif" font-size="11.00" fill="#000000">...</text>
<polygon fill="#ffffff" stroke="transparent" points="470,-959.7 470,-978.7 530,-978.7 530,-959.7 470,-959.7"/>
<polygon fill="none" stroke="#000000" points="470,-959.7 470,-978.7 530,-978.7 530,-959.7 470,-959.7"/>
<text text-anchor="start" x="473" y="-965.8" font-family="Helvetica,sans-Serif" font-size="11.00" fill="#000000">&lt; 1</text>
<polygon fill="#ffffff" stroke="transparent" points="530,-959.7 530,-978.7 561,-978.7 561,-959.7 530,-959.7"/>
<polygon fill="none" stroke="#000000" points="530,-959.7 530,-978.7 561,-978.7 561,-959.7 530,-959.7"/>
<text text-anchor="start" x="551.8862" y="-965.8" font-family="Helvetica,sans-Serif" font-size="11.00" fill="#000000"> &#160;</text>
<polygon fill="#ffffff" stroke="transparent" points="561,-959.7 561,-978.7 593,-978.7 593,-959.7 561,-959.7"/>
<polygon fill="none" stroke="#000000" points="561,-959.7 561,-978.7 593,-978.7 593,-959.7 561,-959.7"/>
<text text-anchor="start" x="583.8862" y="-965.8" font-family="Helvetica,sans-Serif" font-size="11.00" fill="#000000"> &#160;</text>
</a>
</g>
</g>
<!-- AgLibraryIPTC&#45;&gt;Adobe_images -->
<g id="edge24" class="edge">
<title>AgLibraryIPTC:w&#45;&gt;Adobe_images:e</title>
<path fill="none" stroke="#000000" d="M455.5903,-987.9519C418.6996,-989.4106 399.0156,-997.9262 375,-1031.7 322.3284,-1105.7736 425.3911,-1438.7 334.5,-1438.7"/>
<polygon fill="#000000" stroke="#000000" points="462.0012,-987.8399 470.0629,-991.2995 466.0006,-987.7699 470,-987.7 470,-987.7 470,-987.7 466.0006,-987.7699 469.9371,-984.1005 462.0012,-987.8399 462.0012,-987.8399"/>
<ellipse fill="none" stroke="#000000" cx="458.8017" cy="-987.8958" rx="3.2" ry="3.2"/>
</g>
<!-- AgLibraryKeywordImage -->
<g id="node24" class="node">
<title>AgLibraryKeywordImage</title>
<g id="a_node24"><a xlink:href="../../tables/AgLibraryKeywordImage.html" xlink:title="AgLibraryKeywordImage" target="_top">
<polygon fill="#ffffff" stroke="transparent" points="440.5,-878.2 440.5,-939.2 621.5,-939.2 621.5,-878.2 440.5,-878.2"/>
<polygon fill="#f5f5f5" stroke="transparent" points="441,-915.7 441,-938.7 622,-938.7 622,-915.7 441,-915.7"/>
<polygon fill="none" stroke="#000000" points="441,-915.7 441,-938.7 622,-938.7 622,-915.7 441,-915.7"/>
<text text-anchor="start" x="446" y="-924.3" font-family="Helvetica,sans-Serif" font-weight="bold" font-size="11.00" fill="#000000">AgLibraryKeywordImage</text>
<text text-anchor="start" x="587.5219" y="-923.8" font-family="Helvetica,sans-Serif" font-size="11.00" fill="#000000">[table]</text>
<polygon fill="none" stroke="#000000" points="441,-896.7 441,-915.7 622,-915.7 622,-896.7 441,-896.7"/>
<text text-anchor="start" x="444" y="-902.8" font-family="Helvetica,sans-Serif" font-size="11.00" fill="#000000">...</text>
<polygon fill="#ffffff" stroke="transparent" points="441,-877.7 441,-896.7 530,-896.7 530,-877.7 441,-877.7"/>
<polygon fill="none" stroke="#000000" points="441,-877.7 441,-896.7 530,-896.7 530,-877.7 441,-877.7"/>
<text text-anchor="start" x="444" y="-883.8" font-family="Helvetica,sans-Serif" font-size="11.00" fill="#000000">&lt; 2</text>
<polygon fill="#ffffff" stroke="transparent" points="530,-877.7 530,-896.7 576,-896.7 576,-877.7 530,-877.7"/>
<polygon fill="none" stroke="#000000" points="530,-877.7 530,-896.7 576,-896.7 576,-877.7 530,-877.7"/>
<text text-anchor="start" x="566.8862" y="-883.8" font-family="Helvetica,sans-Serif" font-size="11.00" fill="#000000"> &#160;</text>
<polygon fill="#ffffff" stroke="transparent" points="576,-877.7 576,-896.7 622,-896.7 622,-877.7 576,-877.7"/>
<polygon fill="none" stroke="#000000" points="576,-877.7 576,-896.7 622,-896.7 622,-877.7 576,-877.7"/>
<text text-anchor="start" x="612.8862" y="-883.8" font-family="Helvetica,sans-Serif" font-size="11.00" fill="#000000"> &#160;</text>
</a>
</g>
</g>
<!-- AgLibraryKeywordImage&#45;&gt;Adobe_images -->
<g id="edge25" class="edge">
<title>AgLibraryKeywordImage:w&#45;&gt;Adobe_images:e</title>
<path fill="none" stroke="#000000" d="M426.3511,-906.66C401.7157,-910.2416 390.177,-923.9574 375,-949.7 347.3111,-996.6647 389.0194,-1438.7 334.5,-1438.7"/>
<polygon fill="#000000" stroke="#000000" points="433.0171,-906.2232 441.2355,-909.2923 437.0086,-905.9616 441,-905.7 441,-905.7 441,-905.7 437.0086,-905.9616 440.7645,-902.1077 433.0171,-906.2232 433.0171,-906.2232"/>
<ellipse fill="none" stroke="#000000" cx="429.824" cy="-906.4325" rx="3.2" ry="3.2"/>
</g>
<!-- AgLibraryOzFeedbackInfo -->
<g id="node25" class="node">
<title>AgLibraryOzFeedbackInfo</title>
<g id="a_node25"><a xlink:href="../../tables/AgLibraryOzFeedbackInfo.html" xlink:title="AgLibraryOzFeedbackInfo" target="_top">
<polygon fill="#ffffff" stroke="transparent" points="383,-612.7 383,-856.7 679,-856.7 679,-612.7 383,-612.7"/>
<polygon fill="#f5f5f5" stroke="transparent" points="385,-831.7 385,-854.7 677,-854.7 677,-831.7 385,-831.7"/>
<polygon fill="none" stroke="#000000" points="385,-831.7 385,-854.7 677,-854.7 677,-831.7 385,-831.7"/>
<text text-anchor="start" x="390" y="-840.3" font-family="Helvetica,sans-Serif" font-weight="bold" font-size="11.00" fill="#000000">AgLibraryOzFeedbackInfo</text>
<text text-anchor="start" x="642.0437" y="-839.8" font-family="Helvetica,sans-Serif" font-size="11.00" fill="#000000">[table]</text>
<polygon fill="none" stroke="#000000" points="385,-809.7 385,-831.7 555,-831.7 555,-809.7 385,-809.7"/>
<image xlink:href="../../images/primaryKeys.png" width="11px" height="12px" preserveAspectRatio="xMinYMin meet" x="390" y="-826.7"/>
<text text-anchor="start" x="405" y="-816.8" font-family="Helvetica,sans-Serif" font-size="11.00" fill="#000000">id_local</text>
<polygon fill="none" stroke="#000000" points="555,-809.7 555,-831.7 677,-831.7 677,-809.7 555,-809.7"/>
<text text-anchor="start" x="557.9156" y="-817.4" font-family="Helvetica,sans-Serif" font-size="11.00" fill="#000000">integer[2000000000,10]</text>
<polygon fill="none" stroke="#000000" points="385,-787.7 385,-809.7 555,-809.7 555,-787.7 385,-787.7"/>
<image xlink:href="../../images/foreignKeys.png" width="11px" height="12px" preserveAspectRatio="xMinYMin meet" x="390" y="-804.7"/>
<text text-anchor="start" x="405" y="-794.8" font-family="Helvetica,sans-Serif" font-size="11.00" fill="#000000">image</text>
<polygon fill="none" stroke="#000000" points="555,-787.7 555,-809.7 677,-809.7 677,-787.7 555,-787.7"/>
<text text-anchor="start" x="558" y="-795.4" font-family="Helvetica,sans-Serif" font-size="11.00" fill="#000000">[2000000000,10]</text>
<polygon fill="#ffffff" stroke="transparent" points="385,-765.7 385,-787.7 555,-787.7 555,-765.7 385,-765.7"/>
<polygon fill="none" stroke="#000000" points="385,-765.7 385,-787.7 555,-787.7 555,-765.7 385,-765.7"/>
<text text-anchor="start" x="405" y="-772.8" font-family="Helvetica,sans-Serif" font-size="11.00" fill="#000000">lastFeedbackTime</text>
<polygon fill="none" stroke="#000000" points="555,-765.7 555,-787.7 677,-787.7 677,-765.7 555,-765.7"/>
<text text-anchor="start" x="558" y="-773.4" font-family="Helvetica,sans-Serif" font-size="11.00" fill="#000000">[2000000000,10]</text>
<polygon fill="none" stroke="#000000" points="385,-743.7 385,-765.7 555,-765.7 555,-743.7 385,-743.7"/>
<text text-anchor="start" x="405" y="-750.8" font-family="Helvetica,sans-Serif" font-size="11.00" fill="#000000">lastReadTime</text>
<polygon fill="none" stroke="#000000" points="555,-743.7 555,-765.7 677,-765.7 677,-743.7 555,-743.7"/>
<text text-anchor="start" x="558" y="-751.4" font-family="Helvetica,sans-Serif" font-size="11.00" fill="#000000">[2000000000,10]</text>
<polygon fill="none" stroke="#000000" points="385,-721.7 385,-743.7 555,-743.7 555,-721.7 385,-721.7"/>
<text text-anchor="start" x="405" y="-728.8" font-family="Helvetica,sans-Serif" font-size="11.00" fill="#000000">newCommentCount</text>
<polygon fill="none" stroke="#000000" points="555,-721.7 555,-743.7 677,-743.7 677,-721.7 555,-721.7"/>
<text text-anchor="start" x="558" y="-729.4" font-family="Helvetica,sans-Serif" font-size="11.00" fill="#000000">[2000000000,10]</text>
<polygon fill="none" stroke="#000000" points="385,-699.7 385,-721.7 555,-721.7 555,-699.7 385,-699.7"/>
<text text-anchor="start" x="405" y="-706.8" font-family="Helvetica,sans-Serif" font-size="11.00" fill="#000000">newFavoriteCount</text>
<polygon fill="none" stroke="#000000" points="555,-699.7 555,-721.7 677,-721.7 677,-699.7 555,-699.7"/>
<text text-anchor="start" x="558" y="-707.4" font-family="Helvetica,sans-Serif" font-size="11.00" fill="#000000">[2000000000,10]</text>
<polygon fill="#ffffff" stroke="transparent" points="385,-677.7 385,-699.7 555,-699.7 555,-677.7 385,-677.7"/>
<polygon fill="none" stroke="#000000" points="385,-677.7 385,-699.7 555,-699.7 555,-677.7 385,-677.7"/>
<text text-anchor="start" x="405" y="-684.8" font-family="Helvetica,sans-Serif" font-size="11.00" fill="#000000">ozAssetId</text>
<polygon fill="none" stroke="#000000" points="555,-677.7 555,-699.7 677,-699.7 677,-677.7 555,-677.7"/>
<text text-anchor="start" x="558" y="-685.4" font-family="Helvetica,sans-Serif" font-size="11.00" fill="#000000">[2000000000,10]</text>
<polygon fill="#ffffff" stroke="transparent" points="385,-655.7 385,-677.7 555,-677.7 555,-655.7 385,-655.7"/>
<polygon fill="none" stroke="#000000" points="385,-655.7 385,-677.7 555,-677.7 555,-655.7 385,-655.7"/>
<text text-anchor="start" x="405" y="-662.8" font-family="Helvetica,sans-Serif" font-size="11.00" fill="#000000">ozCatalogId</text>
<polygon fill="none" stroke="#000000" points="555,-655.7 555,-677.7 677,-677.7 677,-655.7 555,-655.7"/>
<text text-anchor="start" x="558" y="-663.4" font-family="Helvetica,sans-Serif" font-size="11.00" fill="#000000">[2000000000,10]</text>
<polygon fill="#ffffff" stroke="transparent" points="385,-633.7 385,-655.7 555,-655.7 555,-633.7 385,-633.7"/>
<polygon fill="none" stroke="#000000" points="385,-633.7 385,-655.7 555,-655.7 555,-633.7 385,-633.7"/>
<text text-anchor="start" x="405" y="-640.8" font-family="Helvetica,sans-Serif" font-size="11.00" fill="#000000">ozSpaceId</text>
<polygon fill="none" stroke="#000000" points="555,-633.7 555,-655.7 677,-655.7 677,-633.7 555,-633.7"/>
<text text-anchor="start" x="558" y="-641.4" font-family="Helvetica,sans-Serif" font-size="11.00" fill="#000000">[2000000000,10]</text>
<polygon fill="#ffffff" stroke="transparent" points="385,-614.7 385,-633.7 474,-633.7 474,-614.7 385,-614.7"/>
<polygon fill="none" stroke="#000000" points="385,-614.7 385,-633.7 474,-633.7 474,-614.7 385,-614.7"/>
<text text-anchor="start" x="388" y="-620.8" font-family="Helvetica,sans-Serif" font-size="11.00" fill="#000000">&lt; 1</text>
<polygon fill="#ffffff" stroke="transparent" points="474,-614.7 474,-633.7 555,-633.7 555,-614.7 474,-614.7"/>
<polygon fill="none" stroke="#000000" points="474,-614.7 474,-633.7 555,-633.7 555,-614.7 474,-614.7"/>
<text text-anchor="start" x="545.8862" y="-620.8" font-family="Helvetica,sans-Serif" font-size="11.00" fill="#000000"> &#160;</text>
<polygon fill="#ffffff" stroke="transparent" points="555,-614.7 555,-633.7 677,-633.7 677,-614.7 555,-614.7"/>
<polygon fill="none" stroke="#000000" points="555,-614.7 555,-633.7 677,-633.7 677,-614.7 555,-614.7"/>
<text text-anchor="start" x="658.4053" y="-620.8" font-family="Helvetica,sans-Serif" font-size="11.00" fill="#000000">0 &gt;</text>
<polygon fill="none" stroke="#000000" stroke-width="2" points="384,-613.7 384,-855.7 678,-855.7 678,-613.7 384,-613.7"/>
</a>
</g>
</g>
<!-- AgLibraryOzFeedbackInfo&#45;&gt;Adobe_images -->
<g id="edge26" class="edge">
<title>AgLibraryOzFeedbackInfo:w&#45;&gt;Adobe_images:e</title>
<path fill="none" stroke="#000000" d="M372.8565,-806.792C325.1874,-880.8777 401.0952,-1438.7 334.5,-1438.7"/>
<polygon fill="#000000" stroke="#000000" points="378.3427,-803.1362 386.9963,-801.6958 381.6713,-800.9181 385,-798.7 385,-798.7 385,-798.7 381.6713,-800.9181 383.0037,-795.7042 378.3427,-803.1362 378.3427,-803.1362"/>
<ellipse fill="none" stroke="#000000" cx="375.6797" cy="-804.9107" rx="3.2" ry="3.2"/>
</g>
<!-- AgLibraryPublishedCollectionImage -->
<g id="node26" class="node">
<title>AgLibraryPublishedCollectionImage</title>
<g id="a_node26"><a xlink:href="../../tables/AgLibraryPublishedCollectionImage.html" xlink:title="AgLibraryPublishedCollectionImage" target="_top">
<polygon fill="#ffffff" stroke="transparent" points="408.5,-530.2 408.5,-591.2 653.5,-591.2 653.5,-530.2 408.5,-530.2"/>
<polygon fill="#f5f5f5" stroke="transparent" points="409,-567.7 409,-590.7 654,-590.7 654,-567.7 409,-567.7"/>
<polygon fill="none" stroke="#000000" points="409,-567.7 409,-590.7 654,-590.7 654,-567.7 409,-567.7"/>
<text text-anchor="start" x="414" y="-576.3" font-family="Helvetica,sans-Serif" font-weight="bold" font-size="11.00" fill="#000000">AgLibraryPublishedCollectionImage</text>
<text text-anchor="start" x="619.5219" y="-575.8" font-family="Helvetica,sans-Serif" font-size="11.00" fill="#000000">[table]</text>
<polygon fill="none" stroke="#000000" points="409,-548.7 409,-567.7 654,-567.7 654,-548.7 409,-548.7"/>
<text text-anchor="start" x="412" y="-554.8" font-family="Helvetica,sans-Serif" font-size="11.00" fill="#000000">...</text>
<polygon fill="#ffffff" stroke="transparent" points="409,-529.7 409,-548.7 530,-548.7 530,-529.7 409,-529.7"/>
<polygon fill="none" stroke="#000000" points="409,-529.7 409,-548.7 530,-548.7 530,-529.7 409,-529.7"/>
<text text-anchor="start" x="412" y="-535.8" font-family="Helvetica,sans-Serif" font-size="11.00" fill="#000000">&lt; 2</text>
<polygon fill="#ffffff" stroke="transparent" points="530,-529.7 530,-548.7 592,-548.7 592,-529.7 530,-529.7"/>
<polygon fill="none" stroke="#000000" points="530,-529.7 530,-548.7 592,-548.7 592,-529.7 530,-529.7"/>
<text text-anchor="start" x="582.8862" y="-535.8" font-family="Helvetica,sans-Serif" font-size="11.00" fill="#000000"> &#160;</text>
<polygon fill="#ffffff" stroke="transparent" points="592,-529.7 592,-548.7 654,-548.7 654,-529.7 592,-529.7"/>
<polygon fill="none" stroke="#000000" points="592,-529.7 592,-548.7 654,-548.7 654,-529.7 592,-529.7"/>
<text text-anchor="start" x="644.8862" y="-535.8" font-family="Helvetica,sans-Serif" font-size="11.00" fill="#000000"> &#160;</text>
</a>
</g>
</g>
<!-- AgLibraryPublishedCollectionImage&#45;&gt;Adobe_images -->
<g id="edge27" class="edge">
<title>AgLibraryPublishedCollectionImage:w&#45;&gt;Adobe_images:e</title>
<path fill="none" stroke="#000000" d="M394.6631,-561.1974C383.2655,-568.2069 381.4731,-584.841 375,-602.7 359.1549,-646.4159 380.9989,-1438.7 334.5,-1438.7"/>
<polygon fill="#000000" stroke="#000000" points="401.2279,-559.596 409.8532,-561.1974 405.114,-558.648 409,-557.7 409,-557.7 409,-557.7 405.114,-558.648 408.1468,-554.2026 401.2279,-559.596 401.2279,-559.596"/>
<ellipse fill="none" stroke="#000000" cx="398.1191" cy="-560.3544" rx="3.2" ry="3.2"/>
</g>
<!-- AgLibraryUpdatedImages -->
<g id="node27" class="node">
<title>AgLibraryUpdatedImages</title>
<g id="a_node27"><a xlink:href="../../tables/AgLibraryUpdatedImages.html" xlink:title="AgLibraryUpdatedImages" target="_top">
<polygon fill="#ffffff" stroke="transparent" points="438.5,-448.2 438.5,-509.2 623.5,-509.2 623.5,-448.2 438.5,-448.2"/>
<polygon fill="#f5f5f5" stroke="transparent" points="439,-485.7 439,-508.7 624,-508.7 624,-485.7 439,-485.7"/>
<polygon fill="none" stroke="#000000" points="439,-485.7 439,-508.7 624,-508.7 624,-485.7 439,-485.7"/>
<text text-anchor="start" x="444" y="-494.3" font-family="Helvetica,sans-Serif" font-weight="bold" font-size="11.00" fill="#000000">AgLibraryUpdatedImages</text>
<text text-anchor="start" x="589.5219" y="-493.8" font-family="Helvetica,sans-Serif" font-size="11.00" fill="#000000">[table]</text>
<polygon fill="none" stroke="#000000" points="439,-466.7 439,-485.7 624,-485.7 624,-466.7 439,-466.7"/>
<text text-anchor="start" x="442" y="-472.8" font-family="Helvetica,sans-Serif" font-size="11.00" fill="#000000">...</text>
<polygon fill="#ffffff" stroke="transparent" points="439,-447.7 439,-466.7 530,-466.7 530,-447.7 439,-447.7"/>
<polygon fill="none" stroke="#000000" points="439,-447.7 439,-466.7 530,-466.7 530,-447.7 439,-447.7"/>
<text text-anchor="start" x="442" y="-453.8" font-family="Helvetica,sans-Serif" font-size="11.00" fill="#000000">&lt; 1</text>
<polygon fill="#ffffff" stroke="transparent" points="530,-447.7 530,-466.7 577,-466.7 577,-447.7 530,-447.7"/>
<polygon fill="none" stroke="#000000" points="530,-447.7 530,-466.7 577,-466.7 577,-447.7 530,-447.7"/>
<text text-anchor="start" x="567.8862" y="-453.8" font-family="Helvetica,sans-Serif" font-size="11.00" fill="#000000"> &#160;</text>
<polygon fill="#ffffff" stroke="transparent" points="577,-447.7 577,-466.7 624,-466.7 624,-447.7 577,-447.7"/>
<polygon fill="none" stroke="#000000" points="577,-447.7 577,-466.7 624,-466.7 624,-447.7 577,-447.7"/>
<text text-anchor="start" x="614.8862" y="-453.8" font-family="Helvetica,sans-Serif" font-size="11.00" fill="#000000"> &#160;</text>
</a>
</g>
</g>
<!-- AgLibraryUpdatedImages&#45;&gt;Adobe_images -->
<g id="edge28" class="edge">
<title>AgLibraryUpdatedImages:w&#45;&gt;Adobe_images:e</title>
<path fill="none" stroke="#000000" d="M428.4215,-476.199C401.6464,-478.9173 389.9079,-492.8137 375,-519.7 350.218,-564.3943 385.6051,-1438.7 334.5,-1438.7"/>
<polygon fill="#000000" stroke="#000000" points="438.0124,-471.7421 438.3894,-479.7333 436.7912,-479.8087 436.4141,-471.8176 438.0124,-471.7421"/>
<polyline fill="none" stroke="#000000" points="439,-475.7 435.0044,-475.8885 "/>
<ellipse fill="none" stroke="#000000" cx="431.808" cy="-476.0393" rx="3.2" ry="3.2"/>
</g>
<!-- AgMetadataSearchIndex -->
<g id="node28" class="node">
<title>AgMetadataSearchIndex</title>
<g id="a_node28"><a xlink:href="../../tables/AgMetadataSearchIndex.html" xlink:title="AgMetadataSearchIndex" target="_top">
<polygon fill="#ffffff" stroke="transparent" points="442,-366.2 442,-427.2 620,-427.2 620,-366.2 442,-366.2"/>
<polygon fill="#f5f5f5" stroke="transparent" points="442,-403.7 442,-426.7 620,-426.7 620,-403.7 442,-403.7"/>
<polygon fill="none" stroke="#000000" points="442,-403.7 442,-426.7 620,-426.7 620,-403.7 442,-403.7"/>
<text text-anchor="start" x="447" y="-412.3" font-family="Helvetica,sans-Serif" font-weight="bold" font-size="11.00" fill="#000000">AgMetadataSearchIndex</text>
<text text-anchor="start" x="585.5219" y="-411.8" font-family="Helvetica,sans-Serif" font-size="11.00" fill="#000000">[table]</text>
<polygon fill="none" stroke="#000000" points="442,-384.7 442,-403.7 620,-403.7 620,-384.7 442,-384.7"/>
<text text-anchor="start" x="445" y="-390.8" font-family="Helvetica,sans-Serif" font-size="11.00" fill="#000000">...</text>
<polygon fill="#ffffff" stroke="transparent" points="442,-365.7 442,-384.7 529,-384.7 529,-365.7 442,-365.7"/>
<polygon fill="none" stroke="#000000" points="442,-365.7 442,-384.7 529,-384.7 529,-365.7 442,-365.7"/>
<text text-anchor="start" x="445" y="-371.8" font-family="Helvetica,sans-Serif" font-size="11.00" fill="#000000">&lt; 1</text>
<polygon fill="#ffffff" stroke="transparent" points="529,-365.7 529,-384.7 574,-384.7 574,-365.7 529,-365.7"/>
<polygon fill="none" stroke="#000000" points="529,-365.7 529,-384.7 574,-384.7 574,-365.7 529,-365.7"/>
<text text-anchor="start" x="564.8862" y="-371.8" font-family="Helvetica,sans-Serif" font-size="11.00" fill="#000000"> &#160;</text>
<polygon fill="#ffffff" stroke="transparent" points="574,-365.7 574,-384.7 620,-384.7 620,-365.7 574,-365.7"/>
<polygon fill="none" stroke="#000000" points="574,-365.7 574,-384.7 620,-384.7 620,-365.7 574,-365.7"/>
<text text-anchor="start" x="610.8862" y="-371.8" font-family="Helvetica,sans-Serif" font-size="11.00" fill="#000000"> &#160;</text>
</a>
</g>
</g>
<!-- AgMetadataSearchIndex&#45;&gt;Adobe_images -->
<g id="edge29" class="edge">
<title>AgMetadataSearchIndex:w&#45;&gt;Adobe_images:e</title>
<path fill="none" stroke="#000000" d="M427.4932,-394.5755C402.1884,-397.9553 389.944,-411.2992 375,-437.7 347.5835,-486.1355 390.1566,-1438.7 334.5,-1438.7"/>
<polygon fill="#000000" stroke="#000000" points="434.0145,-394.182 442.2169,-397.2935 438.0073,-393.941 442,-393.7 442,-393.7 442,-393.7 438.0073,-393.941 441.7831,-390.1065 434.0145,-394.182 434.0145,-394.182"/>
<ellipse fill="none" stroke="#000000" cx="430.8203" cy="-394.3748" rx="3.2" ry="3.2"/>
</g>
<!-- AgOutputImageAsset -->
<g id="node29" class="node">
<title>AgOutputImageAsset</title>
<g id="a_node29"><a xlink:href="../../tables/AgOutputImageAsset.html" xlink:title="AgOutputImageAsset" target="_top">
<polygon fill="#ffffff" stroke="transparent" points="450.5,-284.2 450.5,-345.2 611.5,-345.2 611.5,-284.2 450.5,-284.2"/>
<polygon fill="#f5f5f5" stroke="transparent" points="451,-321.7 451,-344.7 612,-344.7 612,-321.7 451,-321.7"/>
<polygon fill="none" stroke="#000000" points="451,-321.7 451,-344.7 612,-344.7 612,-321.7 451,-321.7"/>
<text text-anchor="start" x="456" y="-330.3" font-family="Helvetica,sans-Serif" font-weight="bold" font-size="11.00" fill="#000000">AgOutputImageAsset</text>
<text text-anchor="start" x="577.5219" y="-329.8" font-family="Helvetica,sans-Serif" font-size="11.00" fill="#000000">[table]</text>
<polygon fill="none" stroke="#000000" points="451,-302.7 451,-321.7 612,-321.7 612,-302.7 451,-302.7"/>
<text text-anchor="start" x="454" y="-308.8" font-family="Helvetica,sans-Serif" font-size="11.00" fill="#000000">...</text>
<polygon fill="#ffffff" stroke="transparent" points="451,-283.7 451,-302.7 530,-302.7 530,-283.7 451,-283.7"/>
<polygon fill="none" stroke="#000000" points="451,-283.7 451,-302.7 530,-302.7 530,-283.7 451,-283.7"/>
<text text-anchor="start" x="454" y="-289.8" font-family="Helvetica,sans-Serif" font-size="11.00" fill="#000000">&lt; 2</text>
<polygon fill="#ffffff" stroke="transparent" points="530,-283.7 530,-302.7 571,-302.7 571,-283.7 530,-283.7"/>
<polygon fill="none" stroke="#000000" points="530,-283.7 530,-302.7 571,-302.7 571,-283.7 530,-283.7"/>
<text text-anchor="start" x="561.8862" y="-289.8" font-family="Helvetica,sans-Serif" font-size="11.00" fill="#000000"> &#160;</text>
<polygon fill="#ffffff" stroke="transparent" points="571,-283.7 571,-302.7 612,-302.7 612,-283.7 571,-283.7"/>
<polygon fill="none" stroke="#000000" points="571,-283.7 571,-302.7 612,-302.7 612,-283.7 571,-283.7"/>
<text text-anchor="start" x="602.8862" y="-289.8" font-family="Helvetica,sans-Serif" font-size="11.00" fill="#000000"> &#160;</text>
</a>
</g>
</g>
<!-- AgOutputImageAsset&#45;&gt;Adobe_images -->
<g id="edge30" class="edge">
<title>AgOutputImageAsset:w&#45;&gt;Adobe_images:e</title>
<path fill="none" stroke="#000000" d="M436.5632,-312.2876C407.4372,-314.908 392.4507,-326.699 375,-355.7 343.9573,-407.2892 394.7087,-1438.7 334.5,-1438.7"/>
<polygon fill="#000000" stroke="#000000" points="443.0066,-312.0254 451.1464,-315.297 447.0033,-311.8627 451,-311.7 451,-311.7 451,-311.7 447.0033,-311.8627 450.8536,-308.103 443.0066,-312.0254 443.0066,-312.0254"/>
<ellipse fill="none" stroke="#000000" cx="439.8093" cy="-312.1555" rx="3.2" ry="3.2"/>
</g>
<!-- AgSourceColorProfileConstants -->
<g id="node30" class="node">
<title>AgSourceColorProfileConstants</title>
<g id="a_node30"><a xlink:href="../../tables/AgSourceColorProfileConstants.html" xlink:title="AgSourceColorProfileConstants" target="_top">
<polygon fill="#ffffff" stroke="transparent" points="419.5,-202.2 419.5,-263.2 642.5,-263.2 642.5,-202.2 419.5,-202.2"/>
<polygon fill="#f5f5f5" stroke="transparent" points="420,-239.7 420,-262.7 643,-262.7 643,-239.7 420,-239.7"/>
<polygon fill="none" stroke="#000000" points="420,-239.7 420,-262.7 643,-262.7 643,-239.7 420,-239.7"/>
<text text-anchor="start" x="425" y="-248.3" font-family="Helvetica,sans-Serif" font-weight="bold" font-size="11.00" fill="#000000">AgSourceColorProfileConstants</text>
<text text-anchor="start" x="608.5219" y="-247.8" font-family="Helvetica,sans-Serif" font-size="11.00" fill="#000000">[table]</text>
<polygon fill="none" stroke="#000000" points="420,-220.7 420,-239.7 643,-239.7 643,-220.7 420,-220.7"/>
<text text-anchor="start" x="423" y="-226.8" font-family="Helvetica,sans-Serif" font-size="11.00" fill="#000000">...</text>
<polygon fill="#ffffff" stroke="transparent" points="420,-201.7 420,-220.7 530,-220.7 530,-201.7 420,-201.7"/>
<polygon fill="none" stroke="#000000" points="420,-201.7 420,-220.7 530,-220.7 530,-201.7 420,-201.7"/>
<text text-anchor="start" x="423" y="-207.8" font-family="Helvetica,sans-Serif" font-size="11.00" fill="#000000">&lt; 1</text>
<polygon fill="#ffffff" stroke="transparent" points="530,-201.7 530,-220.7 586,-220.7 586,-201.7 530,-201.7"/>
<polygon fill="none" stroke="#000000" points="530,-201.7 530,-220.7 586,-220.7 586,-201.7 530,-201.7"/>
<text text-anchor="start" x="576.8862" y="-207.8" font-family="Helvetica,sans-Serif" font-size="11.00" fill="#000000"> &#160;</text>
<polygon fill="#ffffff" stroke="transparent" points="586,-201.7 586,-220.7 643,-220.7 643,-201.7 586,-201.7"/>
<polygon fill="none" stroke="#000000" points="586,-201.7 586,-220.7 643,-220.7 643,-201.7 586,-201.7"/>
<text text-anchor="start" x="633.8862" y="-207.8" font-family="Helvetica,sans-Serif" font-size="11.00" fill="#000000"> &#160;</text>
</a>
</g>
</g>
<!-- AgSourceColorProfileConstants&#45;&gt;Adobe_images -->
<g id="edge31" class="edge">
<title>AgSourceColorProfileConstants:w&#45;&gt;Adobe_images:e</title>
<path fill="none" stroke="#000000" d="M405.4744,-231.8847C389.4698,-237.4754 384.0012,-253.3083 375,-273.7 348.8479,-332.9461 399.2613,-1438.7 334.5,-1438.7"/>
<polygon fill="#000000" stroke="#000000" points="412.089,-230.8899 420.5355,-233.26 416.0445,-230.2949 420,-229.7 420,-229.7 420,-229.7 416.0445,-230.2949 419.4645,-226.14 412.089,-230.8899 412.089,-230.8899"/>
<ellipse fill="none" stroke="#000000" cx="408.9246" cy="-231.3659" rx="3.2" ry="3.2"/>
</g>
<!-- AgTempImages -->
<g id="node31" class="node">
<title>AgTempImages</title>
<g id="a_node31"><a xlink:href="../../tables/AgTempImages.html" xlink:title="AgTempImages" target="_top">
<polygon fill="#ffffff" stroke="transparent" points="467,-120.2 467,-181.2 595,-181.2 595,-120.2 467,-120.2"/>
<polygon fill="#f5f5f5" stroke="transparent" points="467,-157.7 467,-180.7 595,-180.7 595,-157.7 467,-157.7"/>
<polygon fill="none" stroke="#000000" points="467,-157.7 467,-180.7 595,-180.7 595,-157.7 467,-157.7"/>
<text text-anchor="start" x="472" y="-166.3" font-family="Helvetica,sans-Serif" font-weight="bold" font-size="11.00" fill="#000000">AgTempImages</text>
<text text-anchor="start" x="560.5219" y="-165.8" font-family="Helvetica,sans-Serif" font-size="11.00" fill="#000000">[table]</text>
<polygon fill="none" stroke="#000000" points="467,-138.7 467,-157.7 595,-157.7 595,-138.7 467,-138.7"/>
<text text-anchor="start" x="470" y="-144.8" font-family="Helvetica,sans-Serif" font-size="11.00" fill="#000000">...</text>
<polygon fill="#ffffff" stroke="transparent" points="467,-119.7 467,-138.7 529,-138.7 529,-119.7 467,-119.7"/>
<polygon fill="none" stroke="#000000" points="467,-119.7 467,-138.7 529,-138.7 529,-119.7 467,-119.7"/>
<text text-anchor="start" x="470" y="-125.8" font-family="Helvetica,sans-Serif" font-size="11.00" fill="#000000">&lt; 1</text>
<polygon fill="#ffffff" stroke="transparent" points="529,-119.7 529,-138.7 562,-138.7 562,-119.7 529,-119.7"/>
<polygon fill="none" stroke="#000000" points="529,-119.7 529,-138.7 562,-138.7 562,-119.7 529,-119.7"/>
<text text-anchor="start" x="552.8862" y="-125.8" font-family="Helvetica,sans-Serif" font-size="11.00" fill="#000000"> &#160;</text>
<polygon fill="#ffffff" stroke="transparent" points="562,-119.7 562,-138.7 595,-138.7 595,-119.7 562,-119.7"/>
<polygon fill="none" stroke="#000000" points="562,-119.7 562,-138.7 595,-138.7 595,-119.7 562,-119.7"/>
<text text-anchor="start" x="585.8862" y="-125.8" font-family="Helvetica,sans-Serif" font-size="11.00" fill="#000000"> &#160;</text>
</a>
</g>
</g>
<!-- AgTempImages&#45;&gt;Adobe_images -->
<g id="edge32" class="edge">
<title>AgTempImages:w&#45;&gt;Adobe_images:e</title>
<path fill="none" stroke="#000000" d="M456.3044,-147.8364C418.0645,-148.9076 397.7519,-156.8653 375,-191.7 337.0965,-249.7328 403.8143,-1438.7 334.5,-1438.7"/>
<polygon fill="#000000" stroke="#000000" points="466.149,-143.7105 466.2511,-151.7099 464.6513,-151.7303 464.5491,-143.731 466.149,-143.7105"/>
<polyline fill="none" stroke="#000000" points="467,-147.7 463.0003,-147.7511 "/>
<ellipse fill="none" stroke="#000000" cx="459.8006" cy="-147.7919" rx="3.2" ry="3.2"/>
</g>
<!-- AgVideoInfo -->
<g id="node32" class="node">
<title>AgVideoInfo</title>
<g id="a_node32"><a xlink:href="../../tables/AgVideoInfo.html" xlink:title="AgVideoInfo" target="_top">
<polygon fill="#ffffff" stroke="transparent" points="476.5,-38.2 476.5,-99.2 585.5,-99.2 585.5,-38.2 476.5,-38.2"/>
<polygon fill="#f5f5f5" stroke="transparent" points="477,-75.7 477,-98.7 586,-98.7 586,-75.7 477,-75.7"/>
<polygon fill="none" stroke="#000000" points="477,-75.7 477,-98.7 586,-98.7 586,-75.7 477,-75.7"/>
<text text-anchor="start" x="482" y="-84.3" font-family="Helvetica,sans-Serif" font-weight="bold" font-size="11.00" fill="#000000">AgVideoInfo</text>
<text text-anchor="start" x="551.5219" y="-83.8" font-family="Helvetica,sans-Serif" font-size="11.00" fill="#000000">[table]</text>
<polygon fill="none" stroke="#000000" points="477,-56.7 477,-75.7 586,-75.7 586,-56.7 477,-56.7"/>
<text text-anchor="start" x="480" y="-62.8" font-family="Helvetica,sans-Serif" font-size="11.00" fill="#000000">...</text>
<polygon fill="#ffffff" stroke="transparent" points="477,-37.7 477,-56.7 530,-56.7 530,-37.7 477,-37.7"/>
<polygon fill="none" stroke="#000000" points="477,-37.7 477,-56.7 530,-56.7 530,-37.7 477,-37.7"/>
<text text-anchor="start" x="480" y="-43.8" font-family="Helvetica,sans-Serif" font-size="11.00" fill="#000000">&lt; 1</text>
<polygon fill="#ffffff" stroke="transparent" points="530,-37.7 530,-56.7 558,-56.7 558,-37.7 530,-37.7"/>
<polygon fill="none" stroke="#000000" points="530,-37.7 530,-56.7 558,-56.7 558,-37.7 530,-37.7"/>
<text text-anchor="start" x="548.8862" y="-43.8" font-family="Helvetica,sans-Serif" font-size="11.00" fill="#000000"> &#160;</text>
<polygon fill="#ffffff" stroke="transparent" points="558,-37.7 558,-56.7 586,-56.7 586,-37.7 558,-37.7"/>
<polygon fill="none" stroke="#000000" points="558,-37.7 558,-56.7 586,-56.7 586,-37.7 558,-37.7"/>
<text text-anchor="start" x="576.8862" y="-43.8" font-family="Helvetica,sans-Serif" font-size="11.00" fill="#000000"> &#160;</text>
</a>
</g>
</g>
<!-- AgVideoInfo&#45;&gt;Adobe_images -->
<g id="edge33" class="edge">
<title>AgVideoInfo:w&#45;&gt;Adobe_images:e</title>
<path fill="none" stroke="#000000" d="M462.425,-65.8401C422.4481,-66.7596 399.8818,-73.0954 375,-109.7 333.4741,-170.7903 408.3676,-1438.7 334.5,-1438.7"/>
<polygon fill="#000000" stroke="#000000" points="469.0004,-65.777 477.0346,-69.2998 473.0002,-65.7385 477,-65.7 477,-65.7 477,-65.7 473.0002,-65.7385 476.9654,-62.1002 469.0004,-65.777 469.0004,-65.777"/>
<ellipse fill="none" stroke="#000000" cx="465.8005" cy="-65.8077" rx="3.2" ry="3.2"/>
</g>
</g>
</svg>
