<?xml version="1.0" encoding="UTF-8" standalone="no"?>
<!DOCTYPE svg PUBLIC "-//W3C//DTD SVG 1.1//EN"
 "http://www.w3.org/Graphics/SVG/1.1/DTD/svg11.dtd">
<!-- Generated by graphviz version 2.40.1 (20161225.0304)
 -->
<!-- Title: oneDegreeRelationshipsDiagram Pages: 1 -->
<svg width="788pt" height="503pt"
 viewBox="0.00 0.00 788.00 502.70" xmlns="http://www.w3.org/2000/svg" xmlns:xlink="http://www.w3.org/1999/xlink">
<g id="graph0" class="graph" transform="scale(1 1) rotate(0) translate(4 498.7)">
<title>oneDegreeRelationshipsDiagram</title>
<polygon fill="#ffffff" stroke="transparent" points="-4,4 -4,-498.7 784,-498.7 784,4 -4,4"/>
<text text-anchor="middle" x="72.4936" y="-7.3" font-family="Helvetica,sans-Serif" font-size="11.00" fill="#000000">Generated by SchemaSpy</text>
<!-- AgLibraryCollectionStack -->
<g id="node1" class="node">
<title>AgLibraryCollectionStack</title>
<g id="a_node1"><a xlink:href="../../tables/AgLibraryCollectionStack.html" xlink:title="AgLibraryCollectionStack" target="_top">
<polygon fill="#ffffff" stroke="transparent" points="210,-38.2 210,-187.2 395,-187.2 395,-38.2 210,-38.2"/>
<polygon fill="#f5f5f5" stroke="transparent" points="210.5,-163.7 210.5,-186.7 395.5,-186.7 395.5,-163.7 210.5,-163.7"/>
<polygon fill="none" stroke="#000000" points="210.5,-163.7 210.5,-186.7 395.5,-186.7 395.5,-163.7 210.5,-163.7"/>
<text text-anchor="start" x="215.5" y="-172.3" font-family="Helvetica,sans-Serif" font-weight="bold" font-size="11.00" fill="#000000">AgLibraryCollectionStack</text>
<text text-anchor="start" x="361.0219" y="-171.8" font-family="Helvetica,sans-Serif" font-size="11.00" fill="#000000">[table]</text>
<polygon fill="none" stroke="#000000" points="210.5,-141.7 210.5,-163.7 395.5,-163.7 395.5,-141.7 210.5,-141.7"/>
<image xlink:href="../../images/primaryKeys.png" width="11px" height="12px" preserveAspectRatio="xMinYMin meet" x="215.5" y="-158.7"/>
<text text-anchor="start" x="239.5" y="-148.8" font-family="Helvetica,sans-Serif" font-size="11.00" fill="#000000">id_local</text>
<polygon fill="#ffffff" stroke="transparent" points="210.5,-119.7 210.5,-141.7 395.5,-141.7 395.5,-119.7 210.5,-119.7"/>
<polygon fill="none" stroke="#000000" points="210.5,-119.7 210.5,-141.7 395.5,-141.7 395.5,-119.7 210.5,-119.7"/>
<text text-anchor="start" x="239.5" y="-126.8" font-family="Helvetica,sans-Serif" font-size="11.00" fill="#000000">id_global</text>
<polygon fill="#ffffff" stroke="transparent" points="210.5,-97.7 210.5,-119.7 395.5,-119.7 395.5,-97.7 210.5,-97.7"/>
<polygon fill="none" stroke="#000000" points="210.5,-97.7 210.5,-119.7 395.5,-119.7 395.5,-97.7 210.5,-97.7"/>
<text text-anchor="start" x="239.5" y="-104.8" font-family="Helvetica,sans-Serif" font-size="11.00" fill="#000000">collapsed</text>
<polygon fill="#ffffff" stroke="transparent" points="210.5,-75.7 210.5,-97.7 395.5,-97.7 395.5,-75.7 210.5,-75.7"/>
<polygon fill="none" stroke="#000000" points="210.5,-75.7 210.5,-97.7 395.5,-97.7 395.5,-75.7 210.5,-75.7"/>
<image xlink:href="../../images/foreignKeys.png" width="11px" height="12px" preserveAspectRatio="xMinYMin meet" x="215.5" y="-92.7"/>
<text text-anchor="start" x="239.5" y="-82.8" font-family="Helvetica,sans-Serif" font-size="11.00" fill="#000000">collection</text>
<polygon fill="none" stroke="#000000" points="210.5,-56.7 210.5,-75.7 395.5,-75.7 395.5,-56.7 210.5,-56.7"/>
<text text-anchor="start" x="213.5" y="-62.8" font-family="Helvetica,sans-Serif" font-size="11.00" fill="#000000">...</text>
<polygon fill="#ffffff" stroke="transparent" points="210.5,-37.7 210.5,-56.7 296.5,-56.7 296.5,-37.7 210.5,-37.7"/>
<polygon fill="none" stroke="#000000" points="210.5,-37.7 210.5,-56.7 296.5,-56.7 296.5,-37.7 210.5,-37.7"/>
<text text-anchor="start" x="213.5" y="-43.8" font-family="Helvetica,sans-Serif" font-size="11.00" fill="#000000">&lt; 1</text>
<polygon fill="#ffffff" stroke="transparent" points="296.5,-37.7 296.5,-56.7 341.5,-56.7 341.5,-37.7 296.5,-37.7"/>
<polygon fill="none" stroke="#000000" points="296.5,-37.7 296.5,-56.7 341.5,-56.7 341.5,-37.7 296.5,-37.7"/>
<text text-anchor="start" x="332.3862" y="-43.8" font-family="Helvetica,sans-Serif" font-size="11.00" fill="#000000"> &#160;</text>
<polygon fill="#ffffff" stroke="transparent" points="341.5,-37.7 341.5,-56.7 395.5,-56.7 395.5,-37.7 341.5,-37.7"/>
<polygon fill="none" stroke="#000000" points="341.5,-37.7 341.5,-56.7 395.5,-56.7 395.5,-37.7 341.5,-37.7"/>
<text text-anchor="start" x="376.9053" y="-43.8" font-family="Helvetica,sans-Serif" font-size="11.00" fill="#000000">2 &gt;</text>
</a>
</g>
</g>
<!-- AgLibraryCollection -->
<g id="node2" class="node">
<title>AgLibraryCollection</title>
<g id="a_node2"><a xlink:href="../../tables/AgLibraryCollection.html" xlink:title="AgLibraryCollection" target="_top">
<polygon fill="#ffffff" stroke="transparent" points="8,-152.2 8,-301.2 161,-301.2 161,-152.2 8,-152.2"/>
<polygon fill="#f5f5f5" stroke="transparent" points="8.5,-277.7 8.5,-300.7 161.5,-300.7 161.5,-277.7 8.5,-277.7"/>
<polygon fill="none" stroke="#000000" points="8.5,-277.7 8.5,-300.7 161.5,-300.7 161.5,-277.7 8.5,-277.7"/>
<text text-anchor="start" x="13.5" y="-286.3" font-family="Helvetica,sans-Serif" font-weight="bold" font-size="11.00" fill="#000000">AgLibraryCollection</text>
<text text-anchor="start" x="127.0219" y="-285.8" font-family="Helvetica,sans-Serif" font-size="11.00" fill="#000000">[table]</text>
<polygon fill="none" stroke="#000000" points="8.5,-255.7 8.5,-277.7 161.5,-277.7 161.5,-255.7 8.5,-255.7"/>
<image xlink:href="../../images/primaryKeys.png" width="11px" height="12px" preserveAspectRatio="xMinYMin meet" x="13.5" y="-272.7"/>
<text text-anchor="start" x="37.5" y="-262.8" font-family="Helvetica,sans-Serif" font-size="11.00" fill="#000000">id_local</text>
<polygon fill="#ffffff" stroke="transparent" points="8.5,-233.7 8.5,-255.7 161.5,-255.7 161.5,-233.7 8.5,-233.7"/>
<polygon fill="none" stroke="#000000" points="8.5,-233.7 8.5,-255.7 161.5,-255.7 161.5,-233.7 8.5,-233.7"/>
<text text-anchor="start" x="37.5" y="-240.8" font-family="Helvetica,sans-Serif" font-size="11.00" fill="#000000">genealogy</text>
<polygon fill="#ffffff" stroke="transparent" points="8.5,-211.7 8.5,-233.7 161.5,-233.7 161.5,-211.7 8.5,-211.7"/>
<polygon fill="none" stroke="#000000" points="8.5,-211.7 8.5,-233.7 161.5,-233.7 161.5,-211.7 8.5,-211.7"/>
<text text-anchor="start" x="37.5" y="-218.8" font-family="Helvetica,sans-Serif" font-size="11.00" fill="#000000">name</text>
<polygon fill="#ffffff" stroke="transparent" points="8.5,-189.7 8.5,-211.7 161.5,-211.7 161.5,-189.7 8.5,-189.7"/>
<polygon fill="none" stroke="#000000" points="8.5,-189.7 8.5,-211.7 161.5,-211.7 161.5,-189.7 8.5,-189.7"/>
<image xlink:href="../../images/foreignKeys.png" width="11px" height="12px" preserveAspectRatio="xMinYMin meet" x="13.5" y="-206.7"/>
<text text-anchor="start" x="37.5" y="-196.8" font-family="Helvetica,sans-Serif" font-size="11.00" fill="#000000">parent</text>
<polygon fill="none" stroke="#000000" points="8.5,-170.7 8.5,-189.7 161.5,-189.7 161.5,-170.7 8.5,-170.7"/>
<text text-anchor="start" x="11.5" y="-176.8" font-family="Helvetica,sans-Serif" font-size="11.00" fill="#000000">...</text>
<polygon fill="#ffffff" stroke="transparent" points="8.5,-151.7 8.5,-170.7 75.5,-170.7 75.5,-151.7 8.5,-151.7"/>
<polygon fill="none" stroke="#000000" points="8.5,-151.7 8.5,-170.7 75.5,-170.7 75.5,-151.7 8.5,-151.7"/>
<text text-anchor="start" x="11.5" y="-157.8" font-family="Helvetica,sans-Serif" font-size="11.00" fill="#000000">&lt; 1</text>
<polygon fill="#ffffff" stroke="transparent" points="75.5,-151.7 75.5,-170.7 110.5,-170.7 110.5,-151.7 75.5,-151.7"/>
<polygon fill="none" stroke="#000000" points="75.5,-151.7 75.5,-170.7 110.5,-170.7 110.5,-151.7 75.5,-151.7"/>
<text text-anchor="start" x="101.3862" y="-157.8" font-family="Helvetica,sans-Serif" font-size="11.00" fill="#000000"> &#160;</text>
<polygon fill="#ffffff" stroke="transparent" points="110.5,-151.7 110.5,-170.7 161.5,-170.7 161.5,-151.7 110.5,-151.7"/>
<polygon fill="none" stroke="#000000" points="110.5,-151.7 110.5,-170.7 161.5,-170.7 161.5,-151.7 110.5,-151.7"/>
<text text-anchor="start" x="136.7904" y="-157.8" font-family="Helvetica,sans-Serif" font-size="11.00" fill="#000000">13 &gt;</text>
</a>
</g>
</g>
<!-- AgLibraryCollectionStack&#45;&gt;AgLibraryCollection -->
<g id="edge1" class="edge">
<title>AgLibraryCollectionStack:w&#45;&gt;AgLibraryCollection:e</title>
<path fill="none" stroke="#000000" d="M196.1692,-89.1084C142.6272,-110.4682 238.7435,-266.7 161.5,-266.7"/>
<polygon fill="#000000" stroke="#000000" points="202.6106,-88.0259 211.0967,-90.2502 206.5553,-87.363 210.5,-86.7 210.5,-86.7 210.5,-86.7 206.5553,-87.363 209.9033,-83.1498 202.6106,-88.0259 202.6106,-88.0259"/>
<ellipse fill="none" stroke="#000000" cx="199.4549" cy="-88.5563" rx="3.2" ry="3.2"/>
</g>
<!-- AgLibraryCollectionStackImage -->
<g id="node3" class="node">
<title>AgLibraryCollectionStackImage</title>
<g id="a_node3"><a xlink:href="../../tables/AgLibraryCollectionStackImage.html" xlink:title="AgLibraryCollectionStackImage" target="_top">
<polygon fill="#ffffff" stroke="transparent" points="444,-312.7 444,-490.7 772,-490.7 772,-312.7 444,-312.7"/>
<polygon fill="#f5f5f5" stroke="transparent" points="446,-465.7 446,-488.7 770,-488.7 770,-465.7 446,-465.7"/>
<polygon fill="none" stroke="#000000" points="446,-465.7 446,-488.7 770,-488.7 770,-465.7 446,-465.7"/>
<text text-anchor="start" x="451" y="-474.3" font-family="Helvetica,sans-Serif" font-weight="bold" font-size="11.00" fill="#000000">AgLibraryCollectionStackImage</text>
<text text-anchor="start" x="735.0437" y="-473.8" font-family="Helvetica,sans-Serif" font-size="11.00" fill="#000000">[table]</text>
<polygon fill="none" stroke="#000000" points="446,-443.7 446,-465.7 648,-465.7 648,-443.7 446,-443.7"/>
<image xlink:href="../../images/primaryKeys.png" width="11px" height="12px" preserveAspectRatio="xMinYMin meet" x="451" y="-460.7"/>
<text text-anchor="start" x="466" y="-450.8" font-family="Helvetica,sans-Serif" font-size="11.00" fill="#000000">id_local</text>
<polygon fill="none" stroke="#000000" points="648,-443.7 648,-465.7 770,-465.7 770,-443.7 648,-443.7"/>
<text text-anchor="start" x="650.9156" y="-451.4" font-family="Helvetica,sans-Serif" font-size="11.00" fill="#000000">integer[2000000000,10]</text>
<polygon fill="#ffffff" stroke="transparent" points="446,-421.7 446,-443.7 648,-443.7 648,-421.7 446,-421.7"/>
<polygon fill="none" stroke="#000000" points="446,-421.7 446,-443.7 648,-443.7 648,-421.7 446,-421.7"/>
<text text-anchor="start" x="466" y="-428.8" font-family="Helvetica,sans-Serif" font-size="11.00" fill="#000000">collapsed</text>
<polygon fill="none" stroke="#000000" points="648,-421.7 648,-443.7 770,-443.7 770,-421.7 648,-421.7"/>
<text text-anchor="start" x="650.9156" y="-429.4" font-family="Helvetica,sans-Serif" font-size="11.00" fill="#000000">integer[2000000000,10]</text>
<polygon fill="#ffffff" stroke="transparent" points="446,-399.7 446,-421.7 648,-421.7 648,-399.7 446,-399.7"/>
<polygon fill="none" stroke="#000000" points="446,-399.7 446,-421.7 648,-421.7 648,-399.7 446,-399.7"/>
<image xlink:href="../../images/foreignKeys.png" width="11px" height="12px" preserveAspectRatio="xMinYMin meet" x="451" y="-416.7"/>
<text text-anchor="start" x="466" y="-406.8" font-family="Helvetica,sans-Serif" font-size="11.00" fill="#000000">collection</text>
<polygon fill="none" stroke="#000000" points="648,-399.7 648,-421.7 770,-421.7 770,-399.7 648,-399.7"/>
<text text-anchor="start" x="650.9156" y="-407.4" font-family="Helvetica,sans-Serif" font-size="11.00" fill="#000000">integer[2000000000,10]</text>
<polygon fill="#ffffff" stroke="transparent" points="446,-377.7 446,-399.7 648,-399.7 648,-377.7 446,-377.7"/>
<polygon fill="none" stroke="#000000" points="446,-377.7 446,-399.7 648,-399.7 648,-377.7 446,-377.7"/>
<image xlink:href="../../images/foreignKeys.png" width="11px" height="12px" preserveAspectRatio="xMinYMin meet" x="451" y="-394.7"/>
<text text-anchor="start" x="466" y="-384.8" font-family="Helvetica,sans-Serif" font-size="11.00" fill="#000000">image</text>
<polygon fill="none" stroke="#000000" points="648,-377.7 648,-399.7 770,-399.7 770,-377.7 648,-377.7"/>
<text text-anchor="start" x="650.9156" y="-385.4" font-family="Helvetica,sans-Serif" font-size="11.00" fill="#000000">integer[2000000000,10]</text>
<polygon fill="#ffffff" stroke="transparent" points="446,-355.7 446,-377.7 648,-377.7 648,-355.7 446,-355.7"/>
<polygon fill="none" stroke="#000000" points="446,-355.7 446,-377.7 648,-377.7 648,-355.7 446,-355.7"/>
<text text-anchor="start" x="466" y="-362.8" font-family="Helvetica,sans-Serif" font-size="11.00" fill="#000000">position</text>
<polygon fill="none" stroke="#000000" points="648,-355.7 648,-377.7 770,-377.7 770,-355.7 648,-355.7"/>
<text text-anchor="start" x="651" y="-363.4" font-family="Helvetica,sans-Serif" font-size="11.00" fill="#000000">[2000000000,10]</text>
<polygon fill="#ffffff" stroke="transparent" points="446,-333.7 446,-355.7 648,-355.7 648,-333.7 446,-333.7"/>
<polygon fill="none" stroke="#000000" points="446,-333.7 446,-355.7 648,-355.7 648,-333.7 446,-333.7"/>
<image xlink:href="../../images/foreignKeys.png" width="11px" height="12px" preserveAspectRatio="xMinYMin meet" x="451" y="-350.7"/>
<text text-anchor="start" x="466" y="-340.8" font-family="Helvetica,sans-Serif" font-size="11.00" fill="#000000">stack</text>
<polygon fill="none" stroke="#000000" points="648,-333.7 648,-355.7 770,-355.7 770,-333.7 648,-333.7"/>
<text text-anchor="start" x="650.9156" y="-341.4" font-family="Helvetica,sans-Serif" font-size="11.00" fill="#000000">integer[2000000000,10]</text>
<polygon fill="#ffffff" stroke="transparent" points="446,-314.7 446,-333.7 551,-333.7 551,-314.7 446,-314.7"/>
<polygon fill="none" stroke="#000000" points="446,-314.7 446,-333.7 551,-333.7 551,-314.7 446,-314.7"/>
<text text-anchor="start" x="449" y="-320.8" font-family="Helvetica,sans-Serif" font-size="11.00" fill="#000000">&lt; 3</text>
<polygon fill="#ffffff" stroke="transparent" points="551,-314.7 551,-333.7 648,-333.7 648,-314.7 551,-314.7"/>
<polygon fill="none" stroke="#000000" points="551,-314.7 551,-333.7 648,-333.7 648,-314.7 551,-314.7"/>
<text text-anchor="start" x="638.8862" y="-320.8" font-family="Helvetica,sans-Serif" font-size="11.00" fill="#000000"> &#160;</text>
<polygon fill="#ffffff" stroke="transparent" points="648,-314.7 648,-333.7 770,-333.7 770,-314.7 648,-314.7"/>
<polygon fill="none" stroke="#000000" points="648,-314.7 648,-333.7 770,-333.7 770,-314.7 648,-314.7"/>
<text text-anchor="start" x="751.4053" y="-320.8" font-family="Helvetica,sans-Serif" font-size="11.00" fill="#000000">0 &gt;</text>
<polygon fill="none" stroke="#000000" stroke-width="2" points="445,-313.7 445,-489.7 771,-489.7 771,-313.7 445,-313.7"/>
</a>
</g>
</g>
<!-- AgLibraryCollectionStackImage&#45;&gt;AgLibraryCollectionStack -->
<g id="edge4" class="edge">
<title>AgLibraryCollectionStackImage:w&#45;&gt;AgLibraryCollectionStack:e</title>
<path fill="none" stroke="#000000" d="M431.4937,-342.41C373.113,-320.7476 478.0486,-152.7 395.5,-152.7"/>
<polygon fill="#000000" stroke="#000000" points="438.0979,-343.4525 445.4386,-348.256 442.0489,-344.0763 446,-344.7 446,-344.7 446,-344.7 442.0489,-344.0763 446.5614,-341.144 438.0979,-343.4525 438.0979,-343.4525"/>
<ellipse fill="none" stroke="#000000" cx="434.937" cy="-342.9535" rx="3.2" ry="3.2"/>
</g>
<!-- AgLibraryCollectionStackImage&#45;&gt;AgLibraryCollection -->
<g id="edge2" class="edge">
<title>AgLibraryCollectionStackImage:w&#45;&gt;AgLibraryCollection:e</title>
<path fill="none" stroke="#000000" d="M431.8479,-414.2359C422.517,-419.6878 418.1102,-429.9128 403,-433.7 316.347,-455.4188 272.2186,-488.9249 202,-433.7 141.9681,-386.4866 237.8737,-266.7 161.5,-266.7"/>
<polygon fill="#000000" stroke="#000000" points="438.2386,-412.6392 446.8727,-414.1926 442.1193,-411.6696 446,-410.7 446,-410.7 446,-410.7 442.1193,-411.6696 445.1273,-407.2074 438.2386,-412.6392 438.2386,-412.6392"/>
<ellipse fill="none" stroke="#000000" cx="435.134" cy="-413.4149" rx="3.2" ry="3.2"/>
</g>
<!-- Adobe_images -->
<g id="node4" class="node">
<title>Adobe_images</title>
<g id="a_node4"><a xlink:href="../../tables/Adobe_images.html" xlink:title="Adobe_images" target="_top">
<polygon fill="#ffffff" stroke="transparent" points="222,-208.2 222,-423.2 383,-423.2 383,-208.2 222,-208.2"/>
<polygon fill="#f5f5f5" stroke="transparent" points="222.5,-399.7 222.5,-422.7 383.5,-422.7 383.5,-399.7 222.5,-399.7"/>
<polygon fill="none" stroke="#000000" points="222.5,-399.7 222.5,-422.7 383.5,-422.7 383.5,-399.7 222.5,-399.7"/>
<text text-anchor="start" x="227.5" y="-408.3" font-family="Helvetica,sans-Serif" font-weight="bold" font-size="11.00" fill="#000000">Adobe_images</text>
<text text-anchor="start" x="348.5437" y="-407.8" font-family="Helvetica,sans-Serif" font-size="11.00" fill="#000000">[table]</text>
<polygon fill="none" stroke="#000000" points="222.5,-377.7 222.5,-399.7 383.5,-399.7 383.5,-377.7 222.5,-377.7"/>
<image xlink:href="../../images/primaryKeys.png" width="11px" height="12px" preserveAspectRatio="xMinYMin meet" x="227.5" y="-394.7"/>
<text text-anchor="start" x="242.5" y="-384.8" font-family="Helvetica,sans-Serif" font-size="11.00" fill="#000000">id_local</text>
<polygon fill="#ffffff" stroke="transparent" points="222.5,-355.7 222.5,-377.7 383.5,-377.7 383.5,-355.7 222.5,-355.7"/>
<polygon fill="none" stroke="#000000" points="222.5,-355.7 222.5,-377.7 383.5,-377.7 383.5,-355.7 222.5,-355.7"/>
<text text-anchor="start" x="242.5" y="-362.8" font-family="Helvetica,sans-Serif" font-size="11.00" fill="#000000">id_global</text>
<polygon fill="#ffffff" stroke="transparent" points="222.5,-333.7 222.5,-355.7 383.5,-355.7 383.5,-333.7 222.5,-333.7"/>
<polygon fill="none" stroke="#000000" points="222.5,-333.7 222.5,-355.7 383.5,-355.7 383.5,-333.7 222.5,-333.7"/>
<text text-anchor="start" x="242.5" y="-340.8" font-family="Helvetica,sans-Serif" font-size="11.00" fill="#000000">captureTime</text>
<polygon fill="#ffffff" stroke="transparent" points="222.5,-311.7 222.5,-333.7 383.5,-333.7 383.5,-311.7 222.5,-311.7"/>
<polygon fill="none" stroke="#000000" points="222.5,-311.7 222.5,-333.7 383.5,-333.7 383.5,-311.7 222.5,-311.7"/>
<image xlink:href="../../images/foreignKeys.png" width="11px" height="12px" preserveAspectRatio="xMinYMin meet" x="227.5" y="-328.7"/>
<text text-anchor="start" x="242.5" y="-318.8" font-family="Helvetica,sans-Serif" font-size="11.00" fill="#000000">masterImage</text>
<polygon fill="#ffffff" stroke="transparent" points="222.5,-289.7 222.5,-311.7 383.5,-311.7 383.5,-289.7 222.5,-289.7"/>
<polygon fill="none" stroke="#000000" points="222.5,-289.7 222.5,-311.7 383.5,-311.7 383.5,-289.7 222.5,-289.7"/>
<text text-anchor="start" x="242.5" y="-296.8" font-family="Helvetica,sans-Serif" font-size="11.00" fill="#000000">originalRootEntity</text>
<polygon fill="#ffffff" stroke="transparent" points="222.5,-267.7 222.5,-289.7 383.5,-289.7 383.5,-267.7 222.5,-267.7"/>
<polygon fill="none" stroke="#000000" points="222.5,-267.7 222.5,-289.7 383.5,-289.7 383.5,-267.7 222.5,-267.7"/>
<text text-anchor="start" x="242.5" y="-274.8" font-family="Helvetica,sans-Serif" font-size="11.00" fill="#000000">rating</text>
<polygon fill="#ffffff" stroke="transparent" points="222.5,-245.7 222.5,-267.7 383.5,-267.7 383.5,-245.7 222.5,-245.7"/>
<polygon fill="none" stroke="#000000" points="222.5,-245.7 222.5,-267.7 383.5,-267.7 383.5,-245.7 222.5,-245.7"/>
<image xlink:href="../../images/foreignKeys.png" width="11px" height="12px" preserveAspectRatio="xMinYMin meet" x="227.5" y="-262.7"/>
<text text-anchor="start" x="242.5" y="-252.8" font-family="Helvetica,sans-Serif" font-size="11.00" fill="#000000">rootFile</text>
<polygon fill="none" stroke="#000000" points="222.5,-226.7 222.5,-245.7 383.5,-245.7 383.5,-226.7 222.5,-226.7"/>
<text text-anchor="start" x="225.5" y="-232.8" font-family="Helvetica,sans-Serif" font-size="11.00" fill="#000000">...</text>
<polygon fill="#ffffff" stroke="transparent" points="222.5,-207.7 222.5,-226.7 293.5,-226.7 293.5,-207.7 222.5,-207.7"/>
<polygon fill="none" stroke="#000000" points="222.5,-207.7 222.5,-226.7 293.5,-226.7 293.5,-207.7 222.5,-207.7"/>
<text text-anchor="start" x="225.5" y="-213.8" font-family="Helvetica,sans-Serif" font-size="11.00" fill="#000000">&lt; 2</text>
<polygon fill="#ffffff" stroke="transparent" points="293.5,-207.7 293.5,-226.7 330.5,-226.7 330.5,-207.7 293.5,-207.7"/>
<polygon fill="none" stroke="#000000" points="293.5,-207.7 293.5,-226.7 330.5,-226.7 330.5,-207.7 293.5,-207.7"/>
<text text-anchor="start" x="321.3862" y="-213.8" font-family="Helvetica,sans-Serif" font-size="11.00" fill="#000000"> &#160;</text>
<polygon fill="#ffffff" stroke="transparent" points="330.5,-207.7 330.5,-226.7 383.5,-226.7 383.5,-207.7 330.5,-207.7"/>
<polygon fill="none" stroke="#000000" points="330.5,-207.7 330.5,-226.7 383.5,-226.7 383.5,-207.7 330.5,-207.7"/>
<text text-anchor="start" x="358.7904" y="-213.8" font-family="Helvetica,sans-Serif" font-size="11.00" fill="#000000">31 &gt;</text>
</a>
</g>
</g>
<!-- AgLibraryCollectionStackImage&#45;&gt;Adobe_images -->
<g id="edge3" class="edge">
<title>AgLibraryCollectionStackImage:w&#45;&gt;Adobe_images:e</title>
<path fill="none" stroke="#000000" d="M431.3024,-388.7C414.5415,-388.7 405.6354,-388.7 383.5,-388.7"/>
<polygon fill="#000000" stroke="#000000" points="438,-388.7001 446,-392.3 442,-388.7 446,-388.7 446,-388.7 446,-388.7 442,-388.7 446,-385.1 438,-388.7001 438,-388.7001"/>
<ellipse fill="none" stroke="#000000" cx="434.8" cy="-388.7001" rx="3.2" ry="3.2"/>
</g>
</g>
</svg>
