<?xml version="1.0" encoding="UTF-8" standalone="no"?>
<!DOCTYPE svg PUBLIC "-//W3C//DTD SVG 1.1//EN"
 "http://www.w3.org/Graphics/SVG/1.1/DTD/svg11.dtd">
<!-- Generated by graphviz version 2.40.1 (20161225.0304)
 -->
<!-- Title: oneDegreeRelationshipsDiagram Pages: 1 -->
<svg width="689pt" height="411pt"
 viewBox="0.00 0.00 688.94 410.70" xmlns="http://www.w3.org/2000/svg" xmlns:xlink="http://www.w3.org/1999/xlink">
<g id="graph0" class="graph" transform="scale(1 1) rotate(0) translate(4 406.7)">
<title>oneDegreeRelationshipsDiagram</title>
<polygon fill="#ffffff" stroke="transparent" points="-4,4 -4,-406.7 684.9427,-406.7 684.9427,4 -4,4"/>
<text text-anchor="middle" x="72.4936" y="-7.3" font-family="Helvetica,sans-Serif" font-size="11.00" fill="#000000">Generated by SchemaSpy</text>
<!-- AgLibraryPublishedCollection -->
<g id="node1" class="node">
<title>AgLibraryPublishedCollection</title>
<g id="a_node1"><a xlink:href="../../tables/AgLibraryPublishedCollection.html" xlink:title="AgLibraryPublishedCollection" target="_top">
<polygon fill="#ffffff" stroke="transparent" points="48.9427,-38.2 48.9427,-304.2 367.9427,-304.2 367.9427,-38.2 48.9427,-38.2"/>
<polygon fill="#f5f5f5" stroke="transparent" points="51.4427,-279.2 51.4427,-302.2 366.4427,-302.2 366.4427,-279.2 51.4427,-279.2"/>
<polygon fill="none" stroke="#000000" points="51.4427,-279.2 51.4427,-302.2 366.4427,-302.2 366.4427,-279.2 51.4427,-279.2"/>
<text text-anchor="start" x="56.4427" y="-287.8" font-family="Helvetica,sans-Serif" font-weight="bold" font-size="11.00" fill="#000000">AgLibraryPublishedCollection</text>
<text text-anchor="start" x="331.4864" y="-287.3" font-family="Helvetica,sans-Serif" font-size="11.00" fill="#000000">[table]</text>
<polygon fill="none" stroke="#000000" points="51.4427,-257.2 51.4427,-279.2 244.4427,-279.2 244.4427,-257.2 51.4427,-257.2"/>
<image xlink:href="../../images/primaryKeys.png" width="11px" height="12px" preserveAspectRatio="xMinYMin meet" x="56.4427" y="-274.2"/>
<text text-anchor="start" x="71.4427" y="-264.3" font-family="Helvetica,sans-Serif" font-size="11.00" fill="#000000">id_local</text>
<polygon fill="none" stroke="#000000" points="244.4427,-257.2 244.4427,-279.2 366.4427,-279.2 366.4427,-257.2 244.4427,-257.2"/>
<text text-anchor="start" x="247.3583" y="-264.9" font-family="Helvetica,sans-Serif" font-size="11.00" fill="#000000">integer[2000000000,10]</text>
<polygon fill="none" stroke="#000000" points="51.4427,-235.2 51.4427,-257.2 244.4427,-257.2 244.4427,-235.2 51.4427,-235.2"/>
<text text-anchor="start" x="71.4427" y="-242.3" font-family="Helvetica,sans-Serif" font-size="11.00" fill="#000000">creationId</text>
<polygon fill="none" stroke="#000000" points="244.4427,-235.2 244.4427,-257.2 366.4427,-257.2 366.4427,-235.2 244.4427,-235.2"/>
<text text-anchor="start" x="247.4427" y="-242.9" font-family="Helvetica,sans-Serif" font-size="11.00" fill="#000000">[2000000000,10]</text>
<polygon fill="#ffffff" stroke="transparent" points="51.4427,-213.2 51.4427,-235.2 244.4427,-235.2 244.4427,-213.2 51.4427,-213.2"/>
<polygon fill="none" stroke="#000000" points="51.4427,-213.2 51.4427,-235.2 244.4427,-235.2 244.4427,-213.2 51.4427,-213.2"/>
<text text-anchor="start" x="71.4427" y="-220.3" font-family="Helvetica,sans-Serif" font-size="11.00" fill="#000000">genealogy</text>
<polygon fill="none" stroke="#000000" points="244.4427,-213.2 244.4427,-235.2 366.4427,-235.2 366.4427,-213.2 244.4427,-213.2"/>
<text text-anchor="start" x="247.4427" y="-220.9" font-family="Helvetica,sans-Serif" font-size="11.00" fill="#000000">[2000000000,10]</text>
<polygon fill="none" stroke="#000000" points="51.4427,-191.2 51.4427,-213.2 244.4427,-213.2 244.4427,-191.2 51.4427,-191.2"/>
<text text-anchor="start" x="71.4427" y="-198.3" font-family="Helvetica,sans-Serif" font-size="11.00" fill="#000000">imageCount</text>
<polygon fill="none" stroke="#000000" points="244.4427,-191.2 244.4427,-213.2 366.4427,-213.2 366.4427,-191.2 244.4427,-191.2"/>
<text text-anchor="start" x="247.4427" y="-198.9" font-family="Helvetica,sans-Serif" font-size="11.00" fill="#000000">[2000000000,10]</text>
<polygon fill="none" stroke="#000000" points="51.4427,-169.2 51.4427,-191.2 244.4427,-191.2 244.4427,-169.2 51.4427,-169.2"/>
<text text-anchor="start" x="71.4427" y="-176.3" font-family="Helvetica,sans-Serif" font-size="11.00" fill="#000000">isDefaultCollection</text>
<polygon fill="none" stroke="#000000" points="244.4427,-169.2 244.4427,-191.2 366.4427,-191.2 366.4427,-169.2 244.4427,-169.2"/>
<text text-anchor="start" x="247.4427" y="-176.9" font-family="Helvetica,sans-Serif" font-size="11.00" fill="#000000">[2000000000,10]</text>
<polygon fill="#ffffff" stroke="transparent" points="51.4427,-147.2 51.4427,-169.2 244.4427,-169.2 244.4427,-147.2 51.4427,-147.2"/>
<polygon fill="none" stroke="#000000" points="51.4427,-147.2 51.4427,-169.2 244.4427,-169.2 244.4427,-147.2 51.4427,-147.2"/>
<text text-anchor="start" x="71.4427" y="-154.3" font-family="Helvetica,sans-Serif" font-size="11.00" fill="#000000">name</text>
<polygon fill="none" stroke="#000000" points="244.4427,-147.2 244.4427,-169.2 366.4427,-169.2 366.4427,-147.2 244.4427,-147.2"/>
<text text-anchor="start" x="247.4427" y="-154.9" font-family="Helvetica,sans-Serif" font-size="11.00" fill="#000000">[2000000000,10]</text>
<polygon fill="#ffffff" stroke="transparent" points="51.4427,-125.2 51.4427,-147.2 244.4427,-147.2 244.4427,-125.2 51.4427,-125.2"/>
<polygon fill="none" stroke="#000000" points="51.4427,-125.2 51.4427,-147.2 244.4427,-147.2 244.4427,-125.2 51.4427,-125.2"/>
<image xlink:href="../../images/foreignKeys.png" width="11px" height="12px" preserveAspectRatio="xMinYMin meet" x="56.4427" y="-142.2"/>
<text text-anchor="start" x="71.4427" y="-132.3" font-family="Helvetica,sans-Serif" font-size="11.00" fill="#000000">parent</text>
<polygon fill="none" stroke="#000000" points="244.4427,-125.2 244.4427,-147.2 366.4427,-147.2 366.4427,-125.2 244.4427,-125.2"/>
<text text-anchor="start" x="247.3583" y="-132.9" font-family="Helvetica,sans-Serif" font-size="11.00" fill="#000000">integer[2000000000,10]</text>
<polygon fill="none" stroke="#000000" points="51.4427,-103.2 51.4427,-125.2 244.4427,-125.2 244.4427,-103.2 51.4427,-103.2"/>
<text text-anchor="start" x="71.4427" y="-110.3" font-family="Helvetica,sans-Serif" font-size="11.00" fill="#000000">publishedUrl</text>
<polygon fill="none" stroke="#000000" points="244.4427,-103.2 244.4427,-125.2 366.4427,-125.2 366.4427,-103.2 244.4427,-103.2"/>
<text text-anchor="start" x="247.4427" y="-110.9" font-family="Helvetica,sans-Serif" font-size="11.00" fill="#000000">[2000000000,10]</text>
<polygon fill="none" stroke="#000000" points="51.4427,-81.2 51.4427,-103.2 244.4427,-103.2 244.4427,-81.2 51.4427,-81.2"/>
<text text-anchor="start" x="71.4427" y="-88.3" font-family="Helvetica,sans-Serif" font-size="11.00" fill="#000000">remoteCollectionId</text>
<polygon fill="none" stroke="#000000" points="244.4427,-81.2 244.4427,-103.2 366.4427,-103.2 366.4427,-81.2 244.4427,-81.2"/>
<text text-anchor="start" x="247.4427" y="-88.9" font-family="Helvetica,sans-Serif" font-size="11.00" fill="#000000">[2000000000,10]</text>
<polygon fill="none" stroke="#000000" points="51.4427,-59.2 51.4427,-81.2 244.4427,-81.2 244.4427,-59.2 51.4427,-59.2"/>
<text text-anchor="start" x="71.4427" y="-66.3" font-family="Helvetica,sans-Serif" font-size="11.00" fill="#000000">systemOnly</text>
<polygon fill="none" stroke="#000000" points="244.4427,-59.2 244.4427,-81.2 366.4427,-81.2 366.4427,-59.2 244.4427,-59.2"/>
<text text-anchor="start" x="247.4427" y="-66.9" font-family="Helvetica,sans-Serif" font-size="11.00" fill="#000000">[2000000000,10]</text>
<polygon fill="#ffffff" stroke="transparent" points="51.4427,-40.2 51.4427,-59.2 152.4427,-59.2 152.4427,-40.2 51.4427,-40.2"/>
<polygon fill="none" stroke="#000000" points="51.4427,-40.2 51.4427,-59.2 152.4427,-59.2 152.4427,-40.2 51.4427,-40.2"/>
<text text-anchor="start" x="54.4427" y="-46.3" font-family="Helvetica,sans-Serif" font-size="11.00" fill="#000000">&lt; 1</text>
<polygon fill="#ffffff" stroke="transparent" points="152.4427,-40.2 152.4427,-59.2 244.4427,-59.2 244.4427,-40.2 152.4427,-40.2"/>
<polygon fill="none" stroke="#000000" points="152.4427,-40.2 152.4427,-59.2 244.4427,-59.2 244.4427,-40.2 152.4427,-40.2"/>
<text text-anchor="start" x="235.3289" y="-46.3" font-family="Helvetica,sans-Serif" font-size="11.00" fill="#000000"> &#160;</text>
<polygon fill="#ffffff" stroke="transparent" points="244.4427,-40.2 244.4427,-59.2 366.4427,-59.2 366.4427,-40.2 244.4427,-40.2"/>
<polygon fill="none" stroke="#000000" points="244.4427,-40.2 244.4427,-59.2 366.4427,-59.2 366.4427,-40.2 244.4427,-40.2"/>
<text text-anchor="start" x="347.848" y="-46.3" font-family="Helvetica,sans-Serif" font-size="11.00" fill="#000000">3 &gt;</text>
<polygon fill="none" stroke="#000000" stroke-width="2" points="49.9427,-39.2 49.9427,-303.2 366.9427,-303.2 366.9427,-39.2 49.9427,-39.2"/>
</a>
</g>
</g>
<!-- AgLibraryPublishedCollection&#45;&gt;AgLibraryPublishedCollection -->
<g id="edge1" class="edge">
<title>AgLibraryPublishedCollection:w&#45;&gt;AgLibraryPublishedCollection:e</title>
<path fill="none" stroke="#000000" d="M39.3163,-144.446C-31.9345,-199.5628 -20.2936,-321.2 208.9427,-321.2 450.4427,-321.2 450.4427,-312.5333 366.4427,-268.2"/>
<polygon fill="#000000" stroke="#000000" points="44.8273,-140.6985 53.467,-139.1769 48.135,-138.4493 51.4427,-136.2 51.4427,-136.2 51.4427,-136.2 48.135,-138.4493 49.4184,-133.2231 44.8273,-140.6985 44.8273,-140.6985"/>
<ellipse fill="none" stroke="#000000" cx="42.1811" cy="-142.4979" rx="3.2" ry="3.2"/>
</g>
<!-- AgLibraryPublishedCollectionContent -->
<g id="node2" class="node">
<title>AgLibraryPublishedCollectionContent</title>
<g id="a_node2"><a xlink:href="../../tables/AgLibraryPublishedCollectionContent.html" xlink:title="AgLibraryPublishedCollectionContent" target="_top">
<polygon fill="#ffffff" stroke="transparent" points="416.9427,-271.7 416.9427,-398.7 672.9427,-398.7 672.9427,-271.7 416.9427,-271.7"/>
<polygon fill="#f5f5f5" stroke="transparent" points="416.9427,-375.2 416.9427,-398.2 672.9427,-398.2 672.9427,-375.2 416.9427,-375.2"/>
<polygon fill="none" stroke="#000000" points="416.9427,-375.2 416.9427,-398.2 672.9427,-398.2 672.9427,-375.2 416.9427,-375.2"/>
<text text-anchor="start" x="421.9427" y="-383.8" font-family="Helvetica,sans-Serif" font-weight="bold" font-size="11.00" fill="#000000">AgLibraryPublishedCollectionContent</text>
<text text-anchor="start" x="638.4646" y="-383.3" font-family="Helvetica,sans-Serif" font-size="11.00" fill="#000000">[table]</text>
<polygon fill="none" stroke="#000000" points="416.9427,-353.2 416.9427,-375.2 672.9427,-375.2 672.9427,-353.2 416.9427,-353.2"/>
<image xlink:href="../../images/primaryKeys.png" width="11px" height="12px" preserveAspectRatio="xMinYMin meet" x="421.943" y="-370.2"/>
<text text-anchor="start" x="445.9427" y="-360.3" font-family="Helvetica,sans-Serif" font-size="11.00" fill="#000000">id_local</text>
<polygon fill="#ffffff" stroke="transparent" points="416.9427,-331.2 416.9427,-353.2 672.9427,-353.2 672.9427,-331.2 416.9427,-331.2"/>
<polygon fill="none" stroke="#000000" points="416.9427,-331.2 416.9427,-353.2 672.9427,-353.2 672.9427,-331.2 416.9427,-331.2"/>
<image xlink:href="../../images/foreignKeys.png" width="11px" height="12px" preserveAspectRatio="xMinYMin meet" x="421.943" y="-348.2"/>
<text text-anchor="start" x="445.9427" y="-338.3" font-family="Helvetica,sans-Serif" font-size="11.00" fill="#000000">collection</text>
<polygon fill="#ffffff" stroke="transparent" points="416.9427,-309.2 416.9427,-331.2 672.9427,-331.2 672.9427,-309.2 416.9427,-309.2"/>
<polygon fill="none" stroke="#000000" points="416.9427,-309.2 416.9427,-331.2 672.9427,-331.2 672.9427,-309.2 416.9427,-309.2"/>
<text text-anchor="start" x="445.9427" y="-316.3" font-family="Helvetica,sans-Serif" font-size="11.00" fill="#000000">owningModule</text>
<polygon fill="none" stroke="#000000" points="416.9427,-290.2 416.9427,-309.2 672.9427,-309.2 672.9427,-290.2 416.9427,-290.2"/>
<text text-anchor="start" x="419.9427" y="-296.3" font-family="Helvetica,sans-Serif" font-size="11.00" fill="#000000">...</text>
<polygon fill="#ffffff" stroke="transparent" points="416.9427,-271.2 416.9427,-290.2 542.9427,-290.2 542.9427,-271.2 416.9427,-271.2"/>
<polygon fill="none" stroke="#000000" points="416.9427,-271.2 416.9427,-290.2 542.9427,-290.2 542.9427,-271.2 416.9427,-271.2"/>
<text text-anchor="start" x="419.9427" y="-277.3" font-family="Helvetica,sans-Serif" font-size="11.00" fill="#000000">&lt; 1</text>
<polygon fill="#ffffff" stroke="transparent" points="542.9427,-271.2 542.9427,-290.2 607.9427,-290.2 607.9427,-271.2 542.9427,-271.2"/>
<polygon fill="none" stroke="#000000" points="542.9427,-271.2 542.9427,-290.2 607.9427,-290.2 607.9427,-271.2 542.9427,-271.2"/>
<text text-anchor="start" x="598.8289" y="-277.3" font-family="Helvetica,sans-Serif" font-size="11.00" fill="#000000"> &#160;</text>
<polygon fill="#ffffff" stroke="transparent" points="607.9427,-271.2 607.9427,-290.2 672.9427,-290.2 672.9427,-271.2 607.9427,-271.2"/>
<polygon fill="none" stroke="#000000" points="607.9427,-271.2 607.9427,-290.2 672.9427,-290.2 672.9427,-271.2 607.9427,-271.2"/>
<text text-anchor="start" x="663.8289" y="-277.3" font-family="Helvetica,sans-Serif" font-size="11.00" fill="#000000"> &#160;</text>
</a>
</g>
</g>
<!-- AgLibraryPublishedCollectionContent&#45;&gt;AgLibraryPublishedCollection -->
<g id="edge2" class="edge">
<title>AgLibraryPublishedCollectionContent:w&#45;&gt;AgLibraryPublishedCollection:e</title>
<path fill="none" stroke="#000000" d="M403.0582,-337.571C384.402,-321.3706 400.1942,-268.2 366.4427,-268.2"/>
<polygon fill="#000000" stroke="#000000" points="409.3534,-339.6697 415.8041,-345.6152 413.148,-340.9349 416.9427,-342.2 416.9427,-342.2 416.9427,-342.2 413.148,-340.9349 418.0813,-338.7848 409.3534,-339.6697 409.3534,-339.6697"/>
<ellipse fill="none" stroke="#000000" cx="406.3176" cy="-338.6576" rx="3.2" ry="3.2"/>
</g>
<!-- AgLibraryPublishedCollectionImage -->
<g id="node3" class="node">
<title>AgLibraryPublishedCollectionImage</title>
<g id="a_node3"><a xlink:href="../../tables/AgLibraryPublishedCollectionImage.html" xlink:title="AgLibraryPublishedCollectionImage" target="_top">
<polygon fill="#ffffff" stroke="transparent" points="422.4427,-123.7 422.4427,-250.7 667.4427,-250.7 667.4427,-123.7 422.4427,-123.7"/>
<polygon fill="#f5f5f5" stroke="transparent" points="422.9427,-227.2 422.9427,-250.2 667.9427,-250.2 667.9427,-227.2 422.9427,-227.2"/>
<polygon fill="none" stroke="#000000" points="422.9427,-227.2 422.9427,-250.2 667.9427,-250.2 667.9427,-227.2 422.9427,-227.2"/>
<text text-anchor="start" x="427.9427" y="-235.8" font-family="Helvetica,sans-Serif" font-weight="bold" font-size="11.00" fill="#000000">AgLibraryPublishedCollectionImage</text>
<text text-anchor="start" x="633.4646" y="-235.3" font-family="Helvetica,sans-Serif" font-size="11.00" fill="#000000">[table]</text>
<polygon fill="none" stroke="#000000" points="422.9427,-205.2 422.9427,-227.2 667.9427,-227.2 667.9427,-205.2 422.9427,-205.2"/>
<image xlink:href="../../images/primaryKeys.png" width="11px" height="12px" preserveAspectRatio="xMinYMin meet" x="427.943" y="-222.2"/>
<text text-anchor="start" x="451.9427" y="-212.3" font-family="Helvetica,sans-Serif" font-size="11.00" fill="#000000">id_local</text>
<polygon fill="#ffffff" stroke="transparent" points="422.9427,-183.2 422.9427,-205.2 667.9427,-205.2 667.9427,-183.2 422.9427,-183.2"/>
<polygon fill="none" stroke="#000000" points="422.9427,-183.2 422.9427,-205.2 667.9427,-205.2 667.9427,-183.2 422.9427,-183.2"/>
<image xlink:href="../../images/foreignKeys.png" width="11px" height="12px" preserveAspectRatio="xMinYMin meet" x="427.943" y="-200.2"/>
<text text-anchor="start" x="451.9427" y="-190.3" font-family="Helvetica,sans-Serif" font-size="11.00" fill="#000000">collection</text>
<polygon fill="#ffffff" stroke="transparent" points="422.9427,-161.2 422.9427,-183.2 667.9427,-183.2 667.9427,-161.2 422.9427,-161.2"/>
<polygon fill="none" stroke="#000000" points="422.9427,-161.2 422.9427,-183.2 667.9427,-183.2 667.9427,-161.2 422.9427,-161.2"/>
<image xlink:href="../../images/foreignKeys.png" width="11px" height="12px" preserveAspectRatio="xMinYMin meet" x="427.943" y="-178.2"/>
<text text-anchor="start" x="451.9427" y="-168.3" font-family="Helvetica,sans-Serif" font-size="11.00" fill="#000000">image</text>
<polygon fill="none" stroke="#000000" points="422.9427,-142.2 422.9427,-161.2 667.9427,-161.2 667.9427,-142.2 422.9427,-142.2"/>
<text text-anchor="start" x="425.9427" y="-148.3" font-family="Helvetica,sans-Serif" font-size="11.00" fill="#000000">...</text>
<polygon fill="#ffffff" stroke="transparent" points="422.9427,-123.2 422.9427,-142.2 543.9427,-142.2 543.9427,-123.2 422.9427,-123.2"/>
<polygon fill="none" stroke="#000000" points="422.9427,-123.2 422.9427,-142.2 543.9427,-142.2 543.9427,-123.2 422.9427,-123.2"/>
<text text-anchor="start" x="425.9427" y="-129.3" font-family="Helvetica,sans-Serif" font-size="11.00" fill="#000000">&lt; 2</text>
<polygon fill="#ffffff" stroke="transparent" points="543.9427,-123.2 543.9427,-142.2 605.9427,-142.2 605.9427,-123.2 543.9427,-123.2"/>
<polygon fill="none" stroke="#000000" points="543.9427,-123.2 543.9427,-142.2 605.9427,-142.2 605.9427,-123.2 543.9427,-123.2"/>
<text text-anchor="start" x="596.8289" y="-129.3" font-family="Helvetica,sans-Serif" font-size="11.00" fill="#000000"> &#160;</text>
<polygon fill="#ffffff" stroke="transparent" points="605.9427,-123.2 605.9427,-142.2 667.9427,-142.2 667.9427,-123.2 605.9427,-123.2"/>
<polygon fill="none" stroke="#000000" points="605.9427,-123.2 605.9427,-142.2 667.9427,-142.2 667.9427,-123.2 605.9427,-123.2"/>
<text text-anchor="start" x="658.8289" y="-129.3" font-family="Helvetica,sans-Serif" font-size="11.00" fill="#000000"> &#160;</text>
</a>
</g>
</g>
<!-- AgLibraryPublishedCollectionImage&#45;&gt;AgLibraryPublishedCollection -->
<g id="edge3" class="edge">
<title>AgLibraryPublishedCollectionImage:w&#45;&gt;AgLibraryPublishedCollection:e</title>
<path fill="none" stroke="#000000" d="M408.8312,-198.3906C387.7409,-214.0448 401.8414,-268.2 366.4427,-268.2"/>
<polygon fill="#000000" stroke="#000000" points="415.2737,-196.4774 423.9676,-197.651 419.1082,-195.3387 422.9427,-194.2 422.9427,-194.2 422.9427,-194.2 419.1082,-195.3387 421.9179,-190.749 415.2737,-196.4774 415.2737,-196.4774"/>
<ellipse fill="none" stroke="#000000" cx="412.2061" cy="-197.3884" rx="3.2" ry="3.2"/>
</g>
</g>
</svg>
