<?xml version="1.0" encoding="UTF-8" standalone="no"?>
<!DOCTYPE svg PUBLIC "-//W3C//DTD SVG 1.1//EN"
 "http://www.w3.org/Graphics/SVG/1.1/DTD/svg11.dtd">
<!-- Generated by graphviz version 2.40.1 (20161225.0304)
 -->
<!-- Title: twoDegreesRelationshipsDiagram Pages: 1 -->
<svg width="1014pt" height="2433pt"
 viewBox="0.00 0.00 1014.00 2433.20" xmlns="http://www.w3.org/2000/svg" xmlns:xlink="http://www.w3.org/1999/xlink">
<g id="graph0" class="graph" transform="scale(1 1) rotate(0) translate(4 2429.2)">
<title>twoDegreesRelationshipsDiagram</title>
<polygon fill="#ffffff" stroke="transparent" points="-4,4 -4,-2429.2 1010,-2429.2 1010,4 -4,4"/>
<text text-anchor="middle" x="72.4936" y="-7.3" font-family="Helvetica,sans-Serif" font-size="11.00" fill="#000000">Generated by SchemaSpy</text>
<!-- Adobe_AdditionalMetadata -->
<g id="node1" class="node">
<title>Adobe_AdditionalMetadata</title>
<g id="a_node1"><a xlink:href="../../tables/Adobe_AdditionalMetadata.html" xlink:title="Adobe_AdditionalMetadata" target="_top">
<polygon fill="#ffffff" stroke="transparent" points="424,-2360.2 424,-2421.2 617,-2421.2 617,-2360.2 424,-2360.2"/>
<polygon fill="#f5f5f5" stroke="transparent" points="424.5,-2397.7 424.5,-2420.7 617.5,-2420.7 617.5,-2397.7 424.5,-2397.7"/>
<polygon fill="none" stroke="#000000" points="424.5,-2397.7 424.5,-2420.7 617.5,-2420.7 617.5,-2397.7 424.5,-2397.7"/>
<text text-anchor="start" x="429.5" y="-2406.3" font-family="Helvetica,sans-Serif" font-weight="bold" font-size="11.00" fill="#000000">Adobe_AdditionalMetadata</text>
<text text-anchor="start" x="583.0219" y="-2405.8" font-family="Helvetica,sans-Serif" font-size="11.00" fill="#000000">[table]</text>
<polygon fill="none" stroke="#000000" points="424.5,-2378.7 424.5,-2397.7 617.5,-2397.7 617.5,-2378.7 424.5,-2378.7"/>
<text text-anchor="start" x="427.5" y="-2384.8" font-family="Helvetica,sans-Serif" font-size="11.00" fill="#000000">...</text>
<polygon fill="#ffffff" stroke="transparent" points="424.5,-2359.7 424.5,-2378.7 519.5,-2378.7 519.5,-2359.7 424.5,-2359.7"/>
<polygon fill="none" stroke="#000000" points="424.5,-2359.7 424.5,-2378.7 519.5,-2378.7 519.5,-2359.7 424.5,-2359.7"/>
<text text-anchor="start" x="427.5" y="-2365.8" font-family="Helvetica,sans-Serif" font-size="11.00" fill="#000000">&lt; 1</text>
<polygon fill="#ffffff" stroke="transparent" points="519.5,-2359.7 519.5,-2378.7 568.5,-2378.7 568.5,-2359.7 519.5,-2359.7"/>
<polygon fill="none" stroke="#000000" points="519.5,-2359.7 519.5,-2378.7 568.5,-2378.7 568.5,-2359.7 519.5,-2359.7"/>
<text text-anchor="start" x="559.3862" y="-2365.8" font-family="Helvetica,sans-Serif" font-size="11.00" fill="#000000"> &#160;</text>
<polygon fill="#ffffff" stroke="transparent" points="568.5,-2359.7 568.5,-2378.7 617.5,-2378.7 617.5,-2359.7 568.5,-2359.7"/>
<polygon fill="none" stroke="#000000" points="568.5,-2359.7 568.5,-2378.7 617.5,-2378.7 617.5,-2359.7 568.5,-2359.7"/>
<text text-anchor="start" x="608.3862" y="-2365.8" font-family="Helvetica,sans-Serif" font-size="11.00" fill="#000000"> &#160;</text>
</a>
</g>
</g>
<!-- Adobe_images -->
<g id="node2" class="node">
<title>Adobe_images</title>
<g id="a_node2"><a xlink:href="../../tables/Adobe_images.html" xlink:title="Adobe_images" target="_top">
<polygon fill="#ffffff" stroke="transparent" points="173,-1126.2 173,-1341.2 334,-1341.2 334,-1126.2 173,-1126.2"/>
<polygon fill="#f5f5f5" stroke="transparent" points="173.5,-1317.7 173.5,-1340.7 334.5,-1340.7 334.5,-1317.7 173.5,-1317.7"/>
<polygon fill="none" stroke="#000000" points="173.5,-1317.7 173.5,-1340.7 334.5,-1340.7 334.5,-1317.7 173.5,-1317.7"/>
<text text-anchor="start" x="178.5" y="-1326.3" font-family="Helvetica,sans-Serif" font-weight="bold" font-size="11.00" fill="#000000">Adobe_images</text>
<text text-anchor="start" x="299.5437" y="-1325.8" font-family="Helvetica,sans-Serif" font-size="11.00" fill="#000000">[table]</text>
<polygon fill="none" stroke="#000000" points="173.5,-1295.7 173.5,-1317.7 334.5,-1317.7 334.5,-1295.7 173.5,-1295.7"/>
<image xlink:href="../../images/primaryKeys.png" width="11px" height="12px" preserveAspectRatio="xMinYMin meet" x="178.5" y="-1312.7"/>
<text text-anchor="start" x="193.5" y="-1302.8" font-family="Helvetica,sans-Serif" font-size="11.00" fill="#000000">id_local</text>
<polygon fill="#ffffff" stroke="transparent" points="173.5,-1273.7 173.5,-1295.7 334.5,-1295.7 334.5,-1273.7 173.5,-1273.7"/>
<polygon fill="none" stroke="#000000" points="173.5,-1273.7 173.5,-1295.7 334.5,-1295.7 334.5,-1273.7 173.5,-1273.7"/>
<text text-anchor="start" x="193.5" y="-1280.8" font-family="Helvetica,sans-Serif" font-size="11.00" fill="#000000">id_global</text>
<polygon fill="#ffffff" stroke="transparent" points="173.5,-1251.7 173.5,-1273.7 334.5,-1273.7 334.5,-1251.7 173.5,-1251.7"/>
<polygon fill="none" stroke="#000000" points="173.5,-1251.7 173.5,-1273.7 334.5,-1273.7 334.5,-1251.7 173.5,-1251.7"/>
<text text-anchor="start" x="193.5" y="-1258.8" font-family="Helvetica,sans-Serif" font-size="11.00" fill="#000000">captureTime</text>
<polygon fill="#ffffff" stroke="transparent" points="173.5,-1229.7 173.5,-1251.7 334.5,-1251.7 334.5,-1229.7 173.5,-1229.7"/>
<polygon fill="none" stroke="#000000" points="173.5,-1229.7 173.5,-1251.7 334.5,-1251.7 334.5,-1229.7 173.5,-1229.7"/>
<image xlink:href="../../images/foreignKeys.png" width="11px" height="12px" preserveAspectRatio="xMinYMin meet" x="178.5" y="-1246.7"/>
<text text-anchor="start" x="193.5" y="-1236.8" font-family="Helvetica,sans-Serif" font-size="11.00" fill="#000000">masterImage</text>
<polygon fill="#ffffff" stroke="transparent" points="173.5,-1207.7 173.5,-1229.7 334.5,-1229.7 334.5,-1207.7 173.5,-1207.7"/>
<polygon fill="none" stroke="#000000" points="173.5,-1207.7 173.5,-1229.7 334.5,-1229.7 334.5,-1207.7 173.5,-1207.7"/>
<text text-anchor="start" x="193.5" y="-1214.8" font-family="Helvetica,sans-Serif" font-size="11.00" fill="#000000">originalRootEntity</text>
<polygon fill="#ffffff" stroke="transparent" points="173.5,-1185.7 173.5,-1207.7 334.5,-1207.7 334.5,-1185.7 173.5,-1185.7"/>
<polygon fill="none" stroke="#000000" points="173.5,-1185.7 173.5,-1207.7 334.5,-1207.7 334.5,-1185.7 173.5,-1185.7"/>
<text text-anchor="start" x="193.5" y="-1192.8" font-family="Helvetica,sans-Serif" font-size="11.00" fill="#000000">rating</text>
<polygon fill="#ffffff" stroke="transparent" points="173.5,-1163.7 173.5,-1185.7 334.5,-1185.7 334.5,-1163.7 173.5,-1163.7"/>
<polygon fill="none" stroke="#000000" points="173.5,-1163.7 173.5,-1185.7 334.5,-1185.7 334.5,-1163.7 173.5,-1163.7"/>
<image xlink:href="../../images/foreignKeys.png" width="11px" height="12px" preserveAspectRatio="xMinYMin meet" x="178.5" y="-1180.7"/>
<text text-anchor="start" x="193.5" y="-1170.8" font-family="Helvetica,sans-Serif" font-size="11.00" fill="#000000">rootFile</text>
<polygon fill="none" stroke="#000000" points="173.5,-1144.7 173.5,-1163.7 334.5,-1163.7 334.5,-1144.7 173.5,-1144.7"/>
<text text-anchor="start" x="176.5" y="-1150.8" font-family="Helvetica,sans-Serif" font-size="11.00" fill="#000000">...</text>
<polygon fill="#ffffff" stroke="transparent" points="173.5,-1125.7 173.5,-1144.7 244.5,-1144.7 244.5,-1125.7 173.5,-1125.7"/>
<polygon fill="none" stroke="#000000" points="173.5,-1125.7 173.5,-1144.7 244.5,-1144.7 244.5,-1125.7 173.5,-1125.7"/>
<text text-anchor="start" x="176.5" y="-1131.8" font-family="Helvetica,sans-Serif" font-size="11.00" fill="#000000">&lt; 2</text>
<polygon fill="#ffffff" stroke="transparent" points="244.5,-1125.7 244.5,-1144.7 281.5,-1144.7 281.5,-1125.7 244.5,-1125.7"/>
<polygon fill="none" stroke="#000000" points="244.5,-1125.7 244.5,-1144.7 281.5,-1144.7 281.5,-1125.7 244.5,-1125.7"/>
<text text-anchor="start" x="272.3862" y="-1131.8" font-family="Helvetica,sans-Serif" font-size="11.00" fill="#000000"> &#160;</text>
<polygon fill="#ffffff" stroke="transparent" points="281.5,-1125.7 281.5,-1144.7 334.5,-1144.7 334.5,-1125.7 281.5,-1125.7"/>
<polygon fill="none" stroke="#000000" points="281.5,-1125.7 281.5,-1144.7 334.5,-1144.7 334.5,-1125.7 281.5,-1125.7"/>
<text text-anchor="start" x="309.7904" y="-1131.8" font-family="Helvetica,sans-Serif" font-size="11.00" fill="#000000">31 &gt;</text>
</a>
</g>
</g>
<!-- Adobe_AdditionalMetadata&#45;&gt;Adobe_images -->
<g id="edge1" class="edge">
<title>Adobe_AdditionalMetadata:w&#45;&gt;Adobe_images:e</title>
<path fill="none" stroke="#000000" d="M409.7274,-2386.0631C392.9467,-2381.805 385.1558,-2369.3298 375,-2349.7 348.3538,-2298.1966 392.4881,-1306.7 334.5,-1306.7"/>
<polygon fill="#000000" stroke="#000000" points="416.5487,-2386.8189 424.1035,-2391.2781 420.5243,-2387.2594 424.5,-2387.7 424.5,-2387.7 424.5,-2387.7 420.5243,-2387.2594 424.8965,-2384.1219 416.5487,-2386.8189 416.5487,-2386.8189"/>
<ellipse fill="none" stroke="#000000" cx="413.3681" cy="-2386.4665" rx="3.2" ry="3.2"/>
</g>
<!-- AgLibraryFile -->
<g id="node6" class="node">
<title>AgLibraryFile</title>
<g id="a_node6"><a xlink:href="../../tables/AgLibraryFile.html" xlink:title="AgLibraryFile" target="_top">
<polygon fill="#ffffff" stroke="transparent" points="8,-1147.2 8,-1208.2 124,-1208.2 124,-1147.2 8,-1147.2"/>
<polygon fill="#f5f5f5" stroke="transparent" points="8,-1184.7 8,-1207.7 124,-1207.7 124,-1184.7 8,-1184.7"/>
<polygon fill="none" stroke="#000000" points="8,-1184.7 8,-1207.7 124,-1207.7 124,-1184.7 8,-1184.7"/>
<text text-anchor="start" x="13" y="-1193.3" font-family="Helvetica,sans-Serif" font-weight="bold" font-size="11.00" fill="#000000">AgLibraryFile</text>
<text text-anchor="start" x="89.5219" y="-1192.8" font-family="Helvetica,sans-Serif" font-size="11.00" fill="#000000">[table]</text>
<polygon fill="none" stroke="#000000" points="8,-1165.7 8,-1184.7 124,-1184.7 124,-1165.7 8,-1165.7"/>
<text text-anchor="start" x="11" y="-1171.8" font-family="Helvetica,sans-Serif" font-size="11.00" fill="#000000">...</text>
<polygon fill="#ffffff" stroke="transparent" points="8,-1146.7 8,-1165.7 60,-1165.7 60,-1146.7 8,-1146.7"/>
<polygon fill="none" stroke="#000000" points="8,-1146.7 8,-1165.7 60,-1165.7 60,-1146.7 8,-1146.7"/>
<text text-anchor="start" x="11" y="-1152.8" font-family="Helvetica,sans-Serif" font-size="11.00" fill="#000000">&lt; 1</text>
<polygon fill="#ffffff" stroke="transparent" points="60,-1146.7 60,-1165.7 87,-1165.7 87,-1146.7 60,-1146.7"/>
<polygon fill="none" stroke="#000000" points="60,-1146.7 60,-1165.7 87,-1165.7 87,-1146.7 60,-1146.7"/>
<text text-anchor="start" x="77.8862" y="-1152.8" font-family="Helvetica,sans-Serif" font-size="11.00" fill="#000000"> &#160;</text>
<polygon fill="#ffffff" stroke="transparent" points="87,-1146.7 87,-1165.7 124,-1165.7 124,-1146.7 87,-1146.7"/>
<polygon fill="none" stroke="#000000" points="87,-1146.7 87,-1165.7 124,-1165.7 124,-1146.7 87,-1146.7"/>
<text text-anchor="start" x="105.4053" y="-1152.8" font-family="Helvetica,sans-Serif" font-size="11.00" fill="#000000">2 &gt;</text>
</a>
</g>
</g>
<!-- Adobe_images&#45;&gt;AgLibraryFile -->
<g id="edge5" class="edge">
<title>Adobe_images:w&#45;&gt;AgLibraryFile:e</title>
<path fill="none" stroke="#000000" d="M158.8428,-1174.7C147.4139,-1174.7 140.1563,-1174.7 124,-1174.7"/>
<polygon fill="#000000" stroke="#000000" points="165.5,-1174.7001 173.5,-1178.3 169.5,-1174.7 173.5,-1174.7 173.5,-1174.7 173.5,-1174.7 169.5,-1174.7 173.5,-1171.1 165.5,-1174.7001 165.5,-1174.7001"/>
<ellipse fill="none" stroke="#000000" cx="162.3" cy="-1174.7001" rx="3.2" ry="3.2"/>
</g>
<!-- Adobe_imageDevelopSettings -->
<g id="node3" class="node">
<title>Adobe_imageDevelopSettings</title>
<g id="a_node3"><a xlink:href="../../tables/Adobe_imageDevelopSettings.html" xlink:title="Adobe_imageDevelopSettings" target="_top">
<polygon fill="#ffffff" stroke="transparent" points="415,-2278.2 415,-2339.2 626,-2339.2 626,-2278.2 415,-2278.2"/>
<polygon fill="#f5f5f5" stroke="transparent" points="415.5,-2315.7 415.5,-2338.7 626.5,-2338.7 626.5,-2315.7 415.5,-2315.7"/>
<polygon fill="none" stroke="#000000" points="415.5,-2315.7 415.5,-2338.7 626.5,-2338.7 626.5,-2315.7 415.5,-2315.7"/>
<text text-anchor="start" x="420.5" y="-2324.3" font-family="Helvetica,sans-Serif" font-weight="bold" font-size="11.00" fill="#000000">Adobe_imageDevelopSettings</text>
<text text-anchor="start" x="592.0219" y="-2323.8" font-family="Helvetica,sans-Serif" font-size="11.00" fill="#000000">[table]</text>
<polygon fill="none" stroke="#000000" points="415.5,-2296.7 415.5,-2315.7 626.5,-2315.7 626.5,-2296.7 415.5,-2296.7"/>
<text text-anchor="start" x="418.5" y="-2302.8" font-family="Helvetica,sans-Serif" font-size="11.00" fill="#000000">...</text>
<polygon fill="#ffffff" stroke="transparent" points="415.5,-2277.7 415.5,-2296.7 514.5,-2296.7 514.5,-2277.7 415.5,-2277.7"/>
<polygon fill="none" stroke="#000000" points="415.5,-2277.7 415.5,-2296.7 514.5,-2296.7 514.5,-2277.7 415.5,-2277.7"/>
<text text-anchor="start" x="418.5" y="-2283.8" font-family="Helvetica,sans-Serif" font-size="11.00" fill="#000000">&lt; 1</text>
<polygon fill="#ffffff" stroke="transparent" points="514.5,-2277.7 514.5,-2296.7 565.5,-2296.7 565.5,-2277.7 514.5,-2277.7"/>
<polygon fill="none" stroke="#000000" points="514.5,-2277.7 514.5,-2296.7 565.5,-2296.7 565.5,-2277.7 514.5,-2277.7"/>
<text text-anchor="start" x="556.3862" y="-2283.8" font-family="Helvetica,sans-Serif" font-size="11.00" fill="#000000"> &#160;</text>
<polygon fill="#ffffff" stroke="transparent" points="565.5,-2277.7 565.5,-2296.7 626.5,-2296.7 626.5,-2277.7 565.5,-2277.7"/>
<polygon fill="none" stroke="#000000" points="565.5,-2277.7 565.5,-2296.7 626.5,-2296.7 626.5,-2277.7 565.5,-2277.7"/>
<text text-anchor="start" x="607.9053" y="-2283.8" font-family="Helvetica,sans-Serif" font-size="11.00" fill="#000000">1 &gt;</text>
</a>
</g>
</g>
<!-- Adobe_imageDevelopSettings&#45;&gt;Adobe_images -->
<g id="edge2" class="edge">
<title>Adobe_imageDevelopSettings:w&#45;&gt;Adobe_images:e</title>
<path fill="none" stroke="#000000" d="M400.9928,-2303.2474C387.962,-2298.028 382.8723,-2284.8799 375,-2267.7 352.7397,-2219.1211 387.9363,-1306.7 334.5,-1306.7"/>
<polygon fill="#000000" stroke="#000000" points="407.6119,-2304.3664 414.8999,-2309.2496 411.556,-2305.0332 415.5,-2305.7 415.5,-2305.7 415.5,-2305.7 411.556,-2305.0332 416.1001,-2302.1504 407.6119,-2304.3664 407.6119,-2304.3664"/>
<ellipse fill="none" stroke="#000000" cx="404.4567" cy="-2303.833" rx="3.2" ry="3.2"/>
</g>
<!-- Adobe_imageProofSettings -->
<g id="node4" class="node">
<title>Adobe_imageProofSettings</title>
<g id="a_node4"><a xlink:href="../../tables/Adobe_imageProofSettings.html" xlink:title="Adobe_imageProofSettings" target="_top">
<polygon fill="#ffffff" stroke="transparent" points="422.5,-2196.2 422.5,-2257.2 618.5,-2257.2 618.5,-2196.2 422.5,-2196.2"/>
<polygon fill="#f5f5f5" stroke="transparent" points="422.5,-2233.7 422.5,-2256.7 618.5,-2256.7 618.5,-2233.7 422.5,-2233.7"/>
<polygon fill="none" stroke="#000000" points="422.5,-2233.7 422.5,-2256.7 618.5,-2256.7 618.5,-2233.7 422.5,-2233.7"/>
<text text-anchor="start" x="427.5" y="-2242.3" font-family="Helvetica,sans-Serif" font-weight="bold" font-size="11.00" fill="#000000">Adobe_imageProofSettings</text>
<text text-anchor="start" x="584.0219" y="-2241.8" font-family="Helvetica,sans-Serif" font-size="11.00" fill="#000000">[table]</text>
<polygon fill="none" stroke="#000000" points="422.5,-2214.7 422.5,-2233.7 618.5,-2233.7 618.5,-2214.7 422.5,-2214.7"/>
<text text-anchor="start" x="425.5" y="-2220.8" font-family="Helvetica,sans-Serif" font-size="11.00" fill="#000000">...</text>
<polygon fill="#ffffff" stroke="transparent" points="422.5,-2195.7 422.5,-2214.7 518.5,-2214.7 518.5,-2195.7 422.5,-2195.7"/>
<polygon fill="none" stroke="#000000" points="422.5,-2195.7 422.5,-2214.7 518.5,-2214.7 518.5,-2195.7 422.5,-2195.7"/>
<text text-anchor="start" x="425.5" y="-2201.8" font-family="Helvetica,sans-Serif" font-size="11.00" fill="#000000">&lt; 1</text>
<polygon fill="#ffffff" stroke="transparent" points="518.5,-2195.7 518.5,-2214.7 568.5,-2214.7 568.5,-2195.7 518.5,-2195.7"/>
<polygon fill="none" stroke="#000000" points="518.5,-2195.7 518.5,-2214.7 568.5,-2214.7 568.5,-2195.7 518.5,-2195.7"/>
<text text-anchor="start" x="559.3862" y="-2201.8" font-family="Helvetica,sans-Serif" font-size="11.00" fill="#000000"> &#160;</text>
<polygon fill="#ffffff" stroke="transparent" points="568.5,-2195.7 568.5,-2214.7 618.5,-2214.7 618.5,-2195.7 568.5,-2195.7"/>
<polygon fill="none" stroke="#000000" points="568.5,-2195.7 568.5,-2214.7 618.5,-2214.7 618.5,-2195.7 568.5,-2195.7"/>
<text text-anchor="start" x="609.3862" y="-2201.8" font-family="Helvetica,sans-Serif" font-size="11.00" fill="#000000"> &#160;</text>
</a>
</g>
</g>
<!-- Adobe_imageProofSettings&#45;&gt;Adobe_images -->
<g id="edge3" class="edge">
<title>Adobe_imageProofSettings:w&#45;&gt;Adobe_images:e</title>
<path fill="none" stroke="#000000" d="M408.1653,-2222.0096C391.9671,-2217.6294 384.7771,-2204.8976 375,-2185.7 352.8149,-2142.1388 383.3851,-1306.7 334.5,-1306.7"/>
<polygon fill="#000000" stroke="#000000" points="414.5551,-2222.7631 422.0784,-2227.2752 418.5275,-2223.2315 422.5,-2223.7 422.5,-2223.7 422.5,-2223.7 418.5275,-2223.2315 422.9216,-2220.1248 414.5551,-2222.7631 414.5551,-2222.7631"/>
<ellipse fill="none" stroke="#000000" cx="411.3771" cy="-2222.3883" rx="3.2" ry="3.2"/>
</g>
<!-- Adobe_imageProperties -->
<g id="node5" class="node">
<title>Adobe_imageProperties</title>
<g id="a_node5"><a xlink:href="../../tables/Adobe_imageProperties.html" xlink:title="Adobe_imageProperties" target="_top">
<polygon fill="#ffffff" stroke="transparent" points="432,-2114.2 432,-2175.2 609,-2175.2 609,-2114.2 432,-2114.2"/>
<polygon fill="#f5f5f5" stroke="transparent" points="432.5,-2151.7 432.5,-2174.7 609.5,-2174.7 609.5,-2151.7 432.5,-2151.7"/>
<polygon fill="none" stroke="#000000" points="432.5,-2151.7 432.5,-2174.7 609.5,-2174.7 609.5,-2151.7 432.5,-2151.7"/>
<text text-anchor="start" x="437.5" y="-2160.3" font-family="Helvetica,sans-Serif" font-weight="bold" font-size="11.00" fill="#000000">Adobe_imageProperties</text>
<text text-anchor="start" x="575.0219" y="-2159.8" font-family="Helvetica,sans-Serif" font-size="11.00" fill="#000000">[table]</text>
<polygon fill="none" stroke="#000000" points="432.5,-2132.7 432.5,-2151.7 609.5,-2151.7 609.5,-2132.7 432.5,-2132.7"/>
<text text-anchor="start" x="435.5" y="-2138.8" font-family="Helvetica,sans-Serif" font-size="11.00" fill="#000000">...</text>
<polygon fill="#ffffff" stroke="transparent" points="432.5,-2113.7 432.5,-2132.7 519.5,-2132.7 519.5,-2113.7 432.5,-2113.7"/>
<polygon fill="none" stroke="#000000" points="432.5,-2113.7 432.5,-2132.7 519.5,-2132.7 519.5,-2113.7 432.5,-2113.7"/>
<text text-anchor="start" x="435.5" y="-2119.8" font-family="Helvetica,sans-Serif" font-size="11.00" fill="#000000">&lt; 1</text>
<polygon fill="#ffffff" stroke="transparent" points="519.5,-2113.7 519.5,-2132.7 564.5,-2132.7 564.5,-2113.7 519.5,-2113.7"/>
<polygon fill="none" stroke="#000000" points="519.5,-2113.7 519.5,-2132.7 564.5,-2132.7 564.5,-2113.7 519.5,-2113.7"/>
<text text-anchor="start" x="555.3862" y="-2119.8" font-family="Helvetica,sans-Serif" font-size="11.00" fill="#000000"> &#160;</text>
<polygon fill="#ffffff" stroke="transparent" points="564.5,-2113.7 564.5,-2132.7 609.5,-2132.7 609.5,-2113.7 564.5,-2113.7"/>
<polygon fill="none" stroke="#000000" points="564.5,-2113.7 564.5,-2132.7 609.5,-2132.7 609.5,-2113.7 564.5,-2113.7"/>
<text text-anchor="start" x="600.3862" y="-2119.8" font-family="Helvetica,sans-Serif" font-size="11.00" fill="#000000"> &#160;</text>
</a>
</g>
</g>
<!-- Adobe_imageProperties&#45;&gt;Adobe_images -->
<g id="edge4" class="edge">
<title>Adobe_imageProperties:w&#45;&gt;Adobe_images:e</title>
<path fill="none" stroke="#000000" d="M417.9812,-2140.6227C397.6535,-2137.2229 387.5186,-2125.6254 375,-2103.7 331.0345,-2026.6976 423.1698,-1306.7 334.5,-1306.7"/>
<polygon fill="#000000" stroke="#000000" points="424.5219,-2141.108 432.2336,-2145.2901 428.511,-2141.404 432.5,-2141.7 432.5,-2141.7 432.5,-2141.7 428.511,-2141.404 432.7664,-2138.1099 424.5219,-2141.108 424.5219,-2141.108"/>
<ellipse fill="none" stroke="#000000" cx="421.3307" cy="-2140.8712" rx="3.2" ry="3.2"/>
</g>
<!-- Adobe_libraryImageDevelopHistoryStep -->
<g id="node7" class="node">
<title>Adobe_libraryImageDevelopHistoryStep</title>
<g id="a_node7"><a xlink:href="../../tables/Adobe_libraryImageDevelopHistoryStep.html" xlink:title="Adobe_libraryImageDevelopHistoryStep" target="_top">
<polygon fill="#ffffff" stroke="transparent" points="386.5,-2032.2 386.5,-2093.2 654.5,-2093.2 654.5,-2032.2 386.5,-2032.2"/>
<polygon fill="#f5f5f5" stroke="transparent" points="386.5,-2069.7 386.5,-2092.7 654.5,-2092.7 654.5,-2069.7 386.5,-2069.7"/>
<polygon fill="none" stroke="#000000" points="386.5,-2069.7 386.5,-2092.7 654.5,-2092.7 654.5,-2069.7 386.5,-2069.7"/>
<text text-anchor="start" x="391.5" y="-2078.3" font-family="Helvetica,sans-Serif" font-weight="bold" font-size="11.00" fill="#000000">Adobe_libraryImageDevelopHistoryStep</text>
<text text-anchor="start" x="620.0219" y="-2077.8" font-family="Helvetica,sans-Serif" font-size="11.00" fill="#000000">[table]</text>
<polygon fill="none" stroke="#000000" points="386.5,-2050.7 386.5,-2069.7 654.5,-2069.7 654.5,-2050.7 386.5,-2050.7"/>
<text text-anchor="start" x="389.5" y="-2056.8" font-family="Helvetica,sans-Serif" font-size="11.00" fill="#000000">...</text>
<polygon fill="#ffffff" stroke="transparent" points="386.5,-2031.7 386.5,-2050.7 518.5,-2050.7 518.5,-2031.7 386.5,-2031.7"/>
<polygon fill="none" stroke="#000000" points="386.5,-2031.7 386.5,-2050.7 518.5,-2050.7 518.5,-2031.7 386.5,-2031.7"/>
<text text-anchor="start" x="389.5" y="-2037.8" font-family="Helvetica,sans-Serif" font-size="11.00" fill="#000000">&lt; 1</text>
<polygon fill="#ffffff" stroke="transparent" points="518.5,-2031.7 518.5,-2050.7 586.5,-2050.7 586.5,-2031.7 518.5,-2031.7"/>
<polygon fill="none" stroke="#000000" points="518.5,-2031.7 518.5,-2050.7 586.5,-2050.7 586.5,-2031.7 518.5,-2031.7"/>
<text text-anchor="start" x="577.3862" y="-2037.8" font-family="Helvetica,sans-Serif" font-size="11.00" fill="#000000"> &#160;</text>
<polygon fill="#ffffff" stroke="transparent" points="586.5,-2031.7 586.5,-2050.7 654.5,-2050.7 654.5,-2031.7 586.5,-2031.7"/>
<polygon fill="none" stroke="#000000" points="586.5,-2031.7 586.5,-2050.7 654.5,-2050.7 654.5,-2031.7 586.5,-2031.7"/>
<text text-anchor="start" x="645.3862" y="-2037.8" font-family="Helvetica,sans-Serif" font-size="11.00" fill="#000000"> &#160;</text>
</a>
</g>
</g>
<!-- Adobe_libraryImageDevelopHistoryStep&#45;&gt;Adobe_images -->
<g id="edge6" class="edge">
<title>Adobe_libraryImageDevelopHistoryStep:w&#45;&gt;Adobe_images:e</title>
<path fill="none" stroke="#000000" d="M373.7334,-2052.2473C315.5111,-1974.043 413.4519,-1306.7 334.5,-1306.7"/>
<polygon fill="#000000" stroke="#000000" points="379.5911,-2055.6668 384.685,-2062.809 383.0455,-2057.6834 386.5,-2059.7 386.5,-2059.7 386.5,-2059.7 383.0455,-2057.6834 388.315,-2056.591 379.5911,-2055.6668 379.5911,-2055.6668"/>
<ellipse fill="none" stroke="#000000" cx="376.8275" cy="-2054.0535" rx="3.2" ry="3.2"/>
</g>
<!-- Adobe_libraryImageDevelopSnapshot -->
<g id="node8" class="node">
<title>Adobe_libraryImageDevelopSnapshot</title>
<g id="a_node8"><a xlink:href="../../tables/Adobe_libraryImageDevelopSnapshot.html" xlink:title="Adobe_libraryImageDevelopSnapshot" target="_top">
<polygon fill="#ffffff" stroke="transparent" points="393,-1950.2 393,-2011.2 648,-2011.2 648,-1950.2 393,-1950.2"/>
<polygon fill="#f5f5f5" stroke="transparent" points="393.5,-1987.7 393.5,-2010.7 648.5,-2010.7 648.5,-1987.7 393.5,-1987.7"/>
<polygon fill="none" stroke="#000000" points="393.5,-1987.7 393.5,-2010.7 648.5,-2010.7 648.5,-1987.7 393.5,-1987.7"/>
<text text-anchor="start" x="398.5" y="-1996.3" font-family="Helvetica,sans-Serif" font-weight="bold" font-size="11.00" fill="#000000">Adobe_libraryImageDevelopSnapshot</text>
<text text-anchor="start" x="614.0219" y="-1995.8" font-family="Helvetica,sans-Serif" font-size="11.00" fill="#000000">[table]</text>
<polygon fill="none" stroke="#000000" points="393.5,-1968.7 393.5,-1987.7 648.5,-1987.7 648.5,-1968.7 393.5,-1968.7"/>
<text text-anchor="start" x="396.5" y="-1974.8" font-family="Helvetica,sans-Serif" font-size="11.00" fill="#000000">...</text>
<polygon fill="#ffffff" stroke="transparent" points="393.5,-1949.7 393.5,-1968.7 519.5,-1968.7 519.5,-1949.7 393.5,-1949.7"/>
<polygon fill="none" stroke="#000000" points="393.5,-1949.7 393.5,-1968.7 519.5,-1968.7 519.5,-1949.7 393.5,-1949.7"/>
<text text-anchor="start" x="396.5" y="-1955.8" font-family="Helvetica,sans-Serif" font-size="11.00" fill="#000000">&lt; 1</text>
<polygon fill="#ffffff" stroke="transparent" points="519.5,-1949.7 519.5,-1968.7 583.5,-1968.7 583.5,-1949.7 519.5,-1949.7"/>
<polygon fill="none" stroke="#000000" points="519.5,-1949.7 519.5,-1968.7 583.5,-1968.7 583.5,-1949.7 519.5,-1949.7"/>
<text text-anchor="start" x="574.3862" y="-1955.8" font-family="Helvetica,sans-Serif" font-size="11.00" fill="#000000"> &#160;</text>
<polygon fill="#ffffff" stroke="transparent" points="583.5,-1949.7 583.5,-1968.7 648.5,-1968.7 648.5,-1949.7 583.5,-1949.7"/>
<polygon fill="none" stroke="#000000" points="583.5,-1949.7 583.5,-1968.7 648.5,-1968.7 648.5,-1949.7 583.5,-1949.7"/>
<text text-anchor="start" x="639.3862" y="-1955.8" font-family="Helvetica,sans-Serif" font-size="11.00" fill="#000000"> &#160;</text>
</a>
</g>
</g>
<!-- Adobe_libraryImageDevelopSnapshot&#45;&gt;Adobe_images -->
<g id="edge7" class="edge">
<title>Adobe_libraryImageDevelopSnapshot:w&#45;&gt;Adobe_images:e</title>
<path fill="none" stroke="#000000" d="M381.0027,-1969.6969C329.6592,-1893.9914 404.5193,-1306.7 334.5,-1306.7"/>
<polygon fill="#000000" stroke="#000000" points="386.763,-1973.3857 391.5586,-1980.7317 390.1315,-1975.5429 393.5,-1977.7 393.5,-1977.7 393.5,-1977.7 390.1315,-1975.5429 395.4414,-1974.6683 386.763,-1973.3857 386.763,-1973.3857"/>
<ellipse fill="none" stroke="#000000" cx="384.0682" cy="-1971.66" rx="3.2" ry="3.2"/>
</g>
<!-- Adobe_libraryImageFaceProcessHistory -->
<g id="node9" class="node">
<title>Adobe_libraryImageFaceProcessHistory</title>
<g id="a_node9"><a xlink:href="../../tables/Adobe_libraryImageFaceProcessHistory.html" xlink:title="Adobe_libraryImageFaceProcessHistory" target="_top">
<polygon fill="#ffffff" stroke="transparent" points="386,-1868.2 386,-1929.2 655,-1929.2 655,-1868.2 386,-1868.2"/>
<polygon fill="#f5f5f5" stroke="transparent" points="386.5,-1905.7 386.5,-1928.7 655.5,-1928.7 655.5,-1905.7 386.5,-1905.7"/>
<polygon fill="none" stroke="#000000" points="386.5,-1905.7 386.5,-1928.7 655.5,-1928.7 655.5,-1905.7 386.5,-1905.7"/>
<text text-anchor="start" x="391.5" y="-1914.3" font-family="Helvetica,sans-Serif" font-weight="bold" font-size="11.00" fill="#000000">Adobe_libraryImageFaceProcessHistory</text>
<text text-anchor="start" x="621.0219" y="-1913.8" font-family="Helvetica,sans-Serif" font-size="11.00" fill="#000000">[table]</text>
<polygon fill="none" stroke="#000000" points="386.5,-1886.7 386.5,-1905.7 655.5,-1905.7 655.5,-1886.7 386.5,-1886.7"/>
<text text-anchor="start" x="389.5" y="-1892.8" font-family="Helvetica,sans-Serif" font-size="11.00" fill="#000000">...</text>
<polygon fill="#ffffff" stroke="transparent" points="386.5,-1867.7 386.5,-1886.7 519.5,-1886.7 519.5,-1867.7 386.5,-1867.7"/>
<polygon fill="none" stroke="#000000" points="386.5,-1867.7 386.5,-1886.7 519.5,-1886.7 519.5,-1867.7 386.5,-1867.7"/>
<text text-anchor="start" x="389.5" y="-1873.8" font-family="Helvetica,sans-Serif" font-size="11.00" fill="#000000">&lt; 1</text>
<polygon fill="#ffffff" stroke="transparent" points="519.5,-1867.7 519.5,-1886.7 587.5,-1886.7 587.5,-1867.7 519.5,-1867.7"/>
<polygon fill="none" stroke="#000000" points="519.5,-1867.7 519.5,-1886.7 587.5,-1886.7 587.5,-1867.7 519.5,-1867.7"/>
<text text-anchor="start" x="578.3862" y="-1873.8" font-family="Helvetica,sans-Serif" font-size="11.00" fill="#000000"> &#160;</text>
<polygon fill="#ffffff" stroke="transparent" points="587.5,-1867.7 587.5,-1886.7 655.5,-1886.7 655.5,-1867.7 587.5,-1867.7"/>
<polygon fill="none" stroke="#000000" points="587.5,-1867.7 587.5,-1886.7 655.5,-1886.7 655.5,-1867.7 587.5,-1867.7"/>
<text text-anchor="start" x="646.3862" y="-1873.8" font-family="Helvetica,sans-Serif" font-size="11.00" fill="#000000"> &#160;</text>
</a>
</g>
</g>
<!-- Adobe_libraryImageFaceProcessHistory&#45;&gt;Adobe_images -->
<g id="edge8" class="edge">
<title>Adobe_libraryImageFaceProcessHistory:w&#45;&gt;Adobe_images:e</title>
<path fill="none" stroke="#000000" d="M374.6928,-1887.3737C331.249,-1815.7838 395.5795,-1306.7 334.5,-1306.7"/>
<polygon fill="#000000" stroke="#000000" points="379.9621,-1891.0896 384.4253,-1898.6421 383.231,-1893.3948 386.5,-1895.7 386.5,-1895.7 386.5,-1895.7 383.231,-1893.3948 388.5747,-1892.7579 379.9621,-1891.0896 379.9621,-1891.0896"/>
<ellipse fill="none" stroke="#000000" cx="377.3469" cy="-1889.2454" rx="3.2" ry="3.2"/>
</g>
<!-- AgHarvestedDNGMetadata -->
<g id="node10" class="node">
<title>AgHarvestedDNGMetadata</title>
<g id="a_node10"><a xlink:href="../../tables/AgHarvestedDNGMetadata.html" xlink:title="AgHarvestedDNGMetadata" target="_top">
<polygon fill="#ffffff" stroke="transparent" points="425,-1786.2 425,-1847.2 616,-1847.2 616,-1786.2 425,-1786.2"/>
<polygon fill="#f5f5f5" stroke="transparent" points="425.5,-1823.7 425.5,-1846.7 616.5,-1846.7 616.5,-1823.7 425.5,-1823.7"/>
<polygon fill="none" stroke="#000000" points="425.5,-1823.7 425.5,-1846.7 616.5,-1846.7 616.5,-1823.7 425.5,-1823.7"/>
<text text-anchor="start" x="430.5" y="-1832.3" font-family="Helvetica,sans-Serif" font-weight="bold" font-size="11.00" fill="#000000">AgHarvestedDNGMetadata</text>
<text text-anchor="start" x="582.0219" y="-1831.8" font-family="Helvetica,sans-Serif" font-size="11.00" fill="#000000">[table]</text>
<polygon fill="none" stroke="#000000" points="425.5,-1804.7 425.5,-1823.7 616.5,-1823.7 616.5,-1804.7 425.5,-1804.7"/>
<text text-anchor="start" x="428.5" y="-1810.8" font-family="Helvetica,sans-Serif" font-size="11.00" fill="#000000">...</text>
<polygon fill="#ffffff" stroke="transparent" points="425.5,-1785.7 425.5,-1804.7 519.5,-1804.7 519.5,-1785.7 425.5,-1785.7"/>
<polygon fill="none" stroke="#000000" points="425.5,-1785.7 425.5,-1804.7 519.5,-1804.7 519.5,-1785.7 425.5,-1785.7"/>
<text text-anchor="start" x="428.5" y="-1791.8" font-family="Helvetica,sans-Serif" font-size="11.00" fill="#000000">&lt; 1</text>
<polygon fill="#ffffff" stroke="transparent" points="519.5,-1785.7 519.5,-1804.7 567.5,-1804.7 567.5,-1785.7 519.5,-1785.7"/>
<polygon fill="none" stroke="#000000" points="519.5,-1785.7 519.5,-1804.7 567.5,-1804.7 567.5,-1785.7 519.5,-1785.7"/>
<text text-anchor="start" x="558.3862" y="-1791.8" font-family="Helvetica,sans-Serif" font-size="11.00" fill="#000000"> &#160;</text>
<polygon fill="#ffffff" stroke="transparent" points="567.5,-1785.7 567.5,-1804.7 616.5,-1804.7 616.5,-1785.7 567.5,-1785.7"/>
<polygon fill="none" stroke="#000000" points="567.5,-1785.7 567.5,-1804.7 616.5,-1804.7 616.5,-1785.7 567.5,-1785.7"/>
<text text-anchor="start" x="607.3862" y="-1791.8" font-family="Helvetica,sans-Serif" font-size="11.00" fill="#000000"> &#160;</text>
</a>
</g>
</g>
<!-- AgHarvestedDNGMetadata&#45;&gt;Adobe_images -->
<g id="edge9" class="edge">
<title>AgHarvestedDNGMetadata:w&#45;&gt;Adobe_images:e</title>
<path fill="none" stroke="#000000" d="M411.0697,-1812.1801C393.7905,-1808.029 385.9537,-1795.4713 375,-1775.7 349.652,-1729.9474 386.805,-1306.7 334.5,-1306.7"/>
<polygon fill="#000000" stroke="#000000" points="417.544,-1812.862 425.1229,-1817.2802 421.522,-1813.281 425.5,-1813.7 425.5,-1813.7 425.5,-1813.7 421.522,-1813.281 425.8771,-1810.1198 417.544,-1812.862 417.544,-1812.862"/>
<ellipse fill="none" stroke="#000000" cx="414.3616" cy="-1812.5268" rx="3.2" ry="3.2"/>
</g>
<!-- AgHarvestedExifMetadata -->
<g id="node11" class="node">
<title>AgHarvestedExifMetadata</title>
<g id="a_node11"><a xlink:href="../../tables/AgHarvestedExifMetadata.html" xlink:title="AgHarvestedExifMetadata" target="_top">
<polygon fill="#ffffff" stroke="transparent" points="427,-1704.2 427,-1765.2 614,-1765.2 614,-1704.2 427,-1704.2"/>
<polygon fill="#f5f5f5" stroke="transparent" points="427.5,-1741.7 427.5,-1764.7 614.5,-1764.7 614.5,-1741.7 427.5,-1741.7"/>
<polygon fill="none" stroke="#000000" points="427.5,-1741.7 427.5,-1764.7 614.5,-1764.7 614.5,-1741.7 427.5,-1741.7"/>
<text text-anchor="start" x="432.5" y="-1750.3" font-family="Helvetica,sans-Serif" font-weight="bold" font-size="11.00" fill="#000000">AgHarvestedExifMetadata</text>
<text text-anchor="start" x="580.0219" y="-1749.8" font-family="Helvetica,sans-Serif" font-size="11.00" fill="#000000">[table]</text>
<polygon fill="none" stroke="#000000" points="427.5,-1722.7 427.5,-1741.7 614.5,-1741.7 614.5,-1722.7 427.5,-1722.7"/>
<text text-anchor="start" x="430.5" y="-1728.8" font-family="Helvetica,sans-Serif" font-size="11.00" fill="#000000">...</text>
<polygon fill="#ffffff" stroke="transparent" points="427.5,-1703.7 427.5,-1722.7 519.5,-1722.7 519.5,-1703.7 427.5,-1703.7"/>
<polygon fill="none" stroke="#000000" points="427.5,-1703.7 427.5,-1722.7 519.5,-1722.7 519.5,-1703.7 427.5,-1703.7"/>
<text text-anchor="start" x="430.5" y="-1709.8" font-family="Helvetica,sans-Serif" font-size="11.00" fill="#000000">&lt; 4</text>
<polygon fill="#ffffff" stroke="transparent" points="519.5,-1703.7 519.5,-1722.7 566.5,-1722.7 566.5,-1703.7 519.5,-1703.7"/>
<polygon fill="none" stroke="#000000" points="519.5,-1703.7 519.5,-1722.7 566.5,-1722.7 566.5,-1703.7 519.5,-1703.7"/>
<text text-anchor="start" x="557.3862" y="-1709.8" font-family="Helvetica,sans-Serif" font-size="11.00" fill="#000000"> &#160;</text>
<polygon fill="#ffffff" stroke="transparent" points="566.5,-1703.7 566.5,-1722.7 614.5,-1722.7 614.5,-1703.7 566.5,-1703.7"/>
<polygon fill="none" stroke="#000000" points="566.5,-1703.7 566.5,-1722.7 614.5,-1722.7 614.5,-1703.7 566.5,-1703.7"/>
<text text-anchor="start" x="605.3862" y="-1709.8" font-family="Helvetica,sans-Serif" font-size="11.00" fill="#000000"> &#160;</text>
</a>
</g>
</g>
<!-- AgHarvestedExifMetadata&#45;&gt;Adobe_images -->
<g id="edge10" class="edge">
<title>AgHarvestedExifMetadata:w&#45;&gt;Adobe_images:e</title>
<path fill="none" stroke="#000000" d="M412.9333,-1730.2725C394.9561,-1726.2638 386.659,-1713.8626 375,-1693.7 331.7149,-1618.8441 420.9696,-1306.7 334.5,-1306.7"/>
<polygon fill="#000000" stroke="#000000" points="419.5381,-1730.9197 427.1489,-1735.2828 423.5191,-1731.3098 427.5,-1731.7 427.5,-1731.7 427.5,-1731.7 423.5191,-1731.3098 427.8511,-1728.1172 419.5381,-1730.9197 419.5381,-1730.9197"/>
<ellipse fill="none" stroke="#000000" cx="416.3534" cy="-1730.6076" rx="3.2" ry="3.2"/>
</g>
<!-- AgHarvestedIptcMetadata -->
<g id="node12" class="node">
<title>AgHarvestedIptcMetadata</title>
<g id="a_node12"><a xlink:href="../../tables/AgHarvestedIptcMetadata.html" xlink:title="AgHarvestedIptcMetadata" target="_top">
<polygon fill="#ffffff" stroke="transparent" points="427.5,-1622.2 427.5,-1683.2 613.5,-1683.2 613.5,-1622.2 427.5,-1622.2"/>
<polygon fill="#f5f5f5" stroke="transparent" points="427.5,-1659.7 427.5,-1682.7 613.5,-1682.7 613.5,-1659.7 427.5,-1659.7"/>
<polygon fill="none" stroke="#000000" points="427.5,-1659.7 427.5,-1682.7 613.5,-1682.7 613.5,-1659.7 427.5,-1659.7"/>
<text text-anchor="start" x="432.5" y="-1668.3" font-family="Helvetica,sans-Serif" font-weight="bold" font-size="11.00" fill="#000000">AgHarvestedIptcMetadata</text>
<text text-anchor="start" x="579.0219" y="-1667.8" font-family="Helvetica,sans-Serif" font-size="11.00" fill="#000000">[table]</text>
<polygon fill="none" stroke="#000000" points="427.5,-1640.7 427.5,-1659.7 613.5,-1659.7 613.5,-1640.7 427.5,-1640.7"/>
<text text-anchor="start" x="430.5" y="-1646.8" font-family="Helvetica,sans-Serif" font-size="11.00" fill="#000000">...</text>
<polygon fill="#ffffff" stroke="transparent" points="427.5,-1621.7 427.5,-1640.7 518.5,-1640.7 518.5,-1621.7 427.5,-1621.7"/>
<polygon fill="none" stroke="#000000" points="427.5,-1621.7 427.5,-1640.7 518.5,-1640.7 518.5,-1621.7 427.5,-1621.7"/>
<text text-anchor="start" x="430.5" y="-1627.8" font-family="Helvetica,sans-Serif" font-size="11.00" fill="#000000">&lt; 8</text>
<polygon fill="#ffffff" stroke="transparent" points="518.5,-1621.7 518.5,-1640.7 565.5,-1640.7 565.5,-1621.7 518.5,-1621.7"/>
<polygon fill="none" stroke="#000000" points="518.5,-1621.7 518.5,-1640.7 565.5,-1640.7 565.5,-1621.7 518.5,-1621.7"/>
<text text-anchor="start" x="556.3862" y="-1627.8" font-family="Helvetica,sans-Serif" font-size="11.00" fill="#000000"> &#160;</text>
<polygon fill="#ffffff" stroke="transparent" points="565.5,-1621.7 565.5,-1640.7 613.5,-1640.7 613.5,-1621.7 565.5,-1621.7"/>
<polygon fill="none" stroke="#000000" points="565.5,-1621.7 565.5,-1640.7 613.5,-1640.7 613.5,-1621.7 565.5,-1621.7"/>
<text text-anchor="start" x="604.3862" y="-1627.8" font-family="Helvetica,sans-Serif" font-size="11.00" fill="#000000"> &#160;</text>
</a>
</g>
</g>
<!-- AgHarvestedIptcMetadata&#45;&gt;Adobe_images -->
<g id="edge11" class="edge">
<title>AgHarvestedIptcMetadata:w&#45;&gt;Adobe_images:e</title>
<path fill="none" stroke="#000000" d="M413.0862,-1648.1198C394.487,-1643.49 387.0134,-1628.9322 375,-1607.7 341.7638,-1548.9592 401.9917,-1306.7 334.5,-1306.7"/>
<polygon fill="#000000" stroke="#000000" points="419.5476,-1648.8281 427.1077,-1653.2786 423.5238,-1649.2641 427.5,-1649.7 427.5,-1649.7 427.5,-1649.7 423.5238,-1649.2641 427.8923,-1646.1214 419.5476,-1648.8281 419.5476,-1648.8281"/>
<ellipse fill="none" stroke="#000000" cx="416.3667" cy="-1648.4794" rx="3.2" ry="3.2"/>
</g>
<!-- AgLibraryCollectionImage -->
<g id="node13" class="node">
<title>AgLibraryCollectionImage</title>
<g id="a_node13"><a xlink:href="../../tables/AgLibraryCollectionImage.html" xlink:title="AgLibraryCollectionImage" target="_top">
<polygon fill="#ffffff" stroke="transparent" points="426.5,-1512.2 426.5,-1573.2 614.5,-1573.2 614.5,-1512.2 426.5,-1512.2"/>
<polygon fill="#f5f5f5" stroke="transparent" points="426.5,-1549.7 426.5,-1572.7 614.5,-1572.7 614.5,-1549.7 426.5,-1549.7"/>
<polygon fill="none" stroke="#000000" points="426.5,-1549.7 426.5,-1572.7 614.5,-1572.7 614.5,-1549.7 426.5,-1549.7"/>
<text text-anchor="start" x="431.5" y="-1558.3" font-family="Helvetica,sans-Serif" font-weight="bold" font-size="11.00" fill="#000000">AgLibraryCollectionImage</text>
<text text-anchor="start" x="580.0219" y="-1557.8" font-family="Helvetica,sans-Serif" font-size="11.00" fill="#000000">[table]</text>
<polygon fill="none" stroke="#000000" points="426.5,-1530.7 426.5,-1549.7 614.5,-1549.7 614.5,-1530.7 426.5,-1530.7"/>
<text text-anchor="start" x="429.5" y="-1536.8" font-family="Helvetica,sans-Serif" font-size="11.00" fill="#000000">...</text>
<polygon fill="#ffffff" stroke="transparent" points="426.5,-1511.7 426.5,-1530.7 514.5,-1530.7 514.5,-1511.7 426.5,-1511.7"/>
<polygon fill="none" stroke="#000000" points="426.5,-1511.7 426.5,-1530.7 514.5,-1530.7 514.5,-1511.7 426.5,-1511.7"/>
<text text-anchor="start" x="429.5" y="-1517.8" font-family="Helvetica,sans-Serif" font-size="11.00" fill="#000000">&lt; 2</text>
<polygon fill="#ffffff" stroke="transparent" points="514.5,-1511.7 514.5,-1530.7 559.5,-1530.7 559.5,-1511.7 514.5,-1511.7"/>
<polygon fill="none" stroke="#000000" points="514.5,-1511.7 514.5,-1530.7 559.5,-1530.7 559.5,-1511.7 514.5,-1511.7"/>
<text text-anchor="start" x="550.3862" y="-1517.8" font-family="Helvetica,sans-Serif" font-size="11.00" fill="#000000"> &#160;</text>
<polygon fill="#ffffff" stroke="transparent" points="559.5,-1511.7 559.5,-1530.7 614.5,-1530.7 614.5,-1511.7 559.5,-1511.7"/>
<polygon fill="none" stroke="#000000" points="559.5,-1511.7 559.5,-1530.7 614.5,-1530.7 614.5,-1511.7 559.5,-1511.7"/>
<text text-anchor="start" x="595.9053" y="-1517.8" font-family="Helvetica,sans-Serif" font-size="11.00" fill="#000000">3 &gt;</text>
</a>
</g>
</g>
<!-- AgLibraryCollectionImage&#45;&gt;Adobe_images -->
<g id="edge12" class="edge">
<title>AgLibraryCollectionImage:w&#45;&gt;Adobe_images:e</title>
<path fill="none" stroke="#000000" d="M412.0978,-1537.9847C394.1868,-1533.1088 387.4982,-1518.1861 375,-1497.7 329.8059,-1423.6215 421.2763,-1306.7 334.5,-1306.7"/>
<polygon fill="#000000" stroke="#000000" points="418.5561,-1538.7538 426.0742,-1543.2747 422.5281,-1539.2269 426.5,-1539.7 426.5,-1539.7 426.5,-1539.7 422.5281,-1539.2269 426.9258,-1536.1253 418.5561,-1538.7538 418.5561,-1538.7538"/>
<ellipse fill="none" stroke="#000000" cx="415.3786" cy="-1538.3753" rx="3.2" ry="3.2"/>
</g>
<!-- AgLibraryCollectionImageChangeCounter -->
<g id="node14" class="node">
<title>AgLibraryCollectionImageChangeCounter</title>
<g id="a_node14"><a xlink:href="../../tables/AgLibraryCollectionImageChangeCounter.html" xlink:title="AgLibraryCollectionImageChangeCounter" target="_top">
<polygon fill="#ffffff" stroke="transparent" points="713.5,-1563.2 713.5,-1624.2 991.5,-1624.2 991.5,-1563.2 713.5,-1563.2"/>
<polygon fill="#f5f5f5" stroke="transparent" points="713.5,-1600.7 713.5,-1623.7 991.5,-1623.7 991.5,-1600.7 713.5,-1600.7"/>
<polygon fill="none" stroke="#000000" points="713.5,-1600.7 713.5,-1623.7 991.5,-1623.7 991.5,-1600.7 713.5,-1600.7"/>
<text text-anchor="start" x="718.5" y="-1609.3" font-family="Helvetica,sans-Serif" font-weight="bold" font-size="11.00" fill="#000000">AgLibraryCollectionImageChangeCounter</text>
<text text-anchor="start" x="957.0219" y="-1608.8" font-family="Helvetica,sans-Serif" font-size="11.00" fill="#000000">[table]</text>
<polygon fill="none" stroke="#000000" points="713.5,-1581.7 713.5,-1600.7 991.5,-1600.7 991.5,-1581.7 713.5,-1581.7"/>
<text text-anchor="start" x="716.5" y="-1587.8" font-family="Helvetica,sans-Serif" font-size="11.00" fill="#000000">...</text>
<polygon fill="#ffffff" stroke="transparent" points="713.5,-1562.7 713.5,-1581.7 850.5,-1581.7 850.5,-1562.7 713.5,-1562.7"/>
<polygon fill="none" stroke="#000000" points="713.5,-1562.7 713.5,-1581.7 850.5,-1581.7 850.5,-1562.7 713.5,-1562.7"/>
<text text-anchor="start" x="716.5" y="-1568.8" font-family="Helvetica,sans-Serif" font-size="11.00" fill="#000000">&lt; 3</text>
<polygon fill="#ffffff" stroke="transparent" points="850.5,-1562.7 850.5,-1581.7 920.5,-1581.7 920.5,-1562.7 850.5,-1562.7"/>
<polygon fill="none" stroke="#000000" points="850.5,-1562.7 850.5,-1581.7 920.5,-1581.7 920.5,-1562.7 850.5,-1562.7"/>
<text text-anchor="start" x="911.3862" y="-1568.8" font-family="Helvetica,sans-Serif" font-size="11.00" fill="#000000"> &#160;</text>
<polygon fill="#ffffff" stroke="transparent" points="920.5,-1562.7 920.5,-1581.7 991.5,-1581.7 991.5,-1562.7 920.5,-1562.7"/>
<polygon fill="none" stroke="#000000" points="920.5,-1562.7 920.5,-1581.7 991.5,-1581.7 991.5,-1562.7 920.5,-1562.7"/>
<text text-anchor="start" x="982.3862" y="-1568.8" font-family="Helvetica,sans-Serif" font-size="11.00" fill="#000000"> &#160;</text>
</a>
</g>
</g>
<!-- AgLibraryCollectionImageChangeCounter&#45;&gt;Adobe_images -->
<g id="edge14" class="edge">
<title>AgLibraryCollectionImageChangeCounter:w&#45;&gt;Adobe_images:e</title>
<path fill="none" stroke="#000000" d="M698.9757,-1591.1135C614.5376,-1595.3965 428.1031,-1630.5714 375,-1583.7 328.3594,-1542.5327 396.71,-1306.7 334.5,-1306.7"/>
<polygon fill="#000000" stroke="#000000" points="705.5032,-1590.9277 713.6025,-1594.2985 709.5016,-1590.8139 713.5,-1590.7 713.5,-1590.7 713.5,-1590.7 709.5016,-1590.8139 713.3975,-1587.1015 705.5032,-1590.9277 705.5032,-1590.9277"/>
<ellipse fill="none" stroke="#000000" cx="702.3045" cy="-1591.0188" rx="3.2" ry="3.2"/>
</g>
<!-- AgLibraryCollectionImageChangeCounter&#45;&gt;AgLibraryCollectionImage -->
<g id="edge13" class="edge">
<title>AgLibraryCollectionImageChangeCounter:w&#45;&gt;AgLibraryCollectionImage:e</title>
<path fill="none" stroke="#000000" d="M703.0072,-1589.8574C663.7162,-1583.2264 660.2251,-1539.7 614.5,-1539.7"/>
<polygon fill="#000000" stroke="#000000" points="713.0228,-1586.6488 712.3823,-1594.6231 710.7875,-1594.495 711.4279,-1586.5207 713.0228,-1586.6488"/>
<polyline fill="none" stroke="#000000" points="713.5,-1590.7 709.5128,-1590.3798 "/>
<ellipse fill="none" stroke="#000000" cx="706.3231" cy="-1590.1236" rx="3.2" ry="3.2"/>
</g>
<!-- AgLibraryCollectionImageOzAlbumAssetIds -->
<g id="node15" class="node">
<title>AgLibraryCollectionImageOzAlbumAssetIds</title>
<g id="a_node15"><a xlink:href="../../tables/AgLibraryCollectionImageOzAlbumAssetIds.html" xlink:title="AgLibraryCollectionImageOzAlbumAssetIds" target="_top">
<polygon fill="#ffffff" stroke="transparent" points="707,-1474.2 707,-1535.2 998,-1535.2 998,-1474.2 707,-1474.2"/>
<polygon fill="#f5f5f5" stroke="transparent" points="707.5,-1511.7 707.5,-1534.7 998.5,-1534.7 998.5,-1511.7 707.5,-1511.7"/>
<polygon fill="none" stroke="#000000" points="707.5,-1511.7 707.5,-1534.7 998.5,-1534.7 998.5,-1511.7 707.5,-1511.7"/>
<text text-anchor="start" x="712.5" y="-1520.3" font-family="Helvetica,sans-Serif" font-weight="bold" font-size="11.00" fill="#000000">AgLibraryCollectionImageOzAlbumAssetIds</text>
<text text-anchor="start" x="964.0219" y="-1519.8" font-family="Helvetica,sans-Serif" font-size="11.00" fill="#000000">[table]</text>
<polygon fill="none" stroke="#000000" points="707.5,-1492.7 707.5,-1511.7 998.5,-1511.7 998.5,-1492.7 707.5,-1492.7"/>
<text text-anchor="start" x="710.5" y="-1498.8" font-family="Helvetica,sans-Serif" font-size="11.00" fill="#000000">...</text>
<polygon fill="#ffffff" stroke="transparent" points="707.5,-1473.7 707.5,-1492.7 851.5,-1492.7 851.5,-1473.7 707.5,-1473.7"/>
<polygon fill="none" stroke="#000000" points="707.5,-1473.7 707.5,-1492.7 851.5,-1492.7 851.5,-1473.7 707.5,-1473.7"/>
<text text-anchor="start" x="710.5" y="-1479.8" font-family="Helvetica,sans-Serif" font-size="11.00" fill="#000000">&lt; 3</text>
<polygon fill="#ffffff" stroke="transparent" points="851.5,-1473.7 851.5,-1492.7 924.5,-1492.7 924.5,-1473.7 851.5,-1473.7"/>
<polygon fill="none" stroke="#000000" points="851.5,-1473.7 851.5,-1492.7 924.5,-1492.7 924.5,-1473.7 851.5,-1473.7"/>
<text text-anchor="start" x="915.3862" y="-1479.8" font-family="Helvetica,sans-Serif" font-size="11.00" fill="#000000"> &#160;</text>
<polygon fill="#ffffff" stroke="transparent" points="924.5,-1473.7 924.5,-1492.7 998.5,-1492.7 998.5,-1473.7 924.5,-1473.7"/>
<polygon fill="none" stroke="#000000" points="924.5,-1473.7 924.5,-1492.7 998.5,-1492.7 998.5,-1473.7 924.5,-1473.7"/>
<text text-anchor="start" x="989.3862" y="-1479.8" font-family="Helvetica,sans-Serif" font-size="11.00" fill="#000000"> &#160;</text>
</a>
</g>
</g>
<!-- AgLibraryCollectionImageOzAlbumAssetIds&#45;&gt;Adobe_images -->
<g id="edge16" class="edge">
<title>AgLibraryCollectionImageOzAlbumAssetIds:w&#45;&gt;Adobe_images:e</title>
<path fill="none" stroke="#000000" d="M692.7083,-1501.599C625.2907,-1500.8621 400.6795,-1495.7029 375,-1473.7 317.0037,-1424.0073 410.8737,-1306.7 334.5,-1306.7"/>
<polygon fill="#000000" stroke="#000000" points="699.5002,-1501.6453 707.4754,-1505.2999 703.5001,-1501.6727 707.5,-1501.7 707.5,-1501.7 707.5,-1501.7 703.5001,-1501.6727 707.5246,-1498.1001 699.5002,-1501.6453 699.5002,-1501.6453"/>
<ellipse fill="none" stroke="#000000" cx="696.3003" cy="-1501.6235" rx="3.2" ry="3.2"/>
</g>
<!-- AgLibraryCollectionImageOzAlbumAssetIds&#45;&gt;AgLibraryCollectionImage -->
<g id="edge15" class="edge">
<title>AgLibraryCollectionImageOzAlbumAssetIds:w&#45;&gt;AgLibraryCollectionImage:e</title>
<path fill="none" stroke="#000000" d="M692.9353,-1503.2367C661.3531,-1510.3459 653.7437,-1539.7 614.5,-1539.7"/>
<polygon fill="#000000" stroke="#000000" points="699.5442,-1502.5395 707.8778,-1505.2801 703.5221,-1502.1197 707.5,-1501.7 707.5,-1501.7 707.5,-1501.7 703.5221,-1502.1197 707.1222,-1498.1199 699.5442,-1502.5395 699.5442,-1502.5395"/>
<ellipse fill="none" stroke="#000000" cx="696.3618" cy="-1502.8753" rx="3.2" ry="3.2"/>
</g>
<!-- AgLibraryCollectionStackImage -->
<g id="node16" class="node">
<title>AgLibraryCollectionStackImage</title>
<g id="a_node16"><a xlink:href="../../tables/AgLibraryCollectionStackImage.html" xlink:title="AgLibraryCollectionStackImage" target="_top">
<polygon fill="#ffffff" stroke="transparent" points="410.5,-1402.2 410.5,-1463.2 630.5,-1463.2 630.5,-1402.2 410.5,-1402.2"/>
<polygon fill="#f5f5f5" stroke="transparent" points="410.5,-1439.7 410.5,-1462.7 630.5,-1462.7 630.5,-1439.7 410.5,-1439.7"/>
<polygon fill="none" stroke="#000000" points="410.5,-1439.7 410.5,-1462.7 630.5,-1462.7 630.5,-1439.7 410.5,-1439.7"/>
<text text-anchor="start" x="415.5" y="-1448.3" font-family="Helvetica,sans-Serif" font-weight="bold" font-size="11.00" fill="#000000">AgLibraryCollectionStackImage</text>
<text text-anchor="start" x="596.0219" y="-1447.8" font-family="Helvetica,sans-Serif" font-size="11.00" fill="#000000">[table]</text>
<polygon fill="none" stroke="#000000" points="410.5,-1420.7 410.5,-1439.7 630.5,-1439.7 630.5,-1420.7 410.5,-1420.7"/>
<text text-anchor="start" x="413.5" y="-1426.8" font-family="Helvetica,sans-Serif" font-size="11.00" fill="#000000">...</text>
<polygon fill="#ffffff" stroke="transparent" points="410.5,-1401.7 410.5,-1420.7 518.5,-1420.7 518.5,-1401.7 410.5,-1401.7"/>
<polygon fill="none" stroke="#000000" points="410.5,-1401.7 410.5,-1420.7 518.5,-1420.7 518.5,-1401.7 410.5,-1401.7"/>
<text text-anchor="start" x="413.5" y="-1407.8" font-family="Helvetica,sans-Serif" font-size="11.00" fill="#000000">&lt; 3</text>
<polygon fill="#ffffff" stroke="transparent" points="518.5,-1401.7 518.5,-1420.7 574.5,-1420.7 574.5,-1401.7 518.5,-1401.7"/>
<polygon fill="none" stroke="#000000" points="518.5,-1401.7 518.5,-1420.7 574.5,-1420.7 574.5,-1401.7 518.5,-1401.7"/>
<text text-anchor="start" x="565.3862" y="-1407.8" font-family="Helvetica,sans-Serif" font-size="11.00" fill="#000000"> &#160;</text>
<polygon fill="#ffffff" stroke="transparent" points="574.5,-1401.7 574.5,-1420.7 630.5,-1420.7 630.5,-1401.7 574.5,-1401.7"/>
<polygon fill="none" stroke="#000000" points="574.5,-1401.7 574.5,-1420.7 630.5,-1420.7 630.5,-1401.7 574.5,-1401.7"/>
<text text-anchor="start" x="621.3862" y="-1407.8" font-family="Helvetica,sans-Serif" font-size="11.00" fill="#000000"> &#160;</text>
</a>
</g>
</g>
<!-- AgLibraryCollectionStackImage&#45;&gt;Adobe_images -->
<g id="edge17" class="edge">
<title>AgLibraryCollectionStackImage:w&#45;&gt;Adobe_images:e</title>
<path fill="none" stroke="#000000" d="M396.4064,-1426.0501C386.7574,-1419.6457 384.556,-1405.7274 375,-1391.7 351.4398,-1357.1156 376.3469,-1306.7 334.5,-1306.7"/>
<polygon fill="#000000" stroke="#000000" points="402.7555,-1427.6943 409.5974,-1433.185 406.6277,-1428.6972 410.5,-1429.7 410.5,-1429.7 410.5,-1429.7 406.6277,-1428.6972 411.4026,-1426.215 402.7555,-1427.6943 402.7555,-1427.6943"/>
<ellipse fill="none" stroke="#000000" cx="399.6577" cy="-1426.892" rx="3.2" ry="3.2"/>
</g>
<!-- AgLibraryFace -->
<g id="node17" class="node">
<title>AgLibraryFace</title>
<g id="a_node17"><a xlink:href="../../tables/AgLibraryFace.html" xlink:title="AgLibraryFace" target="_top">
<polygon fill="#ffffff" stroke="transparent" points="459,-1320.2 459,-1381.2 582,-1381.2 582,-1320.2 459,-1320.2"/>
<polygon fill="#f5f5f5" stroke="transparent" points="459.5,-1357.7 459.5,-1380.7 582.5,-1380.7 582.5,-1357.7 459.5,-1357.7"/>
<polygon fill="none" stroke="#000000" points="459.5,-1357.7 459.5,-1380.7 582.5,-1380.7 582.5,-1357.7 459.5,-1357.7"/>
<text text-anchor="start" x="464.5" y="-1366.3" font-family="Helvetica,sans-Serif" font-weight="bold" font-size="11.00" fill="#000000">AgLibraryFace</text>
<text text-anchor="start" x="548.0219" y="-1365.8" font-family="Helvetica,sans-Serif" font-size="11.00" fill="#000000">[table]</text>
<polygon fill="none" stroke="#000000" points="459.5,-1338.7 459.5,-1357.7 582.5,-1357.7 582.5,-1338.7 459.5,-1338.7"/>
<text text-anchor="start" x="462.5" y="-1344.8" font-family="Helvetica,sans-Serif" font-size="11.00" fill="#000000">...</text>
<polygon fill="#ffffff" stroke="transparent" points="459.5,-1319.7 459.5,-1338.7 514.5,-1338.7 514.5,-1319.7 459.5,-1319.7"/>
<polygon fill="none" stroke="#000000" points="459.5,-1319.7 459.5,-1338.7 514.5,-1338.7 514.5,-1319.7 459.5,-1319.7"/>
<text text-anchor="start" x="462.5" y="-1325.8" font-family="Helvetica,sans-Serif" font-size="11.00" fill="#000000">&lt; 1</text>
<polygon fill="#ffffff" stroke="transparent" points="514.5,-1319.7 514.5,-1338.7 543.5,-1338.7 543.5,-1319.7 514.5,-1319.7"/>
<polygon fill="none" stroke="#000000" points="514.5,-1319.7 514.5,-1338.7 543.5,-1338.7 543.5,-1319.7 514.5,-1319.7"/>
<text text-anchor="start" x="534.3862" y="-1325.8" font-family="Helvetica,sans-Serif" font-size="11.00" fill="#000000"> &#160;</text>
<polygon fill="#ffffff" stroke="transparent" points="543.5,-1319.7 543.5,-1338.7 582.5,-1338.7 582.5,-1319.7 543.5,-1319.7"/>
<polygon fill="none" stroke="#000000" points="543.5,-1319.7 543.5,-1338.7 582.5,-1338.7 582.5,-1319.7 543.5,-1319.7"/>
<text text-anchor="start" x="563.9053" y="-1325.8" font-family="Helvetica,sans-Serif" font-size="11.00" fill="#000000">3 &gt;</text>
</a>
</g>
</g>
<!-- AgLibraryFace&#45;&gt;Adobe_images -->
<g id="edge18" class="edge">
<title>AgLibraryFace:w&#45;&gt;Adobe_images:e</title>
<path fill="none" stroke="#000000" d="M444.8886,-1346.7666C399.1764,-1340.6638 387.7147,-1306.7 334.5,-1306.7"/>
<polygon fill="#000000" stroke="#000000" points="451.5163,-1347.1899 459.2705,-1351.2927 455.5081,-1347.445 459.5,-1347.7 459.5,-1347.7 459.5,-1347.7 455.5081,-1347.445 459.7295,-1344.1073 451.5163,-1347.1899 451.5163,-1347.1899"/>
<ellipse fill="none" stroke="#000000" cx="448.3228" cy="-1346.9859" rx="3.2" ry="3.2"/>
</g>
<!-- AgLibraryFolderStackImage -->
<g id="node18" class="node">
<title>AgLibraryFolderStackImage</title>
<g id="a_node18"><a xlink:href="../../tables/AgLibraryFolderStackImage.html" xlink:title="AgLibraryFolderStackImage" target="_top">
<polygon fill="#ffffff" stroke="transparent" points="421,-1238.2 421,-1299.2 620,-1299.2 620,-1238.2 421,-1238.2"/>
<polygon fill="#f5f5f5" stroke="transparent" points="421.5,-1275.7 421.5,-1298.7 620.5,-1298.7 620.5,-1275.7 421.5,-1275.7"/>
<polygon fill="none" stroke="#000000" points="421.5,-1275.7 421.5,-1298.7 620.5,-1298.7 620.5,-1275.7 421.5,-1275.7"/>
<text text-anchor="start" x="426.5" y="-1284.3" font-family="Helvetica,sans-Serif" font-weight="bold" font-size="11.00" fill="#000000">AgLibraryFolderStackImage</text>
<text text-anchor="start" x="586.0219" y="-1283.8" font-family="Helvetica,sans-Serif" font-size="11.00" fill="#000000">[table]</text>
<polygon fill="none" stroke="#000000" points="421.5,-1256.7 421.5,-1275.7 620.5,-1275.7 620.5,-1256.7 421.5,-1256.7"/>
<text text-anchor="start" x="424.5" y="-1262.8" font-family="Helvetica,sans-Serif" font-size="11.00" fill="#000000">...</text>
<polygon fill="#ffffff" stroke="transparent" points="421.5,-1237.7 421.5,-1256.7 519.5,-1256.7 519.5,-1237.7 421.5,-1237.7"/>
<polygon fill="none" stroke="#000000" points="421.5,-1237.7 421.5,-1256.7 519.5,-1256.7 519.5,-1237.7 421.5,-1237.7"/>
<text text-anchor="start" x="424.5" y="-1243.8" font-family="Helvetica,sans-Serif" font-size="11.00" fill="#000000">&lt; 2</text>
<polygon fill="#ffffff" stroke="transparent" points="519.5,-1237.7 519.5,-1256.7 569.5,-1256.7 569.5,-1237.7 519.5,-1237.7"/>
<polygon fill="none" stroke="#000000" points="519.5,-1237.7 519.5,-1256.7 569.5,-1256.7 569.5,-1237.7 519.5,-1237.7"/>
<text text-anchor="start" x="560.3862" y="-1243.8" font-family="Helvetica,sans-Serif" font-size="11.00" fill="#000000"> &#160;</text>
<polygon fill="#ffffff" stroke="transparent" points="569.5,-1237.7 569.5,-1256.7 620.5,-1256.7 620.5,-1237.7 569.5,-1237.7"/>
<polygon fill="none" stroke="#000000" points="569.5,-1237.7 569.5,-1256.7 620.5,-1256.7 620.5,-1237.7 569.5,-1237.7"/>
<text text-anchor="start" x="611.3862" y="-1243.8" font-family="Helvetica,sans-Serif" font-size="11.00" fill="#000000"> &#160;</text>
</a>
</g>
</g>
<!-- AgLibraryFolderStackImage&#45;&gt;Adobe_images -->
<g id="edge19" class="edge">
<title>AgLibraryFolderStackImage:w&#45;&gt;Adobe_images:e</title>
<path fill="none" stroke="#000000" d="M406.8486,-1267.5682C377.6803,-1275.589 371.7352,-1306.7 334.5,-1306.7"/>
<polygon fill="#000000" stroke="#000000" points="413.5643,-1266.7119 421.9554,-1269.2711 417.5321,-1266.206 421.5,-1265.7 421.5,-1265.7 421.5,-1265.7 417.5321,-1266.206 421.0446,-1262.1289 413.5643,-1266.7119 413.5643,-1266.7119"/>
<ellipse fill="none" stroke="#000000" cx="410.39" cy="-1267.1167" rx="3.2" ry="3.2"/>
</g>
<!-- AgLibraryImageChangeCounter -->
<g id="node19" class="node">
<title>AgLibraryImageChangeCounter</title>
<g id="a_node19"><a xlink:href="../../tables/AgLibraryImageChangeCounter.html" xlink:title="AgLibraryImageChangeCounter" target="_top">
<polygon fill="#ffffff" stroke="transparent" points="410.5,-1156.2 410.5,-1217.2 630.5,-1217.2 630.5,-1156.2 410.5,-1156.2"/>
<polygon fill="#f5f5f5" stroke="transparent" points="410.5,-1193.7 410.5,-1216.7 630.5,-1216.7 630.5,-1193.7 410.5,-1193.7"/>
<polygon fill="none" stroke="#000000" points="410.5,-1193.7 410.5,-1216.7 630.5,-1216.7 630.5,-1193.7 410.5,-1193.7"/>
<text text-anchor="start" x="415.5" y="-1202.3" font-family="Helvetica,sans-Serif" font-weight="bold" font-size="11.00" fill="#000000">AgLibraryImageChangeCounter</text>
<text text-anchor="start" x="596.0219" y="-1201.8" font-family="Helvetica,sans-Serif" font-size="11.00" fill="#000000">[table]</text>
<polygon fill="none" stroke="#000000" points="410.5,-1174.7 410.5,-1193.7 630.5,-1193.7 630.5,-1174.7 410.5,-1174.7"/>
<text text-anchor="start" x="413.5" y="-1180.8" font-family="Helvetica,sans-Serif" font-size="11.00" fill="#000000">...</text>
<polygon fill="#ffffff" stroke="transparent" points="410.5,-1155.7 410.5,-1174.7 518.5,-1174.7 518.5,-1155.7 410.5,-1155.7"/>
<polygon fill="none" stroke="#000000" points="410.5,-1155.7 410.5,-1174.7 518.5,-1174.7 518.5,-1155.7 410.5,-1155.7"/>
<text text-anchor="start" x="413.5" y="-1161.8" font-family="Helvetica,sans-Serif" font-size="11.00" fill="#000000">&lt; 1</text>
<polygon fill="#ffffff" stroke="transparent" points="518.5,-1155.7 518.5,-1174.7 574.5,-1174.7 574.5,-1155.7 518.5,-1155.7"/>
<polygon fill="none" stroke="#000000" points="518.5,-1155.7 518.5,-1174.7 574.5,-1174.7 574.5,-1155.7 518.5,-1155.7"/>
<text text-anchor="start" x="565.3862" y="-1161.8" font-family="Helvetica,sans-Serif" font-size="11.00" fill="#000000"> &#160;</text>
<polygon fill="#ffffff" stroke="transparent" points="574.5,-1155.7 574.5,-1174.7 630.5,-1174.7 630.5,-1155.7 574.5,-1155.7"/>
<polygon fill="none" stroke="#000000" points="574.5,-1155.7 574.5,-1174.7 630.5,-1174.7 630.5,-1155.7 574.5,-1155.7"/>
<text text-anchor="start" x="621.3862" y="-1161.8" font-family="Helvetica,sans-Serif" font-size="11.00" fill="#000000"> &#160;</text>
</a>
</g>
</g>
<!-- AgLibraryImageChangeCounter&#45;&gt;Adobe_images -->
<g id="edge20" class="edge">
<title>AgLibraryImageChangeCounter:w&#45;&gt;Adobe_images:e</title>
<path fill="none" stroke="#000000" d="M400.0602,-1184.9981C352.1715,-1198.1436 394.8695,-1306.7 334.5,-1306.7"/>
<polygon fill="#000000" stroke="#000000" points="409.2125,-1179.8293 410.1997,-1187.7682 408.6119,-1187.9656 407.6247,-1180.0267 409.2125,-1179.8293"/>
<polyline fill="none" stroke="#000000" points="410.5,-1183.7 406.5306,-1184.1936 "/>
<ellipse fill="none" stroke="#000000" cx="403.355" cy="-1184.5885" rx="3.2" ry="3.2"/>
</g>
<!-- AgLibraryImageOzAssetIds -->
<g id="node20" class="node">
<title>AgLibraryImageOzAssetIds</title>
<g id="a_node20"><a xlink:href="../../tables/AgLibraryImageOzAssetIds.html" xlink:title="AgLibraryImageOzAssetIds" target="_top">
<polygon fill="#ffffff" stroke="transparent" points="423,-1074.2 423,-1135.2 618,-1135.2 618,-1074.2 423,-1074.2"/>
<polygon fill="#f5f5f5" stroke="transparent" points="423.5,-1111.7 423.5,-1134.7 618.5,-1134.7 618.5,-1111.7 423.5,-1111.7"/>
<polygon fill="none" stroke="#000000" points="423.5,-1111.7 423.5,-1134.7 618.5,-1134.7 618.5,-1111.7 423.5,-1111.7"/>
<text text-anchor="start" x="428.5" y="-1120.3" font-family="Helvetica,sans-Serif" font-weight="bold" font-size="11.00" fill="#000000">AgLibraryImageOzAssetIds</text>
<text text-anchor="start" x="584.0219" y="-1119.8" font-family="Helvetica,sans-Serif" font-size="11.00" fill="#000000">[table]</text>
<polygon fill="none" stroke="#000000" points="423.5,-1092.7 423.5,-1111.7 618.5,-1111.7 618.5,-1092.7 423.5,-1092.7"/>
<text text-anchor="start" x="426.5" y="-1098.8" font-family="Helvetica,sans-Serif" font-size="11.00" fill="#000000">...</text>
<polygon fill="#ffffff" stroke="transparent" points="423.5,-1073.7 423.5,-1092.7 519.5,-1092.7 519.5,-1073.7 423.5,-1073.7"/>
<polygon fill="none" stroke="#000000" points="423.5,-1073.7 423.5,-1092.7 519.5,-1092.7 519.5,-1073.7 423.5,-1073.7"/>
<text text-anchor="start" x="426.5" y="-1079.8" font-family="Helvetica,sans-Serif" font-size="11.00" fill="#000000">&lt; 1</text>
<polygon fill="#ffffff" stroke="transparent" points="519.5,-1073.7 519.5,-1092.7 568.5,-1092.7 568.5,-1073.7 519.5,-1073.7"/>
<polygon fill="none" stroke="#000000" points="519.5,-1073.7 519.5,-1092.7 568.5,-1092.7 568.5,-1073.7 519.5,-1073.7"/>
<text text-anchor="start" x="559.3862" y="-1079.8" font-family="Helvetica,sans-Serif" font-size="11.00" fill="#000000"> &#160;</text>
<polygon fill="#ffffff" stroke="transparent" points="568.5,-1073.7 568.5,-1092.7 618.5,-1092.7 618.5,-1073.7 568.5,-1073.7"/>
<polygon fill="none" stroke="#000000" points="568.5,-1073.7 568.5,-1092.7 618.5,-1092.7 618.5,-1073.7 568.5,-1073.7"/>
<text text-anchor="start" x="609.3862" y="-1079.8" font-family="Helvetica,sans-Serif" font-size="11.00" fill="#000000"> &#160;</text>
</a>
</g>
</g>
<!-- AgLibraryImageOzAssetIds&#45;&gt;Adobe_images -->
<g id="edge21" class="edge">
<title>AgLibraryImageOzAssetIds:w&#45;&gt;Adobe_images:e</title>
<path fill="none" stroke="#000000" d="M409.0084,-1103.7812C392.2644,-1109.3634 387.0455,-1125.6153 375,-1145.7 337.0504,-1208.9774 408.2848,-1306.7 334.5,-1306.7"/>
<polygon fill="#000000" stroke="#000000" points="415.5812,-1102.8373 424.0118,-1105.2634 419.5406,-1102.2687 423.5,-1101.7 423.5,-1101.7 423.5,-1101.7 419.5406,-1102.2687 422.9882,-1098.1366 415.5812,-1102.8373 415.5812,-1102.8373"/>
<ellipse fill="none" stroke="#000000" cx="412.4137" cy="-1103.2922" rx="3.2" ry="3.2"/>
</g>
<!-- AgLibraryImageSyncedAssetData -->
<g id="node21" class="node">
<title>AgLibraryImageSyncedAssetData</title>
<g id="a_node21"><a xlink:href="../../tables/AgLibraryImageSyncedAssetData.html" xlink:title="AgLibraryImageSyncedAssetData" target="_top">
<polygon fill="#ffffff" stroke="transparent" points="405,-992.2 405,-1053.2 636,-1053.2 636,-992.2 405,-992.2"/>
<polygon fill="#f5f5f5" stroke="transparent" points="405.5,-1029.7 405.5,-1052.7 636.5,-1052.7 636.5,-1029.7 405.5,-1029.7"/>
<polygon fill="none" stroke="#000000" points="405.5,-1029.7 405.5,-1052.7 636.5,-1052.7 636.5,-1029.7 405.5,-1029.7"/>
<text text-anchor="start" x="410.5" y="-1038.3" font-family="Helvetica,sans-Serif" font-weight="bold" font-size="11.00" fill="#000000">AgLibraryImageSyncedAssetData</text>
<text text-anchor="start" x="602.0219" y="-1037.8" font-family="Helvetica,sans-Serif" font-size="11.00" fill="#000000">[table]</text>
<polygon fill="none" stroke="#000000" points="405.5,-1010.7 405.5,-1029.7 636.5,-1029.7 636.5,-1010.7 405.5,-1010.7"/>
<text text-anchor="start" x="408.5" y="-1016.8" font-family="Helvetica,sans-Serif" font-size="11.00" fill="#000000">...</text>
<polygon fill="#ffffff" stroke="transparent" points="405.5,-991.7 405.5,-1010.7 519.5,-1010.7 519.5,-991.7 405.5,-991.7"/>
<polygon fill="none" stroke="#000000" points="405.5,-991.7 405.5,-1010.7 519.5,-1010.7 519.5,-991.7 405.5,-991.7"/>
<text text-anchor="start" x="408.5" y="-997.8" font-family="Helvetica,sans-Serif" font-size="11.00" fill="#000000">&lt; 1</text>
<polygon fill="#ffffff" stroke="transparent" points="519.5,-991.7 519.5,-1010.7 577.5,-1010.7 577.5,-991.7 519.5,-991.7"/>
<polygon fill="none" stroke="#000000" points="519.5,-991.7 519.5,-1010.7 577.5,-1010.7 577.5,-991.7 519.5,-991.7"/>
<text text-anchor="start" x="568.3862" y="-997.8" font-family="Helvetica,sans-Serif" font-size="11.00" fill="#000000"> &#160;</text>
<polygon fill="#ffffff" stroke="transparent" points="577.5,-991.7 577.5,-1010.7 636.5,-1010.7 636.5,-991.7 577.5,-991.7"/>
<polygon fill="none" stroke="#000000" points="577.5,-991.7 577.5,-1010.7 636.5,-1010.7 636.5,-991.7 577.5,-991.7"/>
<text text-anchor="start" x="627.3862" y="-997.8" font-family="Helvetica,sans-Serif" font-size="11.00" fill="#000000"> &#160;</text>
</a>
</g>
</g>
<!-- AgLibraryImageSyncedAssetData&#45;&gt;Adobe_images -->
<g id="edge22" class="edge">
<title>AgLibraryImageSyncedAssetData:w&#45;&gt;Adobe_images:e</title>
<path fill="none" stroke="#000000" d="M391.6507,-1023.7029C382.119,-1031.0258 381.6428,-1047.3371 375,-1063.7 354.4075,-1114.4242 389.2449,-1306.7 334.5,-1306.7"/>
<polygon fill="#000000" stroke="#000000" points="397.8146,-1021.9214 406.4996,-1023.1584 401.6573,-1020.8107 405.5,-1019.7 405.5,-1019.7 405.5,-1019.7 401.6573,-1020.8107 404.5004,-1016.2416 397.8146,-1021.9214 397.8146,-1021.9214"/>
<ellipse fill="none" stroke="#000000" cx="394.7404" cy="-1022.8099" rx="3.2" ry="3.2"/>
</g>
<!-- AgLibraryImportImage -->
<g id="node22" class="node">
<title>AgLibraryImportImage</title>
<g id="a_node22"><a xlink:href="../../tables/AgLibraryImportImage.html" xlink:title="AgLibraryImportImage" target="_top">
<polygon fill="#ffffff" stroke="transparent" points="383,-858.7 383,-970.7 658,-970.7 658,-858.7 383,-858.7"/>
<polygon fill="#f5f5f5" stroke="transparent" points="385.5,-945.7 385.5,-968.7 656.5,-968.7 656.5,-945.7 385.5,-945.7"/>
<polygon fill="none" stroke="#000000" points="385.5,-945.7 385.5,-968.7 656.5,-968.7 656.5,-945.7 385.5,-945.7"/>
<text text-anchor="start" x="390.5" y="-954.3" font-family="Helvetica,sans-Serif" font-weight="bold" font-size="11.00" fill="#000000">AgLibraryImportImage</text>
<text text-anchor="start" x="621.5437" y="-953.8" font-family="Helvetica,sans-Serif" font-size="11.00" fill="#000000">[table]</text>
<polygon fill="none" stroke="#000000" points="385.5,-923.7 385.5,-945.7 534.5,-945.7 534.5,-923.7 385.5,-923.7"/>
<image xlink:href="../../images/primaryKeys.png" width="11px" height="12px" preserveAspectRatio="xMinYMin meet" x="390.5" y="-940.7"/>
<text text-anchor="start" x="405.5" y="-930.8" font-family="Helvetica,sans-Serif" font-size="11.00" fill="#000000">id_local</text>
<polygon fill="none" stroke="#000000" points="534.5,-923.7 534.5,-945.7 656.5,-945.7 656.5,-923.7 534.5,-923.7"/>
<text text-anchor="start" x="537.4156" y="-931.4" font-family="Helvetica,sans-Serif" font-size="11.00" fill="#000000">integer[2000000000,10]</text>
<polygon fill="#ffffff" stroke="transparent" points="385.5,-901.7 385.5,-923.7 534.5,-923.7 534.5,-901.7 385.5,-901.7"/>
<polygon fill="none" stroke="#000000" points="385.5,-901.7 385.5,-923.7 534.5,-923.7 534.5,-901.7 385.5,-901.7"/>
<image xlink:href="../../images/foreignKeys.png" width="11px" height="12px" preserveAspectRatio="xMinYMin meet" x="390.5" y="-918.7"/>
<text text-anchor="start" x="405.5" y="-908.8" font-family="Helvetica,sans-Serif" font-size="11.00" fill="#000000">image</text>
<polygon fill="none" stroke="#000000" points="534.5,-901.7 534.5,-923.7 656.5,-923.7 656.5,-901.7 534.5,-901.7"/>
<text text-anchor="start" x="537.4156" y="-909.4" font-family="Helvetica,sans-Serif" font-size="11.00" fill="#000000">integer[2000000000,10]</text>
<polygon fill="#ffffff" stroke="transparent" points="385.5,-879.7 385.5,-901.7 534.5,-901.7 534.5,-879.7 385.5,-879.7"/>
<polygon fill="none" stroke="#000000" points="385.5,-879.7 385.5,-901.7 534.5,-901.7 534.5,-879.7 385.5,-879.7"/>
<text text-anchor="start" x="405.5" y="-886.8" font-family="Helvetica,sans-Serif" font-size="11.00" fill="#000000">import</text>
<polygon fill="none" stroke="#000000" points="534.5,-879.7 534.5,-901.7 656.5,-901.7 656.5,-879.7 534.5,-879.7"/>
<text text-anchor="start" x="537.4156" y="-887.4" font-family="Helvetica,sans-Serif" font-size="11.00" fill="#000000">integer[2000000000,10]</text>
<polygon fill="#ffffff" stroke="transparent" points="385.5,-860.7 385.5,-879.7 464.5,-879.7 464.5,-860.7 385.5,-860.7"/>
<polygon fill="none" stroke="#000000" points="385.5,-860.7 385.5,-879.7 464.5,-879.7 464.5,-860.7 385.5,-860.7"/>
<text text-anchor="start" x="388.5" y="-866.8" font-family="Helvetica,sans-Serif" font-size="11.00" fill="#000000">&lt; 1</text>
<polygon fill="#ffffff" stroke="transparent" points="464.5,-860.7 464.5,-879.7 534.5,-879.7 534.5,-860.7 464.5,-860.7"/>
<polygon fill="none" stroke="#000000" points="464.5,-860.7 464.5,-879.7 534.5,-879.7 534.5,-860.7 464.5,-860.7"/>
<text text-anchor="start" x="525.3862" y="-866.8" font-family="Helvetica,sans-Serif" font-size="11.00" fill="#000000"> &#160;</text>
<polygon fill="#ffffff" stroke="transparent" points="534.5,-860.7 534.5,-879.7 656.5,-879.7 656.5,-860.7 534.5,-860.7"/>
<polygon fill="none" stroke="#000000" points="534.5,-860.7 534.5,-879.7 656.5,-879.7 656.5,-860.7 534.5,-860.7"/>
<text text-anchor="start" x="637.9053" y="-866.8" font-family="Helvetica,sans-Serif" font-size="11.00" fill="#000000">0 &gt;</text>
<polygon fill="none" stroke="#000000" stroke-width="2" points="384,-859.7 384,-969.7 657,-969.7 657,-859.7 384,-859.7"/>
</a>
</g>
</g>
<!-- AgLibraryImportImage&#45;&gt;Adobe_images -->
<g id="edge23" class="edge">
<title>AgLibraryImportImage:w&#45;&gt;Adobe_images:e</title>
<path fill="none" stroke="#000000" d="M371.3481,-917.1248C312.0751,-960.4109 417.2681,-1306.7 334.5,-1306.7"/>
<polygon fill="#000000" stroke="#000000" points="377.8645,-915.0874 386.5743,-916.136 381.6823,-913.8937 385.5,-912.7 385.5,-912.7 385.5,-912.7 381.6823,-913.8937 384.4257,-909.264 377.8645,-915.0874 377.8645,-915.0874"/>
<ellipse fill="none" stroke="#000000" cx="374.8103" cy="-916.0423" rx="3.2" ry="3.2"/>
</g>
<!-- AgLibraryIPTC -->
<g id="node23" class="node">
<title>AgLibraryIPTC</title>
<g id="a_node23"><a xlink:href="../../tables/AgLibraryIPTC.html" xlink:title="AgLibraryIPTC" target="_top">
<polygon fill="#ffffff" stroke="transparent" points="459,-776.2 459,-837.2 582,-837.2 582,-776.2 459,-776.2"/>
<polygon fill="#f5f5f5" stroke="transparent" points="459.5,-813.7 459.5,-836.7 582.5,-836.7 582.5,-813.7 459.5,-813.7"/>
<polygon fill="none" stroke="#000000" points="459.5,-813.7 459.5,-836.7 582.5,-836.7 582.5,-813.7 459.5,-813.7"/>
<text text-anchor="start" x="464.5" y="-822.3" font-family="Helvetica,sans-Serif" font-weight="bold" font-size="11.00" fill="#000000">AgLibraryIPTC</text>
<text text-anchor="start" x="548.0219" y="-821.8" font-family="Helvetica,sans-Serif" font-size="11.00" fill="#000000">[table]</text>
<polygon fill="none" stroke="#000000" points="459.5,-794.7 459.5,-813.7 582.5,-813.7 582.5,-794.7 459.5,-794.7"/>
<text text-anchor="start" x="462.5" y="-800.8" font-family="Helvetica,sans-Serif" font-size="11.00" fill="#000000">...</text>
<polygon fill="#ffffff" stroke="transparent" points="459.5,-775.7 459.5,-794.7 519.5,-794.7 519.5,-775.7 459.5,-775.7"/>
<polygon fill="none" stroke="#000000" points="459.5,-775.7 459.5,-794.7 519.5,-794.7 519.5,-775.7 459.5,-775.7"/>
<text text-anchor="start" x="462.5" y="-781.8" font-family="Helvetica,sans-Serif" font-size="11.00" fill="#000000">&lt; 1</text>
<polygon fill="#ffffff" stroke="transparent" points="519.5,-775.7 519.5,-794.7 550.5,-794.7 550.5,-775.7 519.5,-775.7"/>
<polygon fill="none" stroke="#000000" points="519.5,-775.7 519.5,-794.7 550.5,-794.7 550.5,-775.7 519.5,-775.7"/>
<text text-anchor="start" x="541.3862" y="-781.8" font-family="Helvetica,sans-Serif" font-size="11.00" fill="#000000"> &#160;</text>
<polygon fill="#ffffff" stroke="transparent" points="550.5,-775.7 550.5,-794.7 582.5,-794.7 582.5,-775.7 550.5,-775.7"/>
<polygon fill="none" stroke="#000000" points="550.5,-775.7 550.5,-794.7 582.5,-794.7 582.5,-775.7 550.5,-775.7"/>
<text text-anchor="start" x="573.3862" y="-781.8" font-family="Helvetica,sans-Serif" font-size="11.00" fill="#000000"> &#160;</text>
</a>
</g>
</g>
<!-- AgLibraryIPTC&#45;&gt;Adobe_images -->
<g id="edge24" class="edge">
<title>AgLibraryIPTC:w&#45;&gt;Adobe_images:e</title>
<path fill="none" stroke="#000000" d="M445.0507,-804.1481C412.4061,-806.3868 395.645,-817.5184 375,-848.7 346.7969,-891.2971 385.5875,-1306.7 334.5,-1306.7"/>
<polygon fill="#000000" stroke="#000000" points="451.5038,-803.948 459.6116,-807.2983 455.5019,-803.824 459.5,-803.7 459.5,-803.7 459.5,-803.7 455.5019,-803.824 459.3884,-800.1017 451.5038,-803.948 451.5038,-803.948"/>
<ellipse fill="none" stroke="#000000" cx="448.3054" cy="-804.0472" rx="3.2" ry="3.2"/>
</g>
<!-- AgLibraryKeywordImage -->
<g id="node24" class="node">
<title>AgLibraryKeywordImage</title>
<g id="a_node24"><a xlink:href="../../tables/AgLibraryKeywordImage.html" xlink:title="AgLibraryKeywordImage" target="_top">
<polygon fill="#ffffff" stroke="transparent" points="430,-694.2 430,-755.2 611,-755.2 611,-694.2 430,-694.2"/>
<polygon fill="#f5f5f5" stroke="transparent" points="430.5,-731.7 430.5,-754.7 611.5,-754.7 611.5,-731.7 430.5,-731.7"/>
<polygon fill="none" stroke="#000000" points="430.5,-731.7 430.5,-754.7 611.5,-754.7 611.5,-731.7 430.5,-731.7"/>
<text text-anchor="start" x="435.5" y="-740.3" font-family="Helvetica,sans-Serif" font-weight="bold" font-size="11.00" fill="#000000">AgLibraryKeywordImage</text>
<text text-anchor="start" x="577.0219" y="-739.8" font-family="Helvetica,sans-Serif" font-size="11.00" fill="#000000">[table]</text>
<polygon fill="none" stroke="#000000" points="430.5,-712.7 430.5,-731.7 611.5,-731.7 611.5,-712.7 430.5,-712.7"/>
<text text-anchor="start" x="433.5" y="-718.8" font-family="Helvetica,sans-Serif" font-size="11.00" fill="#000000">...</text>
<polygon fill="#ffffff" stroke="transparent" points="430.5,-693.7 430.5,-712.7 519.5,-712.7 519.5,-693.7 430.5,-693.7"/>
<polygon fill="none" stroke="#000000" points="430.5,-693.7 430.5,-712.7 519.5,-712.7 519.5,-693.7 430.5,-693.7"/>
<text text-anchor="start" x="433.5" y="-699.8" font-family="Helvetica,sans-Serif" font-size="11.00" fill="#000000">&lt; 2</text>
<polygon fill="#ffffff" stroke="transparent" points="519.5,-693.7 519.5,-712.7 565.5,-712.7 565.5,-693.7 519.5,-693.7"/>
<polygon fill="none" stroke="#000000" points="519.5,-693.7 519.5,-712.7 565.5,-712.7 565.5,-693.7 519.5,-693.7"/>
<text text-anchor="start" x="556.3862" y="-699.8" font-family="Helvetica,sans-Serif" font-size="11.00" fill="#000000"> &#160;</text>
<polygon fill="#ffffff" stroke="transparent" points="565.5,-693.7 565.5,-712.7 611.5,-712.7 611.5,-693.7 565.5,-693.7"/>
<polygon fill="none" stroke="#000000" points="565.5,-693.7 565.5,-712.7 611.5,-712.7 611.5,-693.7 565.5,-693.7"/>
<text text-anchor="start" x="602.3862" y="-699.8" font-family="Helvetica,sans-Serif" font-size="11.00" fill="#000000"> &#160;</text>
</a>
</g>
</g>
<!-- AgLibraryKeywordImage&#45;&gt;Adobe_images -->
<g id="edge25" class="edge">
<title>AgLibraryKeywordImage:w&#45;&gt;Adobe_images:e</title>
<path fill="none" stroke="#000000" d="M416.0964,-723.1116C395.6722,-727.6087 387.2128,-742.6701 375,-765.7 346.7591,-818.9545 394.7793,-1306.7 334.5,-1306.7"/>
<polygon fill="#000000" stroke="#000000" points="422.5381,-722.4804 430.8512,-725.2828 426.5191,-722.0902 430.5,-721.7 430.5,-721.7 430.5,-721.7 426.5191,-722.0902 430.1488,-718.1172 422.5381,-722.4804 422.5381,-722.4804"/>
<ellipse fill="none" stroke="#000000" cx="419.3534" cy="-722.7925" rx="3.2" ry="3.2"/>
</g>
<!-- AgLibraryOzFeedbackInfo -->
<g id="node25" class="node">
<title>AgLibraryOzFeedbackInfo</title>
<g id="a_node25"><a xlink:href="../../tables/AgLibraryOzFeedbackInfo.html" xlink:title="AgLibraryOzFeedbackInfo" target="_top">
<polygon fill="#ffffff" stroke="transparent" points="426.5,-612.2 426.5,-673.2 614.5,-673.2 614.5,-612.2 426.5,-612.2"/>
<polygon fill="#f5f5f5" stroke="transparent" points="426.5,-649.7 426.5,-672.7 614.5,-672.7 614.5,-649.7 426.5,-649.7"/>
<polygon fill="none" stroke="#000000" points="426.5,-649.7 426.5,-672.7 614.5,-672.7 614.5,-649.7 426.5,-649.7"/>
<text text-anchor="start" x="431.5" y="-658.3" font-family="Helvetica,sans-Serif" font-weight="bold" font-size="11.00" fill="#000000">AgLibraryOzFeedbackInfo</text>
<text text-anchor="start" x="580.0219" y="-657.8" font-family="Helvetica,sans-Serif" font-size="11.00" fill="#000000">[table]</text>
<polygon fill="none" stroke="#000000" points="426.5,-630.7 426.5,-649.7 614.5,-649.7 614.5,-630.7 426.5,-630.7"/>
<text text-anchor="start" x="429.5" y="-636.8" font-family="Helvetica,sans-Serif" font-size="11.00" fill="#000000">...</text>
<polygon fill="#ffffff" stroke="transparent" points="426.5,-611.7 426.5,-630.7 518.5,-630.7 518.5,-611.7 426.5,-611.7"/>
<polygon fill="none" stroke="#000000" points="426.5,-611.7 426.5,-630.7 518.5,-630.7 518.5,-611.7 426.5,-611.7"/>
<text text-anchor="start" x="429.5" y="-617.8" font-family="Helvetica,sans-Serif" font-size="11.00" fill="#000000">&lt; 1</text>
<polygon fill="#ffffff" stroke="transparent" points="518.5,-611.7 518.5,-630.7 566.5,-630.7 566.5,-611.7 518.5,-611.7"/>
<polygon fill="none" stroke="#000000" points="518.5,-611.7 518.5,-630.7 566.5,-630.7 566.5,-611.7 518.5,-611.7"/>
<text text-anchor="start" x="557.3862" y="-617.8" font-family="Helvetica,sans-Serif" font-size="11.00" fill="#000000"> &#160;</text>
<polygon fill="#ffffff" stroke="transparent" points="566.5,-611.7 566.5,-630.7 614.5,-630.7 614.5,-611.7 566.5,-611.7"/>
<polygon fill="none" stroke="#000000" points="566.5,-611.7 566.5,-630.7 614.5,-630.7 614.5,-611.7 566.5,-611.7"/>
<text text-anchor="start" x="605.3862" y="-617.8" font-family="Helvetica,sans-Serif" font-size="11.00" fill="#000000"> &#160;</text>
</a>
</g>
</g>
<!-- AgLibraryOzFeedbackInfo&#45;&gt;Adobe_images -->
<g id="edge26" class="edge">
<title>AgLibraryOzFeedbackInfo:w&#45;&gt;Adobe_images:e</title>
<path fill="none" stroke="#000000" d="M411.9909,-641.3825C393.3017,-646.304 386.0069,-661.7244 375,-683.7 343.9343,-745.7233 403.8683,-1306.7 334.5,-1306.7"/>
<polygon fill="#000000" stroke="#000000" points="418.5533,-640.6216 426.9147,-643.276 422.5266,-640.1608 426.5,-639.7 426.5,-639.7 426.5,-639.7 422.5266,-640.1608 426.0853,-636.124 418.5533,-640.6216 418.5533,-640.6216"/>
<ellipse fill="none" stroke="#000000" cx="415.3746" cy="-640.9902" rx="3.2" ry="3.2"/>
</g>
<!-- AgLibraryPublishedCollectionImage -->
<g id="node26" class="node">
<title>AgLibraryPublishedCollectionImage</title>
<g id="a_node26"><a xlink:href="../../tables/AgLibraryPublishedCollectionImage.html" xlink:title="AgLibraryPublishedCollectionImage" target="_top">
<polygon fill="#ffffff" stroke="transparent" points="398,-530.2 398,-591.2 643,-591.2 643,-530.2 398,-530.2"/>
<polygon fill="#f5f5f5" stroke="transparent" points="398.5,-567.7 398.5,-590.7 643.5,-590.7 643.5,-567.7 398.5,-567.7"/>
<polygon fill="none" stroke="#000000" points="398.5,-567.7 398.5,-590.7 643.5,-590.7 643.5,-567.7 398.5,-567.7"/>
<text text-anchor="start" x="403.5" y="-576.3" font-family="Helvetica,sans-Serif" font-weight="bold" font-size="11.00" fill="#000000">AgLibraryPublishedCollectionImage</text>
<text text-anchor="start" x="609.0219" y="-575.8" font-family="Helvetica,sans-Serif" font-size="11.00" fill="#000000">[table]</text>
<polygon fill="none" stroke="#000000" points="398.5,-548.7 398.5,-567.7 643.5,-567.7 643.5,-548.7 398.5,-548.7"/>
<text text-anchor="start" x="401.5" y="-554.8" font-family="Helvetica,sans-Serif" font-size="11.00" fill="#000000">...</text>
<polygon fill="#ffffff" stroke="transparent" points="398.5,-529.7 398.5,-548.7 519.5,-548.7 519.5,-529.7 398.5,-529.7"/>
<polygon fill="none" stroke="#000000" points="398.5,-529.7 398.5,-548.7 519.5,-548.7 519.5,-529.7 398.5,-529.7"/>
<text text-anchor="start" x="401.5" y="-535.8" font-family="Helvetica,sans-Serif" font-size="11.00" fill="#000000">&lt; 2</text>
<polygon fill="#ffffff" stroke="transparent" points="519.5,-529.7 519.5,-548.7 581.5,-548.7 581.5,-529.7 519.5,-529.7"/>
<polygon fill="none" stroke="#000000" points="519.5,-529.7 519.5,-548.7 581.5,-548.7 581.5,-529.7 519.5,-529.7"/>
<text text-anchor="start" x="572.3862" y="-535.8" font-family="Helvetica,sans-Serif" font-size="11.00" fill="#000000"> &#160;</text>
<polygon fill="#ffffff" stroke="transparent" points="581.5,-529.7 581.5,-548.7 643.5,-548.7 643.5,-529.7 581.5,-529.7"/>
<polygon fill="none" stroke="#000000" points="581.5,-529.7 581.5,-548.7 643.5,-548.7 643.5,-529.7 581.5,-529.7"/>
<text text-anchor="start" x="634.3862" y="-535.8" font-family="Helvetica,sans-Serif" font-size="11.00" fill="#000000"> &#160;</text>
</a>
</g>
</g>
<!-- AgLibraryPublishedCollectionImage&#45;&gt;Adobe_images -->
<g id="edge27" class="edge">
<title>AgLibraryPublishedCollectionImage:w&#45;&gt;Adobe_images:e</title>
<path fill="none" stroke="#000000" d="M385.6644,-565.1131C326.4102,-642.902 413.1314,-1306.7 334.5,-1306.7"/>
<polygon fill="#000000" stroke="#000000" points="391.5724,-561.701 400.3005,-560.8174 395.0362,-559.7005 398.5,-557.7 398.5,-557.7 398.5,-557.7 395.0362,-559.7005 396.6995,-554.5826 391.5724,-561.701 391.5724,-561.701"/>
<ellipse fill="none" stroke="#000000" cx="388.8013" cy="-563.3014" rx="3.2" ry="3.2"/>
</g>
<!-- AgLibraryUpdatedImages -->
<g id="node27" class="node">
<title>AgLibraryUpdatedImages</title>
<g id="a_node27"><a xlink:href="../../tables/AgLibraryUpdatedImages.html" xlink:title="AgLibraryUpdatedImages" target="_top">
<polygon fill="#ffffff" stroke="transparent" points="428,-448.2 428,-509.2 613,-509.2 613,-448.2 428,-448.2"/>
<polygon fill="#f5f5f5" stroke="transparent" points="428.5,-485.7 428.5,-508.7 613.5,-508.7 613.5,-485.7 428.5,-485.7"/>
<polygon fill="none" stroke="#000000" points="428.5,-485.7 428.5,-508.7 613.5,-508.7 613.5,-485.7 428.5,-485.7"/>
<text text-anchor="start" x="433.5" y="-494.3" font-family="Helvetica,sans-Serif" font-weight="bold" font-size="11.00" fill="#000000">AgLibraryUpdatedImages</text>
<text text-anchor="start" x="579.0219" y="-493.8" font-family="Helvetica,sans-Serif" font-size="11.00" fill="#000000">[table]</text>
<polygon fill="none" stroke="#000000" points="428.5,-466.7 428.5,-485.7 613.5,-485.7 613.5,-466.7 428.5,-466.7"/>
<text text-anchor="start" x="431.5" y="-472.8" font-family="Helvetica,sans-Serif" font-size="11.00" fill="#000000">...</text>
<polygon fill="#ffffff" stroke="transparent" points="428.5,-447.7 428.5,-466.7 519.5,-466.7 519.5,-447.7 428.5,-447.7"/>
<polygon fill="none" stroke="#000000" points="428.5,-447.7 428.5,-466.7 519.5,-466.7 519.5,-447.7 428.5,-447.7"/>
<text text-anchor="start" x="431.5" y="-453.8" font-family="Helvetica,sans-Serif" font-size="11.00" fill="#000000">&lt; 1</text>
<polygon fill="#ffffff" stroke="transparent" points="519.5,-447.7 519.5,-466.7 566.5,-466.7 566.5,-447.7 519.5,-447.7"/>
<polygon fill="none" stroke="#000000" points="519.5,-447.7 519.5,-466.7 566.5,-466.7 566.5,-447.7 519.5,-447.7"/>
<text text-anchor="start" x="557.3862" y="-453.8" font-family="Helvetica,sans-Serif" font-size="11.00" fill="#000000"> &#160;</text>
<polygon fill="#ffffff" stroke="transparent" points="566.5,-447.7 566.5,-466.7 613.5,-466.7 613.5,-447.7 566.5,-447.7"/>
<polygon fill="none" stroke="#000000" points="566.5,-447.7 566.5,-466.7 613.5,-466.7 613.5,-447.7 566.5,-447.7"/>
<text text-anchor="start" x="604.3862" y="-453.8" font-family="Helvetica,sans-Serif" font-size="11.00" fill="#000000"> &#160;</text>
</a>
</g>
</g>
<!-- AgLibraryUpdatedImages&#45;&gt;Adobe_images -->
<g id="edge28" class="edge">
<title>AgLibraryUpdatedImages:w&#45;&gt;Adobe_images:e</title>
<path fill="none" stroke="#000000" d="M417.9306,-476.4631C395.4219,-479.999 387.1271,-495.646 375,-519.7 355.2909,-558.7928 378.2801,-1306.7 334.5,-1306.7"/>
<polygon fill="#000000" stroke="#000000" points="427.414,-471.768 427.9902,-479.7472 426.3943,-479.8625 425.8182,-471.8832 427.414,-471.768"/>
<polyline fill="none" stroke="#000000" points="428.5,-475.7 424.5104,-475.9881 "/>
<ellipse fill="none" stroke="#000000" cx="421.3187" cy="-476.2185" rx="3.2" ry="3.2"/>
</g>
<!-- AgMetadataSearchIndex -->
<g id="node28" class="node">
<title>AgMetadataSearchIndex</title>
<g id="a_node28"><a xlink:href="../../tables/AgMetadataSearchIndex.html" xlink:title="AgMetadataSearchIndex" target="_top">
<polygon fill="#ffffff" stroke="transparent" points="431.5,-366.2 431.5,-427.2 609.5,-427.2 609.5,-366.2 431.5,-366.2"/>
<polygon fill="#f5f5f5" stroke="transparent" points="431.5,-403.7 431.5,-426.7 609.5,-426.7 609.5,-403.7 431.5,-403.7"/>
<polygon fill="none" stroke="#000000" points="431.5,-403.7 431.5,-426.7 609.5,-426.7 609.5,-403.7 431.5,-403.7"/>
<text text-anchor="start" x="436.5" y="-412.3" font-family="Helvetica,sans-Serif" font-weight="bold" font-size="11.00" fill="#000000">AgMetadataSearchIndex</text>
<text text-anchor="start" x="575.0219" y="-411.8" font-family="Helvetica,sans-Serif" font-size="11.00" fill="#000000">[table]</text>
<polygon fill="none" stroke="#000000" points="431.5,-384.7 431.5,-403.7 609.5,-403.7 609.5,-384.7 431.5,-384.7"/>
<text text-anchor="start" x="434.5" y="-390.8" font-family="Helvetica,sans-Serif" font-size="11.00" fill="#000000">...</text>
<polygon fill="#ffffff" stroke="transparent" points="431.5,-365.7 431.5,-384.7 518.5,-384.7 518.5,-365.7 431.5,-365.7"/>
<polygon fill="none" stroke="#000000" points="431.5,-365.7 431.5,-384.7 518.5,-384.7 518.5,-365.7 431.5,-365.7"/>
<text text-anchor="start" x="434.5" y="-371.8" font-family="Helvetica,sans-Serif" font-size="11.00" fill="#000000">&lt; 1</text>
<polygon fill="#ffffff" stroke="transparent" points="518.5,-365.7 518.5,-384.7 563.5,-384.7 563.5,-365.7 518.5,-365.7"/>
<polygon fill="none" stroke="#000000" points="518.5,-365.7 518.5,-384.7 563.5,-384.7 563.5,-365.7 518.5,-365.7"/>
<text text-anchor="start" x="554.3862" y="-371.8" font-family="Helvetica,sans-Serif" font-size="11.00" fill="#000000"> &#160;</text>
<polygon fill="#ffffff" stroke="transparent" points="563.5,-365.7 563.5,-384.7 609.5,-384.7 609.5,-365.7 563.5,-365.7"/>
<polygon fill="none" stroke="#000000" points="563.5,-365.7 563.5,-384.7 609.5,-384.7 609.5,-365.7 563.5,-365.7"/>
<text text-anchor="start" x="600.3862" y="-371.8" font-family="Helvetica,sans-Serif" font-size="11.00" fill="#000000"> &#160;</text>
</a>
</g>
</g>
<!-- AgMetadataSearchIndex&#45;&gt;Adobe_images -->
<g id="edge29" class="edge">
<title>AgMetadataSearchIndex:w&#45;&gt;Adobe_images:e</title>
<path fill="none" stroke="#000000" d="M416.8862,-395.0784C396.0868,-399.4798 387.121,-414.2953 375,-437.7 352.7741,-480.6164 382.8302,-1306.7 334.5,-1306.7"/>
<polygon fill="#000000" stroke="#000000" points="423.5354,-394.4513 431.8381,-397.2841 427.5177,-394.0756 431.5,-393.7 431.5,-393.7 431.5,-393.7 427.5177,-394.0756 431.1619,-390.1159 423.5354,-394.4513 423.5354,-394.4513"/>
<ellipse fill="none" stroke="#000000" cx="420.3495" cy="-394.7518" rx="3.2" ry="3.2"/>
</g>
<!-- AgOutputImageAsset -->
<g id="node29" class="node">
<title>AgOutputImageAsset</title>
<g id="a_node29"><a xlink:href="../../tables/AgOutputImageAsset.html" xlink:title="AgOutputImageAsset" target="_top">
<polygon fill="#ffffff" stroke="transparent" points="440,-284.2 440,-345.2 601,-345.2 601,-284.2 440,-284.2"/>
<polygon fill="#f5f5f5" stroke="transparent" points="440.5,-321.7 440.5,-344.7 601.5,-344.7 601.5,-321.7 440.5,-321.7"/>
<polygon fill="none" stroke="#000000" points="440.5,-321.7 440.5,-344.7 601.5,-344.7 601.5,-321.7 440.5,-321.7"/>
<text text-anchor="start" x="445.5" y="-330.3" font-family="Helvetica,sans-Serif" font-weight="bold" font-size="11.00" fill="#000000">AgOutputImageAsset</text>
<text text-anchor="start" x="567.0219" y="-329.8" font-family="Helvetica,sans-Serif" font-size="11.00" fill="#000000">[table]</text>
<polygon fill="none" stroke="#000000" points="440.5,-302.7 440.5,-321.7 601.5,-321.7 601.5,-302.7 440.5,-302.7"/>
<text text-anchor="start" x="443.5" y="-308.8" font-family="Helvetica,sans-Serif" font-size="11.00" fill="#000000">...</text>
<polygon fill="#ffffff" stroke="transparent" points="440.5,-283.7 440.5,-302.7 519.5,-302.7 519.5,-283.7 440.5,-283.7"/>
<polygon fill="none" stroke="#000000" points="440.5,-283.7 440.5,-302.7 519.5,-302.7 519.5,-283.7 440.5,-283.7"/>
<text text-anchor="start" x="443.5" y="-289.8" font-family="Helvetica,sans-Serif" font-size="11.00" fill="#000000">&lt; 2</text>
<polygon fill="#ffffff" stroke="transparent" points="519.5,-283.7 519.5,-302.7 560.5,-302.7 560.5,-283.7 519.5,-283.7"/>
<polygon fill="none" stroke="#000000" points="519.5,-283.7 519.5,-302.7 560.5,-302.7 560.5,-283.7 519.5,-283.7"/>
<text text-anchor="start" x="551.3862" y="-289.8" font-family="Helvetica,sans-Serif" font-size="11.00" fill="#000000"> &#160;</text>
<polygon fill="#ffffff" stroke="transparent" points="560.5,-283.7 560.5,-302.7 601.5,-302.7 601.5,-283.7 560.5,-283.7"/>
<polygon fill="none" stroke="#000000" points="560.5,-283.7 560.5,-302.7 601.5,-302.7 601.5,-283.7 560.5,-283.7"/>
<text text-anchor="start" x="592.3862" y="-289.8" font-family="Helvetica,sans-Serif" font-size="11.00" fill="#000000"> &#160;</text>
</a>
</g>
</g>
<!-- AgOutputImageAsset&#45;&gt;Adobe_images -->
<g id="edge30" class="edge">
<title>AgOutputImageAsset:w&#45;&gt;Adobe_images:e</title>
<path fill="none" stroke="#000000" d="M425.8984,-312.647C401.2938,-316.1843 389.5359,-329.7693 375,-355.7 349.1421,-401.828 387.3812,-1306.7 334.5,-1306.7"/>
<polygon fill="#000000" stroke="#000000" points="432.5168,-312.2178 440.733,-315.2925 436.5084,-311.9589 440.5,-311.7 440.5,-311.7 440.5,-311.7 436.5084,-311.9589 440.267,-308.1075 432.5168,-312.2178 432.5168,-312.2178"/>
<ellipse fill="none" stroke="#000000" cx="429.3235" cy="-312.4249" rx="3.2" ry="3.2"/>
</g>
<!-- AgSourceColorProfileConstants -->
<g id="node30" class="node">
<title>AgSourceColorProfileConstants</title>
<g id="a_node30"><a xlink:href="../../tables/AgSourceColorProfileConstants.html" xlink:title="AgSourceColorProfileConstants" target="_top">
<polygon fill="#ffffff" stroke="transparent" points="409,-202.2 409,-263.2 632,-263.2 632,-202.2 409,-202.2"/>
<polygon fill="#f5f5f5" stroke="transparent" points="409.5,-239.7 409.5,-262.7 632.5,-262.7 632.5,-239.7 409.5,-239.7"/>
<polygon fill="none" stroke="#000000" points="409.5,-239.7 409.5,-262.7 632.5,-262.7 632.5,-239.7 409.5,-239.7"/>
<text text-anchor="start" x="414.5" y="-248.3" font-family="Helvetica,sans-Serif" font-weight="bold" font-size="11.00" fill="#000000">AgSourceColorProfileConstants</text>
<text text-anchor="start" x="598.0219" y="-247.8" font-family="Helvetica,sans-Serif" font-size="11.00" fill="#000000">[table]</text>
<polygon fill="none" stroke="#000000" points="409.5,-220.7 409.5,-239.7 632.5,-239.7 632.5,-220.7 409.5,-220.7"/>
<text text-anchor="start" x="412.5" y="-226.8" font-family="Helvetica,sans-Serif" font-size="11.00" fill="#000000">...</text>
<polygon fill="#ffffff" stroke="transparent" points="409.5,-201.7 409.5,-220.7 519.5,-220.7 519.5,-201.7 409.5,-201.7"/>
<polygon fill="none" stroke="#000000" points="409.5,-201.7 409.5,-220.7 519.5,-220.7 519.5,-201.7 409.5,-201.7"/>
<text text-anchor="start" x="412.5" y="-207.8" font-family="Helvetica,sans-Serif" font-size="11.00" fill="#000000">&lt; 1</text>
<polygon fill="#ffffff" stroke="transparent" points="519.5,-201.7 519.5,-220.7 575.5,-220.7 575.5,-201.7 519.5,-201.7"/>
<polygon fill="none" stroke="#000000" points="519.5,-201.7 519.5,-220.7 575.5,-220.7 575.5,-201.7 519.5,-201.7"/>
<text text-anchor="start" x="566.3862" y="-207.8" font-family="Helvetica,sans-Serif" font-size="11.00" fill="#000000"> &#160;</text>
<polygon fill="#ffffff" stroke="transparent" points="575.5,-201.7 575.5,-220.7 632.5,-220.7 632.5,-201.7 575.5,-201.7"/>
<polygon fill="none" stroke="#000000" points="575.5,-201.7 575.5,-220.7 632.5,-220.7 632.5,-201.7 575.5,-201.7"/>
<text text-anchor="start" x="623.3862" y="-207.8" font-family="Helvetica,sans-Serif" font-size="11.00" fill="#000000"> &#160;</text>
</a>
</g>
</g>
<!-- AgSourceColorProfileConstants&#45;&gt;Adobe_images -->
<g id="edge31" class="edge">
<title>AgSourceColorProfileConstants:w&#45;&gt;Adobe_images:e</title>
<path fill="none" stroke="#000000" d="M395.1834,-233.0819C383.6873,-239.8696 381.4941,-256.0234 375,-273.7 355.1944,-327.61 391.933,-1306.7 334.5,-1306.7"/>
<polygon fill="#000000" stroke="#000000" points="401.7143,-231.5392 410.3276,-233.2036 405.6071,-230.6196 409.5,-229.7 409.5,-229.7 409.5,-229.7 405.6071,-230.6196 408.6724,-226.1964 401.7143,-231.5392 401.7143,-231.5392"/>
<ellipse fill="none" stroke="#000000" cx="398.6" cy="-232.2749" rx="3.2" ry="3.2"/>
</g>
<!-- AgTempImages -->
<g id="node31" class="node">
<title>AgTempImages</title>
<g id="a_node31"><a xlink:href="../../tables/AgTempImages.html" xlink:title="AgTempImages" target="_top">
<polygon fill="#ffffff" stroke="transparent" points="456.5,-120.2 456.5,-181.2 584.5,-181.2 584.5,-120.2 456.5,-120.2"/>
<polygon fill="#f5f5f5" stroke="transparent" points="456.5,-157.7 456.5,-180.7 584.5,-180.7 584.5,-157.7 456.5,-157.7"/>
<polygon fill="none" stroke="#000000" points="456.5,-157.7 456.5,-180.7 584.5,-180.7 584.5,-157.7 456.5,-157.7"/>
<text text-anchor="start" x="461.5" y="-166.3" font-family="Helvetica,sans-Serif" font-weight="bold" font-size="11.00" fill="#000000">AgTempImages</text>
<text text-anchor="start" x="550.0219" y="-165.8" font-family="Helvetica,sans-Serif" font-size="11.00" fill="#000000">[table]</text>
<polygon fill="none" stroke="#000000" points="456.5,-138.7 456.5,-157.7 584.5,-157.7 584.5,-138.7 456.5,-138.7"/>
<text text-anchor="start" x="459.5" y="-144.8" font-family="Helvetica,sans-Serif" font-size="11.00" fill="#000000">...</text>
<polygon fill="#ffffff" stroke="transparent" points="456.5,-119.7 456.5,-138.7 518.5,-138.7 518.5,-119.7 456.5,-119.7"/>
<polygon fill="none" stroke="#000000" points="456.5,-119.7 456.5,-138.7 518.5,-138.7 518.5,-119.7 456.5,-119.7"/>
<text text-anchor="start" x="459.5" y="-125.8" font-family="Helvetica,sans-Serif" font-size="11.00" fill="#000000">&lt; 1</text>
<polygon fill="#ffffff" stroke="transparent" points="518.5,-119.7 518.5,-138.7 551.5,-138.7 551.5,-119.7 518.5,-119.7"/>
<polygon fill="none" stroke="#000000" points="518.5,-119.7 518.5,-138.7 551.5,-138.7 551.5,-119.7 518.5,-119.7"/>
<text text-anchor="start" x="542.3862" y="-125.8" font-family="Helvetica,sans-Serif" font-size="11.00" fill="#000000"> &#160;</text>
<polygon fill="#ffffff" stroke="transparent" points="551.5,-119.7 551.5,-138.7 584.5,-138.7 584.5,-119.7 551.5,-119.7"/>
<polygon fill="none" stroke="#000000" points="551.5,-119.7 551.5,-138.7 584.5,-138.7 584.5,-119.7 551.5,-119.7"/>
<text text-anchor="start" x="575.3862" y="-125.8" font-family="Helvetica,sans-Serif" font-size="11.00" fill="#000000"> &#160;</text>
</a>
</g>
</g>
<!-- AgTempImages&#45;&gt;Adobe_images -->
<g id="edge32" class="edge">
<title>AgTempImages:w&#45;&gt;Adobe_images:e</title>
<path fill="none" stroke="#000000" d="M445.9326,-147.9311C411.9671,-149.5331 394.7751,-159.8784 375,-191.7 342.2829,-244.3476 396.4853,-1306.7 334.5,-1306.7"/>
<polygon fill="#000000" stroke="#000000" points="455.6127,-143.7185 455.7877,-151.7165 454.1881,-151.7515 454.0131,-143.7534 455.6127,-143.7185"/>
<polyline fill="none" stroke="#000000" points="456.5,-147.7 452.501,-147.7875 "/>
<ellipse fill="none" stroke="#000000" cx="449.3017" cy="-147.8575" rx="3.2" ry="3.2"/>
</g>
<!-- AgVideoInfo -->
<g id="node32" class="node">
<title>AgVideoInfo</title>
<g id="a_node32"><a xlink:href="../../tables/AgVideoInfo.html" xlink:title="AgVideoInfo" target="_top">
<polygon fill="#ffffff" stroke="transparent" points="466,-38.2 466,-99.2 575,-99.2 575,-38.2 466,-38.2"/>
<polygon fill="#f5f5f5" stroke="transparent" points="466.5,-75.7 466.5,-98.7 575.5,-98.7 575.5,-75.7 466.5,-75.7"/>
<polygon fill="none" stroke="#000000" points="466.5,-75.7 466.5,-98.7 575.5,-98.7 575.5,-75.7 466.5,-75.7"/>
<text text-anchor="start" x="471.5" y="-84.3" font-family="Helvetica,sans-Serif" font-weight="bold" font-size="11.00" fill="#000000">AgVideoInfo</text>
<text text-anchor="start" x="541.0219" y="-83.8" font-family="Helvetica,sans-Serif" font-size="11.00" fill="#000000">[table]</text>
<polygon fill="none" stroke="#000000" points="466.5,-56.7 466.5,-75.7 575.5,-75.7 575.5,-56.7 466.5,-56.7"/>
<text text-anchor="start" x="469.5" y="-62.8" font-family="Helvetica,sans-Serif" font-size="11.00" fill="#000000">...</text>
<polygon fill="#ffffff" stroke="transparent" points="466.5,-37.7 466.5,-56.7 519.5,-56.7 519.5,-37.7 466.5,-37.7"/>
<polygon fill="none" stroke="#000000" points="466.5,-37.7 466.5,-56.7 519.5,-56.7 519.5,-37.7 466.5,-37.7"/>
<text text-anchor="start" x="469.5" y="-43.8" font-family="Helvetica,sans-Serif" font-size="11.00" fill="#000000">&lt; 1</text>
<polygon fill="#ffffff" stroke="transparent" points="519.5,-37.7 519.5,-56.7 547.5,-56.7 547.5,-37.7 519.5,-37.7"/>
<polygon fill="none" stroke="#000000" points="519.5,-37.7 519.5,-56.7 547.5,-56.7 547.5,-37.7 519.5,-37.7"/>
<text text-anchor="start" x="538.3862" y="-43.8" font-family="Helvetica,sans-Serif" font-size="11.00" fill="#000000"> &#160;</text>
<polygon fill="#ffffff" stroke="transparent" points="547.5,-37.7 547.5,-56.7 575.5,-56.7 575.5,-37.7 547.5,-37.7"/>
<polygon fill="none" stroke="#000000" points="547.5,-37.7 547.5,-56.7 575.5,-56.7 575.5,-37.7 547.5,-37.7"/>
<text text-anchor="start" x="566.3862" y="-43.8" font-family="Helvetica,sans-Serif" font-size="11.00" fill="#000000"> &#160;</text>
</a>
</g>
</g>
<!-- AgVideoInfo&#45;&gt;Adobe_images -->
<g id="edge33" class="edge">
<title>AgVideoInfo:w&#45;&gt;Adobe_images:e</title>
<path fill="none" stroke="#000000" d="M452.0277,-65.976C416.4182,-67.5123 396.8673,-76.1915 375,-109.7 338.6361,-165.4224 401.0381,-1306.7 334.5,-1306.7"/>
<polygon fill="#000000" stroke="#000000" points="458.5015,-65.8526 466.5687,-69.2993 462.5007,-65.7763 466.5,-65.7 466.5,-65.7 466.5,-65.7 462.5007,-65.7763 466.4313,-62.1007 458.5015,-65.8526 458.5015,-65.8526"/>
<ellipse fill="none" stroke="#000000" cx="455.302" cy="-65.9136" rx="3.2" ry="3.2"/>
</g>
</g>
</svg>
