<?xml version="1.0" encoding="UTF-8" standalone="no"?>
<!DOCTYPE svg PUBLIC "-//W3C//DTD SVG 1.1//EN"
 "http://www.w3.org/Graphics/SVG/1.1/DTD/svg11.dtd">
<!-- Generated by graphviz version 2.40.1 (20161225.0304)
 -->
<!-- Title: oneDegreeRelationshipsDiagram Pages: 1 -->
<svg width="500pt" height="369pt"
 viewBox="0.00 0.00 500.00 369.20" xmlns="http://www.w3.org/2000/svg" xmlns:xlink="http://www.w3.org/1999/xlink">
<g id="graph0" class="graph" transform="scale(1 1) rotate(0) translate(4 365.2)">
<title>oneDegreeRelationshipsDiagram</title>
<polygon fill="#ffffff" stroke="transparent" points="-4,4 -4,-365.2 496,-365.2 496,4 -4,4"/>
<text text-anchor="middle" x="72.4936" y="-7.3" font-family="Helvetica,sans-Serif" font-size="11.00" fill="#000000">Generated by SchemaSpy</text>
<!-- AgLibraryKeywordFace -->
<g id="node1" class="node">
<title>AgLibraryKeywordFace</title>
<g id="a_node1"><a xlink:href="../../tables/AgLibraryKeywordFace.html" xlink:title="AgLibraryKeywordFace" target="_top">
<polygon fill="#ffffff" stroke="transparent" points="203,-139.7 203,-339.7 484,-339.7 484,-139.7 203,-139.7"/>
<polygon fill="#f5f5f5" stroke="transparent" points="205.5,-314.7 205.5,-337.7 482.5,-337.7 482.5,-314.7 205.5,-314.7"/>
<polygon fill="none" stroke="#000000" points="205.5,-314.7 205.5,-337.7 482.5,-337.7 482.5,-314.7 205.5,-314.7"/>
<text text-anchor="start" x="210.5" y="-323.3" font-family="Helvetica,sans-Serif" font-weight="bold" font-size="11.00" fill="#000000">AgLibraryKeywordFace</text>
<text text-anchor="start" x="447.5437" y="-322.8" font-family="Helvetica,sans-Serif" font-size="11.00" fill="#000000">[table]</text>
<polygon fill="none" stroke="#000000" points="205.5,-292.7 205.5,-314.7 360.5,-314.7 360.5,-292.7 205.5,-292.7"/>
<image xlink:href="../../images/primaryKeys.png" width="11px" height="12px" preserveAspectRatio="xMinYMin meet" x="210.5" y="-309.7"/>
<text text-anchor="start" x="225.5" y="-299.8" font-family="Helvetica,sans-Serif" font-size="11.00" fill="#000000">id_local</text>
<polygon fill="none" stroke="#000000" points="360.5,-292.7 360.5,-314.7 482.5,-314.7 482.5,-292.7 360.5,-292.7"/>
<text text-anchor="start" x="363.4156" y="-300.4" font-family="Helvetica,sans-Serif" font-size="11.00" fill="#000000">integer[2000000000,10]</text>
<polygon fill="#ffffff" stroke="transparent" points="205.5,-270.7 205.5,-292.7 360.5,-292.7 360.5,-270.7 205.5,-270.7"/>
<polygon fill="none" stroke="#000000" points="205.5,-270.7 205.5,-292.7 360.5,-292.7 360.5,-270.7 205.5,-270.7"/>
<image xlink:href="../../images/foreignKeys.png" width="11px" height="12px" preserveAspectRatio="xMinYMin meet" x="210.5" y="-287.7"/>
<text text-anchor="start" x="225.5" y="-277.8" font-family="Helvetica,sans-Serif" font-size="11.00" fill="#000000">face</text>
<polygon fill="none" stroke="#000000" points="360.5,-270.7 360.5,-292.7 482.5,-292.7 482.5,-270.7 360.5,-270.7"/>
<text text-anchor="start" x="363.4156" y="-278.4" font-family="Helvetica,sans-Serif" font-size="11.00" fill="#000000">integer[2000000000,10]</text>
<polygon fill="none" stroke="#000000" points="205.5,-248.7 205.5,-270.7 360.5,-270.7 360.5,-248.7 205.5,-248.7"/>
<text text-anchor="start" x="225.5" y="-255.8" font-family="Helvetica,sans-Serif" font-size="11.00" fill="#000000">keyFace</text>
<polygon fill="none" stroke="#000000" points="360.5,-248.7 360.5,-270.7 482.5,-270.7 482.5,-248.7 360.5,-248.7"/>
<text text-anchor="start" x="363.4156" y="-256.4" font-family="Helvetica,sans-Serif" font-size="11.00" fill="#000000">integer[2000000000,10]</text>
<polygon fill="none" stroke="#000000" points="205.5,-226.7 205.5,-248.7 360.5,-248.7 360.5,-226.7 205.5,-226.7"/>
<text text-anchor="start" x="225.5" y="-233.8" font-family="Helvetica,sans-Serif" font-size="11.00" fill="#000000">rankOrder</text>
<polygon fill="none" stroke="#000000" points="360.5,-226.7 360.5,-248.7 482.5,-248.7 482.5,-226.7 360.5,-226.7"/>
<text text-anchor="start" x="363.5" y="-234.4" font-family="Helvetica,sans-Serif" font-size="11.00" fill="#000000">[2000000000,10]</text>
<polygon fill="#ffffff" stroke="transparent" points="205.5,-204.7 205.5,-226.7 360.5,-226.7 360.5,-204.7 205.5,-204.7"/>
<polygon fill="none" stroke="#000000" points="205.5,-204.7 205.5,-226.7 360.5,-226.7 360.5,-204.7 205.5,-204.7"/>
<image xlink:href="../../images/foreignKeys.png" width="11px" height="12px" preserveAspectRatio="xMinYMin meet" x="210.5" y="-221.7"/>
<text text-anchor="start" x="225.5" y="-211.8" font-family="Helvetica,sans-Serif" font-size="11.00" fill="#000000">tag</text>
<polygon fill="none" stroke="#000000" points="360.5,-204.7 360.5,-226.7 482.5,-226.7 482.5,-204.7 360.5,-204.7"/>
<text text-anchor="start" x="363.4156" y="-212.4" font-family="Helvetica,sans-Serif" font-size="11.00" fill="#000000">integer[2000000000,10]</text>
<polygon fill="none" stroke="#000000" points="205.5,-182.7 205.5,-204.7 360.5,-204.7 360.5,-182.7 205.5,-182.7"/>
<text text-anchor="start" x="225.5" y="-189.8" font-family="Helvetica,sans-Serif" font-size="11.00" fill="#000000">userPick</text>
<polygon fill="none" stroke="#000000" points="360.5,-182.7 360.5,-204.7 482.5,-204.7 482.5,-182.7 360.5,-182.7"/>
<text text-anchor="start" x="363.4156" y="-190.4" font-family="Helvetica,sans-Serif" font-size="11.00" fill="#000000">integer[2000000000,10]</text>
<polygon fill="none" stroke="#000000" points="205.5,-160.7 205.5,-182.7 360.5,-182.7 360.5,-160.7 205.5,-160.7"/>
<text text-anchor="start" x="225.5" y="-167.8" font-family="Helvetica,sans-Serif" font-size="11.00" fill="#000000">userReject</text>
<polygon fill="none" stroke="#000000" points="360.5,-160.7 360.5,-182.7 482.5,-182.7 482.5,-160.7 360.5,-160.7"/>
<text text-anchor="start" x="363.4156" y="-168.4" font-family="Helvetica,sans-Serif" font-size="11.00" fill="#000000">integer[2000000000,10]</text>
<polygon fill="#ffffff" stroke="transparent" points="205.5,-141.7 205.5,-160.7 287.5,-160.7 287.5,-141.7 205.5,-141.7"/>
<polygon fill="none" stroke="#000000" points="205.5,-141.7 205.5,-160.7 287.5,-160.7 287.5,-141.7 205.5,-141.7"/>
<text text-anchor="start" x="208.5" y="-147.8" font-family="Helvetica,sans-Serif" font-size="11.00" fill="#000000">&lt; 2</text>
<polygon fill="#ffffff" stroke="transparent" points="287.5,-141.7 287.5,-160.7 360.5,-160.7 360.5,-141.7 287.5,-141.7"/>
<polygon fill="none" stroke="#000000" points="287.5,-141.7 287.5,-160.7 360.5,-160.7 360.5,-141.7 287.5,-141.7"/>
<text text-anchor="start" x="351.3862" y="-147.8" font-family="Helvetica,sans-Serif" font-size="11.00" fill="#000000"> &#160;</text>
<polygon fill="#ffffff" stroke="transparent" points="360.5,-141.7 360.5,-160.7 482.5,-160.7 482.5,-141.7 360.5,-141.7"/>
<polygon fill="none" stroke="#000000" points="360.5,-141.7 360.5,-160.7 482.5,-160.7 482.5,-141.7 360.5,-141.7"/>
<text text-anchor="start" x="463.9053" y="-147.8" font-family="Helvetica,sans-Serif" font-size="11.00" fill="#000000">0 &gt;</text>
<polygon fill="none" stroke="#000000" stroke-width="2" points="204,-140.7 204,-338.7 483,-338.7 483,-140.7 204,-140.7"/>
</a>
</g>
</g>
<!-- AgLibraryFace -->
<g id="node2" class="node">
<title>AgLibraryFace</title>
<g id="a_node2"><a xlink:href="../../tables/AgLibraryFace.html" xlink:title="AgLibraryFace" target="_top">
<polygon fill="#ffffff" stroke="transparent" points="17,-230.2 17,-357.2 145,-357.2 145,-230.2 17,-230.2"/>
<polygon fill="#f5f5f5" stroke="transparent" points="17,-333.7 17,-356.7 145,-356.7 145,-333.7 17,-333.7"/>
<polygon fill="none" stroke="#000000" points="17,-333.7 17,-356.7 145,-356.7 145,-333.7 17,-333.7"/>
<text text-anchor="start" x="22" y="-342.3" font-family="Helvetica,sans-Serif" font-weight="bold" font-size="11.00" fill="#000000">AgLibraryFace</text>
<text text-anchor="start" x="110.0437" y="-341.8" font-family="Helvetica,sans-Serif" font-size="11.00" fill="#000000">[table]</text>
<polygon fill="none" stroke="#000000" points="17,-311.7 17,-333.7 145,-333.7 145,-311.7 17,-311.7"/>
<image xlink:href="../../images/primaryKeys.png" width="11px" height="12px" preserveAspectRatio="xMinYMin meet" x="22" y="-328.7"/>
<text text-anchor="start" x="37" y="-318.8" font-family="Helvetica,sans-Serif" font-size="11.00" fill="#000000">id_local</text>
<polygon fill="#ffffff" stroke="transparent" points="17,-289.7 17,-311.7 145,-311.7 145,-289.7 17,-289.7"/>
<polygon fill="none" stroke="#000000" points="17,-289.7 17,-311.7 145,-311.7 145,-289.7 17,-289.7"/>
<text text-anchor="start" x="37" y="-296.8" font-family="Helvetica,sans-Serif" font-size="11.00" fill="#000000">cluster</text>
<polygon fill="#ffffff" stroke="transparent" points="17,-267.7 17,-289.7 145,-289.7 145,-267.7 17,-267.7"/>
<polygon fill="none" stroke="#000000" points="17,-267.7 17,-289.7 145,-289.7 145,-267.7 17,-267.7"/>
<image xlink:href="../../images/foreignKeys.png" width="11px" height="12px" preserveAspectRatio="xMinYMin meet" x="22" y="-284.7"/>
<text text-anchor="start" x="37" y="-274.8" font-family="Helvetica,sans-Serif" font-size="11.00" fill="#000000">image</text>
<polygon fill="none" stroke="#000000" points="17,-248.7 17,-267.7 145,-267.7 145,-248.7 17,-248.7"/>
<text text-anchor="start" x="20" y="-254.8" font-family="Helvetica,sans-Serif" font-size="11.00" fill="#000000">...</text>
<polygon fill="#ffffff" stroke="transparent" points="17,-229.7 17,-248.7 75,-248.7 75,-229.7 17,-229.7"/>
<polygon fill="none" stroke="#000000" points="17,-229.7 17,-248.7 75,-248.7 75,-229.7 17,-229.7"/>
<text text-anchor="start" x="20" y="-235.8" font-family="Helvetica,sans-Serif" font-size="11.00" fill="#000000">&lt; 1</text>
<polygon fill="#ffffff" stroke="transparent" points="75,-229.7 75,-248.7 105,-248.7 105,-229.7 75,-229.7"/>
<polygon fill="none" stroke="#000000" points="75,-229.7 75,-248.7 105,-248.7 105,-229.7 75,-229.7"/>
<text text-anchor="start" x="95.8862" y="-235.8" font-family="Helvetica,sans-Serif" font-size="11.00" fill="#000000"> &#160;</text>
<polygon fill="#ffffff" stroke="transparent" points="105,-229.7 105,-248.7 145,-248.7 145,-229.7 105,-229.7"/>
<polygon fill="none" stroke="#000000" points="105,-229.7 105,-248.7 145,-248.7 145,-229.7 105,-229.7"/>
<text text-anchor="start" x="126.4053" y="-235.8" font-family="Helvetica,sans-Serif" font-size="11.00" fill="#000000">3 &gt;</text>
</a>
</g>
</g>
<!-- AgLibraryKeywordFace&#45;&gt;AgLibraryFace -->
<g id="edge1" class="edge">
<title>AgLibraryKeywordFace:w&#45;&gt;AgLibraryFace:e</title>
<path fill="none" stroke="#000000" d="M191.3943,-285.0552C173.4459,-294.8472 171.772,-322.7 145,-322.7"/>
<polygon fill="#000000" stroke="#000000" points="197.7171,-283.5513 206.3331,-285.2023 201.6086,-282.6256 205.5,-281.7 205.5,-281.7 205.5,-281.7 201.6086,-282.6256 204.6669,-278.1977 197.7171,-283.5513 197.7171,-283.5513"/>
<ellipse fill="none" stroke="#000000" cx="194.604" cy="-284.2918" rx="3.2" ry="3.2"/>
</g>
<!-- AgLibraryKeyword -->
<g id="node3" class="node">
<title>AgLibraryKeyword</title>
<g id="a_node3"><a xlink:href="../../tables/AgLibraryKeyword.html" xlink:title="AgLibraryKeyword" target="_top">
<polygon fill="#ffffff" stroke="transparent" points="8,-38.2 8,-209.2 154,-209.2 154,-38.2 8,-38.2"/>
<polygon fill="#f5f5f5" stroke="transparent" points="8,-185.7 8,-208.7 154,-208.7 154,-185.7 8,-185.7"/>
<polygon fill="none" stroke="#000000" points="8,-185.7 8,-208.7 154,-208.7 154,-185.7 8,-185.7"/>
<text text-anchor="start" x="13" y="-194.3" font-family="Helvetica,sans-Serif" font-weight="bold" font-size="11.00" fill="#000000">AgLibraryKeyword</text>
<text text-anchor="start" x="119.5219" y="-193.8" font-family="Helvetica,sans-Serif" font-size="11.00" fill="#000000">[table]</text>
<polygon fill="none" stroke="#000000" points="8,-163.7 8,-185.7 154,-185.7 154,-163.7 8,-163.7"/>
<image xlink:href="../../images/primaryKeys.png" width="11px" height="12px" preserveAspectRatio="xMinYMin meet" x="13" y="-180.7"/>
<text text-anchor="start" x="37" y="-170.8" font-family="Helvetica,sans-Serif" font-size="11.00" fill="#000000">id_local</text>
<polygon fill="#ffffff" stroke="transparent" points="8,-141.7 8,-163.7 154,-163.7 154,-141.7 8,-141.7"/>
<polygon fill="none" stroke="#000000" points="8,-141.7 8,-163.7 154,-163.7 154,-141.7 8,-141.7"/>
<text text-anchor="start" x="37" y="-148.8" font-family="Helvetica,sans-Serif" font-size="11.00" fill="#000000">id_global</text>
<polygon fill="#ffffff" stroke="transparent" points="8,-119.7 8,-141.7 154,-141.7 154,-119.7 8,-119.7"/>
<polygon fill="none" stroke="#000000" points="8,-119.7 8,-141.7 154,-141.7 154,-119.7 8,-119.7"/>
<text text-anchor="start" x="37" y="-126.8" font-family="Helvetica,sans-Serif" font-size="11.00" fill="#000000">genealogy</text>
<polygon fill="#ffffff" stroke="transparent" points="8,-97.7 8,-119.7 154,-119.7 154,-97.7 8,-97.7"/>
<polygon fill="none" stroke="#000000" points="8,-97.7 8,-119.7 154,-119.7 154,-97.7 8,-97.7"/>
<text text-anchor="start" x="37" y="-104.8" font-family="Helvetica,sans-Serif" font-size="11.00" fill="#000000">lc_name</text>
<polygon fill="#ffffff" stroke="transparent" points="8,-75.7 8,-97.7 154,-97.7 154,-75.7 8,-75.7"/>
<polygon fill="none" stroke="#000000" points="8,-75.7 8,-97.7 154,-97.7 154,-75.7 8,-75.7"/>
<image xlink:href="../../images/foreignKeys.png" width="11px" height="12px" preserveAspectRatio="xMinYMin meet" x="13" y="-92.7"/>
<text text-anchor="start" x="37" y="-82.8" font-family="Helvetica,sans-Serif" font-size="11.00" fill="#000000">parent</text>
<polygon fill="none" stroke="#000000" points="8,-56.7 8,-75.7 154,-75.7 154,-56.7 8,-56.7"/>
<text text-anchor="start" x="11" y="-62.8" font-family="Helvetica,sans-Serif" font-size="11.00" fill="#000000">...</text>
<polygon fill="#ffffff" stroke="transparent" points="8,-37.7 8,-56.7 75,-56.7 75,-37.7 8,-37.7"/>
<polygon fill="none" stroke="#000000" points="8,-37.7 8,-56.7 75,-56.7 75,-37.7 8,-37.7"/>
<text text-anchor="start" x="11" y="-43.8" font-family="Helvetica,sans-Serif" font-size="11.00" fill="#000000">&lt; 1</text>
<polygon fill="#ffffff" stroke="transparent" points="75,-37.7 75,-56.7 110,-56.7 110,-37.7 75,-37.7"/>
<polygon fill="none" stroke="#000000" points="75,-37.7 75,-56.7 110,-56.7 110,-37.7 75,-37.7"/>
<text text-anchor="start" x="100.8862" y="-43.8" font-family="Helvetica,sans-Serif" font-size="11.00" fill="#000000"> &#160;</text>
<polygon fill="#ffffff" stroke="transparent" points="110,-37.7 110,-56.7 154,-56.7 154,-37.7 110,-37.7"/>
<polygon fill="none" stroke="#000000" points="110,-37.7 110,-56.7 154,-56.7 154,-37.7 110,-37.7"/>
<text text-anchor="start" x="135.4053" y="-43.8" font-family="Helvetica,sans-Serif" font-size="11.00" fill="#000000">7 &gt;</text>
</a>
</g>
</g>
<!-- AgLibraryKeywordFace&#45;&gt;AgLibraryKeyword -->
<g id="edge2" class="edge">
<title>AgLibraryKeywordFace:w&#45;&gt;AgLibraryKeyword:e</title>
<path fill="none" stroke="#000000" d="M191.5533,-211.3123C177.596,-200.7354 177.3139,-174.7 154,-174.7"/>
<polygon fill="#000000" stroke="#000000" points="197.8687,-213.2991 204.4196,-219.1341 201.6844,-214.4996 205.5,-215.7 205.5,-215.7 205.5,-215.7 201.6844,-214.4996 206.5804,-212.2659 197.8687,-213.2991 197.8687,-213.2991"/>
<ellipse fill="none" stroke="#000000" cx="194.8162" cy="-212.3388" rx="3.2" ry="3.2"/>
</g>
</g>
</svg>
