<?xml version="1.0" encoding="UTF-8" standalone="no"?>
<!DOCTYPE svg PUBLIC "-//W3C//DTD SVG 1.1//EN"
 "http://www.w3.org/Graphics/SVG/1.1/DTD/svg11.dtd">
<!-- Generated by graphviz version 2.40.1 (20161225.0304)
 -->
<!-- Title: oneDegreeRelationshipsDiagram Pages: 1 -->
<svg width="544pt" height="413pt"
 viewBox="0.00 0.00 544.00 413.20" xmlns="http://www.w3.org/2000/svg" xmlns:xlink="http://www.w3.org/1999/xlink">
<g id="graph0" class="graph" transform="scale(1 1) rotate(0) translate(4 409.2)">
<title>oneDegreeRelationshipsDiagram</title>
<polygon fill="#ffffff" stroke="transparent" points="-4,4 -4,-409.2 540,-409.2 540,4 -4,4"/>
<text text-anchor="middle" x="72.4936" y="-7.3" font-family="Helvetica,sans-Serif" font-size="11.00" fill="#000000">Generated by SchemaSpy</text>
<!-- AgLibraryFolderStackImage -->
<g id="node1" class="node">
<title>AgLibraryFolderStackImage</title>
<g id="a_node1"><a xlink:href="../../tables/AgLibraryFolderStackImage.html" xlink:title="AgLibraryFolderStackImage" target="_top">
<polygon fill="#ffffff" stroke="transparent" points="221,-194.7 221,-350.7 528,-350.7 528,-194.7 221,-194.7"/>
<polygon fill="#f5f5f5" stroke="transparent" points="223.5,-325.7 223.5,-348.7 526.5,-348.7 526.5,-325.7 223.5,-325.7"/>
<polygon fill="none" stroke="#000000" points="223.5,-325.7 223.5,-348.7 526.5,-348.7 526.5,-325.7 223.5,-325.7"/>
<text text-anchor="start" x="228.5" y="-334.3" font-family="Helvetica,sans-Serif" font-weight="bold" font-size="11.00" fill="#000000">AgLibraryFolderStackImage</text>
<text text-anchor="start" x="491.5437" y="-333.8" font-family="Helvetica,sans-Serif" font-size="11.00" fill="#000000">[table]</text>
<polygon fill="none" stroke="#000000" points="223.5,-303.7 223.5,-325.7 404.5,-325.7 404.5,-303.7 223.5,-303.7"/>
<image xlink:href="../../images/primaryKeys.png" width="11px" height="12px" preserveAspectRatio="xMinYMin meet" x="228.5" y="-320.7"/>
<text text-anchor="start" x="243.5" y="-310.8" font-family="Helvetica,sans-Serif" font-size="11.00" fill="#000000">id_local</text>
<polygon fill="none" stroke="#000000" points="404.5,-303.7 404.5,-325.7 526.5,-325.7 526.5,-303.7 404.5,-303.7"/>
<text text-anchor="start" x="407.4156" y="-311.4" font-family="Helvetica,sans-Serif" font-size="11.00" fill="#000000">integer[2000000000,10]</text>
<polygon fill="#ffffff" stroke="transparent" points="223.5,-281.7 223.5,-303.7 404.5,-303.7 404.5,-281.7 223.5,-281.7"/>
<polygon fill="none" stroke="#000000" points="223.5,-281.7 223.5,-303.7 404.5,-303.7 404.5,-281.7 223.5,-281.7"/>
<text text-anchor="start" x="243.5" y="-288.8" font-family="Helvetica,sans-Serif" font-size="11.00" fill="#000000">collapsed</text>
<polygon fill="none" stroke="#000000" points="404.5,-281.7 404.5,-303.7 526.5,-303.7 526.5,-281.7 404.5,-281.7"/>
<text text-anchor="start" x="407.4156" y="-289.4" font-family="Helvetica,sans-Serif" font-size="11.00" fill="#000000">integer[2000000000,10]</text>
<polygon fill="#ffffff" stroke="transparent" points="223.5,-259.7 223.5,-281.7 404.5,-281.7 404.5,-259.7 223.5,-259.7"/>
<polygon fill="none" stroke="#000000" points="223.5,-259.7 223.5,-281.7 404.5,-281.7 404.5,-259.7 223.5,-259.7"/>
<image xlink:href="../../images/foreignKeys.png" width="11px" height="12px" preserveAspectRatio="xMinYMin meet" x="228.5" y="-276.7"/>
<text text-anchor="start" x="243.5" y="-266.8" font-family="Helvetica,sans-Serif" font-size="11.00" fill="#000000">image</text>
<polygon fill="none" stroke="#000000" points="404.5,-259.7 404.5,-281.7 526.5,-281.7 526.5,-259.7 404.5,-259.7"/>
<text text-anchor="start" x="407.4156" y="-267.4" font-family="Helvetica,sans-Serif" font-size="11.00" fill="#000000">integer[2000000000,10]</text>
<polygon fill="#ffffff" stroke="transparent" points="223.5,-237.7 223.5,-259.7 404.5,-259.7 404.5,-237.7 223.5,-237.7"/>
<polygon fill="none" stroke="#000000" points="223.5,-237.7 223.5,-259.7 404.5,-259.7 404.5,-237.7 223.5,-237.7"/>
<text text-anchor="start" x="243.5" y="-244.8" font-family="Helvetica,sans-Serif" font-size="11.00" fill="#000000">position</text>
<polygon fill="none" stroke="#000000" points="404.5,-237.7 404.5,-259.7 526.5,-259.7 526.5,-237.7 404.5,-237.7"/>
<text text-anchor="start" x="407.5" y="-245.4" font-family="Helvetica,sans-Serif" font-size="11.00" fill="#000000">[2000000000,10]</text>
<polygon fill="#ffffff" stroke="transparent" points="223.5,-215.7 223.5,-237.7 404.5,-237.7 404.5,-215.7 223.5,-215.7"/>
<polygon fill="none" stroke="#000000" points="223.5,-215.7 223.5,-237.7 404.5,-237.7 404.5,-215.7 223.5,-215.7"/>
<image xlink:href="../../images/foreignKeys.png" width="11px" height="12px" preserveAspectRatio="xMinYMin meet" x="228.5" y="-232.7"/>
<text text-anchor="start" x="243.5" y="-222.8" font-family="Helvetica,sans-Serif" font-size="11.00" fill="#000000">stack</text>
<polygon fill="none" stroke="#000000" points="404.5,-215.7 404.5,-237.7 526.5,-237.7 526.5,-215.7 404.5,-215.7"/>
<text text-anchor="start" x="407.4156" y="-223.4" font-family="Helvetica,sans-Serif" font-size="11.00" fill="#000000">integer[2000000000,10]</text>
<polygon fill="#ffffff" stroke="transparent" points="223.5,-196.7 223.5,-215.7 318.5,-215.7 318.5,-196.7 223.5,-196.7"/>
<polygon fill="none" stroke="#000000" points="223.5,-196.7 223.5,-215.7 318.5,-215.7 318.5,-196.7 223.5,-196.7"/>
<text text-anchor="start" x="226.5" y="-202.8" font-family="Helvetica,sans-Serif" font-size="11.00" fill="#000000">&lt; 2</text>
<polygon fill="#ffffff" stroke="transparent" points="318.5,-196.7 318.5,-215.7 404.5,-215.7 404.5,-196.7 318.5,-196.7"/>
<polygon fill="none" stroke="#000000" points="318.5,-196.7 318.5,-215.7 404.5,-215.7 404.5,-196.7 318.5,-196.7"/>
<text text-anchor="start" x="395.3862" y="-202.8" font-family="Helvetica,sans-Serif" font-size="11.00" fill="#000000"> &#160;</text>
<polygon fill="#ffffff" stroke="transparent" points="404.5,-196.7 404.5,-215.7 526.5,-215.7 526.5,-196.7 404.5,-196.7"/>
<polygon fill="none" stroke="#000000" points="404.5,-196.7 404.5,-215.7 526.5,-215.7 526.5,-196.7 404.5,-196.7"/>
<text text-anchor="start" x="507.9053" y="-202.8" font-family="Helvetica,sans-Serif" font-size="11.00" fill="#000000">0 &gt;</text>
<polygon fill="none" stroke="#000000" stroke-width="2" points="222,-195.7 222,-349.7 527,-349.7 527,-195.7 222,-195.7"/>
</a>
</g>
</g>
<!-- Adobe_images -->
<g id="node2" class="node">
<title>Adobe_images</title>
<g id="a_node2"><a xlink:href="../../tables/Adobe_images.html" xlink:title="Adobe_images" target="_top">
<polygon fill="#ffffff" stroke="transparent" points="9.5,-186.2 9.5,-401.2 170.5,-401.2 170.5,-186.2 9.5,-186.2"/>
<polygon fill="#f5f5f5" stroke="transparent" points="10,-377.7 10,-400.7 171,-400.7 171,-377.7 10,-377.7"/>
<polygon fill="none" stroke="#000000" points="10,-377.7 10,-400.7 171,-400.7 171,-377.7 10,-377.7"/>
<text text-anchor="start" x="15" y="-386.3" font-family="Helvetica,sans-Serif" font-weight="bold" font-size="11.00" fill="#000000">Adobe_images</text>
<text text-anchor="start" x="136.0437" y="-385.8" font-family="Helvetica,sans-Serif" font-size="11.00" fill="#000000">[table]</text>
<polygon fill="none" stroke="#000000" points="10,-355.7 10,-377.7 171,-377.7 171,-355.7 10,-355.7"/>
<image xlink:href="../../images/primaryKeys.png" width="11px" height="12px" preserveAspectRatio="xMinYMin meet" x="15" y="-372.7"/>
<text text-anchor="start" x="30" y="-362.8" font-family="Helvetica,sans-Serif" font-size="11.00" fill="#000000">id_local</text>
<polygon fill="#ffffff" stroke="transparent" points="10,-333.7 10,-355.7 171,-355.7 171,-333.7 10,-333.7"/>
<polygon fill="none" stroke="#000000" points="10,-333.7 10,-355.7 171,-355.7 171,-333.7 10,-333.7"/>
<text text-anchor="start" x="30" y="-340.8" font-family="Helvetica,sans-Serif" font-size="11.00" fill="#000000">id_global</text>
<polygon fill="#ffffff" stroke="transparent" points="10,-311.7 10,-333.7 171,-333.7 171,-311.7 10,-311.7"/>
<polygon fill="none" stroke="#000000" points="10,-311.7 10,-333.7 171,-333.7 171,-311.7 10,-311.7"/>
<text text-anchor="start" x="30" y="-318.8" font-family="Helvetica,sans-Serif" font-size="11.00" fill="#000000">captureTime</text>
<polygon fill="#ffffff" stroke="transparent" points="10,-289.7 10,-311.7 171,-311.7 171,-289.7 10,-289.7"/>
<polygon fill="none" stroke="#000000" points="10,-289.7 10,-311.7 171,-311.7 171,-289.7 10,-289.7"/>
<image xlink:href="../../images/foreignKeys.png" width="11px" height="12px" preserveAspectRatio="xMinYMin meet" x="15" y="-306.7"/>
<text text-anchor="start" x="30" y="-296.8" font-family="Helvetica,sans-Serif" font-size="11.00" fill="#000000">masterImage</text>
<polygon fill="#ffffff" stroke="transparent" points="10,-267.7 10,-289.7 171,-289.7 171,-267.7 10,-267.7"/>
<polygon fill="none" stroke="#000000" points="10,-267.7 10,-289.7 171,-289.7 171,-267.7 10,-267.7"/>
<text text-anchor="start" x="30" y="-274.8" font-family="Helvetica,sans-Serif" font-size="11.00" fill="#000000">originalRootEntity</text>
<polygon fill="#ffffff" stroke="transparent" points="10,-245.7 10,-267.7 171,-267.7 171,-245.7 10,-245.7"/>
<polygon fill="none" stroke="#000000" points="10,-245.7 10,-267.7 171,-267.7 171,-245.7 10,-245.7"/>
<text text-anchor="start" x="30" y="-252.8" font-family="Helvetica,sans-Serif" font-size="11.00" fill="#000000">rating</text>
<polygon fill="#ffffff" stroke="transparent" points="10,-223.7 10,-245.7 171,-245.7 171,-223.7 10,-223.7"/>
<polygon fill="none" stroke="#000000" points="10,-223.7 10,-245.7 171,-245.7 171,-223.7 10,-223.7"/>
<image xlink:href="../../images/foreignKeys.png" width="11px" height="12px" preserveAspectRatio="xMinYMin meet" x="15" y="-240.7"/>
<text text-anchor="start" x="30" y="-230.8" font-family="Helvetica,sans-Serif" font-size="11.00" fill="#000000">rootFile</text>
<polygon fill="none" stroke="#000000" points="10,-204.7 10,-223.7 171,-223.7 171,-204.7 10,-204.7"/>
<text text-anchor="start" x="13" y="-210.8" font-family="Helvetica,sans-Serif" font-size="11.00" fill="#000000">...</text>
<polygon fill="#ffffff" stroke="transparent" points="10,-185.7 10,-204.7 81,-204.7 81,-185.7 10,-185.7"/>
<polygon fill="none" stroke="#000000" points="10,-185.7 10,-204.7 81,-204.7 81,-185.7 10,-185.7"/>
<text text-anchor="start" x="13" y="-191.8" font-family="Helvetica,sans-Serif" font-size="11.00" fill="#000000">&lt; 2</text>
<polygon fill="#ffffff" stroke="transparent" points="81,-185.7 81,-204.7 118,-204.7 118,-185.7 81,-185.7"/>
<polygon fill="none" stroke="#000000" points="81,-185.7 81,-204.7 118,-204.7 118,-185.7 81,-185.7"/>
<text text-anchor="start" x="108.8862" y="-191.8" font-family="Helvetica,sans-Serif" font-size="11.00" fill="#000000"> &#160;</text>
<polygon fill="#ffffff" stroke="transparent" points="118,-185.7 118,-204.7 171,-204.7 171,-185.7 118,-185.7"/>
<polygon fill="none" stroke="#000000" points="118,-185.7 118,-204.7 171,-204.7 171,-185.7 118,-185.7"/>
<text text-anchor="start" x="146.2904" y="-191.8" font-family="Helvetica,sans-Serif" font-size="11.00" fill="#000000">31 &gt;</text>
</a>
</g>
</g>
<!-- AgLibraryFolderStackImage&#45;&gt;Adobe_images -->
<g id="edge1" class="edge">
<title>AgLibraryFolderStackImage:w&#45;&gt;Adobe_images:e</title>
<path fill="none" stroke="#000000" d="M209.6103,-274.5822C184.3408,-292.5423 213.7413,-366.7 171,-366.7"/>
<polygon fill="#000000" stroke="#000000" points="215.7953,-272.8535 224.4691,-274.1671 219.6476,-271.7768 223.5,-270.7 223.5,-270.7 223.5,-270.7 219.6476,-271.7768 222.5309,-267.2329 215.7953,-272.8535 215.7953,-272.8535"/>
<ellipse fill="none" stroke="#000000" cx="212.7134" cy="-273.7149" rx="3.2" ry="3.2"/>
</g>
<!-- AgLibraryFolderStack -->
<g id="node3" class="node">
<title>AgLibraryFolderStack</title>
<g id="a_node3"><a xlink:href="../../tables/AgLibraryFolderStack.html" xlink:title="AgLibraryFolderStack" target="_top">
<polygon fill="#ffffff" stroke="transparent" points="8,-38.2 8,-165.2 172,-165.2 172,-38.2 8,-38.2"/>
<polygon fill="#f5f5f5" stroke="transparent" points="8,-141.7 8,-164.7 172,-164.7 172,-141.7 8,-141.7"/>
<polygon fill="none" stroke="#000000" points="8,-141.7 8,-164.7 172,-164.7 172,-141.7 8,-141.7"/>
<text text-anchor="start" x="13" y="-150.3" font-family="Helvetica,sans-Serif" font-weight="bold" font-size="11.00" fill="#000000">AgLibraryFolderStack</text>
<text text-anchor="start" x="137.5219" y="-149.8" font-family="Helvetica,sans-Serif" font-size="11.00" fill="#000000">[table]</text>
<polygon fill="none" stroke="#000000" points="8,-119.7 8,-141.7 172,-141.7 172,-119.7 8,-119.7"/>
<image xlink:href="../../images/primaryKeys.png" width="11px" height="12px" preserveAspectRatio="xMinYMin meet" x="13" y="-136.7"/>
<text text-anchor="start" x="37" y="-126.8" font-family="Helvetica,sans-Serif" font-size="11.00" fill="#000000">id_local</text>
<polygon fill="#ffffff" stroke="transparent" points="8,-97.7 8,-119.7 172,-119.7 172,-97.7 8,-97.7"/>
<polygon fill="none" stroke="#000000" points="8,-97.7 8,-119.7 172,-119.7 172,-97.7 8,-97.7"/>
<text text-anchor="start" x="37" y="-104.8" font-family="Helvetica,sans-Serif" font-size="11.00" fill="#000000">id_global</text>
<polygon fill="#ffffff" stroke="transparent" points="8,-75.7 8,-97.7 172,-97.7 172,-75.7 8,-75.7"/>
<polygon fill="none" stroke="#000000" points="8,-75.7 8,-97.7 172,-97.7 172,-75.7 8,-75.7"/>
<text text-anchor="start" x="37" y="-82.8" font-family="Helvetica,sans-Serif" font-size="11.00" fill="#000000">collapsed</text>
<polygon fill="none" stroke="#000000" points="8,-56.7 8,-75.7 172,-75.7 172,-56.7 8,-56.7"/>
<text text-anchor="start" x="11" y="-62.8" font-family="Helvetica,sans-Serif" font-size="11.00" fill="#000000">...</text>
<polygon fill="#ffffff" stroke="transparent" points="8,-37.7 8,-56.7 79,-56.7 79,-37.7 8,-37.7"/>
<polygon fill="none" stroke="#000000" points="8,-37.7 8,-56.7 79,-56.7 79,-37.7 8,-37.7"/>
<text text-anchor="start" x="11" y="-43.8" font-family="Helvetica,sans-Serif" font-size="11.00" fill="#000000"> &#160;</text>
<polygon fill="#ffffff" stroke="transparent" points="79,-37.7 79,-56.7 121,-56.7 121,-37.7 79,-37.7"/>
<polygon fill="none" stroke="#000000" points="79,-37.7 79,-56.7 121,-56.7 121,-37.7 79,-37.7"/>
<text text-anchor="start" x="111.8862" y="-43.8" font-family="Helvetica,sans-Serif" font-size="11.00" fill="#000000"> &#160;</text>
<polygon fill="#ffffff" stroke="transparent" points="121,-37.7 121,-56.7 172,-56.7 172,-37.7 121,-37.7"/>
<polygon fill="none" stroke="#000000" points="121,-37.7 121,-56.7 172,-56.7 172,-37.7 121,-37.7"/>
<text text-anchor="start" x="153.4053" y="-43.8" font-family="Helvetica,sans-Serif" font-size="11.00" fill="#000000">3 &gt;</text>
</a>
</g>
</g>
<!-- AgLibraryFolderStackImage&#45;&gt;AgLibraryFolderStack -->
<g id="edge2" class="edge">
<title>AgLibraryFolderStackImage:w&#45;&gt;AgLibraryFolderStack:e</title>
<path fill="none" stroke="#000000" d="M209.3716,-222.575C184.9509,-204.2 214.3661,-130.7 172,-130.7"/>
<polygon fill="#000000" stroke="#000000" points="215.8206,-224.4578 222.491,-230.1557 219.6603,-225.5789 223.5,-226.7 223.5,-226.7 223.5,-226.7 219.6603,-225.5789 224.509,-223.2443 215.8206,-224.4578 215.8206,-224.4578"/>
<ellipse fill="none" stroke="#000000" cx="212.7489" cy="-223.561" rx="3.2" ry="3.2"/>
</g>
</g>
</svg>
