<?xml version="1.0" encoding="UTF-8" standalone="no"?>
<!DOCTYPE svg PUBLIC "-//W3C//DTD SVG 1.1//EN"
 "http://www.w3.org/Graphics/SVG/1.1/DTD/svg11.dtd">
<!-- Generated by graphviz version 2.40.1 (20161225.0304)
 -->
<!-- Title: oneDegreeRelationshipsDiagramImplied Pages: 1 -->
<svg width="915pt" height="435pt"
 viewBox="0.00 0.00 915.00 435.20" xmlns="http://www.w3.org/2000/svg" xmlns:xlink="http://www.w3.org/1999/xlink">
<g id="graph0" class="graph" transform="scale(1 1) rotate(0) translate(4 431.2)">
<title>oneDegreeRelationshipsDiagramImplied</title>
<polygon fill="#ffffff" stroke="transparent" points="-4,4 -4,-431.2 911,-431.2 911,4 -4,4"/>
<text text-anchor="middle" x="72.4936" y="-7.3" font-family="Helvetica,sans-Serif" font-size="11.00" fill="#000000">Generated by SchemaSpy</text>
<!-- AgLibraryCollectionImage -->
<g id="node1" class="node">
<title>AgLibraryCollectionImage</title>
<g id="a_node1"><a xlink:href="../../tables/AgLibraryCollectionImage.html" xlink:title="AgLibraryCollectionImage" target="_top">
<polygon fill="#ffffff" stroke="transparent" points="257.5,-294.2 257.5,-421.2 445.5,-421.2 445.5,-294.2 257.5,-294.2"/>
<polygon fill="#f5f5f5" stroke="transparent" points="257.5,-397.7 257.5,-420.7 445.5,-420.7 445.5,-397.7 257.5,-397.7"/>
<polygon fill="none" stroke="#000000" points="257.5,-397.7 257.5,-420.7 445.5,-420.7 445.5,-397.7 257.5,-397.7"/>
<text text-anchor="start" x="262.5" y="-406.3" font-family="Helvetica,sans-Serif" font-weight="bold" font-size="11.00" fill="#000000">AgLibraryCollectionImage</text>
<text text-anchor="start" x="411.0219" y="-405.8" font-family="Helvetica,sans-Serif" font-size="11.00" fill="#000000">[table]</text>
<polygon fill="none" stroke="#000000" points="257.5,-375.7 257.5,-397.7 445.5,-397.7 445.5,-375.7 257.5,-375.7"/>
<image xlink:href="../../images/primaryKeys.png" width="11px" height="12px" preserveAspectRatio="xMinYMin meet" x="262.5" y="-392.7"/>
<text text-anchor="start" x="286.5" y="-382.8" font-family="Helvetica,sans-Serif" font-size="11.00" fill="#000000">id_local</text>
<polygon fill="#ffffff" stroke="transparent" points="257.5,-353.7 257.5,-375.7 445.5,-375.7 445.5,-353.7 257.5,-353.7"/>
<polygon fill="none" stroke="#000000" points="257.5,-353.7 257.5,-375.7 445.5,-375.7 445.5,-353.7 257.5,-353.7"/>
<image xlink:href="../../images/foreignKeys.png" width="11px" height="12px" preserveAspectRatio="xMinYMin meet" x="262.5" y="-370.7"/>
<text text-anchor="start" x="286.5" y="-360.8" font-family="Helvetica,sans-Serif" font-size="11.00" fill="#000000">collection</text>
<polygon fill="#ffffff" stroke="transparent" points="257.5,-331.7 257.5,-353.7 445.5,-353.7 445.5,-331.7 257.5,-331.7"/>
<polygon fill="none" stroke="#000000" points="257.5,-331.7 257.5,-353.7 445.5,-353.7 445.5,-331.7 257.5,-331.7"/>
<image xlink:href="../../images/foreignKeys.png" width="11px" height="12px" preserveAspectRatio="xMinYMin meet" x="262.5" y="-348.7"/>
<text text-anchor="start" x="286.5" y="-338.8" font-family="Helvetica,sans-Serif" font-size="11.00" fill="#000000">image</text>
<polygon fill="none" stroke="#000000" points="257.5,-312.7 257.5,-331.7 445.5,-331.7 445.5,-312.7 257.5,-312.7"/>
<text text-anchor="start" x="260.5" y="-318.8" font-family="Helvetica,sans-Serif" font-size="11.00" fill="#000000">...</text>
<polygon fill="#ffffff" stroke="transparent" points="257.5,-293.7 257.5,-312.7 345.5,-312.7 345.5,-293.7 257.5,-293.7"/>
<polygon fill="none" stroke="#000000" points="257.5,-293.7 257.5,-312.7 345.5,-312.7 345.5,-293.7 257.5,-293.7"/>
<text text-anchor="start" x="260.5" y="-299.8" font-family="Helvetica,sans-Serif" font-size="11.00" fill="#000000">&lt; 2</text>
<polygon fill="#ffffff" stroke="transparent" points="345.5,-293.7 345.5,-312.7 390.5,-312.7 390.5,-293.7 345.5,-293.7"/>
<polygon fill="none" stroke="#000000" points="345.5,-293.7 345.5,-312.7 390.5,-312.7 390.5,-293.7 345.5,-293.7"/>
<text text-anchor="start" x="381.3862" y="-299.8" font-family="Helvetica,sans-Serif" font-size="11.00" fill="#000000"> &#160;</text>
<polygon fill="#ffffff" stroke="transparent" points="390.5,-293.7 390.5,-312.7 445.5,-312.7 445.5,-293.7 390.5,-293.7"/>
<polygon fill="none" stroke="#000000" points="390.5,-293.7 390.5,-312.7 445.5,-312.7 445.5,-293.7 390.5,-293.7"/>
<text text-anchor="start" x="426.9053" y="-299.8" font-family="Helvetica,sans-Serif" font-size="11.00" fill="#000000">3 &gt;</text>
</a>
</g>
</g>
<!-- AgLibraryCollection -->
<g id="node2" class="node">
<title>AgLibraryCollection</title>
<g id="a_node2"><a xlink:href="../../tables/AgLibraryCollection.html" xlink:title="AgLibraryCollection" target="_top">
<polygon fill="#ffffff" stroke="transparent" points="12,-274.2 12,-423.2 165,-423.2 165,-274.2 12,-274.2"/>
<polygon fill="#f5f5f5" stroke="transparent" points="12.5,-399.7 12.5,-422.7 165.5,-422.7 165.5,-399.7 12.5,-399.7"/>
<polygon fill="none" stroke="#000000" points="12.5,-399.7 12.5,-422.7 165.5,-422.7 165.5,-399.7 12.5,-399.7"/>
<text text-anchor="start" x="17.5" y="-408.3" font-family="Helvetica,sans-Serif" font-weight="bold" font-size="11.00" fill="#000000">AgLibraryCollection</text>
<text text-anchor="start" x="131.0219" y="-407.8" font-family="Helvetica,sans-Serif" font-size="11.00" fill="#000000">[table]</text>
<polygon fill="none" stroke="#000000" points="12.5,-377.7 12.5,-399.7 165.5,-399.7 165.5,-377.7 12.5,-377.7"/>
<image xlink:href="../../images/primaryKeys.png" width="11px" height="12px" preserveAspectRatio="xMinYMin meet" x="17.5" y="-394.7"/>
<text text-anchor="start" x="41.5" y="-384.8" font-family="Helvetica,sans-Serif" font-size="11.00" fill="#000000">id_local</text>
<polygon fill="#ffffff" stroke="transparent" points="12.5,-355.7 12.5,-377.7 165.5,-377.7 165.5,-355.7 12.5,-355.7"/>
<polygon fill="none" stroke="#000000" points="12.5,-355.7 12.5,-377.7 165.5,-377.7 165.5,-355.7 12.5,-355.7"/>
<text text-anchor="start" x="41.5" y="-362.8" font-family="Helvetica,sans-Serif" font-size="11.00" fill="#000000">genealogy</text>
<polygon fill="#ffffff" stroke="transparent" points="12.5,-333.7 12.5,-355.7 165.5,-355.7 165.5,-333.7 12.5,-333.7"/>
<polygon fill="none" stroke="#000000" points="12.5,-333.7 12.5,-355.7 165.5,-355.7 165.5,-333.7 12.5,-333.7"/>
<text text-anchor="start" x="41.5" y="-340.8" font-family="Helvetica,sans-Serif" font-size="11.00" fill="#000000">name</text>
<polygon fill="#ffffff" stroke="transparent" points="12.5,-311.7 12.5,-333.7 165.5,-333.7 165.5,-311.7 12.5,-311.7"/>
<polygon fill="none" stroke="#000000" points="12.5,-311.7 12.5,-333.7 165.5,-333.7 165.5,-311.7 12.5,-311.7"/>
<image xlink:href="../../images/foreignKeys.png" width="11px" height="12px" preserveAspectRatio="xMinYMin meet" x="17.5" y="-328.7"/>
<text text-anchor="start" x="41.5" y="-318.8" font-family="Helvetica,sans-Serif" font-size="11.00" fill="#000000">parent</text>
<polygon fill="none" stroke="#000000" points="12.5,-292.7 12.5,-311.7 165.5,-311.7 165.5,-292.7 12.5,-292.7"/>
<text text-anchor="start" x="15.5" y="-298.8" font-family="Helvetica,sans-Serif" font-size="11.00" fill="#000000">...</text>
<polygon fill="#ffffff" stroke="transparent" points="12.5,-273.7 12.5,-292.7 79.5,-292.7 79.5,-273.7 12.5,-273.7"/>
<polygon fill="none" stroke="#000000" points="12.5,-273.7 12.5,-292.7 79.5,-292.7 79.5,-273.7 12.5,-273.7"/>
<text text-anchor="start" x="15.5" y="-279.8" font-family="Helvetica,sans-Serif" font-size="11.00" fill="#000000">&lt; 1</text>
<polygon fill="#ffffff" stroke="transparent" points="79.5,-273.7 79.5,-292.7 114.5,-292.7 114.5,-273.7 79.5,-273.7"/>
<polygon fill="none" stroke="#000000" points="79.5,-273.7 79.5,-292.7 114.5,-292.7 114.5,-273.7 79.5,-273.7"/>
<text text-anchor="start" x="105.3862" y="-279.8" font-family="Helvetica,sans-Serif" font-size="11.00" fill="#000000"> &#160;</text>
<polygon fill="#ffffff" stroke="transparent" points="114.5,-273.7 114.5,-292.7 165.5,-292.7 165.5,-273.7 114.5,-273.7"/>
<polygon fill="none" stroke="#000000" points="114.5,-273.7 114.5,-292.7 165.5,-292.7 165.5,-273.7 114.5,-273.7"/>
<text text-anchor="start" x="140.7904" y="-279.8" font-family="Helvetica,sans-Serif" font-size="11.00" fill="#000000">13 &gt;</text>
</a>
</g>
</g>
<!-- AgLibraryCollectionImage&#45;&gt;AgLibraryCollection -->
<g id="edge1" class="edge">
<title>AgLibraryCollectionImage:w&#45;&gt;AgLibraryCollection:e</title>
<path fill="none" stroke="#000000" d="M242.7427,-365.7936C212.7351,-370.4887 202.3101,-388.7 165.5,-388.7"/>
<polygon fill="#000000" stroke="#000000" points="249.5219,-365.2913 257.7661,-368.2902 253.5109,-364.9956 257.5,-364.7 257.5,-364.7 257.5,-364.7 253.5109,-364.9956 257.2339,-361.1098 249.5219,-365.2913 249.5219,-365.2913"/>
<ellipse fill="none" stroke="#000000" cx="246.3306" cy="-365.5278" rx="3.2" ry="3.2"/>
</g>
<!-- Adobe_images -->
<g id="node3" class="node">
<title>Adobe_images</title>
<g id="a_node3"><a xlink:href="../../tables/Adobe_images.html" xlink:title="Adobe_images" target="_top">
<polygon fill="#ffffff" stroke="transparent" points="8,-38.2 8,-253.2 169,-253.2 169,-38.2 8,-38.2"/>
<polygon fill="#f5f5f5" stroke="transparent" points="8.5,-229.7 8.5,-252.7 169.5,-252.7 169.5,-229.7 8.5,-229.7"/>
<polygon fill="none" stroke="#000000" points="8.5,-229.7 8.5,-252.7 169.5,-252.7 169.5,-229.7 8.5,-229.7"/>
<text text-anchor="start" x="13.5" y="-238.3" font-family="Helvetica,sans-Serif" font-weight="bold" font-size="11.00" fill="#000000">Adobe_images</text>
<text text-anchor="start" x="134.5437" y="-237.8" font-family="Helvetica,sans-Serif" font-size="11.00" fill="#000000">[table]</text>
<polygon fill="none" stroke="#000000" points="8.5,-207.7 8.5,-229.7 169.5,-229.7 169.5,-207.7 8.5,-207.7"/>
<image xlink:href="../../images/primaryKeys.png" width="11px" height="12px" preserveAspectRatio="xMinYMin meet" x="13.5" y="-224.7"/>
<text text-anchor="start" x="28.5" y="-214.8" font-family="Helvetica,sans-Serif" font-size="11.00" fill="#000000">id_local</text>
<polygon fill="#ffffff" stroke="transparent" points="8.5,-185.7 8.5,-207.7 169.5,-207.7 169.5,-185.7 8.5,-185.7"/>
<polygon fill="none" stroke="#000000" points="8.5,-185.7 8.5,-207.7 169.5,-207.7 169.5,-185.7 8.5,-185.7"/>
<text text-anchor="start" x="28.5" y="-192.8" font-family="Helvetica,sans-Serif" font-size="11.00" fill="#000000">id_global</text>
<polygon fill="#ffffff" stroke="transparent" points="8.5,-163.7 8.5,-185.7 169.5,-185.7 169.5,-163.7 8.5,-163.7"/>
<polygon fill="none" stroke="#000000" points="8.5,-163.7 8.5,-185.7 169.5,-185.7 169.5,-163.7 8.5,-163.7"/>
<text text-anchor="start" x="28.5" y="-170.8" font-family="Helvetica,sans-Serif" font-size="11.00" fill="#000000">captureTime</text>
<polygon fill="#ffffff" stroke="transparent" points="8.5,-141.7 8.5,-163.7 169.5,-163.7 169.5,-141.7 8.5,-141.7"/>
<polygon fill="none" stroke="#000000" points="8.5,-141.7 8.5,-163.7 169.5,-163.7 169.5,-141.7 8.5,-141.7"/>
<image xlink:href="../../images/foreignKeys.png" width="11px" height="12px" preserveAspectRatio="xMinYMin meet" x="13.5" y="-158.7"/>
<text text-anchor="start" x="28.5" y="-148.8" font-family="Helvetica,sans-Serif" font-size="11.00" fill="#000000">masterImage</text>
<polygon fill="#ffffff" stroke="transparent" points="8.5,-119.7 8.5,-141.7 169.5,-141.7 169.5,-119.7 8.5,-119.7"/>
<polygon fill="none" stroke="#000000" points="8.5,-119.7 8.5,-141.7 169.5,-141.7 169.5,-119.7 8.5,-119.7"/>
<text text-anchor="start" x="28.5" y="-126.8" font-family="Helvetica,sans-Serif" font-size="11.00" fill="#000000">originalRootEntity</text>
<polygon fill="#ffffff" stroke="transparent" points="8.5,-97.7 8.5,-119.7 169.5,-119.7 169.5,-97.7 8.5,-97.7"/>
<polygon fill="none" stroke="#000000" points="8.5,-97.7 8.5,-119.7 169.5,-119.7 169.5,-97.7 8.5,-97.7"/>
<text text-anchor="start" x="28.5" y="-104.8" font-family="Helvetica,sans-Serif" font-size="11.00" fill="#000000">rating</text>
<polygon fill="#ffffff" stroke="transparent" points="8.5,-75.7 8.5,-97.7 169.5,-97.7 169.5,-75.7 8.5,-75.7"/>
<polygon fill="none" stroke="#000000" points="8.5,-75.7 8.5,-97.7 169.5,-97.7 169.5,-75.7 8.5,-75.7"/>
<image xlink:href="../../images/foreignKeys.png" width="11px" height="12px" preserveAspectRatio="xMinYMin meet" x="13.5" y="-92.7"/>
<text text-anchor="start" x="28.5" y="-82.8" font-family="Helvetica,sans-Serif" font-size="11.00" fill="#000000">rootFile</text>
<polygon fill="none" stroke="#000000" points="8.5,-56.7 8.5,-75.7 169.5,-75.7 169.5,-56.7 8.5,-56.7"/>
<text text-anchor="start" x="11.5" y="-62.8" font-family="Helvetica,sans-Serif" font-size="11.00" fill="#000000">...</text>
<polygon fill="#ffffff" stroke="transparent" points="8.5,-37.7 8.5,-56.7 79.5,-56.7 79.5,-37.7 8.5,-37.7"/>
<polygon fill="none" stroke="#000000" points="8.5,-37.7 8.5,-56.7 79.5,-56.7 79.5,-37.7 8.5,-37.7"/>
<text text-anchor="start" x="11.5" y="-43.8" font-family="Helvetica,sans-Serif" font-size="11.00" fill="#000000">&lt; 2</text>
<polygon fill="#ffffff" stroke="transparent" points="79.5,-37.7 79.5,-56.7 116.5,-56.7 116.5,-37.7 79.5,-37.7"/>
<polygon fill="none" stroke="#000000" points="79.5,-37.7 79.5,-56.7 116.5,-56.7 116.5,-37.7 79.5,-37.7"/>
<text text-anchor="start" x="107.3862" y="-43.8" font-family="Helvetica,sans-Serif" font-size="11.00" fill="#000000"> &#160;</text>
<polygon fill="#ffffff" stroke="transparent" points="116.5,-37.7 116.5,-56.7 169.5,-56.7 169.5,-37.7 116.5,-37.7"/>
<polygon fill="none" stroke="#000000" points="116.5,-37.7 116.5,-56.7 169.5,-56.7 169.5,-37.7 116.5,-37.7"/>
<text text-anchor="start" x="144.7904" y="-43.8" font-family="Helvetica,sans-Serif" font-size="11.00" fill="#000000">31 &gt;</text>
</a>
</g>
</g>
<!-- AgLibraryCollectionImage&#45;&gt;Adobe_images -->
<g id="edge2" class="edge">
<title>AgLibraryCollectionImage:w&#45;&gt;Adobe_images:e</title>
<path fill="none" stroke="#000000" d="M243.0588,-340.3337C196.8858,-323.1907 231.5354,-218.7 169.5,-218.7"/>
<polygon fill="#000000" stroke="#000000" points="249.6053,-341.4063 256.9178,-346.2526 253.5526,-342.0532 257.5,-342.7 257.5,-342.7 257.5,-342.7 253.5526,-342.0532 258.0822,-339.1474 249.6053,-341.4063 249.6053,-341.4063"/>
<ellipse fill="none" stroke="#000000" cx="246.4474" cy="-340.8889" rx="3.2" ry="3.2"/>
</g>
<!-- AgLibraryCollectionImageOzAlbumAssetIds -->
<g id="node4" class="node">
<title>AgLibraryCollectionImageOzAlbumAssetIds</title>
<g id="a_node4"><a xlink:href="../../tables/AgLibraryCollectionImageOzAlbumAssetIds.html" xlink:title="AgLibraryCollectionImageOzAlbumAssetIds" target="_top">
<polygon fill="#ffffff" stroke="transparent" points="534,-168.7 534,-324.7 899,-324.7 899,-168.7 534,-168.7"/>
<polygon fill="#f5f5f5" stroke="transparent" points="536.5,-299.7 536.5,-322.7 897.5,-322.7 897.5,-299.7 536.5,-299.7"/>
<polygon fill="none" stroke="#000000" points="536.5,-299.7 536.5,-322.7 897.5,-322.7 897.5,-299.7 536.5,-299.7"/>
<text text-anchor="start" x="541.5" y="-308.3" font-family="Helvetica,sans-Serif" font-weight="bold" font-size="11.00" fill="#000000">AgLibraryCollectionImageOzAlbumAssetIds</text>
<text text-anchor="start" x="862.5437" y="-307.8" font-family="Helvetica,sans-Serif" font-size="11.00" fill="#000000">[table]</text>
<polygon fill="#ffffff" stroke="transparent" points="536.5,-277.7 536.5,-299.7 809.5,-299.7 809.5,-277.7 536.5,-277.7"/>
<polygon fill="none" stroke="#000000" points="536.5,-277.7 536.5,-299.7 809.5,-299.7 809.5,-277.7 536.5,-277.7"/>
<image xlink:href="../../images/foreignKeys.png" width="11px" height="12px" preserveAspectRatio="xMinYMin meet" x="541.5" y="-294.7"/>
<text text-anchor="start" x="556.5" y="-284.8" font-family="Helvetica,sans-Serif" font-size="11.00" fill="#000000">collectionImage</text>
<polygon fill="none" stroke="#000000" points="809.5,-277.7 809.5,-299.7 897.5,-299.7 897.5,-277.7 809.5,-277.7"/>
<text text-anchor="start" x="812.2253" y="-285.4" font-family="Helvetica,sans-Serif" font-size="11.00" fill="#000000">[2000000000,10]</text>
<polygon fill="#ffffff" stroke="transparent" points="536.5,-255.7 536.5,-277.7 809.5,-277.7 809.5,-255.7 536.5,-255.7"/>
<polygon fill="none" stroke="#000000" points="536.5,-255.7 536.5,-277.7 809.5,-277.7 809.5,-255.7 536.5,-255.7"/>
<image xlink:href="../../images/foreignKeys.png" width="11px" height="12px" preserveAspectRatio="xMinYMin meet" x="541.5" y="-272.7"/>
<text text-anchor="start" x="556.5" y="-262.8" font-family="Helvetica,sans-Serif" font-size="11.00" fill="#000000">collection</text>
<polygon fill="none" stroke="#000000" points="809.5,-255.7 809.5,-277.7 897.5,-277.7 897.5,-255.7 809.5,-255.7"/>
<text text-anchor="start" x="812.2253" y="-263.4" font-family="Helvetica,sans-Serif" font-size="11.00" fill="#000000">[2000000000,10]</text>
<polygon fill="#ffffff" stroke="transparent" points="536.5,-233.7 536.5,-255.7 809.5,-255.7 809.5,-233.7 536.5,-233.7"/>
<polygon fill="none" stroke="#000000" points="536.5,-233.7 536.5,-255.7 809.5,-255.7 809.5,-233.7 536.5,-233.7"/>
<image xlink:href="../../images/foreignKeys.png" width="11px" height="12px" preserveAspectRatio="xMinYMin meet" x="541.5" y="-250.7"/>
<text text-anchor="start" x="556.5" y="-240.8" font-family="Helvetica,sans-Serif" font-size="11.00" fill="#000000">image</text>
<polygon fill="none" stroke="#000000" points="809.5,-233.7 809.5,-255.7 897.5,-255.7 897.5,-233.7 809.5,-233.7"/>
<text text-anchor="start" x="812.2253" y="-241.4" font-family="Helvetica,sans-Serif" font-size="11.00" fill="#000000">[2000000000,10]</text>
<polygon fill="#ffffff" stroke="transparent" points="536.5,-211.7 536.5,-233.7 809.5,-233.7 809.5,-211.7 536.5,-211.7"/>
<polygon fill="none" stroke="#000000" points="536.5,-211.7 536.5,-233.7 809.5,-233.7 809.5,-211.7 536.5,-211.7"/>
<text text-anchor="start" x="556.5" y="-218.8" font-family="Helvetica,sans-Serif" font-size="11.00" fill="#000000">ozCatalogId</text>
<polygon fill="none" stroke="#000000" points="809.5,-211.7 809.5,-233.7 897.5,-233.7 897.5,-211.7 809.5,-211.7"/>
<text text-anchor="start" x="812.2253" y="-219.4" font-family="Helvetica,sans-Serif" font-size="11.00" fill="#000000">[2000000000,10]</text>
<polygon fill="#ffffff" stroke="transparent" points="536.5,-189.7 536.5,-211.7 809.5,-211.7 809.5,-189.7 536.5,-189.7"/>
<polygon fill="none" stroke="#000000" points="536.5,-189.7 536.5,-211.7 809.5,-211.7 809.5,-189.7 536.5,-189.7"/>
<image xlink:href="../../images/foreignKeys.png" width="11px" height="12px" preserveAspectRatio="xMinYMin meet" x="541.5" y="-206.7"/>
<text text-anchor="start" x="556.5" y="-196.8" font-family="Helvetica,sans-Serif" font-size="11.00" fill="#000000">ozAlbumAssetId</text>
<polygon fill="none" stroke="#000000" points="809.5,-189.7 809.5,-211.7 897.5,-211.7 897.5,-189.7 809.5,-189.7"/>
<text text-anchor="start" x="812.2253" y="-197.4" font-family="Helvetica,sans-Serif" font-size="11.00" fill="#000000">[2000000000,10]</text>
<polygon fill="#ffffff" stroke="transparent" points="536.5,-170.7 536.5,-189.7 677.5,-189.7 677.5,-170.7 536.5,-170.7"/>
<polygon fill="none" stroke="#000000" points="536.5,-170.7 536.5,-189.7 677.5,-189.7 677.5,-170.7 536.5,-170.7"/>
<text text-anchor="start" x="539.5" y="-176.8" font-family="Helvetica,sans-Serif" font-size="11.00" fill="#000000">&lt; 4</text>
<polygon fill="#ffffff" stroke="transparent" points="677.5,-170.7 677.5,-189.7 809.5,-189.7 809.5,-170.7 677.5,-170.7"/>
<polygon fill="none" stroke="#000000" points="677.5,-170.7 677.5,-189.7 809.5,-189.7 809.5,-170.7 677.5,-170.7"/>
<text text-anchor="start" x="800.3862" y="-176.8" font-family="Helvetica,sans-Serif" font-size="11.00" fill="#000000"> &#160;</text>
<polygon fill="#ffffff" stroke="transparent" points="809.5,-170.7 809.5,-189.7 897.5,-189.7 897.5,-170.7 809.5,-170.7"/>
<polygon fill="none" stroke="#000000" points="809.5,-170.7 809.5,-189.7 897.5,-189.7 897.5,-170.7 809.5,-170.7"/>
<text text-anchor="start" x="878.9053" y="-176.8" font-family="Helvetica,sans-Serif" font-size="11.00" fill="#000000">0 &gt;</text>
<polygon fill="none" stroke="#000000" stroke-width="2" points="535,-169.7 535,-323.7 898,-323.7 898,-169.7 535,-169.7"/>
</a>
</g>
</g>
<!-- AgLibraryCollectionImageOzAlbumAssetIds&#45;&gt;AgLibraryCollectionImage -->
<g id="edge4" class="edge">
<title>AgLibraryCollectionImageOzAlbumAssetIds:w&#45;&gt;AgLibraryCollectionImage:e</title>
<path fill="none" stroke="#000000" d="M522.2036,-291.0258C481.4443,-305.8664 499.4815,-386.7 445.5,-386.7"/>
<polygon fill="#000000" stroke="#000000" points="528.6038,-289.9846 537.0781,-292.2533 532.5519,-289.3423 536.5,-288.7 536.5,-288.7 536.5,-288.7 532.5519,-289.3423 535.9219,-285.1467 528.6038,-289.9846 528.6038,-289.9846"/>
<ellipse fill="none" stroke="#000000" cx="525.4453" cy="-290.4985" rx="3.2" ry="3.2"/>
</g>
<!-- AgLibraryCollectionImageOzAlbumAssetIds&#45;&gt;AgLibraryCollection -->
<g id="edge3" class="edge">
<title>AgLibraryCollectionImageOzAlbumAssetIds:w&#45;&gt;AgLibraryCollection:e</title>
<path fill="none" stroke="#000000" d="M522.0218,-266.4488C440.8075,-263.9548 265.9067,-244.5443 210,-283.7 168.4848,-312.7762 216.1847,-388.7 165.5,-388.7"/>
<polygon fill="#000000" stroke="#000000" points="528.5012,-266.5612 536.4375,-270.2995 532.5006,-266.6306 536.5,-266.7 536.5,-266.7 536.5,-266.7 532.5006,-266.6306 536.5625,-263.1005 528.5012,-266.5612 528.5012,-266.5612"/>
<ellipse fill="none" stroke="#000000" cx="525.3017" cy="-266.5056" rx="3.2" ry="3.2"/>
</g>
<!-- AgLibraryCollectionImageOzAlbumAssetIds&#45;&gt;Adobe_images -->
<g id="edge5" class="edge">
<title>AgLibraryCollectionImageOzAlbumAssetIds:w&#45;&gt;Adobe_images:e</title>
<path fill="none" stroke="#000000" d="M521.9719,-244.7165C388.5295,-245.0159 348.8364,-249.0471 210,-228.7 191.6554,-226.0115 188.0406,-218.7 169.5,-218.7"/>
<polygon fill="#000000" stroke="#000000" points="528.5,-244.7091 536.5041,-248.3 532.5,-244.7046 536.5,-244.7 536.5,-244.7 536.5,-244.7 532.5,-244.7046 536.4959,-241.1 528.5,-244.7091 528.5,-244.7091"/>
<ellipse fill="none" stroke="#000000" cx="525.3" cy="-244.7128" rx="3.2" ry="3.2"/>
</g>
<!-- AgPendingOzAlbumAssetIds_sortOrder -->
<g id="node5" class="node">
<title>AgPendingOzAlbumAssetIds_sortOrder</title>
<g id="a_node5"><a xlink:href="../../tables/AgPendingOzAlbumAssetIds_sortOrder.html" xlink:title="AgPendingOzAlbumAssetIds_sortOrder" target="_top">
<polygon fill="#ffffff" stroke="transparent" points="218,-135.2 218,-218.2 485,-218.2 485,-135.2 218,-135.2"/>
<polygon fill="#f5f5f5" stroke="transparent" points="218.5,-194.7 218.5,-217.7 485.5,-217.7 485.5,-194.7 218.5,-194.7"/>
<polygon fill="none" stroke="#000000" points="218.5,-194.7 218.5,-217.7 485.5,-217.7 485.5,-194.7 218.5,-194.7"/>
<text text-anchor="start" x="223.5" y="-203.3" font-family="Helvetica,sans-Serif" font-weight="bold" font-size="11.00" fill="#000000">AgPendingOzAlbumAssetIds_sortOrder</text>
<text text-anchor="start" x="451.0219" y="-202.8" font-family="Helvetica,sans-Serif" font-size="11.00" fill="#000000">[table]</text>
<polygon fill="none" stroke="#000000" points="218.5,-172.7 218.5,-194.7 485.5,-194.7 485.5,-172.7 218.5,-172.7"/>
<image xlink:href="../../images/primaryKeys.png" width="11px" height="12px" preserveAspectRatio="xMinYMin meet" x="223.5" y="-189.7"/>
<text text-anchor="start" x="247.5" y="-179.8" font-family="Helvetica,sans-Serif" font-size="11.00" fill="#000000">ozAlbumAssetId</text>
<polygon fill="none" stroke="#000000" points="218.5,-153.7 218.5,-172.7 485.5,-172.7 485.5,-153.7 218.5,-153.7"/>
<text text-anchor="start" x="221.5" y="-159.8" font-family="Helvetica,sans-Serif" font-size="11.00" fill="#000000">...</text>
<polygon fill="#ffffff" stroke="transparent" points="218.5,-134.7 218.5,-153.7 341.5,-153.7 341.5,-134.7 218.5,-134.7"/>
<polygon fill="none" stroke="#000000" points="218.5,-134.7 218.5,-153.7 341.5,-153.7 341.5,-134.7 218.5,-134.7"/>
<text text-anchor="start" x="221.5" y="-140.8" font-family="Helvetica,sans-Serif" font-size="11.00" fill="#000000"> &#160;</text>
<polygon fill="#ffffff" stroke="transparent" points="341.5,-134.7 341.5,-153.7 408.5,-153.7 408.5,-134.7 341.5,-134.7"/>
<polygon fill="none" stroke="#000000" points="341.5,-134.7 341.5,-153.7 408.5,-153.7 408.5,-134.7 341.5,-134.7"/>
<text text-anchor="start" x="399.3862" y="-140.8" font-family="Helvetica,sans-Serif" font-size="11.00" fill="#000000"> &#160;</text>
<polygon fill="#ffffff" stroke="transparent" points="408.5,-134.7 408.5,-153.7 485.5,-153.7 485.5,-134.7 408.5,-134.7"/>
<polygon fill="none" stroke="#000000" points="408.5,-134.7 408.5,-153.7 485.5,-153.7 485.5,-134.7 408.5,-134.7"/>
<text text-anchor="start" x="466.9053" y="-140.8" font-family="Helvetica,sans-Serif" font-size="11.00" fill="#000000">3 &gt;</text>
</a>
</g>
</g>
<!-- AgLibraryCollectionImageOzAlbumAssetIds&#45;&gt;AgPendingOzAlbumAssetIds_sortOrder -->
<g id="edge6" class="edge">
<title>AgLibraryCollectionImageOzAlbumAssetIds:w&#45;&gt;AgPendingOzAlbumAssetIds_sortOrder:e</title>
<path fill="none" stroke="#000000" stroke-dasharray="5,2" d="M522.1916,-198.1916C509.8373,-193.4628 503.6062,-183.7 485.5,-183.7"/>
<polygon fill="#000000" stroke="#000000" points="528.6202,-199.3185 535.8783,-204.2459 532.5601,-200.0093 536.5,-200.7 536.5,-200.7 536.5,-200.7 532.5601,-200.0093 537.1217,-197.1541 528.6202,-199.3185 528.6202,-199.3185"/>
<ellipse fill="none" stroke="#000000" cx="525.4682" cy="-198.766" rx="3.2" ry="3.2"/>
</g>
</g>
</svg>
