<?xml version="1.0" encoding="UTF-8" standalone="no"?>
<!DOCTYPE svg PUBLIC "-//W3C//DTD SVG 1.1//EN"
 "http://www.w3.org/Graphics/SVG/1.1/DTD/svg11.dtd">
<!-- Generated by graphviz version 2.40.1 (20161225.0304)
 -->
<!-- Title: twoDegreesRelationshipsDiagram Pages: 1 -->
<svg width="532pt" height="513pt"
 viewBox="0.00 0.00 532.00 513.20" xmlns="http://www.w3.org/2000/svg" xmlns:xlink="http://www.w3.org/1999/xlink">
<g id="graph0" class="graph" transform="scale(1 1) rotate(0) translate(4 509.2)">
<title>twoDegreesRelationshipsDiagram</title>
<polygon fill="#ffffff" stroke="transparent" points="-4,4 -4,-509.2 528,-509.2 528,4 -4,4"/>
<text text-anchor="middle" x="72.4936" y="-7.3" font-family="Helvetica,sans-Serif" font-size="11.00" fill="#000000">Generated by SchemaSpy</text>
<!-- AgLibraryKeywordCooccurrence -->
<g id="node1" class="node">
<title>AgLibraryKeywordCooccurrence</title>
<g id="a_node1"><a xlink:href="../../tables/AgLibraryKeywordCooccurrence.html" xlink:title="AgLibraryKeywordCooccurrence" target="_top">
<polygon fill="#ffffff" stroke="transparent" points="246,-440.2 246,-501.2 473,-501.2 473,-440.2 246,-440.2"/>
<polygon fill="#f5f5f5" stroke="transparent" points="246.5,-477.7 246.5,-500.7 473.5,-500.7 473.5,-477.7 246.5,-477.7"/>
<polygon fill="none" stroke="#000000" points="246.5,-477.7 246.5,-500.7 473.5,-500.7 473.5,-477.7 246.5,-477.7"/>
<text text-anchor="start" x="251.5" y="-486.3" font-family="Helvetica,sans-Serif" font-weight="bold" font-size="11.00" fill="#000000">AgLibraryKeywordCooccurrence</text>
<text text-anchor="start" x="439.0219" y="-485.8" font-family="Helvetica,sans-Serif" font-size="11.00" fill="#000000">[table]</text>
<polygon fill="none" stroke="#000000" points="246.5,-458.7 246.5,-477.7 473.5,-477.7 473.5,-458.7 246.5,-458.7"/>
<text text-anchor="start" x="249.5" y="-464.8" font-family="Helvetica,sans-Serif" font-size="11.00" fill="#000000">...</text>
<polygon fill="#ffffff" stroke="transparent" points="246.5,-439.7 246.5,-458.7 358.5,-458.7 358.5,-439.7 246.5,-439.7"/>
<polygon fill="none" stroke="#000000" points="246.5,-439.7 246.5,-458.7 358.5,-458.7 358.5,-439.7 246.5,-439.7"/>
<text text-anchor="start" x="249.5" y="-445.8" font-family="Helvetica,sans-Serif" font-size="11.00" fill="#000000">&lt; 2</text>
<polygon fill="#ffffff" stroke="transparent" points="358.5,-439.7 358.5,-458.7 415.5,-458.7 415.5,-439.7 358.5,-439.7"/>
<polygon fill="none" stroke="#000000" points="358.5,-439.7 358.5,-458.7 415.5,-458.7 415.5,-439.7 358.5,-439.7"/>
<text text-anchor="start" x="406.3862" y="-445.8" font-family="Helvetica,sans-Serif" font-size="11.00" fill="#000000"> &#160;</text>
<polygon fill="#ffffff" stroke="transparent" points="415.5,-439.7 415.5,-458.7 473.5,-458.7 473.5,-439.7 415.5,-439.7"/>
<polygon fill="none" stroke="#000000" points="415.5,-439.7 415.5,-458.7 473.5,-458.7 473.5,-439.7 415.5,-439.7"/>
<text text-anchor="start" x="464.3862" y="-445.8" font-family="Helvetica,sans-Serif" font-size="11.00" fill="#000000"> &#160;</text>
</a>
</g>
</g>
<!-- AgLibraryKeyword -->
<g id="node2" class="node">
<title>AgLibraryKeyword</title>
<g id="a_node2"><a xlink:href="../../tables/AgLibraryKeyword.html" xlink:title="AgLibraryKeyword" target="_top">
<polygon fill="#ffffff" stroke="transparent" points="8,-208.2 8,-379.2 154,-379.2 154,-208.2 8,-208.2"/>
<polygon fill="#f5f5f5" stroke="transparent" points="8,-355.7 8,-378.7 154,-378.7 154,-355.7 8,-355.7"/>
<polygon fill="none" stroke="#000000" points="8,-355.7 8,-378.7 154,-378.7 154,-355.7 8,-355.7"/>
<text text-anchor="start" x="13" y="-364.3" font-family="Helvetica,sans-Serif" font-weight="bold" font-size="11.00" fill="#000000">AgLibraryKeyword</text>
<text text-anchor="start" x="119.5219" y="-363.8" font-family="Helvetica,sans-Serif" font-size="11.00" fill="#000000">[table]</text>
<polygon fill="none" stroke="#000000" points="8,-333.7 8,-355.7 154,-355.7 154,-333.7 8,-333.7"/>
<image xlink:href="../../images/primaryKeys.png" width="11px" height="12px" preserveAspectRatio="xMinYMin meet" x="13" y="-350.7"/>
<text text-anchor="start" x="37" y="-340.8" font-family="Helvetica,sans-Serif" font-size="11.00" fill="#000000">id_local</text>
<polygon fill="#ffffff" stroke="transparent" points="8,-311.7 8,-333.7 154,-333.7 154,-311.7 8,-311.7"/>
<polygon fill="none" stroke="#000000" points="8,-311.7 8,-333.7 154,-333.7 154,-311.7 8,-311.7"/>
<text text-anchor="start" x="37" y="-318.8" font-family="Helvetica,sans-Serif" font-size="11.00" fill="#000000">id_global</text>
<polygon fill="#ffffff" stroke="transparent" points="8,-289.7 8,-311.7 154,-311.7 154,-289.7 8,-289.7"/>
<polygon fill="none" stroke="#000000" points="8,-289.7 8,-311.7 154,-311.7 154,-289.7 8,-289.7"/>
<text text-anchor="start" x="37" y="-296.8" font-family="Helvetica,sans-Serif" font-size="11.00" fill="#000000">genealogy</text>
<polygon fill="#ffffff" stroke="transparent" points="8,-267.7 8,-289.7 154,-289.7 154,-267.7 8,-267.7"/>
<polygon fill="none" stroke="#000000" points="8,-267.7 8,-289.7 154,-289.7 154,-267.7 8,-267.7"/>
<text text-anchor="start" x="37" y="-274.8" font-family="Helvetica,sans-Serif" font-size="11.00" fill="#000000">lc_name</text>
<polygon fill="#ffffff" stroke="transparent" points="8,-245.7 8,-267.7 154,-267.7 154,-245.7 8,-245.7"/>
<polygon fill="none" stroke="#000000" points="8,-245.7 8,-267.7 154,-267.7 154,-245.7 8,-245.7"/>
<image xlink:href="../../images/foreignKeys.png" width="11px" height="12px" preserveAspectRatio="xMinYMin meet" x="13" y="-262.7"/>
<text text-anchor="start" x="37" y="-252.8" font-family="Helvetica,sans-Serif" font-size="11.00" fill="#000000">parent</text>
<polygon fill="none" stroke="#000000" points="8,-226.7 8,-245.7 154,-245.7 154,-226.7 8,-226.7"/>
<text text-anchor="start" x="11" y="-232.8" font-family="Helvetica,sans-Serif" font-size="11.00" fill="#000000">...</text>
<polygon fill="#ffffff" stroke="transparent" points="8,-207.7 8,-226.7 75,-226.7 75,-207.7 8,-207.7"/>
<polygon fill="none" stroke="#000000" points="8,-207.7 8,-226.7 75,-226.7 75,-207.7 8,-207.7"/>
<text text-anchor="start" x="11" y="-213.8" font-family="Helvetica,sans-Serif" font-size="11.00" fill="#000000">&lt; 1</text>
<polygon fill="#ffffff" stroke="transparent" points="75,-207.7 75,-226.7 110,-226.7 110,-207.7 75,-207.7"/>
<polygon fill="none" stroke="#000000" points="75,-207.7 75,-226.7 110,-226.7 110,-207.7 75,-207.7"/>
<text text-anchor="start" x="100.8862" y="-213.8" font-family="Helvetica,sans-Serif" font-size="11.00" fill="#000000"> &#160;</text>
<polygon fill="#ffffff" stroke="transparent" points="110,-207.7 110,-226.7 154,-226.7 154,-207.7 110,-207.7"/>
<polygon fill="none" stroke="#000000" points="110,-207.7 110,-226.7 154,-226.7 154,-207.7 110,-207.7"/>
<text text-anchor="start" x="135.4053" y="-213.8" font-family="Helvetica,sans-Serif" font-size="11.00" fill="#000000">7 &gt;</text>
</a>
</g>
</g>
<!-- AgLibraryKeywordCooccurrence&#45;&gt;AgLibraryKeyword -->
<g id="edge1" class="edge">
<title>AgLibraryKeywordCooccurrence:w&#45;&gt;AgLibraryKeyword:e</title>
<path fill="none" stroke="#000000" d="M232.7404,-463.2879C215.7517,-455.4577 209.7519,-441.4915 195,-423.7 168.2284,-391.4123 195.9429,-338.7 154,-344.7"/>
<polygon fill="#000000" stroke="#000000" points="238.8821,-465.2572 245.4007,-471.1281 242.691,-466.4786 246.5,-467.7 246.5,-467.7 246.5,-467.7 242.691,-466.4786 247.5993,-464.2719 238.8821,-465.2572 238.8821,-465.2572"/>
<ellipse fill="none" stroke="#000000" cx="235.8349" cy="-464.2801" rx="3.2" ry="3.2"/>
</g>
<!-- AgLibraryKeywordCooccurrence&#45;&gt;AgLibraryKeyword -->
<g id="edge2" class="edge">
<title>AgLibraryKeywordCooccurrence:w&#45;&gt;AgLibraryKeyword:e</title>
<path fill="none" stroke="#000000" d="M231.7723,-469.251C215.5177,-467.9192 209.4682,-454.1493 195,-436.7 168.2284,-404.4123 195.9429,-351.7 154,-344.7"/>
<polygon fill="#000000" stroke="#000000" points="238.544,-468.5379 246.8771,-471.2802 242.522,-468.119 246.5,-467.7 246.5,-467.7 246.5,-467.7 242.522,-468.119 246.1229,-464.1198 238.544,-468.5379 238.544,-468.5379"/>
<ellipse fill="none" stroke="#000000" cx="235.3616" cy="-468.8731" rx="3.2" ry="3.2"/>
</g>
<!-- AgLibraryKeywordFace -->
<g id="node3" class="node">
<title>AgLibraryKeywordFace</title>
<g id="a_node3"><a xlink:href="../../tables/AgLibraryKeywordFace.html" xlink:title="AgLibraryKeywordFace" target="_top">
<polygon fill="#ffffff" stroke="transparent" points="273,-358.2 273,-419.2 446,-419.2 446,-358.2 273,-358.2"/>
<polygon fill="#f5f5f5" stroke="transparent" points="273.5,-395.7 273.5,-418.7 446.5,-418.7 446.5,-395.7 273.5,-395.7"/>
<polygon fill="none" stroke="#000000" points="273.5,-395.7 273.5,-418.7 446.5,-418.7 446.5,-395.7 273.5,-395.7"/>
<text text-anchor="start" x="278.5" y="-404.3" font-family="Helvetica,sans-Serif" font-weight="bold" font-size="11.00" fill="#000000">AgLibraryKeywordFace</text>
<text text-anchor="start" x="412.0219" y="-403.8" font-family="Helvetica,sans-Serif" font-size="11.00" fill="#000000">[table]</text>
<polygon fill="none" stroke="#000000" points="273.5,-376.7 273.5,-395.7 446.5,-395.7 446.5,-376.7 273.5,-376.7"/>
<text text-anchor="start" x="276.5" y="-382.8" font-family="Helvetica,sans-Serif" font-size="11.00" fill="#000000">...</text>
<polygon fill="#ffffff" stroke="transparent" points="273.5,-357.7 273.5,-376.7 358.5,-376.7 358.5,-357.7 273.5,-357.7"/>
<polygon fill="none" stroke="#000000" points="273.5,-357.7 273.5,-376.7 358.5,-376.7 358.5,-357.7 273.5,-357.7"/>
<text text-anchor="start" x="276.5" y="-363.8" font-family="Helvetica,sans-Serif" font-size="11.00" fill="#000000">&lt; 2</text>
<polygon fill="#ffffff" stroke="transparent" points="358.5,-357.7 358.5,-376.7 402.5,-376.7 402.5,-357.7 358.5,-357.7"/>
<polygon fill="none" stroke="#000000" points="358.5,-357.7 358.5,-376.7 402.5,-376.7 402.5,-357.7 358.5,-357.7"/>
<text text-anchor="start" x="393.3862" y="-363.8" font-family="Helvetica,sans-Serif" font-size="11.00" fill="#000000"> &#160;</text>
<polygon fill="#ffffff" stroke="transparent" points="402.5,-357.7 402.5,-376.7 446.5,-376.7 446.5,-357.7 402.5,-357.7"/>
<polygon fill="none" stroke="#000000" points="402.5,-357.7 402.5,-376.7 446.5,-376.7 446.5,-357.7 402.5,-357.7"/>
<text text-anchor="start" x="437.3862" y="-363.8" font-family="Helvetica,sans-Serif" font-size="11.00" fill="#000000"> &#160;</text>
</a>
</g>
</g>
<!-- AgLibraryKeywordFace&#45;&gt;AgLibraryKeyword -->
<g id="edge3" class="edge">
<title>AgLibraryKeywordFace:w&#45;&gt;AgLibraryKeyword:e</title>
<path fill="none" stroke="#000000" d="M258.9178,-384.6865C215.5697,-378.3729 204.8861,-344.7 154,-344.7"/>
<polygon fill="#000000" stroke="#000000" points="265.5193,-385.1453 273.2504,-389.2913 269.5096,-385.4226 273.5,-385.7 273.5,-385.7 273.5,-385.7 269.5096,-385.4226 273.7496,-382.1087 265.5193,-385.1453 265.5193,-385.1453"/>
<ellipse fill="none" stroke="#000000" cx="262.327" cy="-384.9234" rx="3.2" ry="3.2"/>
</g>
<!-- AgLibraryKeywordImage -->
<g id="node4" class="node">
<title>AgLibraryKeywordImage</title>
<g id="a_node4"><a xlink:href="../../tables/AgLibraryKeywordImage.html" xlink:title="AgLibraryKeywordImage" target="_top">
<polygon fill="#ffffff" stroke="transparent" points="269,-276.2 269,-337.2 450,-337.2 450,-276.2 269,-276.2"/>
<polygon fill="#f5f5f5" stroke="transparent" points="269.5,-313.7 269.5,-336.7 450.5,-336.7 450.5,-313.7 269.5,-313.7"/>
<polygon fill="none" stroke="#000000" points="269.5,-313.7 269.5,-336.7 450.5,-336.7 450.5,-313.7 269.5,-313.7"/>
<text text-anchor="start" x="274.5" y="-322.3" font-family="Helvetica,sans-Serif" font-weight="bold" font-size="11.00" fill="#000000">AgLibraryKeywordImage</text>
<text text-anchor="start" x="416.0219" y="-321.8" font-family="Helvetica,sans-Serif" font-size="11.00" fill="#000000">[table]</text>
<polygon fill="none" stroke="#000000" points="269.5,-294.7 269.5,-313.7 450.5,-313.7 450.5,-294.7 269.5,-294.7"/>
<text text-anchor="start" x="272.5" y="-300.8" font-family="Helvetica,sans-Serif" font-size="11.00" fill="#000000">...</text>
<polygon fill="#ffffff" stroke="transparent" points="269.5,-275.7 269.5,-294.7 358.5,-294.7 358.5,-275.7 269.5,-275.7"/>
<polygon fill="none" stroke="#000000" points="269.5,-275.7 269.5,-294.7 358.5,-294.7 358.5,-275.7 269.5,-275.7"/>
<text text-anchor="start" x="272.5" y="-281.8" font-family="Helvetica,sans-Serif" font-size="11.00" fill="#000000">&lt; 2</text>
<polygon fill="#ffffff" stroke="transparent" points="358.5,-275.7 358.5,-294.7 404.5,-294.7 404.5,-275.7 358.5,-275.7"/>
<polygon fill="none" stroke="#000000" points="358.5,-275.7 358.5,-294.7 404.5,-294.7 404.5,-275.7 358.5,-275.7"/>
<text text-anchor="start" x="395.3862" y="-281.8" font-family="Helvetica,sans-Serif" font-size="11.00" fill="#000000"> &#160;</text>
<polygon fill="#ffffff" stroke="transparent" points="404.5,-275.7 404.5,-294.7 450.5,-294.7 450.5,-275.7 404.5,-275.7"/>
<polygon fill="none" stroke="#000000" points="404.5,-275.7 404.5,-294.7 450.5,-294.7 450.5,-275.7 404.5,-275.7"/>
<text text-anchor="start" x="441.3862" y="-281.8" font-family="Helvetica,sans-Serif" font-size="11.00" fill="#000000"> &#160;</text>
</a>
</g>
</g>
<!-- AgLibraryKeywordImage&#45;&gt;AgLibraryKeyword -->
<g id="edge4" class="edge">
<title>AgLibraryKeywordImage:w&#45;&gt;AgLibraryKeyword:e</title>
<path fill="none" stroke="#000000" d="M255.0933,-304.7547C213.3345,-311.1721 203.2585,-344.7 154,-344.7"/>
<polygon fill="#000000" stroke="#000000" points="261.5214,-304.2842 269.7629,-307.2904 265.5107,-303.9921 269.5,-303.7 269.5,-303.7 269.5,-303.7 265.5107,-303.9921 269.2371,-300.1096 261.5214,-304.2842 261.5214,-304.2842"/>
<ellipse fill="none" stroke="#000000" cx="258.3299" cy="-304.5178" rx="3.2" ry="3.2"/>
</g>
<!-- AgLibraryKeywordPopularity -->
<g id="node5" class="node">
<title>AgLibraryKeywordPopularity</title>
<g id="a_node5"><a xlink:href="../../tables/AgLibraryKeywordPopularity.html" xlink:title="AgLibraryKeywordPopularity" target="_top">
<polygon fill="#ffffff" stroke="transparent" points="203,-120.7 203,-254.7 516,-254.7 516,-120.7 203,-120.7"/>
<polygon fill="#f5f5f5" stroke="transparent" points="205.5,-229.7 205.5,-252.7 514.5,-252.7 514.5,-229.7 205.5,-229.7"/>
<polygon fill="none" stroke="#000000" points="205.5,-229.7 205.5,-252.7 514.5,-252.7 514.5,-229.7 205.5,-229.7"/>
<text text-anchor="start" x="210.5" y="-238.3" font-family="Helvetica,sans-Serif" font-weight="bold" font-size="11.00" fill="#000000">AgLibraryKeywordPopularity</text>
<text text-anchor="start" x="479.5437" y="-237.8" font-family="Helvetica,sans-Serif" font-size="11.00" fill="#000000">[table]</text>
<polygon fill="none" stroke="#000000" points="205.5,-207.7 205.5,-229.7 392.5,-229.7 392.5,-207.7 205.5,-207.7"/>
<image xlink:href="../../images/primaryKeys.png" width="11px" height="12px" preserveAspectRatio="xMinYMin meet" x="210.5" y="-224.7"/>
<text text-anchor="start" x="225.5" y="-214.8" font-family="Helvetica,sans-Serif" font-size="11.00" fill="#000000">id_local</text>
<polygon fill="none" stroke="#000000" points="392.5,-207.7 392.5,-229.7 514.5,-229.7 514.5,-207.7 392.5,-207.7"/>
<text text-anchor="start" x="395.4156" y="-215.4" font-family="Helvetica,sans-Serif" font-size="11.00" fill="#000000">integer[2000000000,10]</text>
<polygon fill="none" stroke="#000000" points="205.5,-185.7 205.5,-207.7 392.5,-207.7 392.5,-185.7 205.5,-185.7"/>
<text text-anchor="start" x="225.5" y="-192.8" font-family="Helvetica,sans-Serif" font-size="11.00" fill="#000000">occurrences</text>
<polygon fill="none" stroke="#000000" points="392.5,-185.7 392.5,-207.7 514.5,-207.7 514.5,-185.7 392.5,-185.7"/>
<text text-anchor="start" x="395.5" y="-193.4" font-family="Helvetica,sans-Serif" font-size="11.00" fill="#000000">[2000000000,10]</text>
<polygon fill="#ffffff" stroke="transparent" points="205.5,-163.7 205.5,-185.7 392.5,-185.7 392.5,-163.7 205.5,-163.7"/>
<polygon fill="none" stroke="#000000" points="205.5,-163.7 205.5,-185.7 392.5,-185.7 392.5,-163.7 205.5,-163.7"/>
<text text-anchor="start" x="225.5" y="-170.8" font-family="Helvetica,sans-Serif" font-size="11.00" fill="#000000">popularity</text>
<polygon fill="none" stroke="#000000" points="392.5,-163.7 392.5,-185.7 514.5,-185.7 514.5,-163.7 392.5,-163.7"/>
<text text-anchor="start" x="395.5" y="-171.4" font-family="Helvetica,sans-Serif" font-size="11.00" fill="#000000">[2000000000,10]</text>
<polygon fill="#ffffff" stroke="transparent" points="205.5,-141.7 205.5,-163.7 392.5,-163.7 392.5,-141.7 205.5,-141.7"/>
<polygon fill="none" stroke="#000000" points="205.5,-141.7 205.5,-163.7 392.5,-163.7 392.5,-141.7 205.5,-141.7"/>
<image xlink:href="../../images/foreignKeys.png" width="11px" height="12px" preserveAspectRatio="xMinYMin meet" x="210.5" y="-158.7"/>
<text text-anchor="start" x="225.5" y="-148.8" font-family="Helvetica,sans-Serif" font-size="11.00" fill="#000000">tag</text>
<polygon fill="none" stroke="#000000" points="392.5,-141.7 392.5,-163.7 514.5,-163.7 514.5,-141.7 392.5,-141.7"/>
<text text-anchor="start" x="395.5" y="-149.4" font-family="Helvetica,sans-Serif" font-size="11.00" fill="#000000">[2000000000,10]</text>
<polygon fill="#ffffff" stroke="transparent" points="205.5,-122.7 205.5,-141.7 303.5,-141.7 303.5,-122.7 205.5,-122.7"/>
<polygon fill="none" stroke="#000000" points="205.5,-122.7 205.5,-141.7 303.5,-141.7 303.5,-122.7 205.5,-122.7"/>
<text text-anchor="start" x="208.5" y="-128.8" font-family="Helvetica,sans-Serif" font-size="11.00" fill="#000000">&lt; 1</text>
<polygon fill="#ffffff" stroke="transparent" points="303.5,-122.7 303.5,-141.7 392.5,-141.7 392.5,-122.7 303.5,-122.7"/>
<polygon fill="none" stroke="#000000" points="303.5,-122.7 303.5,-141.7 392.5,-141.7 392.5,-122.7 303.5,-122.7"/>
<text text-anchor="start" x="383.3862" y="-128.8" font-family="Helvetica,sans-Serif" font-size="11.00" fill="#000000"> &#160;</text>
<polygon fill="#ffffff" stroke="transparent" points="392.5,-122.7 392.5,-141.7 514.5,-141.7 514.5,-122.7 392.5,-122.7"/>
<polygon fill="none" stroke="#000000" points="392.5,-122.7 392.5,-141.7 514.5,-141.7 514.5,-122.7 392.5,-122.7"/>
<text text-anchor="start" x="495.9053" y="-128.8" font-family="Helvetica,sans-Serif" font-size="11.00" fill="#000000">0 &gt;</text>
<polygon fill="none" stroke="#000000" stroke-width="2" points="204,-121.7 204,-253.7 515,-253.7 515,-121.7 204,-121.7"/>
</a>
</g>
</g>
<!-- AgLibraryKeywordPopularity&#45;&gt;AgLibraryKeyword -->
<g id="edge5" class="edge">
<title>AgLibraryKeywordPopularity:w&#45;&gt;AgLibraryKeyword:e</title>
<path fill="none" stroke="#000000" d="M194.8476,-153.8275C127.9677,-169.5625 238.3809,-344.7 154,-344.7"/>
<polygon fill="#000000" stroke="#000000" points="204.2834,-148.8064 205.1255,-156.762 203.5344,-156.9304 202.6923,-148.9749 204.2834,-148.8064"/>
<polyline fill="none" stroke="#000000" points="205.5,-152.7 201.5222,-153.1211 "/>
<ellipse fill="none" stroke="#000000" cx="198.34" cy="-153.4579" rx="3.2" ry="3.2"/>
</g>
<!-- AgLibraryKeywordSynonym -->
<g id="node6" class="node">
<title>AgLibraryKeywordSynonym</title>
<g id="a_node6"><a xlink:href="../../tables/AgLibraryKeywordSynonym.html" xlink:title="AgLibraryKeywordSynonym" target="_top">
<polygon fill="#ffffff" stroke="transparent" points="259.5,-38.2 259.5,-99.2 459.5,-99.2 459.5,-38.2 259.5,-38.2"/>
<polygon fill="#f5f5f5" stroke="transparent" points="259.5,-75.7 259.5,-98.7 459.5,-98.7 459.5,-75.7 259.5,-75.7"/>
<polygon fill="none" stroke="#000000" points="259.5,-75.7 259.5,-98.7 459.5,-98.7 459.5,-75.7 259.5,-75.7"/>
<text text-anchor="start" x="264.5" y="-84.3" font-family="Helvetica,sans-Serif" font-weight="bold" font-size="11.00" fill="#000000">AgLibraryKeywordSynonym</text>
<text text-anchor="start" x="425.0219" y="-83.8" font-family="Helvetica,sans-Serif" font-size="11.00" fill="#000000">[table]</text>
<polygon fill="none" stroke="#000000" points="259.5,-56.7 259.5,-75.7 459.5,-75.7 459.5,-56.7 259.5,-56.7"/>
<text text-anchor="start" x="262.5" y="-62.8" font-family="Helvetica,sans-Serif" font-size="11.00" fill="#000000">...</text>
<polygon fill="#ffffff" stroke="transparent" points="259.5,-37.7 259.5,-56.7 357.5,-56.7 357.5,-37.7 259.5,-37.7"/>
<polygon fill="none" stroke="#000000" points="259.5,-37.7 259.5,-56.7 357.5,-56.7 357.5,-37.7 259.5,-37.7"/>
<text text-anchor="start" x="262.5" y="-43.8" font-family="Helvetica,sans-Serif" font-size="11.00" fill="#000000">&lt; 1</text>
<polygon fill="#ffffff" stroke="transparent" points="357.5,-37.7 357.5,-56.7 408.5,-56.7 408.5,-37.7 357.5,-37.7"/>
<polygon fill="none" stroke="#000000" points="357.5,-37.7 357.5,-56.7 408.5,-56.7 408.5,-37.7 357.5,-37.7"/>
<text text-anchor="start" x="399.3862" y="-43.8" font-family="Helvetica,sans-Serif" font-size="11.00" fill="#000000"> &#160;</text>
<polygon fill="#ffffff" stroke="transparent" points="408.5,-37.7 408.5,-56.7 459.5,-56.7 459.5,-37.7 408.5,-37.7"/>
<polygon fill="none" stroke="#000000" points="408.5,-37.7 408.5,-56.7 459.5,-56.7 459.5,-37.7 408.5,-37.7"/>
<text text-anchor="start" x="450.3862" y="-43.8" font-family="Helvetica,sans-Serif" font-size="11.00" fill="#000000"> &#160;</text>
</a>
</g>
</g>
<!-- AgLibraryKeywordSynonym&#45;&gt;AgLibraryKeyword -->
<g id="edge6" class="edge">
<title>AgLibraryKeywordSynonym:w&#45;&gt;AgLibraryKeyword:e</title>
<path fill="none" stroke="#000000" d="M245.0958,-66.7754C221.0823,-70.7543 210.9274,-85.7162 195,-110.7 166.621,-155.2156 206.7922,-344.7 154,-344.7"/>
<polygon fill="#000000" stroke="#000000" points="251.5222,-66.2957 259.7681,-69.29 255.5111,-65.9978 259.5,-65.7 259.5,-65.7 259.5,-65.7 255.5111,-65.9978 259.2319,-62.11 251.5222,-66.2957 251.5222,-66.2957"/>
<ellipse fill="none" stroke="#000000" cx="248.3311" cy="-66.534" rx="3.2" ry="3.2"/>
</g>
</g>
</svg>
