<?xml version="1.0" encoding="UTF-8" standalone="no"?>
<!DOCTYPE svg PUBLIC "-//W3C//DTD SVG 1.1//EN"
 "http://www.w3.org/Graphics/SVG/1.1/DTD/svg11.dtd">
<!-- Generated by graphviz version 2.40.1 (20161225.0304)
 -->
<!-- Title: oneDegreeRelationshipsDiagram Pages: 1 -->
<svg width="710pt" height="683pt"
 viewBox="0.00 0.00 710.00 682.70" xmlns="http://www.w3.org/2000/svg" xmlns:xlink="http://www.w3.org/1999/xlink">
<g id="graph0" class="graph" transform="scale(1 1) rotate(0) translate(4 678.7)">
<title>oneDegreeRelationshipsDiagram</title>
<polygon fill="#ffffff" stroke="transparent" points="-4,4 -4,-678.7 706,-678.7 706,4 -4,4"/>
<text text-anchor="middle" x="72.4936" y="-7.3" font-family="Helvetica,sans-Serif" font-size="11.00" fill="#000000">Generated by SchemaSpy</text>
<!-- Adobe_faceProperties -->
<g id="node1" class="node">
<title>Adobe_faceProperties</title>
<g id="a_node1"><a xlink:href="../../tables/Adobe_faceProperties.html" xlink:title="Adobe_faceProperties" target="_top">
<polygon fill="#ffffff" stroke="transparent" points="524.5,-565.7 524.5,-670.7 690.5,-670.7 690.5,-565.7 524.5,-565.7"/>
<polygon fill="#f5f5f5" stroke="transparent" points="524.5,-647.2 524.5,-670.2 690.5,-670.2 690.5,-647.2 524.5,-647.2"/>
<polygon fill="none" stroke="#000000" points="524.5,-647.2 524.5,-670.2 690.5,-670.2 690.5,-647.2 524.5,-647.2"/>
<text text-anchor="start" x="529.5" y="-655.8" font-family="Helvetica,sans-Serif" font-weight="bold" font-size="11.00" fill="#000000">Adobe_faceProperties</text>
<text text-anchor="start" x="656.0219" y="-655.3" font-family="Helvetica,sans-Serif" font-size="11.00" fill="#000000">[table]</text>
<polygon fill="none" stroke="#000000" points="524.5,-625.2 524.5,-647.2 690.5,-647.2 690.5,-625.2 524.5,-625.2"/>
<image xlink:href="../../images/primaryKeys.png" width="11px" height="12px" preserveAspectRatio="xMinYMin meet" x="529.5" y="-642.2"/>
<text text-anchor="start" x="553.5" y="-632.3" font-family="Helvetica,sans-Serif" font-size="11.00" fill="#000000">id_local</text>
<polygon fill="#ffffff" stroke="transparent" points="524.5,-603.2 524.5,-625.2 690.5,-625.2 690.5,-603.2 524.5,-603.2"/>
<polygon fill="none" stroke="#000000" points="524.5,-603.2 524.5,-625.2 690.5,-625.2 690.5,-603.2 524.5,-603.2"/>
<image xlink:href="../../images/foreignKeys.png" width="11px" height="12px" preserveAspectRatio="xMinYMin meet" x="529.5" y="-620.2"/>
<text text-anchor="start" x="553.5" y="-610.3" font-family="Helvetica,sans-Serif" font-size="11.00" fill="#000000">face</text>
<polygon fill="none" stroke="#000000" points="524.5,-584.2 524.5,-603.2 690.5,-603.2 690.5,-584.2 524.5,-584.2"/>
<text text-anchor="start" x="527.5" y="-590.3" font-family="Helvetica,sans-Serif" font-size="11.00" fill="#000000">...</text>
<polygon fill="#ffffff" stroke="transparent" points="524.5,-565.2 524.5,-584.2 605.5,-584.2 605.5,-565.2 524.5,-565.2"/>
<polygon fill="none" stroke="#000000" points="524.5,-565.2 524.5,-584.2 605.5,-584.2 605.5,-565.2 524.5,-565.2"/>
<text text-anchor="start" x="527.5" y="-571.3" font-family="Helvetica,sans-Serif" font-size="11.00" fill="#000000">&lt; 1</text>
<polygon fill="#ffffff" stroke="transparent" points="605.5,-565.2 605.5,-584.2 647.5,-584.2 647.5,-565.2 605.5,-565.2"/>
<polygon fill="none" stroke="#000000" points="605.5,-565.2 605.5,-584.2 647.5,-584.2 647.5,-565.2 605.5,-565.2"/>
<text text-anchor="start" x="638.3862" y="-571.3" font-family="Helvetica,sans-Serif" font-size="11.00" fill="#000000"> &#160;</text>
<polygon fill="#ffffff" stroke="transparent" points="647.5,-565.2 647.5,-584.2 690.5,-584.2 690.5,-565.2 647.5,-565.2"/>
<polygon fill="none" stroke="#000000" points="647.5,-565.2 647.5,-584.2 690.5,-584.2 690.5,-565.2 647.5,-565.2"/>
<text text-anchor="start" x="681.3862" y="-571.3" font-family="Helvetica,sans-Serif" font-size="11.00" fill="#000000"> &#160;</text>
</a>
</g>
</g>
<!-- AgLibraryFace -->
<g id="node2" class="node">
<title>AgLibraryFace</title>
<g id="a_node2"><a xlink:href="../../tables/AgLibraryFace.html" xlink:title="AgLibraryFace" target="_top">
<polygon fill="#ffffff" stroke="transparent" points="218,-38.2 218,-524.2 472,-524.2 472,-38.2 218,-38.2"/>
<polygon fill="#f5f5f5" stroke="transparent" points="220,-499.2 220,-522.2 470,-522.2 470,-499.2 220,-499.2"/>
<polygon fill="none" stroke="#000000" points="220,-499.2 220,-522.2 470,-522.2 470,-499.2 220,-499.2"/>
<text text-anchor="start" x="225" y="-507.8" font-family="Helvetica,sans-Serif" font-weight="bold" font-size="11.00" fill="#000000">AgLibraryFace</text>
<text text-anchor="start" x="435.0437" y="-507.3" font-family="Helvetica,sans-Serif" font-size="11.00" fill="#000000">[table]</text>
<polygon fill="none" stroke="#000000" points="220,-477.2 220,-499.2 348,-499.2 348,-477.2 220,-477.2"/>
<image xlink:href="../../images/primaryKeys.png" width="11px" height="12px" preserveAspectRatio="xMinYMin meet" x="225" y="-494.2"/>
<text text-anchor="start" x="240" y="-484.3" font-family="Helvetica,sans-Serif" font-size="11.00" fill="#000000">id_local</text>
<polygon fill="none" stroke="#000000" points="348,-477.2 348,-499.2 470,-499.2 470,-477.2 348,-477.2"/>
<text text-anchor="start" x="350.9156" y="-484.9" font-family="Helvetica,sans-Serif" font-size="11.00" fill="#000000">integer[2000000000,10]</text>
<polygon fill="none" stroke="#000000" points="220,-455.2 220,-477.2 348,-477.2 348,-455.2 220,-455.2"/>
<text text-anchor="start" x="240" y="-462.3" font-family="Helvetica,sans-Serif" font-size="11.00" fill="#000000">bl_x</text>
<polygon fill="none" stroke="#000000" points="348,-455.2 348,-477.2 470,-477.2 470,-455.2 348,-455.2"/>
<text text-anchor="start" x="351" y="-462.9" font-family="Helvetica,sans-Serif" font-size="11.00" fill="#000000">[2000000000,10]</text>
<polygon fill="none" stroke="#000000" points="220,-433.2 220,-455.2 348,-455.2 348,-433.2 220,-433.2"/>
<text text-anchor="start" x="240" y="-440.3" font-family="Helvetica,sans-Serif" font-size="11.00" fill="#000000">bl_y</text>
<polygon fill="none" stroke="#000000" points="348,-433.2 348,-455.2 470,-455.2 470,-433.2 348,-433.2"/>
<text text-anchor="start" x="351" y="-440.9" font-family="Helvetica,sans-Serif" font-size="11.00" fill="#000000">[2000000000,10]</text>
<polygon fill="none" stroke="#000000" points="220,-411.2 220,-433.2 348,-433.2 348,-411.2 220,-411.2"/>
<text text-anchor="start" x="240" y="-418.3" font-family="Helvetica,sans-Serif" font-size="11.00" fill="#000000">br_x</text>
<polygon fill="none" stroke="#000000" points="348,-411.2 348,-433.2 470,-433.2 470,-411.2 348,-411.2"/>
<text text-anchor="start" x="351" y="-418.9" font-family="Helvetica,sans-Serif" font-size="11.00" fill="#000000">[2000000000,10]</text>
<polygon fill="none" stroke="#000000" points="220,-389.2 220,-411.2 348,-411.2 348,-389.2 220,-389.2"/>
<text text-anchor="start" x="240" y="-396.3" font-family="Helvetica,sans-Serif" font-size="11.00" fill="#000000">br_y</text>
<polygon fill="none" stroke="#000000" points="348,-389.2 348,-411.2 470,-411.2 470,-389.2 348,-389.2"/>
<text text-anchor="start" x="351" y="-396.9" font-family="Helvetica,sans-Serif" font-size="11.00" fill="#000000">[2000000000,10]</text>
<polygon fill="#ffffff" stroke="transparent" points="220,-367.2 220,-389.2 348,-389.2 348,-367.2 220,-367.2"/>
<polygon fill="none" stroke="#000000" points="220,-367.2 220,-389.2 348,-389.2 348,-367.2 220,-367.2"/>
<text text-anchor="start" x="240" y="-374.3" font-family="Helvetica,sans-Serif" font-size="11.00" fill="#000000">cluster</text>
<polygon fill="none" stroke="#000000" points="348,-367.2 348,-389.2 470,-389.2 470,-367.2 348,-367.2"/>
<text text-anchor="start" x="350.9156" y="-374.9" font-family="Helvetica,sans-Serif" font-size="11.00" fill="#000000">integer[2000000000,10]</text>
<polygon fill="none" stroke="#000000" points="220,-345.2 220,-367.2 348,-367.2 348,-345.2 220,-345.2"/>
<text text-anchor="start" x="240" y="-352.3" font-family="Helvetica,sans-Serif" font-size="11.00" fill="#000000">compatibleVersion</text>
<polygon fill="none" stroke="#000000" points="348,-345.2 348,-367.2 470,-367.2 470,-345.2 348,-345.2"/>
<text text-anchor="start" x="351" y="-352.9" font-family="Helvetica,sans-Serif" font-size="11.00" fill="#000000">[2000000000,10]</text>
<polygon fill="#ffffff" stroke="transparent" points="220,-323.2 220,-345.2 348,-345.2 348,-323.2 220,-323.2"/>
<polygon fill="none" stroke="#000000" points="220,-323.2 220,-345.2 348,-345.2 348,-323.2 220,-323.2"/>
<image xlink:href="../../images/foreignKeys.png" width="11px" height="12px" preserveAspectRatio="xMinYMin meet" x="225" y="-340.2"/>
<text text-anchor="start" x="240" y="-330.3" font-family="Helvetica,sans-Serif" font-size="11.00" fill="#000000">image</text>
<polygon fill="none" stroke="#000000" points="348,-323.2 348,-345.2 470,-345.2 470,-323.2 348,-323.2"/>
<text text-anchor="start" x="350.9156" y="-330.9" font-family="Helvetica,sans-Serif" font-size="11.00" fill="#000000">integer[2000000000,10]</text>
<polygon fill="none" stroke="#000000" points="220,-301.2 220,-323.2 348,-323.2 348,-301.2 220,-301.2"/>
<text text-anchor="start" x="240" y="-308.3" font-family="Helvetica,sans-Serif" font-size="11.00" fill="#000000">imageOrientation</text>
<polygon fill="none" stroke="#000000" points="348,-301.2 348,-323.2 470,-323.2 470,-301.2 348,-301.2"/>
<text text-anchor="start" x="351" y="-308.9" font-family="Helvetica,sans-Serif" font-size="11.00" fill="#000000">[2000000000,10]</text>
<polygon fill="none" stroke="#000000" points="220,-279.2 220,-301.2 348,-301.2 348,-279.2 220,-279.2"/>
<text text-anchor="start" x="240" y="-286.3" font-family="Helvetica,sans-Serif" font-size="11.00" fill="#000000">orientation</text>
<polygon fill="none" stroke="#000000" points="348,-279.2 348,-301.2 470,-301.2 470,-279.2 348,-279.2"/>
<text text-anchor="start" x="351" y="-286.9" font-family="Helvetica,sans-Serif" font-size="11.00" fill="#000000">[2000000000,10]</text>
<polygon fill="none" stroke="#000000" points="220,-257.2 220,-279.2 348,-279.2 348,-257.2 220,-257.2"/>
<text text-anchor="start" x="240" y="-264.3" font-family="Helvetica,sans-Serif" font-size="11.00" fill="#000000">origination</text>
<polygon fill="none" stroke="#000000" points="348,-257.2 348,-279.2 470,-279.2 470,-257.2 348,-257.2"/>
<text text-anchor="start" x="351" y="-264.9" font-family="Helvetica,sans-Serif" font-size="11.00" fill="#000000">[2000000000,10]</text>
<polygon fill="none" stroke="#000000" points="220,-235.2 220,-257.2 348,-257.2 348,-235.2 220,-235.2"/>
<text text-anchor="start" x="240" y="-242.3" font-family="Helvetica,sans-Serif" font-size="11.00" fill="#000000">propertiesCache</text>
<polygon fill="none" stroke="#000000" points="348,-235.2 348,-257.2 470,-257.2 470,-235.2 348,-235.2"/>
<text text-anchor="start" x="351" y="-242.9" font-family="Helvetica,sans-Serif" font-size="11.00" fill="#000000">[2000000000,10]</text>
<polygon fill="none" stroke="#000000" points="220,-213.2 220,-235.2 348,-235.2 348,-213.2 220,-213.2"/>
<text text-anchor="start" x="240" y="-220.3" font-family="Helvetica,sans-Serif" font-size="11.00" fill="#000000">regionType</text>
<polygon fill="none" stroke="#000000" points="348,-213.2 348,-235.2 470,-235.2 470,-213.2 348,-213.2"/>
<text text-anchor="start" x="351" y="-220.9" font-family="Helvetica,sans-Serif" font-size="11.00" fill="#000000">[2000000000,10]</text>
<polygon fill="none" stroke="#000000" points="220,-191.2 220,-213.2 348,-213.2 348,-191.2 220,-191.2"/>
<text text-anchor="start" x="240" y="-198.3" font-family="Helvetica,sans-Serif" font-size="11.00" fill="#000000">tl_x</text>
<polygon fill="none" stroke="#000000" points="348,-191.2 348,-213.2 470,-213.2 470,-191.2 348,-191.2"/>
<text text-anchor="start" x="351" y="-198.9" font-family="Helvetica,sans-Serif" font-size="11.00" fill="#000000">[2000000000,10]</text>
<polygon fill="none" stroke="#000000" points="220,-169.2 220,-191.2 348,-191.2 348,-169.2 220,-169.2"/>
<text text-anchor="start" x="240" y="-176.3" font-family="Helvetica,sans-Serif" font-size="11.00" fill="#000000">tl_y</text>
<polygon fill="none" stroke="#000000" points="348,-169.2 348,-191.2 470,-191.2 470,-169.2 348,-169.2"/>
<text text-anchor="start" x="351" y="-176.9" font-family="Helvetica,sans-Serif" font-size="11.00" fill="#000000">[2000000000,10]</text>
<polygon fill="none" stroke="#000000" points="220,-147.2 220,-169.2 348,-169.2 348,-147.2 220,-147.2"/>
<text text-anchor="start" x="240" y="-154.3" font-family="Helvetica,sans-Serif" font-size="11.00" fill="#000000">touchCount</text>
<polygon fill="none" stroke="#000000" points="348,-147.2 348,-169.2 470,-169.2 470,-147.2 348,-147.2"/>
<text text-anchor="start" x="351" y="-154.9" font-family="Helvetica,sans-Serif" font-size="11.00" fill="#000000">[2000000000,10]</text>
<polygon fill="none" stroke="#000000" points="220,-125.2 220,-147.2 348,-147.2 348,-125.2 220,-125.2"/>
<text text-anchor="start" x="240" y="-132.3" font-family="Helvetica,sans-Serif" font-size="11.00" fill="#000000">touchTime</text>
<polygon fill="none" stroke="#000000" points="348,-125.2 348,-147.2 470,-147.2 470,-125.2 348,-125.2"/>
<text text-anchor="start" x="351" y="-132.9" font-family="Helvetica,sans-Serif" font-size="11.00" fill="#000000">[2000000000,10]</text>
<polygon fill="none" stroke="#000000" points="220,-103.2 220,-125.2 348,-125.2 348,-103.2 220,-103.2"/>
<text text-anchor="start" x="240" y="-110.3" font-family="Helvetica,sans-Serif" font-size="11.00" fill="#000000">tr_x</text>
<polygon fill="none" stroke="#000000" points="348,-103.2 348,-125.2 470,-125.2 470,-103.2 348,-103.2"/>
<text text-anchor="start" x="351" y="-110.9" font-family="Helvetica,sans-Serif" font-size="11.00" fill="#000000">[2000000000,10]</text>
<polygon fill="none" stroke="#000000" points="220,-81.2 220,-103.2 348,-103.2 348,-81.2 220,-81.2"/>
<text text-anchor="start" x="240" y="-88.3" font-family="Helvetica,sans-Serif" font-size="11.00" fill="#000000">tr_y</text>
<polygon fill="none" stroke="#000000" points="348,-81.2 348,-103.2 470,-103.2 470,-81.2 348,-81.2"/>
<text text-anchor="start" x="351" y="-88.9" font-family="Helvetica,sans-Serif" font-size="11.00" fill="#000000">[2000000000,10]</text>
<polygon fill="none" stroke="#000000" points="220,-59.2 220,-81.2 348,-81.2 348,-59.2 220,-59.2"/>
<text text-anchor="start" x="240" y="-66.3" font-family="Helvetica,sans-Serif" font-size="11.00" fill="#000000">version</text>
<polygon fill="none" stroke="#000000" points="348,-59.2 348,-81.2 470,-81.2 470,-59.2 348,-59.2"/>
<text text-anchor="start" x="351" y="-66.9" font-family="Helvetica,sans-Serif" font-size="11.00" fill="#000000">[2000000000,10]</text>
<polygon fill="#ffffff" stroke="transparent" points="220,-40.2 220,-59.2 288,-59.2 288,-40.2 220,-40.2"/>
<polygon fill="none" stroke="#000000" points="220,-40.2 220,-59.2 288,-59.2 288,-40.2 220,-40.2"/>
<text text-anchor="start" x="223" y="-46.3" font-family="Helvetica,sans-Serif" font-size="11.00" fill="#000000">&lt; 1</text>
<polygon fill="#ffffff" stroke="transparent" points="288,-40.2 288,-59.2 348,-59.2 348,-40.2 288,-40.2"/>
<polygon fill="none" stroke="#000000" points="288,-40.2 288,-59.2 348,-59.2 348,-40.2 288,-40.2"/>
<text text-anchor="start" x="338.8862" y="-46.3" font-family="Helvetica,sans-Serif" font-size="11.00" fill="#000000"> &#160;</text>
<polygon fill="#ffffff" stroke="transparent" points="348,-40.2 348,-59.2 470,-59.2 470,-40.2 348,-40.2"/>
<polygon fill="none" stroke="#000000" points="348,-40.2 348,-59.2 470,-59.2 470,-40.2 348,-40.2"/>
<text text-anchor="start" x="451.4053" y="-46.3" font-family="Helvetica,sans-Serif" font-size="11.00" fill="#000000">3 &gt;</text>
<polygon fill="none" stroke="#000000" stroke-width="2" points="219,-39.2 219,-523.2 471,-523.2 471,-39.2 219,-39.2"/>
</a>
</g>
</g>
<!-- Adobe_faceProperties&#45;&gt;AgLibraryFace -->
<g id="edge1" class="edge">
<title>Adobe_faceProperties:w&#45;&gt;AgLibraryFace:e</title>
<path fill="none" stroke="#000000" d="M510.063,-610.8298C475.4491,-590.7923 525.0557,-488.2 470,-488.2"/>
<polygon fill="#000000" stroke="#000000" points="516.7095,-612.3813 523.6816,-617.7057 520.6047,-613.2907 524.5,-614.2 524.5,-614.2 524.5,-614.2 520.6047,-613.2907 525.3184,-610.6943 516.7095,-612.3813 516.7095,-612.3813"/>
<ellipse fill="none" stroke="#000000" cx="513.5932" cy="-611.6539" rx="3.2" ry="3.2"/>
</g>
<!-- Adobe_images -->
<g id="node3" class="node">
<title>Adobe_images</title>
<g id="a_node3"><a xlink:href="../../tables/Adobe_images.html" xlink:title="Adobe_images" target="_top">
<polygon fill="#ffffff" stroke="transparent" points="8,-153.7 8,-368.7 169,-368.7 169,-153.7 8,-153.7"/>
<polygon fill="#f5f5f5" stroke="transparent" points="8.5,-345.2 8.5,-368.2 169.5,-368.2 169.5,-345.2 8.5,-345.2"/>
<polygon fill="none" stroke="#000000" points="8.5,-345.2 8.5,-368.2 169.5,-368.2 169.5,-345.2 8.5,-345.2"/>
<text text-anchor="start" x="13.5" y="-353.8" font-family="Helvetica,sans-Serif" font-weight="bold" font-size="11.00" fill="#000000">Adobe_images</text>
<text text-anchor="start" x="134.5437" y="-353.3" font-family="Helvetica,sans-Serif" font-size="11.00" fill="#000000">[table]</text>
<polygon fill="none" stroke="#000000" points="8.5,-323.2 8.5,-345.2 169.5,-345.2 169.5,-323.2 8.5,-323.2"/>
<image xlink:href="../../images/primaryKeys.png" width="11px" height="12px" preserveAspectRatio="xMinYMin meet" x="13.5" y="-340.2"/>
<text text-anchor="start" x="28.5" y="-330.3" font-family="Helvetica,sans-Serif" font-size="11.00" fill="#000000">id_local</text>
<polygon fill="#ffffff" stroke="transparent" points="8.5,-301.2 8.5,-323.2 169.5,-323.2 169.5,-301.2 8.5,-301.2"/>
<polygon fill="none" stroke="#000000" points="8.5,-301.2 8.5,-323.2 169.5,-323.2 169.5,-301.2 8.5,-301.2"/>
<text text-anchor="start" x="28.5" y="-308.3" font-family="Helvetica,sans-Serif" font-size="11.00" fill="#000000">id_global</text>
<polygon fill="#ffffff" stroke="transparent" points="8.5,-279.2 8.5,-301.2 169.5,-301.2 169.5,-279.2 8.5,-279.2"/>
<polygon fill="none" stroke="#000000" points="8.5,-279.2 8.5,-301.2 169.5,-301.2 169.5,-279.2 8.5,-279.2"/>
<text text-anchor="start" x="28.5" y="-286.3" font-family="Helvetica,sans-Serif" font-size="11.00" fill="#000000">captureTime</text>
<polygon fill="#ffffff" stroke="transparent" points="8.5,-257.2 8.5,-279.2 169.5,-279.2 169.5,-257.2 8.5,-257.2"/>
<polygon fill="none" stroke="#000000" points="8.5,-257.2 8.5,-279.2 169.5,-279.2 169.5,-257.2 8.5,-257.2"/>
<image xlink:href="../../images/foreignKeys.png" width="11px" height="12px" preserveAspectRatio="xMinYMin meet" x="13.5" y="-274.2"/>
<text text-anchor="start" x="28.5" y="-264.3" font-family="Helvetica,sans-Serif" font-size="11.00" fill="#000000">masterImage</text>
<polygon fill="#ffffff" stroke="transparent" points="8.5,-235.2 8.5,-257.2 169.5,-257.2 169.5,-235.2 8.5,-235.2"/>
<polygon fill="none" stroke="#000000" points="8.5,-235.2 8.5,-257.2 169.5,-257.2 169.5,-235.2 8.5,-235.2"/>
<text text-anchor="start" x="28.5" y="-242.3" font-family="Helvetica,sans-Serif" font-size="11.00" fill="#000000">originalRootEntity</text>
<polygon fill="#ffffff" stroke="transparent" points="8.5,-213.2 8.5,-235.2 169.5,-235.2 169.5,-213.2 8.5,-213.2"/>
<polygon fill="none" stroke="#000000" points="8.5,-213.2 8.5,-235.2 169.5,-235.2 169.5,-213.2 8.5,-213.2"/>
<text text-anchor="start" x="28.5" y="-220.3" font-family="Helvetica,sans-Serif" font-size="11.00" fill="#000000">rating</text>
<polygon fill="#ffffff" stroke="transparent" points="8.5,-191.2 8.5,-213.2 169.5,-213.2 169.5,-191.2 8.5,-191.2"/>
<polygon fill="none" stroke="#000000" points="8.5,-191.2 8.5,-213.2 169.5,-213.2 169.5,-191.2 8.5,-191.2"/>
<image xlink:href="../../images/foreignKeys.png" width="11px" height="12px" preserveAspectRatio="xMinYMin meet" x="13.5" y="-208.2"/>
<text text-anchor="start" x="28.5" y="-198.3" font-family="Helvetica,sans-Serif" font-size="11.00" fill="#000000">rootFile</text>
<polygon fill="none" stroke="#000000" points="8.5,-172.2 8.5,-191.2 169.5,-191.2 169.5,-172.2 8.5,-172.2"/>
<text text-anchor="start" x="11.5" y="-178.3" font-family="Helvetica,sans-Serif" font-size="11.00" fill="#000000">...</text>
<polygon fill="#ffffff" stroke="transparent" points="8.5,-153.2 8.5,-172.2 79.5,-172.2 79.5,-153.2 8.5,-153.2"/>
<polygon fill="none" stroke="#000000" points="8.5,-153.2 8.5,-172.2 79.5,-172.2 79.5,-153.2 8.5,-153.2"/>
<text text-anchor="start" x="11.5" y="-159.3" font-family="Helvetica,sans-Serif" font-size="11.00" fill="#000000">&lt; 2</text>
<polygon fill="#ffffff" stroke="transparent" points="79.5,-153.2 79.5,-172.2 116.5,-172.2 116.5,-153.2 79.5,-153.2"/>
<polygon fill="none" stroke="#000000" points="79.5,-153.2 79.5,-172.2 116.5,-172.2 116.5,-153.2 79.5,-153.2"/>
<text text-anchor="start" x="107.3862" y="-159.3" font-family="Helvetica,sans-Serif" font-size="11.00" fill="#000000"> &#160;</text>
<polygon fill="#ffffff" stroke="transparent" points="116.5,-153.2 116.5,-172.2 169.5,-172.2 169.5,-153.2 116.5,-153.2"/>
<polygon fill="none" stroke="#000000" points="116.5,-153.2 116.5,-172.2 169.5,-172.2 169.5,-153.2 116.5,-153.2"/>
<text text-anchor="start" x="144.7904" y="-159.3" font-family="Helvetica,sans-Serif" font-size="11.00" fill="#000000">31 &gt;</text>
</a>
</g>
</g>
<!-- AgLibraryFace&#45;&gt;Adobe_images -->
<g id="edge2" class="edge">
<title>AgLibraryFace:w&#45;&gt;Adobe_images:e</title>
<path fill="none" stroke="#000000" d="M205.4203,-334.2C193.5435,-334.2 186.158,-334.2 169.5,-334.2"/>
<polygon fill="#000000" stroke="#000000" points="212,-334.2001 220,-337.8 216,-334.2 220,-334.2 220,-334.2 220,-334.2 216,-334.2 220,-330.6 212,-334.2001 212,-334.2001"/>
<ellipse fill="none" stroke="#000000" cx="208.8" cy="-334.2001" rx="3.2" ry="3.2"/>
</g>
<!-- AgLibraryFaceData -->
<g id="node4" class="node">
<title>AgLibraryFaceData</title>
<g id="a_node4"><a xlink:href="../../tables/AgLibraryFaceData.html" xlink:title="AgLibraryFaceData" target="_top">
<polygon fill="#ffffff" stroke="transparent" points="533,-439.7 533,-544.7 682,-544.7 682,-439.7 533,-439.7"/>
<polygon fill="#f5f5f5" stroke="transparent" points="533.5,-521.2 533.5,-544.2 682.5,-544.2 682.5,-521.2 533.5,-521.2"/>
<polygon fill="none" stroke="#000000" points="533.5,-521.2 533.5,-544.2 682.5,-544.2 682.5,-521.2 533.5,-521.2"/>
<text text-anchor="start" x="538.5" y="-529.8" font-family="Helvetica,sans-Serif" font-weight="bold" font-size="11.00" fill="#000000">AgLibraryFaceData</text>
<text text-anchor="start" x="648.0219" y="-529.3" font-family="Helvetica,sans-Serif" font-size="11.00" fill="#000000">[table]</text>
<polygon fill="none" stroke="#000000" points="533.5,-499.2 533.5,-521.2 682.5,-521.2 682.5,-499.2 533.5,-499.2"/>
<image xlink:href="../../images/primaryKeys.png" width="11px" height="12px" preserveAspectRatio="xMinYMin meet" x="538.5" y="-516.2"/>
<text text-anchor="start" x="562.5" y="-506.3" font-family="Helvetica,sans-Serif" font-size="11.00" fill="#000000">id_local</text>
<polygon fill="#ffffff" stroke="transparent" points="533.5,-477.2 533.5,-499.2 682.5,-499.2 682.5,-477.2 533.5,-477.2"/>
<polygon fill="none" stroke="#000000" points="533.5,-477.2 533.5,-499.2 682.5,-499.2 682.5,-477.2 533.5,-477.2"/>
<image xlink:href="../../images/foreignKeys.png" width="11px" height="12px" preserveAspectRatio="xMinYMin meet" x="538.5" y="-494.2"/>
<text text-anchor="start" x="562.5" y="-484.3" font-family="Helvetica,sans-Serif" font-size="11.00" fill="#000000">face</text>
<polygon fill="none" stroke="#000000" points="533.5,-458.2 533.5,-477.2 682.5,-477.2 682.5,-458.2 533.5,-458.2"/>
<text text-anchor="start" x="536.5" y="-464.3" font-family="Helvetica,sans-Serif" font-size="11.00" fill="#000000">...</text>
<polygon fill="#ffffff" stroke="transparent" points="533.5,-439.2 533.5,-458.2 606.5,-458.2 606.5,-439.2 533.5,-439.2"/>
<polygon fill="none" stroke="#000000" points="533.5,-439.2 533.5,-458.2 606.5,-458.2 606.5,-439.2 533.5,-439.2"/>
<text text-anchor="start" x="536.5" y="-445.3" font-family="Helvetica,sans-Serif" font-size="11.00" fill="#000000">&lt; 1</text>
<polygon fill="#ffffff" stroke="transparent" points="606.5,-439.2 606.5,-458.2 644.5,-458.2 644.5,-439.2 606.5,-439.2"/>
<polygon fill="none" stroke="#000000" points="606.5,-439.2 606.5,-458.2 644.5,-458.2 644.5,-439.2 606.5,-439.2"/>
<text text-anchor="start" x="635.3862" y="-445.3" font-family="Helvetica,sans-Serif" font-size="11.00" fill="#000000"> &#160;</text>
<polygon fill="#ffffff" stroke="transparent" points="644.5,-439.2 644.5,-458.2 682.5,-458.2 682.5,-439.2 644.5,-439.2"/>
<polygon fill="none" stroke="#000000" points="644.5,-439.2 644.5,-458.2 682.5,-458.2 682.5,-439.2 644.5,-439.2"/>
<text text-anchor="start" x="673.3862" y="-445.3" font-family="Helvetica,sans-Serif" font-size="11.00" fill="#000000"> &#160;</text>
</a>
</g>
</g>
<!-- AgLibraryFaceData&#45;&gt;AgLibraryFace -->
<g id="edge3" class="edge">
<title>AgLibraryFaceData:w&#45;&gt;AgLibraryFace:e</title>
<path fill="none" stroke="#000000" d="M519.0705,-488.2C501.7143,-488.2 492.7101,-488.2 470,-488.2"/>
<polygon fill="#000000" stroke="#000000" points="525.5,-488.2001 533.5,-491.8 529.5,-488.2 533.5,-488.2 533.5,-488.2 533.5,-488.2 529.5,-488.2 533.5,-484.6 525.5,-488.2001 525.5,-488.2001"/>
<ellipse fill="none" stroke="#000000" cx="522.3" cy="-488.2001" rx="3.2" ry="3.2"/>
</g>
<!-- AgLibraryKeywordFace -->
<g id="node5" class="node">
<title>AgLibraryKeywordFace</title>
<g id="a_node5"><a xlink:href="../../tables/AgLibraryKeywordFace.html" xlink:title="AgLibraryKeywordFace" target="_top">
<polygon fill="#ffffff" stroke="transparent" points="521,-291.7 521,-418.7 694,-418.7 694,-291.7 521,-291.7"/>
<polygon fill="#f5f5f5" stroke="transparent" points="521.5,-395.2 521.5,-418.2 694.5,-418.2 694.5,-395.2 521.5,-395.2"/>
<polygon fill="none" stroke="#000000" points="521.5,-395.2 521.5,-418.2 694.5,-418.2 694.5,-395.2 521.5,-395.2"/>
<text text-anchor="start" x="526.5" y="-403.8" font-family="Helvetica,sans-Serif" font-weight="bold" font-size="11.00" fill="#000000">AgLibraryKeywordFace</text>
<text text-anchor="start" x="660.0219" y="-403.3" font-family="Helvetica,sans-Serif" font-size="11.00" fill="#000000">[table]</text>
<polygon fill="none" stroke="#000000" points="521.5,-373.2 521.5,-395.2 694.5,-395.2 694.5,-373.2 521.5,-373.2"/>
<image xlink:href="../../images/primaryKeys.png" width="11px" height="12px" preserveAspectRatio="xMinYMin meet" x="526.5" y="-390.2"/>
<text text-anchor="start" x="550.5" y="-380.3" font-family="Helvetica,sans-Serif" font-size="11.00" fill="#000000">id_local</text>
<polygon fill="#ffffff" stroke="transparent" points="521.5,-351.2 521.5,-373.2 694.5,-373.2 694.5,-351.2 521.5,-351.2"/>
<polygon fill="none" stroke="#000000" points="521.5,-351.2 521.5,-373.2 694.5,-373.2 694.5,-351.2 521.5,-351.2"/>
<image xlink:href="../../images/foreignKeys.png" width="11px" height="12px" preserveAspectRatio="xMinYMin meet" x="526.5" y="-368.2"/>
<text text-anchor="start" x="550.5" y="-358.3" font-family="Helvetica,sans-Serif" font-size="11.00" fill="#000000">face</text>
<polygon fill="#ffffff" stroke="transparent" points="521.5,-329.2 521.5,-351.2 694.5,-351.2 694.5,-329.2 521.5,-329.2"/>
<polygon fill="none" stroke="#000000" points="521.5,-329.2 521.5,-351.2 694.5,-351.2 694.5,-329.2 521.5,-329.2"/>
<image xlink:href="../../images/foreignKeys.png" width="11px" height="12px" preserveAspectRatio="xMinYMin meet" x="526.5" y="-346.2"/>
<text text-anchor="start" x="550.5" y="-336.3" font-family="Helvetica,sans-Serif" font-size="11.00" fill="#000000">tag</text>
<polygon fill="none" stroke="#000000" points="521.5,-310.2 521.5,-329.2 694.5,-329.2 694.5,-310.2 521.5,-310.2"/>
<text text-anchor="start" x="524.5" y="-316.3" font-family="Helvetica,sans-Serif" font-size="11.00" fill="#000000">...</text>
<polygon fill="#ffffff" stroke="transparent" points="521.5,-291.2 521.5,-310.2 606.5,-310.2 606.5,-291.2 521.5,-291.2"/>
<polygon fill="none" stroke="#000000" points="521.5,-291.2 521.5,-310.2 606.5,-310.2 606.5,-291.2 521.5,-291.2"/>
<text text-anchor="start" x="524.5" y="-297.3" font-family="Helvetica,sans-Serif" font-size="11.00" fill="#000000">&lt; 2</text>
<polygon fill="#ffffff" stroke="transparent" points="606.5,-291.2 606.5,-310.2 650.5,-310.2 650.5,-291.2 606.5,-291.2"/>
<polygon fill="none" stroke="#000000" points="606.5,-291.2 606.5,-310.2 650.5,-310.2 650.5,-291.2 606.5,-291.2"/>
<text text-anchor="start" x="641.3862" y="-297.3" font-family="Helvetica,sans-Serif" font-size="11.00" fill="#000000"> &#160;</text>
<polygon fill="#ffffff" stroke="transparent" points="650.5,-291.2 650.5,-310.2 694.5,-310.2 694.5,-291.2 650.5,-291.2"/>
<polygon fill="none" stroke="#000000" points="650.5,-291.2 650.5,-310.2 694.5,-310.2 694.5,-291.2 650.5,-291.2"/>
<text text-anchor="start" x="685.3862" y="-297.3" font-family="Helvetica,sans-Serif" font-size="11.00" fill="#000000"> &#160;</text>
</a>
</g>
</g>
<!-- AgLibraryKeywordFace&#45;&gt;AgLibraryFace -->
<g id="edge4" class="edge">
<title>AgLibraryKeywordFace:w&#45;&gt;AgLibraryFace:e</title>
<path fill="none" stroke="#000000" d="M507.2532,-365.5702C473.3363,-385.6077 524.5892,-488.2 470,-488.2"/>
<polygon fill="#000000" stroke="#000000" points="513.7149,-364.0417 522.3288,-365.7033 517.6074,-363.1208 521.5,-362.2 521.5,-362.2 521.5,-362.2 517.6074,-363.1208 520.6712,-358.6967 513.7149,-364.0417 513.7149,-364.0417"/>
<ellipse fill="none" stroke="#000000" cx="510.6008" cy="-364.7783" rx="3.2" ry="3.2"/>
</g>
</g>
</svg>
