<?xml version="1.0" encoding="UTF-8" standalone="no"?>
<!DOCTYPE svg PUBLIC "-//W3C//DTD SVG 1.1//EN"
 "http://www.w3.org/Graphics/SVG/1.1/DTD/svg11.dtd">
<!-- Generated by graphviz version 2.40.1 (20161225.0304)
 -->
<!-- Title: oneDegreeRelationshipsDiagram Pages: 1 -->
<svg width="465pt" height="333pt"
 viewBox="0.00 0.00 465.00 332.70" xmlns="http://www.w3.org/2000/svg" xmlns:xlink="http://www.w3.org/1999/xlink">
<g id="graph0" class="graph" transform="scale(1 1) rotate(0) translate(4 328.7)">
<title>oneDegreeRelationshipsDiagram</title>
<polygon fill="#ffffff" stroke="transparent" points="-4,4 -4,-328.7 461,-328.7 461,4 -4,4"/>
<text text-anchor="middle" x="72.4936" y="-7.3" font-family="Helvetica,sans-Serif" font-size="11.00" fill="#000000">Generated by SchemaSpy</text>
<!-- AgLibraryIPTC -->
<g id="node1" class="node">
<title>AgLibraryIPTC</title>
<g id="a_node1"><a xlink:href="../../tables/AgLibraryIPTC.html" xlink:title="AgLibraryIPTC" target="_top">
<polygon fill="#ffffff" stroke="transparent" points="218,-186.7 218,-320.7 449,-320.7 449,-186.7 218,-186.7"/>
<polygon fill="#f5f5f5" stroke="transparent" points="220.5,-295.7 220.5,-318.7 447.5,-318.7 447.5,-295.7 220.5,-295.7"/>
<polygon fill="none" stroke="#000000" points="220.5,-295.7 220.5,-318.7 447.5,-318.7 447.5,-295.7 220.5,-295.7"/>
<text text-anchor="start" x="225.5" y="-304.3" font-family="Helvetica,sans-Serif" font-weight="bold" font-size="11.00" fill="#000000">AgLibraryIPTC</text>
<text text-anchor="start" x="412.5437" y="-303.8" font-family="Helvetica,sans-Serif" font-size="11.00" fill="#000000">[table]</text>
<polygon fill="none" stroke="#000000" points="220.5,-273.7 220.5,-295.7 325.5,-295.7 325.5,-273.7 220.5,-273.7"/>
<image xlink:href="../../images/primaryKeys.png" width="11px" height="12px" preserveAspectRatio="xMinYMin meet" x="225.5" y="-290.7"/>
<text text-anchor="start" x="240.5" y="-280.8" font-family="Helvetica,sans-Serif" font-size="11.00" fill="#000000">id_local</text>
<polygon fill="none" stroke="#000000" points="325.5,-273.7 325.5,-295.7 447.5,-295.7 447.5,-273.7 325.5,-273.7"/>
<text text-anchor="start" x="328.4156" y="-281.4" font-family="Helvetica,sans-Serif" font-size="11.00" fill="#000000">integer[2000000000,10]</text>
<polygon fill="none" stroke="#000000" points="220.5,-251.7 220.5,-273.7 325.5,-273.7 325.5,-251.7 220.5,-251.7"/>
<text text-anchor="start" x="240.5" y="-258.8" font-family="Helvetica,sans-Serif" font-size="11.00" fill="#000000">caption</text>
<polygon fill="none" stroke="#000000" points="325.5,-251.7 325.5,-273.7 447.5,-273.7 447.5,-251.7 325.5,-251.7"/>
<text text-anchor="start" x="328.5" y="-259.4" font-family="Helvetica,sans-Serif" font-size="11.00" fill="#000000">[2000000000,10]</text>
<polygon fill="none" stroke="#000000" points="220.5,-229.7 220.5,-251.7 325.5,-251.7 325.5,-229.7 220.5,-229.7"/>
<text text-anchor="start" x="240.5" y="-236.8" font-family="Helvetica,sans-Serif" font-size="11.00" fill="#000000">copyright</text>
<polygon fill="none" stroke="#000000" points="325.5,-229.7 325.5,-251.7 447.5,-251.7 447.5,-229.7 325.5,-229.7"/>
<text text-anchor="start" x="328.5" y="-237.4" font-family="Helvetica,sans-Serif" font-size="11.00" fill="#000000">[2000000000,10]</text>
<polygon fill="#ffffff" stroke="transparent" points="220.5,-207.7 220.5,-229.7 325.5,-229.7 325.5,-207.7 220.5,-207.7"/>
<polygon fill="none" stroke="#000000" points="220.5,-207.7 220.5,-229.7 325.5,-229.7 325.5,-207.7 220.5,-207.7"/>
<image xlink:href="../../images/foreignKeys.png" width="11px" height="12px" preserveAspectRatio="xMinYMin meet" x="225.5" y="-224.7"/>
<text text-anchor="start" x="240.5" y="-214.8" font-family="Helvetica,sans-Serif" font-size="11.00" fill="#000000">image</text>
<polygon fill="none" stroke="#000000" points="325.5,-207.7 325.5,-229.7 447.5,-229.7 447.5,-207.7 325.5,-207.7"/>
<text text-anchor="start" x="328.4156" y="-215.4" font-family="Helvetica,sans-Serif" font-size="11.00" fill="#000000">integer[2000000000,10]</text>
<polygon fill="#ffffff" stroke="transparent" points="220.5,-188.7 220.5,-207.7 277.5,-207.7 277.5,-188.7 220.5,-188.7"/>
<polygon fill="none" stroke="#000000" points="220.5,-188.7 220.5,-207.7 277.5,-207.7 277.5,-188.7 220.5,-188.7"/>
<text text-anchor="start" x="223.5" y="-194.8" font-family="Helvetica,sans-Serif" font-size="11.00" fill="#000000">&lt; 1</text>
<polygon fill="#ffffff" stroke="transparent" points="277.5,-188.7 277.5,-207.7 325.5,-207.7 325.5,-188.7 277.5,-188.7"/>
<polygon fill="none" stroke="#000000" points="277.5,-188.7 277.5,-207.7 325.5,-207.7 325.5,-188.7 277.5,-188.7"/>
<text text-anchor="start" x="316.3862" y="-194.8" font-family="Helvetica,sans-Serif" font-size="11.00" fill="#000000"> &#160;</text>
<polygon fill="#ffffff" stroke="transparent" points="325.5,-188.7 325.5,-207.7 447.5,-207.7 447.5,-188.7 325.5,-188.7"/>
<polygon fill="none" stroke="#000000" points="325.5,-188.7 325.5,-207.7 447.5,-207.7 447.5,-188.7 325.5,-188.7"/>
<text text-anchor="start" x="428.9053" y="-194.8" font-family="Helvetica,sans-Serif" font-size="11.00" fill="#000000">0 &gt;</text>
<polygon fill="none" stroke="#000000" stroke-width="2" points="219,-187.7 219,-319.7 448,-319.7 448,-187.7 219,-187.7"/>
</a>
</g>
</g>
<!-- Adobe_images -->
<g id="node2" class="node">
<title>Adobe_images</title>
<g id="a_node2"><a xlink:href="../../tables/Adobe_images.html" xlink:title="Adobe_images" target="_top">
<polygon fill="#ffffff" stroke="transparent" points="8,-38.2 8,-253.2 169,-253.2 169,-38.2 8,-38.2"/>
<polygon fill="#f5f5f5" stroke="transparent" points="8.5,-229.7 8.5,-252.7 169.5,-252.7 169.5,-229.7 8.5,-229.7"/>
<polygon fill="none" stroke="#000000" points="8.5,-229.7 8.5,-252.7 169.5,-252.7 169.5,-229.7 8.5,-229.7"/>
<text text-anchor="start" x="13.5" y="-238.3" font-family="Helvetica,sans-Serif" font-weight="bold" font-size="11.00" fill="#000000">Adobe_images</text>
<text text-anchor="start" x="134.5437" y="-237.8" font-family="Helvetica,sans-Serif" font-size="11.00" fill="#000000">[table]</text>
<polygon fill="none" stroke="#000000" points="8.5,-207.7 8.5,-229.7 169.5,-229.7 169.5,-207.7 8.5,-207.7"/>
<image xlink:href="../../images/primaryKeys.png" width="11px" height="12px" preserveAspectRatio="xMinYMin meet" x="13.5" y="-224.7"/>
<text text-anchor="start" x="28.5" y="-214.8" font-family="Helvetica,sans-Serif" font-size="11.00" fill="#000000">id_local</text>
<polygon fill="#ffffff" stroke="transparent" points="8.5,-185.7 8.5,-207.7 169.5,-207.7 169.5,-185.7 8.5,-185.7"/>
<polygon fill="none" stroke="#000000" points="8.5,-185.7 8.5,-207.7 169.5,-207.7 169.5,-185.7 8.5,-185.7"/>
<text text-anchor="start" x="28.5" y="-192.8" font-family="Helvetica,sans-Serif" font-size="11.00" fill="#000000">id_global</text>
<polygon fill="#ffffff" stroke="transparent" points="8.5,-163.7 8.5,-185.7 169.5,-185.7 169.5,-163.7 8.5,-163.7"/>
<polygon fill="none" stroke="#000000" points="8.5,-163.7 8.5,-185.7 169.5,-185.7 169.5,-163.7 8.5,-163.7"/>
<text text-anchor="start" x="28.5" y="-170.8" font-family="Helvetica,sans-Serif" font-size="11.00" fill="#000000">captureTime</text>
<polygon fill="#ffffff" stroke="transparent" points="8.5,-141.7 8.5,-163.7 169.5,-163.7 169.5,-141.7 8.5,-141.7"/>
<polygon fill="none" stroke="#000000" points="8.5,-141.7 8.5,-163.7 169.5,-163.7 169.5,-141.7 8.5,-141.7"/>
<image xlink:href="../../images/foreignKeys.png" width="11px" height="12px" preserveAspectRatio="xMinYMin meet" x="13.5" y="-158.7"/>
<text text-anchor="start" x="28.5" y="-148.8" font-family="Helvetica,sans-Serif" font-size="11.00" fill="#000000">masterImage</text>
<polygon fill="#ffffff" stroke="transparent" points="8.5,-119.7 8.5,-141.7 169.5,-141.7 169.5,-119.7 8.5,-119.7"/>
<polygon fill="none" stroke="#000000" points="8.5,-119.7 8.5,-141.7 169.5,-141.7 169.5,-119.7 8.5,-119.7"/>
<text text-anchor="start" x="28.5" y="-126.8" font-family="Helvetica,sans-Serif" font-size="11.00" fill="#000000">originalRootEntity</text>
<polygon fill="#ffffff" stroke="transparent" points="8.5,-97.7 8.5,-119.7 169.5,-119.7 169.5,-97.7 8.5,-97.7"/>
<polygon fill="none" stroke="#000000" points="8.5,-97.7 8.5,-119.7 169.5,-119.7 169.5,-97.7 8.5,-97.7"/>
<text text-anchor="start" x="28.5" y="-104.8" font-family="Helvetica,sans-Serif" font-size="11.00" fill="#000000">rating</text>
<polygon fill="#ffffff" stroke="transparent" points="8.5,-75.7 8.5,-97.7 169.5,-97.7 169.5,-75.7 8.5,-75.7"/>
<polygon fill="none" stroke="#000000" points="8.5,-75.7 8.5,-97.7 169.5,-97.7 169.5,-75.7 8.5,-75.7"/>
<image xlink:href="../../images/foreignKeys.png" width="11px" height="12px" preserveAspectRatio="xMinYMin meet" x="13.5" y="-92.7"/>
<text text-anchor="start" x="28.5" y="-82.8" font-family="Helvetica,sans-Serif" font-size="11.00" fill="#000000">rootFile</text>
<polygon fill="none" stroke="#000000" points="8.5,-56.7 8.5,-75.7 169.5,-75.7 169.5,-56.7 8.5,-56.7"/>
<text text-anchor="start" x="11.5" y="-62.8" font-family="Helvetica,sans-Serif" font-size="11.00" fill="#000000">...</text>
<polygon fill="#ffffff" stroke="transparent" points="8.5,-37.7 8.5,-56.7 79.5,-56.7 79.5,-37.7 8.5,-37.7"/>
<polygon fill="none" stroke="#000000" points="8.5,-37.7 8.5,-56.7 79.5,-56.7 79.5,-37.7 8.5,-37.7"/>
<text text-anchor="start" x="11.5" y="-43.8" font-family="Helvetica,sans-Serif" font-size="11.00" fill="#000000">&lt; 2</text>
<polygon fill="#ffffff" stroke="transparent" points="79.5,-37.7 79.5,-56.7 116.5,-56.7 116.5,-37.7 79.5,-37.7"/>
<polygon fill="none" stroke="#000000" points="79.5,-37.7 79.5,-56.7 116.5,-56.7 116.5,-37.7 79.5,-37.7"/>
<text text-anchor="start" x="107.3862" y="-43.8" font-family="Helvetica,sans-Serif" font-size="11.00" fill="#000000"> &#160;</text>
<polygon fill="#ffffff" stroke="transparent" points="116.5,-37.7 116.5,-56.7 169.5,-56.7 169.5,-37.7 116.5,-37.7"/>
<polygon fill="none" stroke="#000000" points="116.5,-37.7 116.5,-56.7 169.5,-56.7 169.5,-37.7 116.5,-37.7"/>
<text text-anchor="start" x="144.7904" y="-43.8" font-family="Helvetica,sans-Serif" font-size="11.00" fill="#000000">31 &gt;</text>
</a>
</g>
</g>
<!-- AgLibraryIPTC&#45;&gt;Adobe_images -->
<g id="edge1" class="edge">
<title>AgLibraryIPTC:w&#45;&gt;Adobe_images:e</title>
<path fill="none" stroke="#000000" d="M205.776,-218.7C193.7815,-218.7 186.3229,-218.7 169.5,-218.7"/>
<polygon fill="#000000" stroke="#000000" points="212.5,-218.7001 220.5,-222.3 216.5,-218.7 220.5,-218.7 220.5,-218.7 220.5,-218.7 216.5,-218.7 220.5,-215.1 212.5,-218.7001 212.5,-218.7001"/>
<ellipse fill="none" stroke="#000000" cx="209.3" cy="-218.7001" rx="3.2" ry="3.2"/>
</g>
</g>
</svg>
