<?xml version="1.0" encoding="UTF-8" standalone="no"?>
<!DOCTYPE svg PUBLIC "-//W3C//DTD SVG 1.1//EN"
 "http://www.w3.org/Graphics/SVG/1.1/DTD/svg11.dtd">
<!-- Generated by graphviz version 2.40.1 (20161225.0304)
 -->
<!-- Title: twoDegreesRelationshipsDiagram Pages: 1 -->
<svg width="879pt" height="772pt"
 viewBox="0.00 0.00 879.00 772.20" xmlns="http://www.w3.org/2000/svg" xmlns:xlink="http://www.w3.org/1999/xlink">
<g id="graph0" class="graph" transform="scale(1 1) rotate(0) translate(4 768.2)">
<title>twoDegreesRelationshipsDiagram</title>
<polygon fill="#ffffff" stroke="transparent" points="-4,4 -4,-768.2 875,-768.2 875,4 -4,4"/>
<text text-anchor="middle" x="72.4936" y="-7.3" font-family="Helvetica,sans-Serif" font-size="11.00" fill="#000000">Generated by SchemaSpy</text>
<!-- AgLibraryCollectionContent -->
<g id="node1" class="node">
<title>AgLibraryCollectionContent</title>
<g id="a_node1"><a xlink:href="../../tables/AgLibraryCollectionContent.html" xlink:title="AgLibraryCollectionContent" target="_top">
<polygon fill="#ffffff" stroke="transparent" points="267,-699.2 267,-760.2 466,-760.2 466,-699.2 267,-699.2"/>
<polygon fill="#f5f5f5" stroke="transparent" points="267.5,-736.7 267.5,-759.7 466.5,-759.7 466.5,-736.7 267.5,-736.7"/>
<polygon fill="none" stroke="#000000" points="267.5,-736.7 267.5,-759.7 466.5,-759.7 466.5,-736.7 267.5,-736.7"/>
<text text-anchor="start" x="272.5" y="-745.3" font-family="Helvetica,sans-Serif" font-weight="bold" font-size="11.00" fill="#000000">AgLibraryCollectionContent</text>
<text text-anchor="start" x="432.0219" y="-744.8" font-family="Helvetica,sans-Serif" font-size="11.00" fill="#000000">[table]</text>
<polygon fill="none" stroke="#000000" points="267.5,-717.7 267.5,-736.7 466.5,-736.7 466.5,-717.7 267.5,-717.7"/>
<text text-anchor="start" x="270.5" y="-723.8" font-family="Helvetica,sans-Serif" font-size="11.00" fill="#000000">...</text>
<polygon fill="#ffffff" stroke="transparent" points="267.5,-698.7 267.5,-717.7 365.5,-717.7 365.5,-698.7 267.5,-698.7"/>
<polygon fill="none" stroke="#000000" points="267.5,-698.7 267.5,-717.7 365.5,-717.7 365.5,-698.7 267.5,-698.7"/>
<text text-anchor="start" x="270.5" y="-704.8" font-family="Helvetica,sans-Serif" font-size="11.00" fill="#000000">&lt; 1</text>
<polygon fill="#ffffff" stroke="transparent" points="365.5,-698.7 365.5,-717.7 415.5,-717.7 415.5,-698.7 365.5,-698.7"/>
<polygon fill="none" stroke="#000000" points="365.5,-698.7 365.5,-717.7 415.5,-717.7 415.5,-698.7 365.5,-698.7"/>
<text text-anchor="start" x="406.3862" y="-704.8" font-family="Helvetica,sans-Serif" font-size="11.00" fill="#000000"> &#160;</text>
<polygon fill="#ffffff" stroke="transparent" points="415.5,-698.7 415.5,-717.7 466.5,-717.7 466.5,-698.7 415.5,-698.7"/>
<polygon fill="none" stroke="#000000" points="415.5,-698.7 415.5,-717.7 466.5,-717.7 466.5,-698.7 415.5,-698.7"/>
<text text-anchor="start" x="457.3862" y="-704.8" font-family="Helvetica,sans-Serif" font-size="11.00" fill="#000000"> &#160;</text>
</a>
</g>
</g>
<!-- AgLibraryCollection -->
<g id="node2" class="node">
<title>AgLibraryCollection</title>
<g id="a_node2"><a xlink:href="../../tables/AgLibraryCollection.html" xlink:title="AgLibraryCollection" target="_top">
<polygon fill="#ffffff" stroke="transparent" points="8,-339.2 8,-488.2 161,-488.2 161,-339.2 8,-339.2"/>
<polygon fill="#f5f5f5" stroke="transparent" points="8.5,-464.7 8.5,-487.7 161.5,-487.7 161.5,-464.7 8.5,-464.7"/>
<polygon fill="none" stroke="#000000" points="8.5,-464.7 8.5,-487.7 161.5,-487.7 161.5,-464.7 8.5,-464.7"/>
<text text-anchor="start" x="13.5" y="-473.3" font-family="Helvetica,sans-Serif" font-weight="bold" font-size="11.00" fill="#000000">AgLibraryCollection</text>
<text text-anchor="start" x="127.0219" y="-472.8" font-family="Helvetica,sans-Serif" font-size="11.00" fill="#000000">[table]</text>
<polygon fill="none" stroke="#000000" points="8.5,-442.7 8.5,-464.7 161.5,-464.7 161.5,-442.7 8.5,-442.7"/>
<image xlink:href="../../images/primaryKeys.png" width="11px" height="12px" preserveAspectRatio="xMinYMin meet" x="13.5" y="-459.7"/>
<text text-anchor="start" x="37.5" y="-449.8" font-family="Helvetica,sans-Serif" font-size="11.00" fill="#000000">id_local</text>
<polygon fill="#ffffff" stroke="transparent" points="8.5,-420.7 8.5,-442.7 161.5,-442.7 161.5,-420.7 8.5,-420.7"/>
<polygon fill="none" stroke="#000000" points="8.5,-420.7 8.5,-442.7 161.5,-442.7 161.5,-420.7 8.5,-420.7"/>
<text text-anchor="start" x="37.5" y="-427.8" font-family="Helvetica,sans-Serif" font-size="11.00" fill="#000000">genealogy</text>
<polygon fill="#ffffff" stroke="transparent" points="8.5,-398.7 8.5,-420.7 161.5,-420.7 161.5,-398.7 8.5,-398.7"/>
<polygon fill="none" stroke="#000000" points="8.5,-398.7 8.5,-420.7 161.5,-420.7 161.5,-398.7 8.5,-398.7"/>
<text text-anchor="start" x="37.5" y="-405.8" font-family="Helvetica,sans-Serif" font-size="11.00" fill="#000000">name</text>
<polygon fill="#ffffff" stroke="transparent" points="8.5,-376.7 8.5,-398.7 161.5,-398.7 161.5,-376.7 8.5,-376.7"/>
<polygon fill="none" stroke="#000000" points="8.5,-376.7 8.5,-398.7 161.5,-398.7 161.5,-376.7 8.5,-376.7"/>
<image xlink:href="../../images/foreignKeys.png" width="11px" height="12px" preserveAspectRatio="xMinYMin meet" x="13.5" y="-393.7"/>
<text text-anchor="start" x="37.5" y="-383.8" font-family="Helvetica,sans-Serif" font-size="11.00" fill="#000000">parent</text>
<polygon fill="none" stroke="#000000" points="8.5,-357.7 8.5,-376.7 161.5,-376.7 161.5,-357.7 8.5,-357.7"/>
<text text-anchor="start" x="11.5" y="-363.8" font-family="Helvetica,sans-Serif" font-size="11.00" fill="#000000">...</text>
<polygon fill="#ffffff" stroke="transparent" points="8.5,-338.7 8.5,-357.7 75.5,-357.7 75.5,-338.7 8.5,-338.7"/>
<polygon fill="none" stroke="#000000" points="8.5,-338.7 8.5,-357.7 75.5,-357.7 75.5,-338.7 8.5,-338.7"/>
<text text-anchor="start" x="11.5" y="-344.8" font-family="Helvetica,sans-Serif" font-size="11.00" fill="#000000">&lt; 1</text>
<polygon fill="#ffffff" stroke="transparent" points="75.5,-338.7 75.5,-357.7 110.5,-357.7 110.5,-338.7 75.5,-338.7"/>
<polygon fill="none" stroke="#000000" points="75.5,-338.7 75.5,-357.7 110.5,-357.7 110.5,-338.7 75.5,-338.7"/>
<text text-anchor="start" x="101.3862" y="-344.8" font-family="Helvetica,sans-Serif" font-size="11.00" fill="#000000"> &#160;</text>
<polygon fill="#ffffff" stroke="transparent" points="110.5,-338.7 110.5,-357.7 161.5,-357.7 161.5,-338.7 110.5,-338.7"/>
<polygon fill="none" stroke="#000000" points="110.5,-338.7 110.5,-357.7 161.5,-357.7 161.5,-338.7 110.5,-338.7"/>
<text text-anchor="start" x="136.7904" y="-344.8" font-family="Helvetica,sans-Serif" font-size="11.00" fill="#000000">13 &gt;</text>
</a>
</g>
</g>
<!-- AgLibraryCollectionContent&#45;&gt;AgLibraryCollection -->
<g id="edge1" class="edge">
<title>AgLibraryCollectionContent:w&#45;&gt;AgLibraryCollection:e</title>
<path fill="none" stroke="#000000" d="M252.8459,-725.7235C229.0621,-722.1919 218.1631,-708.9927 202,-684.7 173.1307,-641.3102 213.6163,-453.7 161.5,-453.7"/>
<polygon fill="#000000" stroke="#000000" points="259.5177,-726.168 267.2606,-730.292 263.5089,-726.434 267.5,-726.7 267.5,-726.7 267.5,-726.7 263.5089,-726.434 267.7394,-723.108 259.5177,-726.168 259.5177,-726.168"/>
<ellipse fill="none" stroke="#000000" cx="256.3248" cy="-725.9553" rx="3.2" ry="3.2"/>
</g>
<!-- AgLibraryCollectionImage -->
<g id="node3" class="node">
<title>AgLibraryCollectionImage</title>
<g id="a_node3"><a xlink:href="../../tables/AgLibraryCollectionImage.html" xlink:title="AgLibraryCollectionImage" target="_top">
<polygon fill="#ffffff" stroke="transparent" points="272.5,-589.2 272.5,-650.2 460.5,-650.2 460.5,-589.2 272.5,-589.2"/>
<polygon fill="#f5f5f5" stroke="transparent" points="272.5,-626.7 272.5,-649.7 460.5,-649.7 460.5,-626.7 272.5,-626.7"/>
<polygon fill="none" stroke="#000000" points="272.5,-626.7 272.5,-649.7 460.5,-649.7 460.5,-626.7 272.5,-626.7"/>
<text text-anchor="start" x="277.5" y="-635.3" font-family="Helvetica,sans-Serif" font-weight="bold" font-size="11.00" fill="#000000">AgLibraryCollectionImage</text>
<text text-anchor="start" x="426.0219" y="-634.8" font-family="Helvetica,sans-Serif" font-size="11.00" fill="#000000">[table]</text>
<polygon fill="none" stroke="#000000" points="272.5,-607.7 272.5,-626.7 460.5,-626.7 460.5,-607.7 272.5,-607.7"/>
<text text-anchor="start" x="275.5" y="-613.8" font-family="Helvetica,sans-Serif" font-size="11.00" fill="#000000">...</text>
<polygon fill="#ffffff" stroke="transparent" points="272.5,-588.7 272.5,-607.7 360.5,-607.7 360.5,-588.7 272.5,-588.7"/>
<polygon fill="none" stroke="#000000" points="272.5,-588.7 272.5,-607.7 360.5,-607.7 360.5,-588.7 272.5,-588.7"/>
<text text-anchor="start" x="275.5" y="-594.8" font-family="Helvetica,sans-Serif" font-size="11.00" fill="#000000">&lt; 2</text>
<polygon fill="#ffffff" stroke="transparent" points="360.5,-588.7 360.5,-607.7 405.5,-607.7 405.5,-588.7 360.5,-588.7"/>
<polygon fill="none" stroke="#000000" points="360.5,-588.7 360.5,-607.7 405.5,-607.7 405.5,-588.7 360.5,-588.7"/>
<text text-anchor="start" x="396.3862" y="-594.8" font-family="Helvetica,sans-Serif" font-size="11.00" fill="#000000"> &#160;</text>
<polygon fill="#ffffff" stroke="transparent" points="405.5,-588.7 405.5,-607.7 460.5,-607.7 460.5,-588.7 405.5,-588.7"/>
<polygon fill="none" stroke="#000000" points="405.5,-588.7 405.5,-607.7 460.5,-607.7 460.5,-588.7 405.5,-588.7"/>
<text text-anchor="start" x="441.9053" y="-594.8" font-family="Helvetica,sans-Serif" font-size="11.00" fill="#000000">3 &gt;</text>
</a>
</g>
</g>
<!-- AgLibraryCollectionImage&#45;&gt;AgLibraryCollection -->
<g id="edge2" class="edge">
<title>AgLibraryCollectionImage:w&#45;&gt;AgLibraryCollection:e</title>
<path fill="none" stroke="#000000" d="M257.8115,-615.7971C232.4608,-612.3364 221.487,-598.8843 202,-574.7 166.4182,-530.5414 218.2102,-453.7 161.5,-453.7"/>
<polygon fill="#000000" stroke="#000000" points="264.5151,-616.2091 272.2791,-620.2932 268.5075,-616.4546 272.5,-616.7 272.5,-616.7 272.5,-616.7 268.5075,-616.4546 272.7209,-613.1068 264.5151,-616.2091 264.5151,-616.2091"/>
<ellipse fill="none" stroke="#000000" cx="261.3211" cy="-616.0128" rx="3.2" ry="3.2"/>
</g>
<!-- AgLibraryCollectionImageChangeCounter -->
<g id="node4" class="node">
<title>AgLibraryCollectionImageChangeCounter</title>
<g id="a_node4"><a xlink:href="../../tables/AgLibraryCollectionImageChangeCounter.html" xlink:title="AgLibraryCollectionImageChangeCounter" target="_top">
<polygon fill="#ffffff" stroke="transparent" points="578.5,-659.2 578.5,-720.2 856.5,-720.2 856.5,-659.2 578.5,-659.2"/>
<polygon fill="#f5f5f5" stroke="transparent" points="578.5,-696.7 578.5,-719.7 856.5,-719.7 856.5,-696.7 578.5,-696.7"/>
<polygon fill="none" stroke="#000000" points="578.5,-696.7 578.5,-719.7 856.5,-719.7 856.5,-696.7 578.5,-696.7"/>
<text text-anchor="start" x="583.5" y="-705.3" font-family="Helvetica,sans-Serif" font-weight="bold" font-size="11.00" fill="#000000">AgLibraryCollectionImageChangeCounter</text>
<text text-anchor="start" x="822.0219" y="-704.8" font-family="Helvetica,sans-Serif" font-size="11.00" fill="#000000">[table]</text>
<polygon fill="none" stroke="#000000" points="578.5,-677.7 578.5,-696.7 856.5,-696.7 856.5,-677.7 578.5,-677.7"/>
<text text-anchor="start" x="581.5" y="-683.8" font-family="Helvetica,sans-Serif" font-size="11.00" fill="#000000">...</text>
<polygon fill="#ffffff" stroke="transparent" points="578.5,-658.7 578.5,-677.7 715.5,-677.7 715.5,-658.7 578.5,-658.7"/>
<polygon fill="none" stroke="#000000" points="578.5,-658.7 578.5,-677.7 715.5,-677.7 715.5,-658.7 578.5,-658.7"/>
<text text-anchor="start" x="581.5" y="-664.8" font-family="Helvetica,sans-Serif" font-size="11.00" fill="#000000">&lt; 3</text>
<polygon fill="#ffffff" stroke="transparent" points="715.5,-658.7 715.5,-677.7 785.5,-677.7 785.5,-658.7 715.5,-658.7"/>
<polygon fill="none" stroke="#000000" points="715.5,-658.7 715.5,-677.7 785.5,-677.7 785.5,-658.7 715.5,-658.7"/>
<text text-anchor="start" x="776.3862" y="-664.8" font-family="Helvetica,sans-Serif" font-size="11.00" fill="#000000"> &#160;</text>
<polygon fill="#ffffff" stroke="transparent" points="785.5,-658.7 785.5,-677.7 856.5,-677.7 856.5,-658.7 785.5,-658.7"/>
<polygon fill="none" stroke="#000000" points="785.5,-658.7 785.5,-677.7 856.5,-677.7 856.5,-658.7 785.5,-658.7"/>
<text text-anchor="start" x="847.3862" y="-664.8" font-family="Helvetica,sans-Serif" font-size="11.00" fill="#000000"> &#160;</text>
</a>
</g>
</g>
<!-- AgLibraryCollectionImageChangeCounter&#45;&gt;AgLibraryCollection -->
<g id="edge3" class="edge">
<title>AgLibraryCollectionImageChangeCounter:w&#45;&gt;AgLibraryCollection:e</title>
<path fill="none" stroke="#000000" d="M563.6751,-686.7177C489.7608,-686.7915 230.9177,-686.2304 202,-660.7 131.7247,-598.6566 255.2443,-453.7 161.5,-453.7"/>
<polygon fill="#000000" stroke="#000000" points="570.5,-686.7096 578.5043,-690.3 574.5,-686.7048 578.5,-686.7 578.5,-686.7 578.5,-686.7 574.5,-686.7048 578.4957,-683.1 570.5,-686.7096 570.5,-686.7096"/>
<ellipse fill="none" stroke="#000000" cx="567.3" cy="-686.7134" rx="3.2" ry="3.2"/>
</g>
<!-- AgLibraryCollectionImageChangeCounter&#45;&gt;AgLibraryCollectionImage -->
<g id="edge4" class="edge">
<title>AgLibraryCollectionImageChangeCounter:w&#45;&gt;AgLibraryCollectionImage:e</title>
<path fill="none" stroke="#000000" d="M568.0299,-684.5283C536.2781,-672.713 487.7734,-616.7 460.5,-616.7"/>
<polygon fill="#000000" stroke="#000000" points="578.5291,-682.6209 576.9042,-690.4541 575.3376,-690.1292 576.9624,-682.2959 578.5291,-682.6209"/>
<polyline fill="none" stroke="#000000" points="578.5,-686.7 574.5834,-685.8876 "/>
<ellipse fill="none" stroke="#000000" cx="571.4501" cy="-685.2376" rx="3.2" ry="3.2"/>
</g>
<!-- AgLibraryCollectionImageOzAlbumAssetIds -->
<g id="node5" class="node">
<title>AgLibraryCollectionImageOzAlbumAssetIds</title>
<g id="a_node5"><a xlink:href="../../tables/AgLibraryCollectionImageOzAlbumAssetIds.html" xlink:title="AgLibraryCollectionImageOzAlbumAssetIds" target="_top">
<polygon fill="#ffffff" stroke="transparent" points="572,-577.2 572,-638.2 863,-638.2 863,-577.2 572,-577.2"/>
<polygon fill="#f5f5f5" stroke="transparent" points="572.5,-614.7 572.5,-637.7 863.5,-637.7 863.5,-614.7 572.5,-614.7"/>
<polygon fill="none" stroke="#000000" points="572.5,-614.7 572.5,-637.7 863.5,-637.7 863.5,-614.7 572.5,-614.7"/>
<text text-anchor="start" x="577.5" y="-623.3" font-family="Helvetica,sans-Serif" font-weight="bold" font-size="11.00" fill="#000000">AgLibraryCollectionImageOzAlbumAssetIds</text>
<text text-anchor="start" x="829.0219" y="-622.8" font-family="Helvetica,sans-Serif" font-size="11.00" fill="#000000">[table]</text>
<polygon fill="none" stroke="#000000" points="572.5,-595.7 572.5,-614.7 863.5,-614.7 863.5,-595.7 572.5,-595.7"/>
<text text-anchor="start" x="575.5" y="-601.8" font-family="Helvetica,sans-Serif" font-size="11.00" fill="#000000">...</text>
<polygon fill="#ffffff" stroke="transparent" points="572.5,-576.7 572.5,-595.7 716.5,-595.7 716.5,-576.7 572.5,-576.7"/>
<polygon fill="none" stroke="#000000" points="572.5,-576.7 572.5,-595.7 716.5,-595.7 716.5,-576.7 572.5,-576.7"/>
<text text-anchor="start" x="575.5" y="-582.8" font-family="Helvetica,sans-Serif" font-size="11.00" fill="#000000">&lt; 3</text>
<polygon fill="#ffffff" stroke="transparent" points="716.5,-576.7 716.5,-595.7 789.5,-595.7 789.5,-576.7 716.5,-576.7"/>
<polygon fill="none" stroke="#000000" points="716.5,-576.7 716.5,-595.7 789.5,-595.7 789.5,-576.7 716.5,-576.7"/>
<text text-anchor="start" x="780.3862" y="-582.8" font-family="Helvetica,sans-Serif" font-size="11.00" fill="#000000"> &#160;</text>
<polygon fill="#ffffff" stroke="transparent" points="789.5,-576.7 789.5,-595.7 863.5,-595.7 863.5,-576.7 789.5,-576.7"/>
<polygon fill="none" stroke="#000000" points="789.5,-576.7 789.5,-595.7 863.5,-595.7 863.5,-576.7 789.5,-576.7"/>
<text text-anchor="start" x="854.3862" y="-582.8" font-family="Helvetica,sans-Serif" font-size="11.00" fill="#000000"> &#160;</text>
</a>
</g>
</g>
<!-- AgLibraryCollectionImageOzAlbumAssetIds&#45;&gt;AgLibraryCollection -->
<g id="edge5" class="edge">
<title>AgLibraryCollectionImageOzAlbumAssetIds:w&#45;&gt;AgLibraryCollection:e</title>
<path fill="none" stroke="#000000" d="M558.5181,-600.9051C549.5074,-595.0192 545.7776,-583.8334 531,-578.7 461.5249,-554.566 261.5854,-585.814 202,-542.7 166.7916,-517.2244 204.9585,-453.7 161.5,-453.7"/>
<polygon fill="#000000" stroke="#000000" points="564.7793,-602.6045 571.557,-608.1743 568.6397,-603.6522 572.5,-604.7 572.5,-604.7 572.5,-604.7 568.6397,-603.6522 573.443,-601.2257 564.7793,-602.6045 564.7793,-602.6045"/>
<ellipse fill="none" stroke="#000000" cx="561.691" cy="-601.7662" rx="3.2" ry="3.2"/>
</g>
<!-- AgLibraryCollectionImageOzAlbumAssetIds&#45;&gt;AgLibraryCollectionImage -->
<g id="edge6" class="edge">
<title>AgLibraryCollectionImageOzAlbumAssetIds:w&#45;&gt;AgLibraryCollectionImage:e</title>
<path fill="none" stroke="#000000" d="M558.0961,-605.0591C519.5697,-607.0558 505.3804,-616.7 460.5,-616.7"/>
<polygon fill="#000000" stroke="#000000" points="564.5025,-604.8995 572.5898,-608.2989 568.5012,-604.7997 572.5,-604.7 572.5,-604.7 572.5,-604.7 568.5012,-604.7997 572.4102,-601.1011 564.5025,-604.8995 564.5025,-604.8995"/>
<ellipse fill="none" stroke="#000000" cx="561.3035" cy="-604.9792" rx="3.2" ry="3.2"/>
</g>
<!-- AgLibraryCollectionImageOzSortOrder -->
<g id="node6" class="node">
<title>AgLibraryCollectionImageOzSortOrder</title>
<g id="a_node6"><a xlink:href="../../tables/AgLibraryCollectionImageOzSortOrder.html" xlink:title="AgLibraryCollectionImageOzSortOrder" target="_top">
<polygon fill="#ffffff" stroke="transparent" points="587.5,-495.2 587.5,-556.2 847.5,-556.2 847.5,-495.2 587.5,-495.2"/>
<polygon fill="#f5f5f5" stroke="transparent" points="587.5,-532.7 587.5,-555.7 847.5,-555.7 847.5,-532.7 587.5,-532.7"/>
<polygon fill="none" stroke="#000000" points="587.5,-532.7 587.5,-555.7 847.5,-555.7 847.5,-532.7 587.5,-532.7"/>
<text text-anchor="start" x="592.5" y="-541.3" font-family="Helvetica,sans-Serif" font-weight="bold" font-size="11.00" fill="#000000">AgLibraryCollectionImageOzSortOrder</text>
<text text-anchor="start" x="813.0219" y="-540.8" font-family="Helvetica,sans-Serif" font-size="11.00" fill="#000000">[table]</text>
<polygon fill="none" stroke="#000000" points="587.5,-513.7 587.5,-532.7 847.5,-532.7 847.5,-513.7 587.5,-513.7"/>
<text text-anchor="start" x="590.5" y="-519.8" font-family="Helvetica,sans-Serif" font-size="11.00" fill="#000000">...</text>
<polygon fill="#ffffff" stroke="transparent" points="587.5,-494.7 587.5,-513.7 715.5,-513.7 715.5,-494.7 587.5,-494.7"/>
<polygon fill="none" stroke="#000000" points="587.5,-494.7 587.5,-513.7 715.5,-513.7 715.5,-494.7 587.5,-494.7"/>
<text text-anchor="start" x="590.5" y="-500.8" font-family="Helvetica,sans-Serif" font-size="11.00" fill="#000000">&lt; 2</text>
<polygon fill="#ffffff" stroke="transparent" points="715.5,-494.7 715.5,-513.7 781.5,-513.7 781.5,-494.7 715.5,-494.7"/>
<polygon fill="none" stroke="#000000" points="715.5,-494.7 715.5,-513.7 781.5,-513.7 781.5,-494.7 715.5,-494.7"/>
<text text-anchor="start" x="772.3862" y="-500.8" font-family="Helvetica,sans-Serif" font-size="11.00" fill="#000000"> &#160;</text>
<polygon fill="#ffffff" stroke="transparent" points="781.5,-494.7 781.5,-513.7 847.5,-513.7 847.5,-494.7 781.5,-494.7"/>
<polygon fill="none" stroke="#000000" points="781.5,-494.7 781.5,-513.7 847.5,-513.7 847.5,-494.7 781.5,-494.7"/>
<text text-anchor="start" x="838.3862" y="-500.8" font-family="Helvetica,sans-Serif" font-size="11.00" fill="#000000"> &#160;</text>
</a>
</g>
</g>
<!-- AgLibraryCollectionImageOzSortOrder&#45;&gt;AgLibraryCollection -->
<g id="edge7" class="edge">
<title>AgLibraryCollectionImageOzSortOrder:w&#45;&gt;AgLibraryCollection:e</title>
<path fill="none" stroke="#000000" d="M572.8223,-523.0463C478.4579,-527.0787 272.296,-564.2425 202,-523.7 170.8642,-505.7427 197.443,-453.7 161.5,-453.7"/>
<polygon fill="#000000" stroke="#000000" points="579.5022,-522.8887 587.5849,-526.299 583.5011,-522.7944 587.5,-522.7 587.5,-522.7 587.5,-522.7 583.5011,-522.7944 587.4151,-519.101 579.5022,-522.8887 579.5022,-522.8887"/>
<ellipse fill="none" stroke="#000000" cx="576.3031" cy="-522.9642" rx="3.2" ry="3.2"/>
</g>
<!-- AgLibraryCollectionImageOzSortOrder&#45;&gt;AgLibraryCollectionImage -->
<g id="edge8" class="edge">
<title>AgLibraryCollectionImageOzSortOrder:w&#45;&gt;AgLibraryCollectionImage:e</title>
<path fill="none" stroke="#000000" d="M577.0639,-523.4566C518.462,-532.3527 527.0204,-616.7 460.5,-616.7"/>
<polygon fill="#000000" stroke="#000000" points="586.4128,-518.7683 586.9914,-526.7474 585.3956,-526.8631 584.817,-518.884 586.4128,-518.7683"/>
<polyline fill="none" stroke="#000000" points="587.5,-522.7 583.5105,-522.9893 "/>
<ellipse fill="none" stroke="#000000" cx="580.3188" cy="-523.2207" rx="3.2" ry="3.2"/>
</g>
<!-- AgLibraryCollectionOzAlbumIds -->
<g id="node7" class="node">
<title>AgLibraryCollectionOzAlbumIds</title>
<g id="a_node7"><a xlink:href="../../tables/AgLibraryCollectionOzAlbumIds.html" xlink:title="AgLibraryCollectionOzAlbumIds" target="_top">
<polygon fill="#ffffff" stroke="transparent" points="255,-452.2 255,-513.2 478,-513.2 478,-452.2 255,-452.2"/>
<polygon fill="#f5f5f5" stroke="transparent" points="255.5,-489.7 255.5,-512.7 478.5,-512.7 478.5,-489.7 255.5,-489.7"/>
<polygon fill="none" stroke="#000000" points="255.5,-489.7 255.5,-512.7 478.5,-512.7 478.5,-489.7 255.5,-489.7"/>
<text text-anchor="start" x="260.5" y="-498.3" font-family="Helvetica,sans-Serif" font-weight="bold" font-size="11.00" fill="#000000">AgLibraryCollectionOzAlbumIds</text>
<text text-anchor="start" x="444.0219" y="-497.8" font-family="Helvetica,sans-Serif" font-size="11.00" fill="#000000">[table]</text>
<polygon fill="none" stroke="#000000" points="255.5,-470.7 255.5,-489.7 478.5,-489.7 478.5,-470.7 255.5,-470.7"/>
<text text-anchor="start" x="258.5" y="-476.8" font-family="Helvetica,sans-Serif" font-size="11.00" fill="#000000">...</text>
<polygon fill="#ffffff" stroke="transparent" points="255.5,-451.7 255.5,-470.7 365.5,-470.7 365.5,-451.7 255.5,-451.7"/>
<polygon fill="none" stroke="#000000" points="255.5,-451.7 255.5,-470.7 365.5,-470.7 365.5,-451.7 255.5,-451.7"/>
<text text-anchor="start" x="258.5" y="-457.8" font-family="Helvetica,sans-Serif" font-size="11.00" fill="#000000">&lt; 1</text>
<polygon fill="#ffffff" stroke="transparent" points="365.5,-451.7 365.5,-470.7 421.5,-470.7 421.5,-451.7 365.5,-451.7"/>
<polygon fill="none" stroke="#000000" points="365.5,-451.7 365.5,-470.7 421.5,-470.7 421.5,-451.7 365.5,-451.7"/>
<text text-anchor="start" x="412.3862" y="-457.8" font-family="Helvetica,sans-Serif" font-size="11.00" fill="#000000"> &#160;</text>
<polygon fill="#ffffff" stroke="transparent" points="421.5,-451.7 421.5,-470.7 478.5,-470.7 478.5,-451.7 421.5,-451.7"/>
<polygon fill="none" stroke="#000000" points="421.5,-451.7 421.5,-470.7 478.5,-470.7 478.5,-451.7 421.5,-451.7"/>
<text text-anchor="start" x="469.3862" y="-457.8" font-family="Helvetica,sans-Serif" font-size="11.00" fill="#000000"> &#160;</text>
</a>
</g>
</g>
<!-- AgLibraryCollectionOzAlbumIds&#45;&gt;AgLibraryCollection -->
<g id="edge9" class="edge">
<title>AgLibraryCollectionOzAlbumIds:w&#45;&gt;AgLibraryCollection:e</title>
<path fill="none" stroke="#000000" d="M240.7937,-478.5828C209.7637,-473.6063 199.4281,-453.7 161.5,-453.7"/>
<polygon fill="#000000" stroke="#000000" points="247.523,-479.094 255.2273,-483.2897 251.5115,-479.397 255.5,-479.7 255.5,-479.7 255.5,-479.7 251.5115,-479.397 255.7727,-476.1103 247.523,-479.094 247.523,-479.094"/>
<ellipse fill="none" stroke="#000000" cx="244.3322" cy="-478.8516" rx="3.2" ry="3.2"/>
</g>
<!-- AgLibraryCollectionStack -->
<g id="node8" class="node">
<title>AgLibraryCollectionStack</title>
<g id="a_node8"><a xlink:href="../../tables/AgLibraryCollectionStack.html" xlink:title="AgLibraryCollectionStack" target="_top">
<polygon fill="#ffffff" stroke="transparent" points="274,-342.2 274,-403.2 459,-403.2 459,-342.2 274,-342.2"/>
<polygon fill="#f5f5f5" stroke="transparent" points="274.5,-379.7 274.5,-402.7 459.5,-402.7 459.5,-379.7 274.5,-379.7"/>
<polygon fill="none" stroke="#000000" points="274.5,-379.7 274.5,-402.7 459.5,-402.7 459.5,-379.7 274.5,-379.7"/>
<text text-anchor="start" x="279.5" y="-388.3" font-family="Helvetica,sans-Serif" font-weight="bold" font-size="11.00" fill="#000000">AgLibraryCollectionStack</text>
<text text-anchor="start" x="425.0219" y="-387.8" font-family="Helvetica,sans-Serif" font-size="11.00" fill="#000000">[table]</text>
<polygon fill="none" stroke="#000000" points="274.5,-360.7 274.5,-379.7 459.5,-379.7 459.5,-360.7 274.5,-360.7"/>
<text text-anchor="start" x="277.5" y="-366.8" font-family="Helvetica,sans-Serif" font-size="11.00" fill="#000000">...</text>
<polygon fill="#ffffff" stroke="transparent" points="274.5,-341.7 274.5,-360.7 360.5,-360.7 360.5,-341.7 274.5,-341.7"/>
<polygon fill="none" stroke="#000000" points="274.5,-341.7 274.5,-360.7 360.5,-360.7 360.5,-341.7 274.5,-341.7"/>
<text text-anchor="start" x="277.5" y="-347.8" font-family="Helvetica,sans-Serif" font-size="11.00" fill="#000000">&lt; 1</text>
<polygon fill="#ffffff" stroke="transparent" points="360.5,-341.7 360.5,-360.7 405.5,-360.7 405.5,-341.7 360.5,-341.7"/>
<polygon fill="none" stroke="#000000" points="360.5,-341.7 360.5,-360.7 405.5,-360.7 405.5,-341.7 360.5,-341.7"/>
<text text-anchor="start" x="396.3862" y="-347.8" font-family="Helvetica,sans-Serif" font-size="11.00" fill="#000000"> &#160;</text>
<polygon fill="#ffffff" stroke="transparent" points="405.5,-341.7 405.5,-360.7 459.5,-360.7 459.5,-341.7 405.5,-341.7"/>
<polygon fill="none" stroke="#000000" points="405.5,-341.7 405.5,-360.7 459.5,-360.7 459.5,-341.7 405.5,-341.7"/>
<text text-anchor="start" x="440.9053" y="-347.8" font-family="Helvetica,sans-Serif" font-size="11.00" fill="#000000">2 &gt;</text>
</a>
</g>
</g>
<!-- AgLibraryCollectionStack&#45;&gt;AgLibraryCollection -->
<g id="edge10" class="edge">
<title>AgLibraryCollectionStack:w&#45;&gt;AgLibraryCollection:e</title>
<path fill="none" stroke="#000000" d="M260.1235,-371.0794C234.4065,-376.5557 228.3224,-397.4507 202,-417.7 182.9116,-432.3844 185.5832,-453.7 161.5,-453.7"/>
<polygon fill="#000000" stroke="#000000" points="266.5366,-370.4641 274.8438,-373.2835 270.5183,-370.0821 274.5,-369.7 274.5,-369.7 274.5,-369.7 270.5183,-370.0821 274.1562,-366.1165 266.5366,-370.4641 266.5366,-370.4641"/>
<ellipse fill="none" stroke="#000000" cx="263.3512" cy="-370.7698" rx="3.2" ry="3.2"/>
</g>
<!-- AgLibraryCollectionStackData -->
<g id="node9" class="node">
<title>AgLibraryCollectionStackData</title>
<g id="a_node9"><a xlink:href="../../tables/AgLibraryCollectionStackData.html" xlink:title="AgLibraryCollectionStackData" target="_top">
<polygon fill="#ffffff" stroke="transparent" points="612,-393.2 612,-454.2 823,-454.2 823,-393.2 612,-393.2"/>
<polygon fill="#f5f5f5" stroke="transparent" points="612.5,-430.7 612.5,-453.7 823.5,-453.7 823.5,-430.7 612.5,-430.7"/>
<polygon fill="none" stroke="#000000" points="612.5,-430.7 612.5,-453.7 823.5,-453.7 823.5,-430.7 612.5,-430.7"/>
<text text-anchor="start" x="617.5" y="-439.3" font-family="Helvetica,sans-Serif" font-weight="bold" font-size="11.00" fill="#000000">AgLibraryCollectionStackData</text>
<text text-anchor="start" x="789.0219" y="-438.8" font-family="Helvetica,sans-Serif" font-size="11.00" fill="#000000">[table]</text>
<polygon fill="none" stroke="#000000" points="612.5,-411.7 612.5,-430.7 823.5,-430.7 823.5,-411.7 612.5,-411.7"/>
<text text-anchor="start" x="615.5" y="-417.8" font-family="Helvetica,sans-Serif" font-size="11.00" fill="#000000">...</text>
<polygon fill="#ffffff" stroke="transparent" points="612.5,-392.7 612.5,-411.7 716.5,-411.7 716.5,-392.7 612.5,-392.7"/>
<polygon fill="none" stroke="#000000" points="612.5,-392.7 612.5,-411.7 716.5,-411.7 716.5,-392.7 612.5,-392.7"/>
<text text-anchor="start" x="615.5" y="-398.8" font-family="Helvetica,sans-Serif" font-size="11.00" fill="#000000">&lt; 2</text>
<polygon fill="#ffffff" stroke="transparent" points="716.5,-392.7 716.5,-411.7 769.5,-411.7 769.5,-392.7 716.5,-392.7"/>
<polygon fill="none" stroke="#000000" points="716.5,-392.7 716.5,-411.7 769.5,-411.7 769.5,-392.7 716.5,-392.7"/>
<text text-anchor="start" x="760.3862" y="-398.8" font-family="Helvetica,sans-Serif" font-size="11.00" fill="#000000"> &#160;</text>
<polygon fill="#ffffff" stroke="transparent" points="769.5,-392.7 769.5,-411.7 823.5,-411.7 823.5,-392.7 769.5,-392.7"/>
<polygon fill="none" stroke="#000000" points="769.5,-392.7 769.5,-411.7 823.5,-411.7 823.5,-392.7 769.5,-392.7"/>
<text text-anchor="start" x="814.3862" y="-398.8" font-family="Helvetica,sans-Serif" font-size="11.00" fill="#000000"> &#160;</text>
</a>
</g>
</g>
<!-- AgLibraryCollectionStackData&#45;&gt;AgLibraryCollection -->
<g id="edge11" class="edge">
<title>AgLibraryCollectionStackData:w&#45;&gt;AgLibraryCollection:e</title>
<path fill="none" stroke="#000000" d="M598.0686,-420.6797C427.1566,-420.2012 377.2268,-411.6962 202,-441.7 183.4958,-444.8684 180.2735,-453.7 161.5,-453.7"/>
<polygon fill="#000000" stroke="#000000" points="604.5,-420.6887 612.4949,-424.3 608.5,-420.6943 612.5,-420.7 612.5,-420.7 612.5,-420.7 608.5,-420.6943 612.5051,-417.1 604.5,-420.6887 604.5,-420.6887"/>
<ellipse fill="none" stroke="#000000" cx="601.3" cy="-420.6842" rx="3.2" ry="3.2"/>
</g>
<!-- AgLibraryCollectionStackData&#45;&gt;AgLibraryCollectionStack -->
<g id="edge12" class="edge">
<title>AgLibraryCollectionStackData:w&#45;&gt;AgLibraryCollectionStack:e</title>
<path fill="none" stroke="#000000" d="M597.8854,-419.9395C539.104,-413.5952 525.9984,-369.7 459.5,-369.7"/>
<polygon fill="#000000" stroke="#000000" points="604.5108,-420.2842 612.3129,-424.2951 608.5054,-420.4921 612.5,-420.7 612.5,-420.7 612.5,-420.7 608.5054,-420.4921 612.6871,-417.1049 604.5108,-420.2842 604.5108,-420.2842"/>
<ellipse fill="none" stroke="#000000" cx="601.3151" cy="-420.1179" rx="3.2" ry="3.2"/>
</g>
<!-- AgLibraryCollectionStackImage -->
<g id="node10" class="node">
<title>AgLibraryCollectionStackImage</title>
<g id="a_node10"><a xlink:href="../../tables/AgLibraryCollectionStackImage.html" xlink:title="AgLibraryCollectionStackImage" target="_top">
<polygon fill="#ffffff" stroke="transparent" points="607.5,-297.2 607.5,-358.2 827.5,-358.2 827.5,-297.2 607.5,-297.2"/>
<polygon fill="#f5f5f5" stroke="transparent" points="607.5,-334.7 607.5,-357.7 827.5,-357.7 827.5,-334.7 607.5,-334.7"/>
<polygon fill="none" stroke="#000000" points="607.5,-334.7 607.5,-357.7 827.5,-357.7 827.5,-334.7 607.5,-334.7"/>
<text text-anchor="start" x="612.5" y="-343.3" font-family="Helvetica,sans-Serif" font-weight="bold" font-size="11.00" fill="#000000">AgLibraryCollectionStackImage</text>
<text text-anchor="start" x="793.0219" y="-342.8" font-family="Helvetica,sans-Serif" font-size="11.00" fill="#000000">[table]</text>
<polygon fill="none" stroke="#000000" points="607.5,-315.7 607.5,-334.7 827.5,-334.7 827.5,-315.7 607.5,-315.7"/>
<text text-anchor="start" x="610.5" y="-321.8" font-family="Helvetica,sans-Serif" font-size="11.00" fill="#000000">...</text>
<polygon fill="#ffffff" stroke="transparent" points="607.5,-296.7 607.5,-315.7 715.5,-315.7 715.5,-296.7 607.5,-296.7"/>
<polygon fill="none" stroke="#000000" points="607.5,-296.7 607.5,-315.7 715.5,-315.7 715.5,-296.7 607.5,-296.7"/>
<text text-anchor="start" x="610.5" y="-302.8" font-family="Helvetica,sans-Serif" font-size="11.00" fill="#000000">&lt; 3</text>
<polygon fill="#ffffff" stroke="transparent" points="715.5,-296.7 715.5,-315.7 771.5,-315.7 771.5,-296.7 715.5,-296.7"/>
<polygon fill="none" stroke="#000000" points="715.5,-296.7 715.5,-315.7 771.5,-315.7 771.5,-296.7 715.5,-296.7"/>
<text text-anchor="start" x="762.3862" y="-302.8" font-family="Helvetica,sans-Serif" font-size="11.00" fill="#000000"> &#160;</text>
<polygon fill="#ffffff" stroke="transparent" points="771.5,-296.7 771.5,-315.7 827.5,-315.7 827.5,-296.7 771.5,-296.7"/>
<polygon fill="none" stroke="#000000" points="771.5,-296.7 771.5,-315.7 827.5,-315.7 827.5,-296.7 771.5,-296.7"/>
<text text-anchor="start" x="818.3862" y="-302.8" font-family="Helvetica,sans-Serif" font-size="11.00" fill="#000000"> &#160;</text>
</a>
</g>
</g>
<!-- AgLibraryCollectionStackImage&#45;&gt;AgLibraryCollection -->
<g id="edge13" class="edge">
<title>AgLibraryCollectionStackImage:w&#45;&gt;AgLibraryCollection:e</title>
<path fill="none" stroke="#000000" d="M592.9382,-324.373C493.617,-320.3285 271.0056,-280.9877 202,-331.7 155.9631,-365.5327 218.6319,-453.7 161.5,-453.7"/>
<polygon fill="#000000" stroke="#000000" points="599.502,-324.5203 607.4192,-328.2991 603.501,-324.6102 607.5,-324.7 607.5,-324.7 607.5,-324.7 603.501,-324.6102 607.5808,-321.1009 599.502,-324.5203 599.502,-324.5203"/>
<ellipse fill="none" stroke="#000000" cx="596.3028" cy="-324.4485" rx="3.2" ry="3.2"/>
</g>
<!-- AgLibraryCollectionStackImage&#45;&gt;AgLibraryCollectionStack -->
<g id="edge14" class="edge">
<title>AgLibraryCollectionStackImage:w&#45;&gt;AgLibraryCollectionStack:e</title>
<path fill="none" stroke="#000000" d="M593.1072,-325.4068C536.8697,-331.1318 523.1485,-369.7 459.5,-369.7"/>
<polygon fill="#000000" stroke="#000000" points="599.5096,-325.0925 607.6766,-328.2957 603.5048,-324.8962 607.5,-324.7 607.5,-324.7 607.5,-324.7 603.5048,-324.8962 607.3234,-321.1043 599.5096,-325.0925 599.5096,-325.0925"/>
<ellipse fill="none" stroke="#000000" cx="596.3135" cy="-325.2495" rx="3.2" ry="3.2"/>
</g>
<!-- AgLibraryCollectionSyncedAlbumData -->
<g id="node11" class="node">
<title>AgLibraryCollectionSyncedAlbumData</title>
<g id="a_node11"><a xlink:href="../../tables/AgLibraryCollectionSyncedAlbumData.html" xlink:title="AgLibraryCollectionSyncedAlbumData" target="_top">
<polygon fill="#ffffff" stroke="transparent" points="237,-232.2 237,-293.2 496,-293.2 496,-232.2 237,-232.2"/>
<polygon fill="#f5f5f5" stroke="transparent" points="237.5,-269.7 237.5,-292.7 496.5,-292.7 496.5,-269.7 237.5,-269.7"/>
<polygon fill="none" stroke="#000000" points="237.5,-269.7 237.5,-292.7 496.5,-292.7 496.5,-269.7 237.5,-269.7"/>
<text text-anchor="start" x="242.5" y="-278.3" font-family="Helvetica,sans-Serif" font-weight="bold" font-size="11.00" fill="#000000">AgLibraryCollectionSyncedAlbumData</text>
<text text-anchor="start" x="462.0219" y="-277.8" font-family="Helvetica,sans-Serif" font-size="11.00" fill="#000000">[table]</text>
<polygon fill="none" stroke="#000000" points="237.5,-250.7 237.5,-269.7 496.5,-269.7 496.5,-250.7 237.5,-250.7"/>
<text text-anchor="start" x="240.5" y="-256.8" font-family="Helvetica,sans-Serif" font-size="11.00" fill="#000000">...</text>
<polygon fill="#ffffff" stroke="transparent" points="237.5,-231.7 237.5,-250.7 365.5,-250.7 365.5,-231.7 237.5,-231.7"/>
<polygon fill="none" stroke="#000000" points="237.5,-231.7 237.5,-250.7 365.5,-250.7 365.5,-231.7 237.5,-231.7"/>
<text text-anchor="start" x="240.5" y="-237.8" font-family="Helvetica,sans-Serif" font-size="11.00" fill="#000000">&lt; 1</text>
<polygon fill="#ffffff" stroke="transparent" points="365.5,-231.7 365.5,-250.7 430.5,-250.7 430.5,-231.7 365.5,-231.7"/>
<polygon fill="none" stroke="#000000" points="365.5,-231.7 365.5,-250.7 430.5,-250.7 430.5,-231.7 365.5,-231.7"/>
<text text-anchor="start" x="421.3862" y="-237.8" font-family="Helvetica,sans-Serif" font-size="11.00" fill="#000000"> &#160;</text>
<polygon fill="#ffffff" stroke="transparent" points="430.5,-231.7 430.5,-250.7 496.5,-250.7 496.5,-231.7 430.5,-231.7"/>
<polygon fill="none" stroke="#000000" points="430.5,-231.7 430.5,-250.7 496.5,-250.7 496.5,-231.7 430.5,-231.7"/>
<text text-anchor="start" x="487.3862" y="-237.8" font-family="Helvetica,sans-Serif" font-size="11.00" fill="#000000"> &#160;</text>
</a>
</g>
</g>
<!-- AgLibraryCollectionSyncedAlbumData&#45;&gt;AgLibraryCollection -->
<g id="edge15" class="edge">
<title>AgLibraryCollectionSyncedAlbumData:w&#45;&gt;AgLibraryCollection:e</title>
<path fill="none" stroke="#000000" d="M223.2196,-261.6201C157.0022,-281.7683 248.6765,-453.7 161.5,-453.7"/>
<polygon fill="#000000" stroke="#000000" points="229.5713,-260.7661 237.9797,-263.2679 233.5357,-260.2331 237.5,-259.7 237.5,-259.7 237.5,-259.7 233.5357,-260.2331 237.0203,-256.1321 229.5713,-260.7661 229.5713,-260.7661"/>
<ellipse fill="none" stroke="#000000" cx="226.3999" cy="-261.1925" rx="3.2" ry="3.2"/>
</g>
<!-- AgLibraryCollectionTrackedAssets -->
<g id="node12" class="node">
<title>AgLibraryCollectionTrackedAssets</title>
<g id="a_node12"><a xlink:href="../../tables/AgLibraryCollectionTrackedAssets.html" xlink:title="AgLibraryCollectionTrackedAssets" target="_top">
<polygon fill="#ffffff" stroke="transparent" points="210,-120.7 210,-210.7 523,-210.7 523,-120.7 210,-120.7"/>
<polygon fill="#f5f5f5" stroke="transparent" points="212.5,-185.7 212.5,-208.7 521.5,-208.7 521.5,-185.7 212.5,-185.7"/>
<polygon fill="none" stroke="#000000" points="212.5,-185.7 212.5,-208.7 521.5,-208.7 521.5,-185.7 212.5,-185.7"/>
<text text-anchor="start" x="217.5" y="-194.3" font-family="Helvetica,sans-Serif" font-weight="bold" font-size="11.00" fill="#000000">AgLibraryCollectionTrackedAssets</text>
<text text-anchor="start" x="486.5437" y="-193.8" font-family="Helvetica,sans-Serif" font-size="11.00" fill="#000000">[table]</text>
<polygon fill="#ffffff" stroke="transparent" points="212.5,-163.7 212.5,-185.7 433.5,-185.7 433.5,-163.7 212.5,-163.7"/>
<polygon fill="none" stroke="#000000" points="212.5,-163.7 212.5,-185.7 433.5,-185.7 433.5,-163.7 212.5,-163.7"/>
<image xlink:href="../../images/foreignKeys.png" width="11px" height="12px" preserveAspectRatio="xMinYMin meet" x="217.5" y="-180.7"/>
<text text-anchor="start" x="232.5" y="-170.8" font-family="Helvetica,sans-Serif" font-size="11.00" fill="#000000">collection</text>
<polygon fill="none" stroke="#000000" points="433.5,-163.7 433.5,-185.7 521.5,-185.7 521.5,-163.7 433.5,-163.7"/>
<text text-anchor="start" x="436.2253" y="-171.4" font-family="Helvetica,sans-Serif" font-size="11.00" fill="#000000">[2000000000,10]</text>
<polygon fill="#ffffff" stroke="transparent" points="212.5,-141.7 212.5,-163.7 433.5,-163.7 433.5,-141.7 212.5,-141.7"/>
<polygon fill="none" stroke="#000000" points="212.5,-141.7 212.5,-163.7 433.5,-163.7 433.5,-141.7 212.5,-141.7"/>
<text text-anchor="start" x="232.5" y="-148.8" font-family="Helvetica,sans-Serif" font-size="11.00" fill="#000000">ozCatalogId</text>
<polygon fill="none" stroke="#000000" points="433.5,-141.7 433.5,-163.7 521.5,-163.7 521.5,-141.7 433.5,-141.7"/>
<text text-anchor="start" x="436.2253" y="-149.4" font-family="Helvetica,sans-Serif" font-size="11.00" fill="#000000">[2000000000,10]</text>
<polygon fill="#ffffff" stroke="transparent" points="212.5,-122.7 212.5,-141.7 327.5,-141.7 327.5,-122.7 212.5,-122.7"/>
<polygon fill="none" stroke="#000000" points="212.5,-122.7 212.5,-141.7 327.5,-141.7 327.5,-122.7 212.5,-122.7"/>
<text text-anchor="start" x="215.5" y="-128.8" font-family="Helvetica,sans-Serif" font-size="11.00" fill="#000000">&lt; 1</text>
<polygon fill="#ffffff" stroke="transparent" points="327.5,-122.7 327.5,-141.7 433.5,-141.7 433.5,-122.7 327.5,-122.7"/>
<polygon fill="none" stroke="#000000" points="327.5,-122.7 327.5,-141.7 433.5,-141.7 433.5,-122.7 327.5,-122.7"/>
<text text-anchor="start" x="424.3862" y="-128.8" font-family="Helvetica,sans-Serif" font-size="11.00" fill="#000000"> &#160;</text>
<polygon fill="#ffffff" stroke="transparent" points="433.5,-122.7 433.5,-141.7 521.5,-141.7 521.5,-122.7 433.5,-122.7"/>
<polygon fill="none" stroke="#000000" points="433.5,-122.7 433.5,-141.7 521.5,-141.7 521.5,-122.7 433.5,-122.7"/>
<text text-anchor="start" x="502.9053" y="-128.8" font-family="Helvetica,sans-Serif" font-size="11.00" fill="#000000">0 &gt;</text>
<polygon fill="none" stroke="#000000" stroke-width="2" points="211,-121.7 211,-209.7 522,-209.7 522,-121.7 211,-121.7"/>
</a>
</g>
</g>
<!-- AgLibraryCollectionTrackedAssets&#45;&gt;AgLibraryCollection -->
<g id="edge16" class="edge">
<title>AgLibraryCollectionTrackedAssets:w&#45;&gt;AgLibraryCollection:e</title>
<path fill="none" stroke="#000000" d="M199.1348,-180.5273C161.3529,-220.5926 219.1109,-453.7 161.5,-453.7"/>
<polygon fill="#000000" stroke="#000000" points="205.1667,-177.8974 213.9388,-178 208.8334,-176.2987 212.5,-174.7 212.5,-174.7 212.5,-174.7 208.8334,-176.2987 211.0612,-171.4 205.1667,-177.8974 205.1667,-177.8974"/>
<ellipse fill="none" stroke="#000000" cx="202.2334" cy="-179.1763" rx="3.2" ry="3.2"/>
</g>
<!-- AgOutputImageAsset -->
<g id="node13" class="node">
<title>AgOutputImageAsset</title>
<g id="a_node13"><a xlink:href="../../tables/AgOutputImageAsset.html" xlink:title="AgOutputImageAsset" target="_top">
<polygon fill="#ffffff" stroke="transparent" points="286,-38.2 286,-99.2 447,-99.2 447,-38.2 286,-38.2"/>
<polygon fill="#f5f5f5" stroke="transparent" points="286.5,-75.7 286.5,-98.7 447.5,-98.7 447.5,-75.7 286.5,-75.7"/>
<polygon fill="none" stroke="#000000" points="286.5,-75.7 286.5,-98.7 447.5,-98.7 447.5,-75.7 286.5,-75.7"/>
<text text-anchor="start" x="291.5" y="-84.3" font-family="Helvetica,sans-Serif" font-weight="bold" font-size="11.00" fill="#000000">AgOutputImageAsset</text>
<text text-anchor="start" x="413.0219" y="-83.8" font-family="Helvetica,sans-Serif" font-size="11.00" fill="#000000">[table]</text>
<polygon fill="none" stroke="#000000" points="286.5,-56.7 286.5,-75.7 447.5,-75.7 447.5,-56.7 286.5,-56.7"/>
<text text-anchor="start" x="289.5" y="-62.8" font-family="Helvetica,sans-Serif" font-size="11.00" fill="#000000">...</text>
<polygon fill="#ffffff" stroke="transparent" points="286.5,-37.7 286.5,-56.7 365.5,-56.7 365.5,-37.7 286.5,-37.7"/>
<polygon fill="none" stroke="#000000" points="286.5,-37.7 286.5,-56.7 365.5,-56.7 365.5,-37.7 286.5,-37.7"/>
<text text-anchor="start" x="289.5" y="-43.8" font-family="Helvetica,sans-Serif" font-size="11.00" fill="#000000">&lt; 2</text>
<polygon fill="#ffffff" stroke="transparent" points="365.5,-37.7 365.5,-56.7 406.5,-56.7 406.5,-37.7 365.5,-37.7"/>
<polygon fill="none" stroke="#000000" points="365.5,-37.7 365.5,-56.7 406.5,-56.7 406.5,-37.7 365.5,-37.7"/>
<text text-anchor="start" x="397.3862" y="-43.8" font-family="Helvetica,sans-Serif" font-size="11.00" fill="#000000"> &#160;</text>
<polygon fill="#ffffff" stroke="transparent" points="406.5,-37.7 406.5,-56.7 447.5,-56.7 447.5,-37.7 406.5,-37.7"/>
<polygon fill="none" stroke="#000000" points="406.5,-37.7 406.5,-56.7 447.5,-56.7 447.5,-37.7 406.5,-37.7"/>
<text text-anchor="start" x="438.3862" y="-43.8" font-family="Helvetica,sans-Serif" font-size="11.00" fill="#000000"> &#160;</text>
</a>
</g>
</g>
<!-- AgOutputImageAsset&#45;&gt;AgLibraryCollection -->
<g id="edge17" class="edge">
<title>AgOutputImageAsset:w&#45;&gt;AgLibraryCollection:e</title>
<path fill="none" stroke="#000000" d="M271.6986,-66.1612C239.5374,-68.3887 223.0403,-79.205 202,-109.7 158.2871,-173.0557 238.4724,-453.7 161.5,-453.7"/>
<polygon fill="#000000" stroke="#000000" points="278.5039,-65.9492 286.6121,-69.2983 282.5019,-65.8246 286.5,-65.7 286.5,-65.7 286.5,-65.7 282.5019,-65.8246 286.3879,-62.1017 278.5039,-65.9492 278.5039,-65.9492"/>
<ellipse fill="none" stroke="#000000" cx="275.3054" cy="-66.0489" rx="3.2" ry="3.2"/>
</g>
</g>
</svg>
