<?xml version="1.0" encoding="UTF-8" standalone="no"?>
<!DOCTYPE svg PUBLIC "-//W3C//DTD SVG 1.1//EN"
 "http://www.w3.org/Graphics/SVG/1.1/DTD/svg11.dtd">
<!-- Generated by graphviz version 2.40.1 (20161225.0304)
 -->
<!-- Title: oneDegreeRelationshipsDiagram Pages: 1 -->
<svg width="779pt" height="302pt"
 viewBox="0.00 0.00 779.00 302.20" xmlns="http://www.w3.org/2000/svg" xmlns:xlink="http://www.w3.org/1999/xlink">
<g id="graph0" class="graph" transform="scale(1 1) rotate(0) translate(4 298.2)">
<title>oneDegreeRelationshipsDiagram</title>
<polygon fill="#ffffff" stroke="transparent" points="-4,4 -4,-298.2 775,-298.2 775,4 -4,4"/>
<text text-anchor="middle" x="72.4936" y="-7.3" font-family="Helvetica,sans-Serif" font-size="11.00" fill="#000000">Generated by SchemaSpy</text>
<!-- AgLibraryCollectionStack -->
<g id="node1" class="node">
<title>AgLibraryCollectionStack</title>
<g id="a_node1"><a xlink:href="../../tables/AgLibraryCollectionStack.html" xlink:title="AgLibraryCollectionStack" target="_top">
<polygon fill="#ffffff" stroke="transparent" points="210,-141.2 210,-290.2 395,-290.2 395,-141.2 210,-141.2"/>
<polygon fill="#f5f5f5" stroke="transparent" points="210.5,-266.7 210.5,-289.7 395.5,-289.7 395.5,-266.7 210.5,-266.7"/>
<polygon fill="none" stroke="#000000" points="210.5,-266.7 210.5,-289.7 395.5,-289.7 395.5,-266.7 210.5,-266.7"/>
<text text-anchor="start" x="215.5" y="-275.3" font-family="Helvetica,sans-Serif" font-weight="bold" font-size="11.00" fill="#000000">AgLibraryCollectionStack</text>
<text text-anchor="start" x="361.0219" y="-274.8" font-family="Helvetica,sans-Serif" font-size="11.00" fill="#000000">[table]</text>
<polygon fill="none" stroke="#000000" points="210.5,-244.7 210.5,-266.7 395.5,-266.7 395.5,-244.7 210.5,-244.7"/>
<image xlink:href="../../images/primaryKeys.png" width="11px" height="12px" preserveAspectRatio="xMinYMin meet" x="215.5" y="-261.7"/>
<text text-anchor="start" x="239.5" y="-251.8" font-family="Helvetica,sans-Serif" font-size="11.00" fill="#000000">id_local</text>
<polygon fill="#ffffff" stroke="transparent" points="210.5,-222.7 210.5,-244.7 395.5,-244.7 395.5,-222.7 210.5,-222.7"/>
<polygon fill="none" stroke="#000000" points="210.5,-222.7 210.5,-244.7 395.5,-244.7 395.5,-222.7 210.5,-222.7"/>
<text text-anchor="start" x="239.5" y="-229.8" font-family="Helvetica,sans-Serif" font-size="11.00" fill="#000000">id_global</text>
<polygon fill="#ffffff" stroke="transparent" points="210.5,-200.7 210.5,-222.7 395.5,-222.7 395.5,-200.7 210.5,-200.7"/>
<polygon fill="none" stroke="#000000" points="210.5,-200.7 210.5,-222.7 395.5,-222.7 395.5,-200.7 210.5,-200.7"/>
<text text-anchor="start" x="239.5" y="-207.8" font-family="Helvetica,sans-Serif" font-size="11.00" fill="#000000">collapsed</text>
<polygon fill="#ffffff" stroke="transparent" points="210.5,-178.7 210.5,-200.7 395.5,-200.7 395.5,-178.7 210.5,-178.7"/>
<polygon fill="none" stroke="#000000" points="210.5,-178.7 210.5,-200.7 395.5,-200.7 395.5,-178.7 210.5,-178.7"/>
<image xlink:href="../../images/foreignKeys.png" width="11px" height="12px" preserveAspectRatio="xMinYMin meet" x="215.5" y="-195.7"/>
<text text-anchor="start" x="239.5" y="-185.8" font-family="Helvetica,sans-Serif" font-size="11.00" fill="#000000">collection</text>
<polygon fill="none" stroke="#000000" points="210.5,-159.7 210.5,-178.7 395.5,-178.7 395.5,-159.7 210.5,-159.7"/>
<text text-anchor="start" x="213.5" y="-165.8" font-family="Helvetica,sans-Serif" font-size="11.00" fill="#000000">...</text>
<polygon fill="#ffffff" stroke="transparent" points="210.5,-140.7 210.5,-159.7 296.5,-159.7 296.5,-140.7 210.5,-140.7"/>
<polygon fill="none" stroke="#000000" points="210.5,-140.7 210.5,-159.7 296.5,-159.7 296.5,-140.7 210.5,-140.7"/>
<text text-anchor="start" x="213.5" y="-146.8" font-family="Helvetica,sans-Serif" font-size="11.00" fill="#000000">&lt; 1</text>
<polygon fill="#ffffff" stroke="transparent" points="296.5,-140.7 296.5,-159.7 341.5,-159.7 341.5,-140.7 296.5,-140.7"/>
<polygon fill="none" stroke="#000000" points="296.5,-140.7 296.5,-159.7 341.5,-159.7 341.5,-140.7 296.5,-140.7"/>
<text text-anchor="start" x="332.3862" y="-146.8" font-family="Helvetica,sans-Serif" font-size="11.00" fill="#000000"> &#160;</text>
<polygon fill="#ffffff" stroke="transparent" points="341.5,-140.7 341.5,-159.7 395.5,-159.7 395.5,-140.7 341.5,-140.7"/>
<polygon fill="none" stroke="#000000" points="341.5,-140.7 341.5,-159.7 395.5,-159.7 395.5,-140.7 341.5,-140.7"/>
<text text-anchor="start" x="376.9053" y="-146.8" font-family="Helvetica,sans-Serif" font-size="11.00" fill="#000000">2 &gt;</text>
</a>
</g>
</g>
<!-- AgLibraryCollection -->
<g id="node2" class="node">
<title>AgLibraryCollection</title>
<g id="a_node2"><a xlink:href="../../tables/AgLibraryCollection.html" xlink:title="AgLibraryCollection" target="_top">
<polygon fill="#ffffff" stroke="transparent" points="8,-38.2 8,-187.2 161,-187.2 161,-38.2 8,-38.2"/>
<polygon fill="#f5f5f5" stroke="transparent" points="8.5,-163.7 8.5,-186.7 161.5,-186.7 161.5,-163.7 8.5,-163.7"/>
<polygon fill="none" stroke="#000000" points="8.5,-163.7 8.5,-186.7 161.5,-186.7 161.5,-163.7 8.5,-163.7"/>
<text text-anchor="start" x="13.5" y="-172.3" font-family="Helvetica,sans-Serif" font-weight="bold" font-size="11.00" fill="#000000">AgLibraryCollection</text>
<text text-anchor="start" x="127.0219" y="-171.8" font-family="Helvetica,sans-Serif" font-size="11.00" fill="#000000">[table]</text>
<polygon fill="none" stroke="#000000" points="8.5,-141.7 8.5,-163.7 161.5,-163.7 161.5,-141.7 8.5,-141.7"/>
<image xlink:href="../../images/primaryKeys.png" width="11px" height="12px" preserveAspectRatio="xMinYMin meet" x="13.5" y="-158.7"/>
<text text-anchor="start" x="37.5" y="-148.8" font-family="Helvetica,sans-Serif" font-size="11.00" fill="#000000">id_local</text>
<polygon fill="#ffffff" stroke="transparent" points="8.5,-119.7 8.5,-141.7 161.5,-141.7 161.5,-119.7 8.5,-119.7"/>
<polygon fill="none" stroke="#000000" points="8.5,-119.7 8.5,-141.7 161.5,-141.7 161.5,-119.7 8.5,-119.7"/>
<text text-anchor="start" x="37.5" y="-126.8" font-family="Helvetica,sans-Serif" font-size="11.00" fill="#000000">genealogy</text>
<polygon fill="#ffffff" stroke="transparent" points="8.5,-97.7 8.5,-119.7 161.5,-119.7 161.5,-97.7 8.5,-97.7"/>
<polygon fill="none" stroke="#000000" points="8.5,-97.7 8.5,-119.7 161.5,-119.7 161.5,-97.7 8.5,-97.7"/>
<text text-anchor="start" x="37.5" y="-104.8" font-family="Helvetica,sans-Serif" font-size="11.00" fill="#000000">name</text>
<polygon fill="#ffffff" stroke="transparent" points="8.5,-75.7 8.5,-97.7 161.5,-97.7 161.5,-75.7 8.5,-75.7"/>
<polygon fill="none" stroke="#000000" points="8.5,-75.7 8.5,-97.7 161.5,-97.7 161.5,-75.7 8.5,-75.7"/>
<image xlink:href="../../images/foreignKeys.png" width="11px" height="12px" preserveAspectRatio="xMinYMin meet" x="13.5" y="-92.7"/>
<text text-anchor="start" x="37.5" y="-82.8" font-family="Helvetica,sans-Serif" font-size="11.00" fill="#000000">parent</text>
<polygon fill="none" stroke="#000000" points="8.5,-56.7 8.5,-75.7 161.5,-75.7 161.5,-56.7 8.5,-56.7"/>
<text text-anchor="start" x="11.5" y="-62.8" font-family="Helvetica,sans-Serif" font-size="11.00" fill="#000000">...</text>
<polygon fill="#ffffff" stroke="transparent" points="8.5,-37.7 8.5,-56.7 75.5,-56.7 75.5,-37.7 8.5,-37.7"/>
<polygon fill="none" stroke="#000000" points="8.5,-37.7 8.5,-56.7 75.5,-56.7 75.5,-37.7 8.5,-37.7"/>
<text text-anchor="start" x="11.5" y="-43.8" font-family="Helvetica,sans-Serif" font-size="11.00" fill="#000000">&lt; 1</text>
<polygon fill="#ffffff" stroke="transparent" points="75.5,-37.7 75.5,-56.7 110.5,-56.7 110.5,-37.7 75.5,-37.7"/>
<polygon fill="none" stroke="#000000" points="75.5,-37.7 75.5,-56.7 110.5,-56.7 110.5,-37.7 75.5,-37.7"/>
<text text-anchor="start" x="101.3862" y="-43.8" font-family="Helvetica,sans-Serif" font-size="11.00" fill="#000000"> &#160;</text>
<polygon fill="#ffffff" stroke="transparent" points="110.5,-37.7 110.5,-56.7 161.5,-56.7 161.5,-37.7 110.5,-37.7"/>
<polygon fill="none" stroke="#000000" points="110.5,-37.7 110.5,-56.7 161.5,-56.7 161.5,-37.7 110.5,-37.7"/>
<text text-anchor="start" x="136.7904" y="-43.8" font-family="Helvetica,sans-Serif" font-size="11.00" fill="#000000">13 &gt;</text>
</a>
</g>
</g>
<!-- AgLibraryCollectionStack&#45;&gt;AgLibraryCollection -->
<g id="edge1" class="edge">
<title>AgLibraryCollectionStack:w&#45;&gt;AgLibraryCollection:e</title>
<path fill="none" stroke="#000000" d="M196.6217,-185.1631C184.0786,-175.283 182.8196,-152.7 161.5,-152.7"/>
<polygon fill="#000000" stroke="#000000" points="202.896,-187.2142 209.3814,-193.1218 206.698,-188.4571 210.5,-189.7 210.5,-189.7 210.5,-189.7 206.698,-188.4571 211.6186,-186.2782 202.896,-187.2142 202.896,-187.2142"/>
<ellipse fill="none" stroke="#000000" cx="199.8544" cy="-186.2198" rx="3.2" ry="3.2"/>
</g>
<!-- AgLibraryCollectionStackData -->
<g id="node3" class="node">
<title>AgLibraryCollectionStackData</title>
<g id="a_node3"><a xlink:href="../../tables/AgLibraryCollectionStackData.html" xlink:title="AgLibraryCollectionStackData" target="_top">
<polygon fill="#ffffff" stroke="transparent" points="444,-98.7 444,-232.7 763,-232.7 763,-98.7 444,-98.7"/>
<polygon fill="#f5f5f5" stroke="transparent" points="446.5,-207.7 446.5,-230.7 761.5,-230.7 761.5,-207.7 446.5,-207.7"/>
<polygon fill="none" stroke="#000000" points="446.5,-207.7 446.5,-230.7 761.5,-230.7 761.5,-207.7 446.5,-207.7"/>
<text text-anchor="start" x="451.5" y="-216.3" font-family="Helvetica,sans-Serif" font-weight="bold" font-size="11.00" fill="#000000">AgLibraryCollectionStackData</text>
<text text-anchor="start" x="726.5437" y="-215.8" font-family="Helvetica,sans-Serif" font-size="11.00" fill="#000000">[table]</text>
<polygon fill="#ffffff" stroke="transparent" points="446.5,-185.7 446.5,-207.7 639.5,-207.7 639.5,-185.7 446.5,-185.7"/>
<polygon fill="none" stroke="#000000" points="446.5,-185.7 446.5,-207.7 639.5,-207.7 639.5,-185.7 446.5,-185.7"/>
<image xlink:href="../../images/foreignKeys.png" width="11px" height="12px" preserveAspectRatio="xMinYMin meet" x="451.5" y="-202.7"/>
<text text-anchor="start" x="466.5" y="-192.8" font-family="Helvetica,sans-Serif" font-size="11.00" fill="#000000">stack</text>
<polygon fill="none" stroke="#000000" points="639.5,-185.7 639.5,-207.7 761.5,-207.7 761.5,-185.7 639.5,-185.7"/>
<text text-anchor="start" x="642.4156" y="-193.4" font-family="Helvetica,sans-Serif" font-size="11.00" fill="#000000">integer[2000000000,10]</text>
<polygon fill="#ffffff" stroke="transparent" points="446.5,-163.7 446.5,-185.7 639.5,-185.7 639.5,-163.7 446.5,-163.7"/>
<polygon fill="none" stroke="#000000" points="446.5,-163.7 446.5,-185.7 639.5,-185.7 639.5,-163.7 446.5,-163.7"/>
<image xlink:href="../../images/foreignKeys.png" width="11px" height="12px" preserveAspectRatio="xMinYMin meet" x="451.5" y="-180.7"/>
<text text-anchor="start" x="466.5" y="-170.8" font-family="Helvetica,sans-Serif" font-size="11.00" fill="#000000">collection</text>
<polygon fill="none" stroke="#000000" points="639.5,-163.7 639.5,-185.7 761.5,-185.7 761.5,-163.7 639.5,-163.7"/>
<text text-anchor="start" x="642.4156" y="-171.4" font-family="Helvetica,sans-Serif" font-size="11.00" fill="#000000">integer[2000000000,10]</text>
<polygon fill="#ffffff" stroke="transparent" points="446.5,-141.7 446.5,-163.7 639.5,-163.7 639.5,-141.7 446.5,-141.7"/>
<polygon fill="none" stroke="#000000" points="446.5,-141.7 446.5,-163.7 639.5,-163.7 639.5,-141.7 446.5,-141.7"/>
<text text-anchor="start" x="466.5" y="-148.8" font-family="Helvetica,sans-Serif" font-size="11.00" fill="#000000">stackCount</text>
<polygon fill="none" stroke="#000000" points="639.5,-141.7 639.5,-163.7 761.5,-163.7 761.5,-141.7 639.5,-141.7"/>
<text text-anchor="start" x="642.4156" y="-149.4" font-family="Helvetica,sans-Serif" font-size="11.00" fill="#000000">integer[2000000000,10]</text>
<polygon fill="#ffffff" stroke="transparent" points="446.5,-119.7 446.5,-141.7 639.5,-141.7 639.5,-119.7 446.5,-119.7"/>
<polygon fill="none" stroke="#000000" points="446.5,-119.7 446.5,-141.7 639.5,-141.7 639.5,-119.7 446.5,-119.7"/>
<text text-anchor="start" x="466.5" y="-126.8" font-family="Helvetica,sans-Serif" font-size="11.00" fill="#000000">stackParent</text>
<polygon fill="none" stroke="#000000" points="639.5,-119.7 639.5,-141.7 761.5,-141.7 761.5,-119.7 639.5,-119.7"/>
<text text-anchor="start" x="642.4156" y="-127.4" font-family="Helvetica,sans-Serif" font-size="11.00" fill="#000000">integer[2000000000,10]</text>
<polygon fill="#ffffff" stroke="transparent" points="446.5,-100.7 446.5,-119.7 547.5,-119.7 547.5,-100.7 446.5,-100.7"/>
<polygon fill="none" stroke="#000000" points="446.5,-100.7 446.5,-119.7 547.5,-119.7 547.5,-100.7 446.5,-100.7"/>
<text text-anchor="start" x="449.5" y="-106.8" font-family="Helvetica,sans-Serif" font-size="11.00" fill="#000000">&lt; 2</text>
<polygon fill="#ffffff" stroke="transparent" points="547.5,-100.7 547.5,-119.7 639.5,-119.7 639.5,-100.7 547.5,-100.7"/>
<polygon fill="none" stroke="#000000" points="547.5,-100.7 547.5,-119.7 639.5,-119.7 639.5,-100.7 547.5,-100.7"/>
<text text-anchor="start" x="630.3862" y="-106.8" font-family="Helvetica,sans-Serif" font-size="11.00" fill="#000000"> &#160;</text>
<polygon fill="#ffffff" stroke="transparent" points="639.5,-100.7 639.5,-119.7 761.5,-119.7 761.5,-100.7 639.5,-100.7"/>
<polygon fill="none" stroke="#000000" points="639.5,-100.7 639.5,-119.7 761.5,-119.7 761.5,-100.7 639.5,-100.7"/>
<text text-anchor="start" x="742.9053" y="-106.8" font-family="Helvetica,sans-Serif" font-size="11.00" fill="#000000">0 &gt;</text>
<polygon fill="none" stroke="#000000" stroke-width="2" points="445,-99.7 445,-231.7 762,-231.7 762,-99.7 445,-99.7"/>
</a>
</g>
</g>
<!-- AgLibraryCollectionStackData&#45;&gt;AgLibraryCollectionStack -->
<g id="edge3" class="edge">
<title>AgLibraryCollectionStackData:w&#45;&gt;AgLibraryCollectionStack:e</title>
<path fill="none" stroke="#000000" d="M432.7854,-201.3296C416.572,-215.2383 424.2036,-255.7 395.5,-255.7"/>
<polygon fill="#000000" stroke="#000000" points="438.9202,-199.2587 447.6514,-200.1109 442.7101,-197.9794 446.5,-196.7 446.5,-196.7 446.5,-196.7 442.7101,-197.9794 445.3486,-193.2891 438.9202,-199.2587 438.9202,-199.2587"/>
<ellipse fill="none" stroke="#000000" cx="435.8883" cy="-200.2822" rx="3.2" ry="3.2"/>
</g>
<!-- AgLibraryCollectionStackData&#45;&gt;AgLibraryCollection -->
<g id="edge2" class="edge">
<title>AgLibraryCollectionStackData:w&#45;&gt;AgLibraryCollection:e</title>
<path fill="none" stroke="#000000" d="M432.6545,-170.2098C421.4651,-160.7346 422.6265,-138.8953 403,-130.7 320.5648,-96.2779 288.5825,-108.7018 202,-130.7 182.1465,-135.7442 181.9843,-152.7 161.5,-152.7"/>
<polygon fill="#000000" stroke="#000000" points="438.8902,-172.232 445.3894,-178.1244 442.6951,-173.466 446.5,-174.7 446.5,-174.7 446.5,-174.7 442.6951,-173.466 447.6106,-171.2756 438.8902,-172.232 438.8902,-172.232"/>
<ellipse fill="none" stroke="#000000" cx="435.8463" cy="-171.2448" rx="3.2" ry="3.2"/>
</g>
</g>
</svg>
