<?xml version="1.0" encoding="UTF-8" standalone="no"?>
<!DOCTYPE svg PUBLIC "-//W3C//DTD SVG 1.1//EN"
 "http://www.w3.org/Graphics/SVG/1.1/DTD/svg11.dtd">
<!-- Generated by graphviz version 2.40.1 (20161225.0304)
 -->
<!-- Title: oneDegreeRelationshipsDiagram Pages: 1 -->
<svg width="539pt" height="201pt"
 viewBox="0.00 0.00 539.00 200.70" xmlns="http://www.w3.org/2000/svg" xmlns:xlink="http://www.w3.org/1999/xlink">
<g id="graph0" class="graph" transform="scale(1 1) rotate(0) translate(4 196.7)">
<title>oneDegreeRelationshipsDiagram</title>
<polygon fill="#ffffff" stroke="transparent" points="-4,4 -4,-196.7 535,-196.7 535,4 -4,4"/>
<text text-anchor="middle" x="72.4936" y="-7.3" font-family="Helvetica,sans-Serif" font-size="11.00" fill="#000000">Generated by SchemaSpy</text>
<!-- AgLibraryCollectionTrackedAssets -->
<g id="node1" class="node">
<title>AgLibraryCollectionTrackedAssets</title>
<g id="a_node1"><a xlink:href="../../tables/AgLibraryCollectionTrackedAssets.html" xlink:title="AgLibraryCollectionTrackedAssets" target="_top">
<polygon fill="#ffffff" stroke="transparent" points="210,-98.7 210,-188.7 523,-188.7 523,-98.7 210,-98.7"/>
<polygon fill="#f5f5f5" stroke="transparent" points="212.5,-163.7 212.5,-186.7 521.5,-186.7 521.5,-163.7 212.5,-163.7"/>
<polygon fill="none" stroke="#000000" points="212.5,-163.7 212.5,-186.7 521.5,-186.7 521.5,-163.7 212.5,-163.7"/>
<text text-anchor="start" x="217.5" y="-172.3" font-family="Helvetica,sans-Serif" font-weight="bold" font-size="11.00" fill="#000000">AgLibraryCollectionTrackedAssets</text>
<text text-anchor="start" x="486.5437" y="-171.8" font-family="Helvetica,sans-Serif" font-size="11.00" fill="#000000">[table]</text>
<polygon fill="#ffffff" stroke="transparent" points="212.5,-141.7 212.5,-163.7 433.5,-163.7 433.5,-141.7 212.5,-141.7"/>
<polygon fill="none" stroke="#000000" points="212.5,-141.7 212.5,-163.7 433.5,-163.7 433.5,-141.7 212.5,-141.7"/>
<image xlink:href="../../images/foreignKeys.png" width="11px" height="12px" preserveAspectRatio="xMinYMin meet" x="217.5" y="-158.7"/>
<text text-anchor="start" x="232.5" y="-148.8" font-family="Helvetica,sans-Serif" font-size="11.00" fill="#000000">collection</text>
<polygon fill="none" stroke="#000000" points="433.5,-141.7 433.5,-163.7 521.5,-163.7 521.5,-141.7 433.5,-141.7"/>
<text text-anchor="start" x="436.2253" y="-149.4" font-family="Helvetica,sans-Serif" font-size="11.00" fill="#000000">[2000000000,10]</text>
<polygon fill="#ffffff" stroke="transparent" points="212.5,-119.7 212.5,-141.7 433.5,-141.7 433.5,-119.7 212.5,-119.7"/>
<polygon fill="none" stroke="#000000" points="212.5,-119.7 212.5,-141.7 433.5,-141.7 433.5,-119.7 212.5,-119.7"/>
<text text-anchor="start" x="232.5" y="-126.8" font-family="Helvetica,sans-Serif" font-size="11.00" fill="#000000">ozCatalogId</text>
<polygon fill="none" stroke="#000000" points="433.5,-119.7 433.5,-141.7 521.5,-141.7 521.5,-119.7 433.5,-119.7"/>
<text text-anchor="start" x="436.2253" y="-127.4" font-family="Helvetica,sans-Serif" font-size="11.00" fill="#000000">[2000000000,10]</text>
<polygon fill="#ffffff" stroke="transparent" points="212.5,-100.7 212.5,-119.7 327.5,-119.7 327.5,-100.7 212.5,-100.7"/>
<polygon fill="none" stroke="#000000" points="212.5,-100.7 212.5,-119.7 327.5,-119.7 327.5,-100.7 212.5,-100.7"/>
<text text-anchor="start" x="215.5" y="-106.8" font-family="Helvetica,sans-Serif" font-size="11.00" fill="#000000">&lt; 1</text>
<polygon fill="#ffffff" stroke="transparent" points="327.5,-100.7 327.5,-119.7 433.5,-119.7 433.5,-100.7 327.5,-100.7"/>
<polygon fill="none" stroke="#000000" points="327.5,-100.7 327.5,-119.7 433.5,-119.7 433.5,-100.7 327.5,-100.7"/>
<text text-anchor="start" x="424.3862" y="-106.8" font-family="Helvetica,sans-Serif" font-size="11.00" fill="#000000"> &#160;</text>
<polygon fill="#ffffff" stroke="transparent" points="433.5,-100.7 433.5,-119.7 521.5,-119.7 521.5,-100.7 433.5,-100.7"/>
<polygon fill="none" stroke="#000000" points="433.5,-100.7 433.5,-119.7 521.5,-119.7 521.5,-100.7 433.5,-100.7"/>
<text text-anchor="start" x="502.9053" y="-106.8" font-family="Helvetica,sans-Serif" font-size="11.00" fill="#000000">0 &gt;</text>
<polygon fill="none" stroke="#000000" stroke-width="2" points="211,-99.7 211,-187.7 522,-187.7 522,-99.7 211,-99.7"/>
</a>
</g>
</g>
<!-- AgLibraryCollection -->
<g id="node2" class="node">
<title>AgLibraryCollection</title>
<g id="a_node2"><a xlink:href="../../tables/AgLibraryCollection.html" xlink:title="AgLibraryCollection" target="_top">
<polygon fill="#ffffff" stroke="transparent" points="8,-38.2 8,-187.2 161,-187.2 161,-38.2 8,-38.2"/>
<polygon fill="#f5f5f5" stroke="transparent" points="8.5,-163.7 8.5,-186.7 161.5,-186.7 161.5,-163.7 8.5,-163.7"/>
<polygon fill="none" stroke="#000000" points="8.5,-163.7 8.5,-186.7 161.5,-186.7 161.5,-163.7 8.5,-163.7"/>
<text text-anchor="start" x="13.5" y="-172.3" font-family="Helvetica,sans-Serif" font-weight="bold" font-size="11.00" fill="#000000">AgLibraryCollection</text>
<text text-anchor="start" x="127.0219" y="-171.8" font-family="Helvetica,sans-Serif" font-size="11.00" fill="#000000">[table]</text>
<polygon fill="none" stroke="#000000" points="8.5,-141.7 8.5,-163.7 161.5,-163.7 161.5,-141.7 8.5,-141.7"/>
<image xlink:href="../../images/primaryKeys.png" width="11px" height="12px" preserveAspectRatio="xMinYMin meet" x="13.5" y="-158.7"/>
<text text-anchor="start" x="37.5" y="-148.8" font-family="Helvetica,sans-Serif" font-size="11.00" fill="#000000">id_local</text>
<polygon fill="#ffffff" stroke="transparent" points="8.5,-119.7 8.5,-141.7 161.5,-141.7 161.5,-119.7 8.5,-119.7"/>
<polygon fill="none" stroke="#000000" points="8.5,-119.7 8.5,-141.7 161.5,-141.7 161.5,-119.7 8.5,-119.7"/>
<text text-anchor="start" x="37.5" y="-126.8" font-family="Helvetica,sans-Serif" font-size="11.00" fill="#000000">genealogy</text>
<polygon fill="#ffffff" stroke="transparent" points="8.5,-97.7 8.5,-119.7 161.5,-119.7 161.5,-97.7 8.5,-97.7"/>
<polygon fill="none" stroke="#000000" points="8.5,-97.7 8.5,-119.7 161.5,-119.7 161.5,-97.7 8.5,-97.7"/>
<text text-anchor="start" x="37.5" y="-104.8" font-family="Helvetica,sans-Serif" font-size="11.00" fill="#000000">name</text>
<polygon fill="#ffffff" stroke="transparent" points="8.5,-75.7 8.5,-97.7 161.5,-97.7 161.5,-75.7 8.5,-75.7"/>
<polygon fill="none" stroke="#000000" points="8.5,-75.7 8.5,-97.7 161.5,-97.7 161.5,-75.7 8.5,-75.7"/>
<image xlink:href="../../images/foreignKeys.png" width="11px" height="12px" preserveAspectRatio="xMinYMin meet" x="13.5" y="-92.7"/>
<text text-anchor="start" x="37.5" y="-82.8" font-family="Helvetica,sans-Serif" font-size="11.00" fill="#000000">parent</text>
<polygon fill="none" stroke="#000000" points="8.5,-56.7 8.5,-75.7 161.5,-75.7 161.5,-56.7 8.5,-56.7"/>
<text text-anchor="start" x="11.5" y="-62.8" font-family="Helvetica,sans-Serif" font-size="11.00" fill="#000000">...</text>
<polygon fill="#ffffff" stroke="transparent" points="8.5,-37.7 8.5,-56.7 75.5,-56.7 75.5,-37.7 8.5,-37.7"/>
<polygon fill="none" stroke="#000000" points="8.5,-37.7 8.5,-56.7 75.5,-56.7 75.5,-37.7 8.5,-37.7"/>
<text text-anchor="start" x="11.5" y="-43.8" font-family="Helvetica,sans-Serif" font-size="11.00" fill="#000000">&lt; 1</text>
<polygon fill="#ffffff" stroke="transparent" points="75.5,-37.7 75.5,-56.7 110.5,-56.7 110.5,-37.7 75.5,-37.7"/>
<polygon fill="none" stroke="#000000" points="75.5,-37.7 75.5,-56.7 110.5,-56.7 110.5,-37.7 75.5,-37.7"/>
<text text-anchor="start" x="101.3862" y="-43.8" font-family="Helvetica,sans-Serif" font-size="11.00" fill="#000000"> &#160;</text>
<polygon fill="#ffffff" stroke="transparent" points="110.5,-37.7 110.5,-56.7 161.5,-56.7 161.5,-37.7 110.5,-37.7"/>
<polygon fill="none" stroke="#000000" points="110.5,-37.7 110.5,-56.7 161.5,-56.7 161.5,-37.7 110.5,-37.7"/>
<text text-anchor="start" x="136.7904" y="-43.8" font-family="Helvetica,sans-Serif" font-size="11.00" fill="#000000">13 &gt;</text>
</a>
</g>
</g>
<!-- AgLibraryCollectionTrackedAssets&#45;&gt;AgLibraryCollection -->
<g id="edge1" class="edge">
<title>AgLibraryCollectionTrackedAssets:w&#45;&gt;AgLibraryCollection:e</title>
<path fill="none" stroke="#000000" d="M197.776,-152.7C185.7815,-152.7 178.3229,-152.7 161.5,-152.7"/>
<polygon fill="#000000" stroke="#000000" points="204.5,-152.7001 212.5,-156.3 208.5,-152.7 212.5,-152.7 212.5,-152.7 212.5,-152.7 208.5,-152.7 212.5,-149.1 204.5,-152.7001 204.5,-152.7001"/>
<ellipse fill="none" stroke="#000000" cx="201.3" cy="-152.7001" rx="3.2" ry="3.2"/>
</g>
</g>
</svg>
