<?xml version="1.0" encoding="UTF-8" standalone="no"?>
<!DOCTYPE svg PUBLIC "-//W3C//DTD SVG 1.1//EN"
 "http://www.w3.org/Graphics/SVG/1.1/DTD/svg11.dtd">
<!-- Generated by graphviz version 2.40.1 (20161225.0304)
 -->
<!-- Title: twoDegreesRelationshipsDiagram Pages: 1 -->
<svg width="1008pt" height="2455pt"
 viewBox="0.00 0.00 1008.00 2455.20" xmlns="http://www.w3.org/2000/svg" xmlns:xlink="http://www.w3.org/1999/xlink">
<g id="graph0" class="graph" transform="scale(1 1) rotate(0) translate(4 2451.2)">
<title>twoDegreesRelationshipsDiagram</title>
<polygon fill="#ffffff" stroke="transparent" points="-4,4 -4,-2451.2 1004,-2451.2 1004,4 -4,4"/>
<text text-anchor="middle" x="72.4936" y="-7.3" font-family="Helvetica,sans-Serif" font-size="11.00" fill="#000000">Generated by SchemaSpy</text>
<!-- Adobe_AdditionalMetadata -->
<g id="node1" class="node">
<title>Adobe_AdditionalMetadata</title>
<g id="a_node1"><a xlink:href="../../tables/Adobe_AdditionalMetadata.html" xlink:title="Adobe_AdditionalMetadata" target="_top">
<polygon fill="#ffffff" stroke="transparent" points="421,-2382.2 421,-2443.2 614,-2443.2 614,-2382.2 421,-2382.2"/>
<polygon fill="#f5f5f5" stroke="transparent" points="421.5,-2419.7 421.5,-2442.7 614.5,-2442.7 614.5,-2419.7 421.5,-2419.7"/>
<polygon fill="none" stroke="#000000" points="421.5,-2419.7 421.5,-2442.7 614.5,-2442.7 614.5,-2419.7 421.5,-2419.7"/>
<text text-anchor="start" x="426.5" y="-2428.3" font-family="Helvetica,sans-Serif" font-weight="bold" font-size="11.00" fill="#000000">Adobe_AdditionalMetadata</text>
<text text-anchor="start" x="580.0219" y="-2427.8" font-family="Helvetica,sans-Serif" font-size="11.00" fill="#000000">[table]</text>
<polygon fill="none" stroke="#000000" points="421.5,-2400.7 421.5,-2419.7 614.5,-2419.7 614.5,-2400.7 421.5,-2400.7"/>
<text text-anchor="start" x="424.5" y="-2406.8" font-family="Helvetica,sans-Serif" font-size="11.00" fill="#000000">...</text>
<polygon fill="#ffffff" stroke="transparent" points="421.5,-2381.7 421.5,-2400.7 516.5,-2400.7 516.5,-2381.7 421.5,-2381.7"/>
<polygon fill="none" stroke="#000000" points="421.5,-2381.7 421.5,-2400.7 516.5,-2400.7 516.5,-2381.7 421.5,-2381.7"/>
<text text-anchor="start" x="424.5" y="-2387.8" font-family="Helvetica,sans-Serif" font-size="11.00" fill="#000000">&lt; 1</text>
<polygon fill="#ffffff" stroke="transparent" points="516.5,-2381.7 516.5,-2400.7 565.5,-2400.7 565.5,-2381.7 516.5,-2381.7"/>
<polygon fill="none" stroke="#000000" points="516.5,-2381.7 516.5,-2400.7 565.5,-2400.7 565.5,-2381.7 516.5,-2381.7"/>
<text text-anchor="start" x="556.3862" y="-2387.8" font-family="Helvetica,sans-Serif" font-size="11.00" fill="#000000"> &#160;</text>
<polygon fill="#ffffff" stroke="transparent" points="565.5,-2381.7 565.5,-2400.7 614.5,-2400.7 614.5,-2381.7 565.5,-2381.7"/>
<polygon fill="none" stroke="#000000" points="565.5,-2381.7 565.5,-2400.7 614.5,-2400.7 614.5,-2381.7 565.5,-2381.7"/>
<text text-anchor="start" x="605.3862" y="-2387.8" font-family="Helvetica,sans-Serif" font-size="11.00" fill="#000000"> &#160;</text>
</a>
</g>
</g>
<!-- Adobe_images -->
<g id="node2" class="node">
<title>Adobe_images</title>
<g id="a_node2"><a xlink:href="../../tables/Adobe_images.html" xlink:title="Adobe_images" target="_top">
<polygon fill="#ffffff" stroke="transparent" points="173,-1148.2 173,-1363.2 334,-1363.2 334,-1148.2 173,-1148.2"/>
<polygon fill="#f5f5f5" stroke="transparent" points="173.5,-1339.7 173.5,-1362.7 334.5,-1362.7 334.5,-1339.7 173.5,-1339.7"/>
<polygon fill="none" stroke="#000000" points="173.5,-1339.7 173.5,-1362.7 334.5,-1362.7 334.5,-1339.7 173.5,-1339.7"/>
<text text-anchor="start" x="178.5" y="-1348.3" font-family="Helvetica,sans-Serif" font-weight="bold" font-size="11.00" fill="#000000">Adobe_images</text>
<text text-anchor="start" x="299.5437" y="-1347.8" font-family="Helvetica,sans-Serif" font-size="11.00" fill="#000000">[table]</text>
<polygon fill="none" stroke="#000000" points="173.5,-1317.7 173.5,-1339.7 334.5,-1339.7 334.5,-1317.7 173.5,-1317.7"/>
<image xlink:href="../../images/primaryKeys.png" width="11px" height="12px" preserveAspectRatio="xMinYMin meet" x="178.5" y="-1334.7"/>
<text text-anchor="start" x="193.5" y="-1324.8" font-family="Helvetica,sans-Serif" font-size="11.00" fill="#000000">id_local</text>
<polygon fill="#ffffff" stroke="transparent" points="173.5,-1295.7 173.5,-1317.7 334.5,-1317.7 334.5,-1295.7 173.5,-1295.7"/>
<polygon fill="none" stroke="#000000" points="173.5,-1295.7 173.5,-1317.7 334.5,-1317.7 334.5,-1295.7 173.5,-1295.7"/>
<text text-anchor="start" x="193.5" y="-1302.8" font-family="Helvetica,sans-Serif" font-size="11.00" fill="#000000">id_global</text>
<polygon fill="#ffffff" stroke="transparent" points="173.5,-1273.7 173.5,-1295.7 334.5,-1295.7 334.5,-1273.7 173.5,-1273.7"/>
<polygon fill="none" stroke="#000000" points="173.5,-1273.7 173.5,-1295.7 334.5,-1295.7 334.5,-1273.7 173.5,-1273.7"/>
<text text-anchor="start" x="193.5" y="-1280.8" font-family="Helvetica,sans-Serif" font-size="11.00" fill="#000000">captureTime</text>
<polygon fill="#ffffff" stroke="transparent" points="173.5,-1251.7 173.5,-1273.7 334.5,-1273.7 334.5,-1251.7 173.5,-1251.7"/>
<polygon fill="none" stroke="#000000" points="173.5,-1251.7 173.5,-1273.7 334.5,-1273.7 334.5,-1251.7 173.5,-1251.7"/>
<image xlink:href="../../images/foreignKeys.png" width="11px" height="12px" preserveAspectRatio="xMinYMin meet" x="178.5" y="-1268.7"/>
<text text-anchor="start" x="193.5" y="-1258.8" font-family="Helvetica,sans-Serif" font-size="11.00" fill="#000000">masterImage</text>
<polygon fill="#ffffff" stroke="transparent" points="173.5,-1229.7 173.5,-1251.7 334.5,-1251.7 334.5,-1229.7 173.5,-1229.7"/>
<polygon fill="none" stroke="#000000" points="173.5,-1229.7 173.5,-1251.7 334.5,-1251.7 334.5,-1229.7 173.5,-1229.7"/>
<text text-anchor="start" x="193.5" y="-1236.8" font-family="Helvetica,sans-Serif" font-size="11.00" fill="#000000">originalRootEntity</text>
<polygon fill="#ffffff" stroke="transparent" points="173.5,-1207.7 173.5,-1229.7 334.5,-1229.7 334.5,-1207.7 173.5,-1207.7"/>
<polygon fill="none" stroke="#000000" points="173.5,-1207.7 173.5,-1229.7 334.5,-1229.7 334.5,-1207.7 173.5,-1207.7"/>
<text text-anchor="start" x="193.5" y="-1214.8" font-family="Helvetica,sans-Serif" font-size="11.00" fill="#000000">rating</text>
<polygon fill="#ffffff" stroke="transparent" points="173.5,-1185.7 173.5,-1207.7 334.5,-1207.7 334.5,-1185.7 173.5,-1185.7"/>
<polygon fill="none" stroke="#000000" points="173.5,-1185.7 173.5,-1207.7 334.5,-1207.7 334.5,-1185.7 173.5,-1185.7"/>
<image xlink:href="../../images/foreignKeys.png" width="11px" height="12px" preserveAspectRatio="xMinYMin meet" x="178.5" y="-1202.7"/>
<text text-anchor="start" x="193.5" y="-1192.8" font-family="Helvetica,sans-Serif" font-size="11.00" fill="#000000">rootFile</text>
<polygon fill="none" stroke="#000000" points="173.5,-1166.7 173.5,-1185.7 334.5,-1185.7 334.5,-1166.7 173.5,-1166.7"/>
<text text-anchor="start" x="176.5" y="-1172.8" font-family="Helvetica,sans-Serif" font-size="11.00" fill="#000000">...</text>
<polygon fill="#ffffff" stroke="transparent" points="173.5,-1147.7 173.5,-1166.7 244.5,-1166.7 244.5,-1147.7 173.5,-1147.7"/>
<polygon fill="none" stroke="#000000" points="173.5,-1147.7 173.5,-1166.7 244.5,-1166.7 244.5,-1147.7 173.5,-1147.7"/>
<text text-anchor="start" x="176.5" y="-1153.8" font-family="Helvetica,sans-Serif" font-size="11.00" fill="#000000">&lt; 2</text>
<polygon fill="#ffffff" stroke="transparent" points="244.5,-1147.7 244.5,-1166.7 281.5,-1166.7 281.5,-1147.7 244.5,-1147.7"/>
<polygon fill="none" stroke="#000000" points="244.5,-1147.7 244.5,-1166.7 281.5,-1166.7 281.5,-1147.7 244.5,-1147.7"/>
<text text-anchor="start" x="272.3862" y="-1153.8" font-family="Helvetica,sans-Serif" font-size="11.00" fill="#000000"> &#160;</text>
<polygon fill="#ffffff" stroke="transparent" points="281.5,-1147.7 281.5,-1166.7 334.5,-1166.7 334.5,-1147.7 281.5,-1147.7"/>
<polygon fill="none" stroke="#000000" points="281.5,-1147.7 281.5,-1166.7 334.5,-1166.7 334.5,-1147.7 281.5,-1147.7"/>
<text text-anchor="start" x="309.7904" y="-1153.8" font-family="Helvetica,sans-Serif" font-size="11.00" fill="#000000">31 &gt;</text>
</a>
</g>
</g>
<!-- Adobe_AdditionalMetadata&#45;&gt;Adobe_images -->
<g id="edge1" class="edge">
<title>Adobe_AdditionalMetadata:w&#45;&gt;Adobe_images:e</title>
<path fill="none" stroke="#000000" d="M406.9037,-2407.8571C391.2963,-2403.3118 384.3916,-2390.5499 375,-2371.7 349.1404,-2319.7972 392.4881,-1328.7 334.5,-1328.7"/>
<polygon fill="#000000" stroke="#000000" points="413.563,-2408.6978 421.049,-2413.2716 417.5315,-2409.1989 421.5,-2409.7 421.5,-2409.7 421.5,-2409.7 417.5315,-2409.1989 421.951,-2406.1284 413.563,-2408.6978 413.563,-2408.6978"/>
<ellipse fill="none" stroke="#000000" cx="410.3882" cy="-2408.297" rx="3.2" ry="3.2"/>
</g>
<!-- AgLibraryFile -->
<g id="node6" class="node">
<title>AgLibraryFile</title>
<g id="a_node6"><a xlink:href="../../tables/AgLibraryFile.html" xlink:title="AgLibraryFile" target="_top">
<polygon fill="#ffffff" stroke="transparent" points="8,-1169.2 8,-1230.2 124,-1230.2 124,-1169.2 8,-1169.2"/>
<polygon fill="#f5f5f5" stroke="transparent" points="8,-1206.7 8,-1229.7 124,-1229.7 124,-1206.7 8,-1206.7"/>
<polygon fill="none" stroke="#000000" points="8,-1206.7 8,-1229.7 124,-1229.7 124,-1206.7 8,-1206.7"/>
<text text-anchor="start" x="13" y="-1215.3" font-family="Helvetica,sans-Serif" font-weight="bold" font-size="11.00" fill="#000000">AgLibraryFile</text>
<text text-anchor="start" x="89.5219" y="-1214.8" font-family="Helvetica,sans-Serif" font-size="11.00" fill="#000000">[table]</text>
<polygon fill="none" stroke="#000000" points="8,-1187.7 8,-1206.7 124,-1206.7 124,-1187.7 8,-1187.7"/>
<text text-anchor="start" x="11" y="-1193.8" font-family="Helvetica,sans-Serif" font-size="11.00" fill="#000000">...</text>
<polygon fill="#ffffff" stroke="transparent" points="8,-1168.7 8,-1187.7 60,-1187.7 60,-1168.7 8,-1168.7"/>
<polygon fill="none" stroke="#000000" points="8,-1168.7 8,-1187.7 60,-1187.7 60,-1168.7 8,-1168.7"/>
<text text-anchor="start" x="11" y="-1174.8" font-family="Helvetica,sans-Serif" font-size="11.00" fill="#000000">&lt; 1</text>
<polygon fill="#ffffff" stroke="transparent" points="60,-1168.7 60,-1187.7 87,-1187.7 87,-1168.7 60,-1168.7"/>
<polygon fill="none" stroke="#000000" points="60,-1168.7 60,-1187.7 87,-1187.7 87,-1168.7 60,-1168.7"/>
<text text-anchor="start" x="77.8862" y="-1174.8" font-family="Helvetica,sans-Serif" font-size="11.00" fill="#000000"> &#160;</text>
<polygon fill="#ffffff" stroke="transparent" points="87,-1168.7 87,-1187.7 124,-1187.7 124,-1168.7 87,-1168.7"/>
<polygon fill="none" stroke="#000000" points="87,-1168.7 87,-1187.7 124,-1187.7 124,-1168.7 87,-1168.7"/>
<text text-anchor="start" x="105.4053" y="-1174.8" font-family="Helvetica,sans-Serif" font-size="11.00" fill="#000000">2 &gt;</text>
</a>
</g>
</g>
<!-- Adobe_images&#45;&gt;AgLibraryFile -->
<g id="edge5" class="edge">
<title>Adobe_images:w&#45;&gt;AgLibraryFile:e</title>
<path fill="none" stroke="#000000" d="M158.8428,-1196.7C147.4139,-1196.7 140.1563,-1196.7 124,-1196.7"/>
<polygon fill="#000000" stroke="#000000" points="165.5,-1196.7001 173.5,-1200.3 169.5,-1196.7 173.5,-1196.7 173.5,-1196.7 173.5,-1196.7 169.5,-1196.7 173.5,-1193.1 165.5,-1196.7001 165.5,-1196.7001"/>
<ellipse fill="none" stroke="#000000" cx="162.3" cy="-1196.7001" rx="3.2" ry="3.2"/>
</g>
<!-- Adobe_imageDevelopSettings -->
<g id="node3" class="node">
<title>Adobe_imageDevelopSettings</title>
<g id="a_node3"><a xlink:href="../../tables/Adobe_imageDevelopSettings.html" xlink:title="Adobe_imageDevelopSettings" target="_top">
<polygon fill="#ffffff" stroke="transparent" points="412,-2300.2 412,-2361.2 623,-2361.2 623,-2300.2 412,-2300.2"/>
<polygon fill="#f5f5f5" stroke="transparent" points="412.5,-2337.7 412.5,-2360.7 623.5,-2360.7 623.5,-2337.7 412.5,-2337.7"/>
<polygon fill="none" stroke="#000000" points="412.5,-2337.7 412.5,-2360.7 623.5,-2360.7 623.5,-2337.7 412.5,-2337.7"/>
<text text-anchor="start" x="417.5" y="-2346.3" font-family="Helvetica,sans-Serif" font-weight="bold" font-size="11.00" fill="#000000">Adobe_imageDevelopSettings</text>
<text text-anchor="start" x="589.0219" y="-2345.8" font-family="Helvetica,sans-Serif" font-size="11.00" fill="#000000">[table]</text>
<polygon fill="none" stroke="#000000" points="412.5,-2318.7 412.5,-2337.7 623.5,-2337.7 623.5,-2318.7 412.5,-2318.7"/>
<text text-anchor="start" x="415.5" y="-2324.8" font-family="Helvetica,sans-Serif" font-size="11.00" fill="#000000">...</text>
<polygon fill="#ffffff" stroke="transparent" points="412.5,-2299.7 412.5,-2318.7 511.5,-2318.7 511.5,-2299.7 412.5,-2299.7"/>
<polygon fill="none" stroke="#000000" points="412.5,-2299.7 412.5,-2318.7 511.5,-2318.7 511.5,-2299.7 412.5,-2299.7"/>
<text text-anchor="start" x="415.5" y="-2305.8" font-family="Helvetica,sans-Serif" font-size="11.00" fill="#000000">&lt; 1</text>
<polygon fill="#ffffff" stroke="transparent" points="511.5,-2299.7 511.5,-2318.7 562.5,-2318.7 562.5,-2299.7 511.5,-2299.7"/>
<polygon fill="none" stroke="#000000" points="511.5,-2299.7 511.5,-2318.7 562.5,-2318.7 562.5,-2299.7 511.5,-2299.7"/>
<text text-anchor="start" x="553.3862" y="-2305.8" font-family="Helvetica,sans-Serif" font-size="11.00" fill="#000000"> &#160;</text>
<polygon fill="#ffffff" stroke="transparent" points="562.5,-2299.7 562.5,-2318.7 623.5,-2318.7 623.5,-2299.7 562.5,-2299.7"/>
<polygon fill="none" stroke="#000000" points="562.5,-2299.7 562.5,-2318.7 623.5,-2318.7 623.5,-2299.7 562.5,-2299.7"/>
<text text-anchor="start" x="604.9053" y="-2305.8" font-family="Helvetica,sans-Serif" font-size="11.00" fill="#000000">1 &gt;</text>
</a>
</g>
</g>
<!-- Adobe_imageDevelopSettings&#45;&gt;Adobe_images -->
<g id="edge2" class="edge">
<title>Adobe_imageDevelopSettings:w&#45;&gt;Adobe_images:e</title>
<path fill="none" stroke="#000000" d="M398.3288,-2324.9942C386.3844,-2319.5089 382.1749,-2306.1878 375,-2289.7 353.6779,-2240.702 387.9363,-1328.7 334.5,-1328.7"/>
<polygon fill="#000000" stroke="#000000" points="404.642,-2326.1996 411.8248,-2331.2361 408.571,-2326.9498 412.5,-2327.7 412.5,-2327.7 412.5,-2327.7 408.571,-2326.9498 413.1752,-2324.1639 404.642,-2326.1996 404.642,-2326.1996"/>
<ellipse fill="none" stroke="#000000" cx="401.4987" cy="-2325.5994" rx="3.2" ry="3.2"/>
</g>
<!-- Adobe_imageProofSettings -->
<g id="node4" class="node">
<title>Adobe_imageProofSettings</title>
<g id="a_node4"><a xlink:href="../../tables/Adobe_imageProofSettings.html" xlink:title="Adobe_imageProofSettings" target="_top">
<polygon fill="#ffffff" stroke="transparent" points="419.5,-2218.2 419.5,-2279.2 615.5,-2279.2 615.5,-2218.2 419.5,-2218.2"/>
<polygon fill="#f5f5f5" stroke="transparent" points="419.5,-2255.7 419.5,-2278.7 615.5,-2278.7 615.5,-2255.7 419.5,-2255.7"/>
<polygon fill="none" stroke="#000000" points="419.5,-2255.7 419.5,-2278.7 615.5,-2278.7 615.5,-2255.7 419.5,-2255.7"/>
<text text-anchor="start" x="424.5" y="-2264.3" font-family="Helvetica,sans-Serif" font-weight="bold" font-size="11.00" fill="#000000">Adobe_imageProofSettings</text>
<text text-anchor="start" x="581.0219" y="-2263.8" font-family="Helvetica,sans-Serif" font-size="11.00" fill="#000000">[table]</text>
<polygon fill="none" stroke="#000000" points="419.5,-2236.7 419.5,-2255.7 615.5,-2255.7 615.5,-2236.7 419.5,-2236.7"/>
<text text-anchor="start" x="422.5" y="-2242.8" font-family="Helvetica,sans-Serif" font-size="11.00" fill="#000000">...</text>
<polygon fill="#ffffff" stroke="transparent" points="419.5,-2217.7 419.5,-2236.7 515.5,-2236.7 515.5,-2217.7 419.5,-2217.7"/>
<polygon fill="none" stroke="#000000" points="419.5,-2217.7 419.5,-2236.7 515.5,-2236.7 515.5,-2217.7 419.5,-2217.7"/>
<text text-anchor="start" x="422.5" y="-2223.8" font-family="Helvetica,sans-Serif" font-size="11.00" fill="#000000">&lt; 1</text>
<polygon fill="#ffffff" stroke="transparent" points="515.5,-2217.7 515.5,-2236.7 565.5,-2236.7 565.5,-2217.7 515.5,-2217.7"/>
<polygon fill="none" stroke="#000000" points="515.5,-2217.7 515.5,-2236.7 565.5,-2236.7 565.5,-2217.7 515.5,-2217.7"/>
<text text-anchor="start" x="556.3862" y="-2223.8" font-family="Helvetica,sans-Serif" font-size="11.00" fill="#000000"> &#160;</text>
<polygon fill="#ffffff" stroke="transparent" points="565.5,-2217.7 565.5,-2236.7 615.5,-2236.7 615.5,-2217.7 565.5,-2217.7"/>
<polygon fill="none" stroke="#000000" points="565.5,-2217.7 565.5,-2236.7 615.5,-2236.7 615.5,-2217.7 565.5,-2217.7"/>
<text text-anchor="start" x="606.3862" y="-2223.8" font-family="Helvetica,sans-Serif" font-size="11.00" fill="#000000"> &#160;</text>
</a>
</g>
</g>
<!-- Adobe_imageProofSettings&#45;&gt;Adobe_images -->
<g id="edge3" class="edge">
<title>Adobe_imageProofSettings:w&#45;&gt;Adobe_images:e</title>
<path fill="none" stroke="#000000" d="M404.9082,-2243.6605C390.1937,-2238.8782 383.9298,-2225.951 375,-2207.7 353.5154,-2163.7891 383.3851,-1328.7 334.5,-1328.7"/>
<polygon fill="#000000" stroke="#000000" points="411.577,-2244.5925 419.0016,-2249.2653 415.5385,-2245.1463 419.5,-2245.7 419.5,-2245.7 419.5,-2245.7 415.5385,-2245.1463 419.9984,-2242.1347 411.577,-2244.5925 411.577,-2244.5925"/>
<ellipse fill="none" stroke="#000000" cx="408.4078" cy="-2244.1496" rx="3.2" ry="3.2"/>
</g>
<!-- Adobe_imageProperties -->
<g id="node5" class="node">
<title>Adobe_imageProperties</title>
<g id="a_node5"><a xlink:href="../../tables/Adobe_imageProperties.html" xlink:title="Adobe_imageProperties" target="_top">
<polygon fill="#ffffff" stroke="transparent" points="429,-2136.2 429,-2197.2 606,-2197.2 606,-2136.2 429,-2136.2"/>
<polygon fill="#f5f5f5" stroke="transparent" points="429.5,-2173.7 429.5,-2196.7 606.5,-2196.7 606.5,-2173.7 429.5,-2173.7"/>
<polygon fill="none" stroke="#000000" points="429.5,-2173.7 429.5,-2196.7 606.5,-2196.7 606.5,-2173.7 429.5,-2173.7"/>
<text text-anchor="start" x="434.5" y="-2182.3" font-family="Helvetica,sans-Serif" font-weight="bold" font-size="11.00" fill="#000000">Adobe_imageProperties</text>
<text text-anchor="start" x="572.0219" y="-2181.8" font-family="Helvetica,sans-Serif" font-size="11.00" fill="#000000">[table]</text>
<polygon fill="none" stroke="#000000" points="429.5,-2154.7 429.5,-2173.7 606.5,-2173.7 606.5,-2154.7 429.5,-2154.7"/>
<text text-anchor="start" x="432.5" y="-2160.8" font-family="Helvetica,sans-Serif" font-size="11.00" fill="#000000">...</text>
<polygon fill="#ffffff" stroke="transparent" points="429.5,-2135.7 429.5,-2154.7 516.5,-2154.7 516.5,-2135.7 429.5,-2135.7"/>
<polygon fill="none" stroke="#000000" points="429.5,-2135.7 429.5,-2154.7 516.5,-2154.7 516.5,-2135.7 429.5,-2135.7"/>
<text text-anchor="start" x="432.5" y="-2141.8" font-family="Helvetica,sans-Serif" font-size="11.00" fill="#000000">&lt; 1</text>
<polygon fill="#ffffff" stroke="transparent" points="516.5,-2135.7 516.5,-2154.7 561.5,-2154.7 561.5,-2135.7 516.5,-2135.7"/>
<polygon fill="none" stroke="#000000" points="516.5,-2135.7 516.5,-2154.7 561.5,-2154.7 561.5,-2135.7 516.5,-2135.7"/>
<text text-anchor="start" x="552.3862" y="-2141.8" font-family="Helvetica,sans-Serif" font-size="11.00" fill="#000000"> &#160;</text>
<polygon fill="#ffffff" stroke="transparent" points="561.5,-2135.7 561.5,-2154.7 606.5,-2154.7 606.5,-2135.7 561.5,-2135.7"/>
<polygon fill="none" stroke="#000000" points="561.5,-2135.7 561.5,-2154.7 606.5,-2154.7 606.5,-2135.7 561.5,-2135.7"/>
<text text-anchor="start" x="597.3862" y="-2141.8" font-family="Helvetica,sans-Serif" font-size="11.00" fill="#000000"> &#160;</text>
</a>
</g>
</g>
<!-- Adobe_imageProperties&#45;&gt;Adobe_images -->
<g id="edge4" class="edge">
<title>Adobe_imageProperties:w&#45;&gt;Adobe_images:e</title>
<path fill="none" stroke="#000000" d="M415.0055,-2162.4596C395.9369,-2158.769 386.6918,-2146.7826 375,-2125.7 331.9965,-2048.1562 423.1698,-1328.7 334.5,-1328.7"/>
<polygon fill="#000000" stroke="#000000" points="421.5291,-2163.0178 429.193,-2167.2869 425.5146,-2163.3589 429.5,-2163.7 429.5,-2163.7 429.5,-2163.7 425.5146,-2163.3589 429.807,-2160.1131 421.5291,-2163.0178 421.5291,-2163.0178"/>
<ellipse fill="none" stroke="#000000" cx="418.3408" cy="-2162.745" rx="3.2" ry="3.2"/>
</g>
<!-- Adobe_libraryImageDevelopHistoryStep -->
<g id="node7" class="node">
<title>Adobe_libraryImageDevelopHistoryStep</title>
<g id="a_node7"><a xlink:href="../../tables/Adobe_libraryImageDevelopHistoryStep.html" xlink:title="Adobe_libraryImageDevelopHistoryStep" target="_top">
<polygon fill="#ffffff" stroke="transparent" points="383.5,-2054.2 383.5,-2115.2 651.5,-2115.2 651.5,-2054.2 383.5,-2054.2"/>
<polygon fill="#f5f5f5" stroke="transparent" points="383.5,-2091.7 383.5,-2114.7 651.5,-2114.7 651.5,-2091.7 383.5,-2091.7"/>
<polygon fill="none" stroke="#000000" points="383.5,-2091.7 383.5,-2114.7 651.5,-2114.7 651.5,-2091.7 383.5,-2091.7"/>
<text text-anchor="start" x="388.5" y="-2100.3" font-family="Helvetica,sans-Serif" font-weight="bold" font-size="11.00" fill="#000000">Adobe_libraryImageDevelopHistoryStep</text>
<text text-anchor="start" x="617.0219" y="-2099.8" font-family="Helvetica,sans-Serif" font-size="11.00" fill="#000000">[table]</text>
<polygon fill="none" stroke="#000000" points="383.5,-2072.7 383.5,-2091.7 651.5,-2091.7 651.5,-2072.7 383.5,-2072.7"/>
<text text-anchor="start" x="386.5" y="-2078.8" font-family="Helvetica,sans-Serif" font-size="11.00" fill="#000000">...</text>
<polygon fill="#ffffff" stroke="transparent" points="383.5,-2053.7 383.5,-2072.7 515.5,-2072.7 515.5,-2053.7 383.5,-2053.7"/>
<polygon fill="none" stroke="#000000" points="383.5,-2053.7 383.5,-2072.7 515.5,-2072.7 515.5,-2053.7 383.5,-2053.7"/>
<text text-anchor="start" x="386.5" y="-2059.8" font-family="Helvetica,sans-Serif" font-size="11.00" fill="#000000">&lt; 1</text>
<polygon fill="#ffffff" stroke="transparent" points="515.5,-2053.7 515.5,-2072.7 583.5,-2072.7 583.5,-2053.7 515.5,-2053.7"/>
<polygon fill="none" stroke="#000000" points="515.5,-2053.7 515.5,-2072.7 583.5,-2072.7 583.5,-2053.7 515.5,-2053.7"/>
<text text-anchor="start" x="574.3862" y="-2059.8" font-family="Helvetica,sans-Serif" font-size="11.00" fill="#000000"> &#160;</text>
<polygon fill="#ffffff" stroke="transparent" points="583.5,-2053.7 583.5,-2072.7 651.5,-2072.7 651.5,-2053.7 583.5,-2053.7"/>
<polygon fill="none" stroke="#000000" points="583.5,-2053.7 583.5,-2072.7 651.5,-2072.7 651.5,-2053.7 583.5,-2053.7"/>
<text text-anchor="start" x="642.3862" y="-2059.8" font-family="Helvetica,sans-Serif" font-size="11.00" fill="#000000"> &#160;</text>
</a>
</g>
</g>
<!-- Adobe_libraryImageDevelopHistoryStep&#45;&gt;Adobe_images -->
<g id="edge6" class="edge">
<title>Adobe_libraryImageDevelopHistoryStep:w&#45;&gt;Adobe_images:e</title>
<path fill="none" stroke="#000000" d="M370.7664,-2074.2473C312.8697,-1996.043 413.4309,-1328.7 334.5,-1328.7"/>
<polygon fill="#000000" stroke="#000000" points="376.5956,-2077.659 381.6815,-2084.807 380.0478,-2079.6795 383.5,-2081.7 383.5,-2081.7 383.5,-2081.7 380.0478,-2079.6795 385.3185,-2078.593 376.5956,-2077.659 376.5956,-2077.659"/>
<ellipse fill="none" stroke="#000000" cx="373.8339" cy="-2076.0426" rx="3.2" ry="3.2"/>
</g>
<!-- Adobe_libraryImageDevelopSnapshot -->
<g id="node8" class="node">
<title>Adobe_libraryImageDevelopSnapshot</title>
<g id="a_node8"><a xlink:href="../../tables/Adobe_libraryImageDevelopSnapshot.html" xlink:title="Adobe_libraryImageDevelopSnapshot" target="_top">
<polygon fill="#ffffff" stroke="transparent" points="390,-1972.2 390,-2033.2 645,-2033.2 645,-1972.2 390,-1972.2"/>
<polygon fill="#f5f5f5" stroke="transparent" points="390.5,-2009.7 390.5,-2032.7 645.5,-2032.7 645.5,-2009.7 390.5,-2009.7"/>
<polygon fill="none" stroke="#000000" points="390.5,-2009.7 390.5,-2032.7 645.5,-2032.7 645.5,-2009.7 390.5,-2009.7"/>
<text text-anchor="start" x="395.5" y="-2018.3" font-family="Helvetica,sans-Serif" font-weight="bold" font-size="11.00" fill="#000000">Adobe_libraryImageDevelopSnapshot</text>
<text text-anchor="start" x="611.0219" y="-2017.8" font-family="Helvetica,sans-Serif" font-size="11.00" fill="#000000">[table]</text>
<polygon fill="none" stroke="#000000" points="390.5,-1990.7 390.5,-2009.7 645.5,-2009.7 645.5,-1990.7 390.5,-1990.7"/>
<text text-anchor="start" x="393.5" y="-1996.8" font-family="Helvetica,sans-Serif" font-size="11.00" fill="#000000">...</text>
<polygon fill="#ffffff" stroke="transparent" points="390.5,-1971.7 390.5,-1990.7 516.5,-1990.7 516.5,-1971.7 390.5,-1971.7"/>
<polygon fill="none" stroke="#000000" points="390.5,-1971.7 390.5,-1990.7 516.5,-1990.7 516.5,-1971.7 390.5,-1971.7"/>
<text text-anchor="start" x="393.5" y="-1977.8" font-family="Helvetica,sans-Serif" font-size="11.00" fill="#000000">&lt; 1</text>
<polygon fill="#ffffff" stroke="transparent" points="516.5,-1971.7 516.5,-1990.7 580.5,-1990.7 580.5,-1971.7 516.5,-1971.7"/>
<polygon fill="none" stroke="#000000" points="516.5,-1971.7 516.5,-1990.7 580.5,-1990.7 580.5,-1971.7 516.5,-1971.7"/>
<text text-anchor="start" x="571.3862" y="-1977.8" font-family="Helvetica,sans-Serif" font-size="11.00" fill="#000000"> &#160;</text>
<polygon fill="#ffffff" stroke="transparent" points="580.5,-1971.7 580.5,-1990.7 645.5,-1990.7 645.5,-1971.7 580.5,-1971.7"/>
<polygon fill="none" stroke="#000000" points="580.5,-1971.7 580.5,-1990.7 645.5,-1990.7 645.5,-1971.7 580.5,-1971.7"/>
<text text-anchor="start" x="636.3862" y="-1977.8" font-family="Helvetica,sans-Serif" font-size="11.00" fill="#000000"> &#160;</text>
</a>
</g>
</g>
<!-- Adobe_libraryImageDevelopSnapshot&#45;&gt;Adobe_images -->
<g id="edge7" class="edge">
<title>Adobe_libraryImageDevelopSnapshot:w&#45;&gt;Adobe_images:e</title>
<path fill="none" stroke="#000000" d="M378.0429,-1991.6969C327.0549,-1915.9914 404.4927,-1328.7 334.5,-1328.7"/>
<polygon fill="#000000" stroke="#000000" points="383.7693,-1995.3758 388.5541,-2002.7288 387.1347,-1997.5379 390.5,-1999.7 390.5,-1999.7 390.5,-1999.7 387.1347,-1997.5379 392.4459,-1996.6712 383.7693,-1995.3758 383.7693,-1995.3758"/>
<ellipse fill="none" stroke="#000000" cx="381.0771" cy="-1993.6462" rx="3.2" ry="3.2"/>
</g>
<!-- Adobe_libraryImageFaceProcessHistory -->
<g id="node9" class="node">
<title>Adobe_libraryImageFaceProcessHistory</title>
<g id="a_node9"><a xlink:href="../../tables/Adobe_libraryImageFaceProcessHistory.html" xlink:title="Adobe_libraryImageFaceProcessHistory" target="_top">
<polygon fill="#ffffff" stroke="transparent" points="383,-1890.2 383,-1951.2 652,-1951.2 652,-1890.2 383,-1890.2"/>
<polygon fill="#f5f5f5" stroke="transparent" points="383.5,-1927.7 383.5,-1950.7 652.5,-1950.7 652.5,-1927.7 383.5,-1927.7"/>
<polygon fill="none" stroke="#000000" points="383.5,-1927.7 383.5,-1950.7 652.5,-1950.7 652.5,-1927.7 383.5,-1927.7"/>
<text text-anchor="start" x="388.5" y="-1936.3" font-family="Helvetica,sans-Serif" font-weight="bold" font-size="11.00" fill="#000000">Adobe_libraryImageFaceProcessHistory</text>
<text text-anchor="start" x="618.0219" y="-1935.8" font-family="Helvetica,sans-Serif" font-size="11.00" fill="#000000">[table]</text>
<polygon fill="none" stroke="#000000" points="383.5,-1908.7 383.5,-1927.7 652.5,-1927.7 652.5,-1908.7 383.5,-1908.7"/>
<text text-anchor="start" x="386.5" y="-1914.8" font-family="Helvetica,sans-Serif" font-size="11.00" fill="#000000">...</text>
<polygon fill="#ffffff" stroke="transparent" points="383.5,-1889.7 383.5,-1908.7 516.5,-1908.7 516.5,-1889.7 383.5,-1889.7"/>
<polygon fill="none" stroke="#000000" points="383.5,-1889.7 383.5,-1908.7 516.5,-1908.7 516.5,-1889.7 383.5,-1889.7"/>
<text text-anchor="start" x="386.5" y="-1895.8" font-family="Helvetica,sans-Serif" font-size="11.00" fill="#000000">&lt; 1</text>
<polygon fill="#ffffff" stroke="transparent" points="516.5,-1889.7 516.5,-1908.7 584.5,-1908.7 584.5,-1889.7 516.5,-1889.7"/>
<polygon fill="none" stroke="#000000" points="516.5,-1889.7 516.5,-1908.7 584.5,-1908.7 584.5,-1889.7 516.5,-1889.7"/>
<text text-anchor="start" x="575.3862" y="-1895.8" font-family="Helvetica,sans-Serif" font-size="11.00" fill="#000000"> &#160;</text>
<polygon fill="#ffffff" stroke="transparent" points="584.5,-1889.7 584.5,-1908.7 652.5,-1908.7 652.5,-1889.7 584.5,-1889.7"/>
<polygon fill="none" stroke="#000000" points="584.5,-1889.7 584.5,-1908.7 652.5,-1908.7 652.5,-1889.7 584.5,-1889.7"/>
<text text-anchor="start" x="643.3862" y="-1895.8" font-family="Helvetica,sans-Serif" font-size="11.00" fill="#000000"> &#160;</text>
</a>
</g>
</g>
<!-- Adobe_libraryImageFaceProcessHistory&#45;&gt;Adobe_images -->
<g id="edge8" class="edge">
<title>Adobe_libraryImageFaceProcessHistory:w&#45;&gt;Adobe_images:e</title>
<path fill="none" stroke="#000000" d="M371.74,-1909.3737C328.6769,-1837.7838 395.5531,-1328.7 334.5,-1328.7"/>
<polygon fill="#000000" stroke="#000000" points="376.9708,-1913.0772 381.4197,-1920.6381 380.2354,-1915.3886 383.5,-1917.7 383.5,-1917.7 383.5,-1917.7 380.2354,-1915.3886 385.5803,-1914.7619 376.9708,-1913.0772 376.9708,-1913.0772"/>
<ellipse fill="none" stroke="#000000" cx="374.3591" cy="-1911.2281" rx="3.2" ry="3.2"/>
</g>
<!-- AgHarvestedDNGMetadata -->
<g id="node10" class="node">
<title>AgHarvestedDNGMetadata</title>
<g id="a_node10"><a xlink:href="../../tables/AgHarvestedDNGMetadata.html" xlink:title="AgHarvestedDNGMetadata" target="_top">
<polygon fill="#ffffff" stroke="transparent" points="422,-1808.2 422,-1869.2 613,-1869.2 613,-1808.2 422,-1808.2"/>
<polygon fill="#f5f5f5" stroke="transparent" points="422.5,-1845.7 422.5,-1868.7 613.5,-1868.7 613.5,-1845.7 422.5,-1845.7"/>
<polygon fill="none" stroke="#000000" points="422.5,-1845.7 422.5,-1868.7 613.5,-1868.7 613.5,-1845.7 422.5,-1845.7"/>
<text text-anchor="start" x="427.5" y="-1854.3" font-family="Helvetica,sans-Serif" font-weight="bold" font-size="11.00" fill="#000000">AgHarvestedDNGMetadata</text>
<text text-anchor="start" x="579.0219" y="-1853.8" font-family="Helvetica,sans-Serif" font-size="11.00" fill="#000000">[table]</text>
<polygon fill="none" stroke="#000000" points="422.5,-1826.7 422.5,-1845.7 613.5,-1845.7 613.5,-1826.7 422.5,-1826.7"/>
<text text-anchor="start" x="425.5" y="-1832.8" font-family="Helvetica,sans-Serif" font-size="11.00" fill="#000000">...</text>
<polygon fill="#ffffff" stroke="transparent" points="422.5,-1807.7 422.5,-1826.7 516.5,-1826.7 516.5,-1807.7 422.5,-1807.7"/>
<polygon fill="none" stroke="#000000" points="422.5,-1807.7 422.5,-1826.7 516.5,-1826.7 516.5,-1807.7 422.5,-1807.7"/>
<text text-anchor="start" x="425.5" y="-1813.8" font-family="Helvetica,sans-Serif" font-size="11.00" fill="#000000">&lt; 1</text>
<polygon fill="#ffffff" stroke="transparent" points="516.5,-1807.7 516.5,-1826.7 564.5,-1826.7 564.5,-1807.7 516.5,-1807.7"/>
<polygon fill="none" stroke="#000000" points="516.5,-1807.7 516.5,-1826.7 564.5,-1826.7 564.5,-1807.7 516.5,-1807.7"/>
<text text-anchor="start" x="555.3862" y="-1813.8" font-family="Helvetica,sans-Serif" font-size="11.00" fill="#000000"> &#160;</text>
<polygon fill="#ffffff" stroke="transparent" points="564.5,-1807.7 564.5,-1826.7 613.5,-1826.7 613.5,-1807.7 564.5,-1807.7"/>
<polygon fill="none" stroke="#000000" points="564.5,-1807.7 564.5,-1826.7 613.5,-1826.7 613.5,-1807.7 564.5,-1807.7"/>
<text text-anchor="start" x="604.3862" y="-1813.8" font-family="Helvetica,sans-Serif" font-size="11.00" fill="#000000"> &#160;</text>
</a>
</g>
</g>
<!-- AgHarvestedDNGMetadata&#45;&gt;Adobe_images -->
<g id="edge9" class="edge">
<title>AgHarvestedDNGMetadata:w&#45;&gt;Adobe_images:e</title>
<path fill="none" stroke="#000000" d="M407.742,-1833.8519C391.9859,-1829.2956 385.0603,-1816.5114 375,-1797.7 350.3332,-1751.5766 386.805,-1328.7 334.5,-1328.7"/>
<polygon fill="#000000" stroke="#000000" points="414.562,-1834.7059 422.0527,-1839.2721 418.531,-1835.203 422.5,-1835.7 422.5,-1835.7 422.5,-1835.7 418.531,-1835.203 422.9473,-1832.1279 414.562,-1834.7059 414.562,-1834.7059"/>
<ellipse fill="none" stroke="#000000" cx="411.3868" cy="-1834.3083" rx="3.2" ry="3.2"/>
</g>
<!-- AgHarvestedExifMetadata -->
<g id="node11" class="node">
<title>AgHarvestedExifMetadata</title>
<g id="a_node11"><a xlink:href="../../tables/AgHarvestedExifMetadata.html" xlink:title="AgHarvestedExifMetadata" target="_top">
<polygon fill="#ffffff" stroke="transparent" points="424,-1726.2 424,-1787.2 611,-1787.2 611,-1726.2 424,-1726.2"/>
<polygon fill="#f5f5f5" stroke="transparent" points="424.5,-1763.7 424.5,-1786.7 611.5,-1786.7 611.5,-1763.7 424.5,-1763.7"/>
<polygon fill="none" stroke="#000000" points="424.5,-1763.7 424.5,-1786.7 611.5,-1786.7 611.5,-1763.7 424.5,-1763.7"/>
<text text-anchor="start" x="429.5" y="-1772.3" font-family="Helvetica,sans-Serif" font-weight="bold" font-size="11.00" fill="#000000">AgHarvestedExifMetadata</text>
<text text-anchor="start" x="577.0219" y="-1771.8" font-family="Helvetica,sans-Serif" font-size="11.00" fill="#000000">[table]</text>
<polygon fill="none" stroke="#000000" points="424.5,-1744.7 424.5,-1763.7 611.5,-1763.7 611.5,-1744.7 424.5,-1744.7"/>
<text text-anchor="start" x="427.5" y="-1750.8" font-family="Helvetica,sans-Serif" font-size="11.00" fill="#000000">...</text>
<polygon fill="#ffffff" stroke="transparent" points="424.5,-1725.7 424.5,-1744.7 516.5,-1744.7 516.5,-1725.7 424.5,-1725.7"/>
<polygon fill="none" stroke="#000000" points="424.5,-1725.7 424.5,-1744.7 516.5,-1744.7 516.5,-1725.7 424.5,-1725.7"/>
<text text-anchor="start" x="427.5" y="-1731.8" font-family="Helvetica,sans-Serif" font-size="11.00" fill="#000000">&lt; 4</text>
<polygon fill="#ffffff" stroke="transparent" points="516.5,-1725.7 516.5,-1744.7 563.5,-1744.7 563.5,-1725.7 516.5,-1725.7"/>
<polygon fill="none" stroke="#000000" points="516.5,-1725.7 516.5,-1744.7 563.5,-1744.7 563.5,-1725.7 516.5,-1725.7"/>
<text text-anchor="start" x="554.3862" y="-1731.8" font-family="Helvetica,sans-Serif" font-size="11.00" fill="#000000"> &#160;</text>
<polygon fill="#ffffff" stroke="transparent" points="563.5,-1725.7 563.5,-1744.7 611.5,-1744.7 611.5,-1725.7 563.5,-1725.7"/>
<polygon fill="none" stroke="#000000" points="563.5,-1725.7 563.5,-1744.7 611.5,-1744.7 611.5,-1725.7 563.5,-1725.7"/>
<text text-anchor="start" x="602.3862" y="-1731.8" font-family="Helvetica,sans-Serif" font-size="11.00" fill="#000000"> &#160;</text>
</a>
</g>
</g>
<!-- AgHarvestedExifMetadata&#45;&gt;Adobe_images -->
<g id="edge10" class="edge">
<title>AgHarvestedExifMetadata:w&#45;&gt;Adobe_images:e</title>
<path fill="none" stroke="#000000" d="M409.8062,-1752.0207C393.2055,-1747.6657 385.7928,-1734.987 375,-1715.7 332.7743,-1640.2415 420.9696,-1328.7 334.5,-1328.7"/>
<polygon fill="#000000" stroke="#000000" points="416.5517,-1752.7916 424.0912,-1757.2767 420.5259,-1753.2458 424.5,-1753.7 424.5,-1753.7 424.5,-1753.7 420.5259,-1753.2458 424.9088,-1750.1233 416.5517,-1752.7916 416.5517,-1752.7916"/>
<ellipse fill="none" stroke="#000000" cx="413.3724" cy="-1752.4282" rx="3.2" ry="3.2"/>
</g>
<!-- AgHarvestedIptcMetadata -->
<g id="node12" class="node">
<title>AgHarvestedIptcMetadata</title>
<g id="a_node12"><a xlink:href="../../tables/AgHarvestedIptcMetadata.html" xlink:title="AgHarvestedIptcMetadata" target="_top">
<polygon fill="#ffffff" stroke="transparent" points="424.5,-1644.2 424.5,-1705.2 610.5,-1705.2 610.5,-1644.2 424.5,-1644.2"/>
<polygon fill="#f5f5f5" stroke="transparent" points="424.5,-1681.7 424.5,-1704.7 610.5,-1704.7 610.5,-1681.7 424.5,-1681.7"/>
<polygon fill="none" stroke="#000000" points="424.5,-1681.7 424.5,-1704.7 610.5,-1704.7 610.5,-1681.7 424.5,-1681.7"/>
<text text-anchor="start" x="429.5" y="-1690.3" font-family="Helvetica,sans-Serif" font-weight="bold" font-size="11.00" fill="#000000">AgHarvestedIptcMetadata</text>
<text text-anchor="start" x="576.0219" y="-1689.8" font-family="Helvetica,sans-Serif" font-size="11.00" fill="#000000">[table]</text>
<polygon fill="none" stroke="#000000" points="424.5,-1662.7 424.5,-1681.7 610.5,-1681.7 610.5,-1662.7 424.5,-1662.7"/>
<text text-anchor="start" x="427.5" y="-1668.8" font-family="Helvetica,sans-Serif" font-size="11.00" fill="#000000">...</text>
<polygon fill="#ffffff" stroke="transparent" points="424.5,-1643.7 424.5,-1662.7 515.5,-1662.7 515.5,-1643.7 424.5,-1643.7"/>
<polygon fill="none" stroke="#000000" points="424.5,-1643.7 424.5,-1662.7 515.5,-1662.7 515.5,-1643.7 424.5,-1643.7"/>
<text text-anchor="start" x="427.5" y="-1649.8" font-family="Helvetica,sans-Serif" font-size="11.00" fill="#000000">&lt; 8</text>
<polygon fill="#ffffff" stroke="transparent" points="515.5,-1643.7 515.5,-1662.7 562.5,-1662.7 562.5,-1643.7 515.5,-1643.7"/>
<polygon fill="none" stroke="#000000" points="515.5,-1643.7 515.5,-1662.7 562.5,-1662.7 562.5,-1643.7 515.5,-1643.7"/>
<text text-anchor="start" x="553.3862" y="-1649.8" font-family="Helvetica,sans-Serif" font-size="11.00" fill="#000000"> &#160;</text>
<polygon fill="#ffffff" stroke="transparent" points="562.5,-1643.7 562.5,-1662.7 610.5,-1662.7 610.5,-1643.7 562.5,-1643.7"/>
<polygon fill="none" stroke="#000000" points="562.5,-1643.7 562.5,-1662.7 610.5,-1662.7 610.5,-1643.7 562.5,-1643.7"/>
<text text-anchor="start" x="601.3862" y="-1649.8" font-family="Helvetica,sans-Serif" font-size="11.00" fill="#000000"> &#160;</text>
</a>
</g>
</g>
<!-- AgHarvestedIptcMetadata&#45;&gt;Adobe_images -->
<g id="edge11" class="edge">
<title>AgHarvestedIptcMetadata:w&#45;&gt;Adobe_images:e</title>
<path fill="none" stroke="#000000" d="M409.901,-1669.8504C392.7216,-1664.8528 386.1403,-1650.0696 375,-1629.7 342.6152,-1570.4856 401.9917,-1328.7 334.5,-1328.7"/>
<polygon fill="#000000" stroke="#000000" points="416.5634,-1670.6945 424.0475,-1675.2715 420.5317,-1671.1972 424.5,-1671.7 424.5,-1671.7 424.5,-1671.7 420.5317,-1671.1972 424.9525,-1668.1285 416.5634,-1670.6945 416.5634,-1670.6945"/>
<ellipse fill="none" stroke="#000000" cx="413.3888" cy="-1670.2923" rx="3.2" ry="3.2"/>
</g>
<!-- AgLibraryCollectionImage -->
<g id="node13" class="node">
<title>AgLibraryCollectionImage</title>
<g id="a_node13"><a xlink:href="../../tables/AgLibraryCollectionImage.html" xlink:title="AgLibraryCollectionImage" target="_top">
<polygon fill="#ffffff" stroke="transparent" points="423.5,-1534.2 423.5,-1595.2 611.5,-1595.2 611.5,-1534.2 423.5,-1534.2"/>
<polygon fill="#f5f5f5" stroke="transparent" points="423.5,-1571.7 423.5,-1594.7 611.5,-1594.7 611.5,-1571.7 423.5,-1571.7"/>
<polygon fill="none" stroke="#000000" points="423.5,-1571.7 423.5,-1594.7 611.5,-1594.7 611.5,-1571.7 423.5,-1571.7"/>
<text text-anchor="start" x="428.5" y="-1580.3" font-family="Helvetica,sans-Serif" font-weight="bold" font-size="11.00" fill="#000000">AgLibraryCollectionImage</text>
<text text-anchor="start" x="577.0219" y="-1579.8" font-family="Helvetica,sans-Serif" font-size="11.00" fill="#000000">[table]</text>
<polygon fill="none" stroke="#000000" points="423.5,-1552.7 423.5,-1571.7 611.5,-1571.7 611.5,-1552.7 423.5,-1552.7"/>
<text text-anchor="start" x="426.5" y="-1558.8" font-family="Helvetica,sans-Serif" font-size="11.00" fill="#000000">...</text>
<polygon fill="#ffffff" stroke="transparent" points="423.5,-1533.7 423.5,-1552.7 511.5,-1552.7 511.5,-1533.7 423.5,-1533.7"/>
<polygon fill="none" stroke="#000000" points="423.5,-1533.7 423.5,-1552.7 511.5,-1552.7 511.5,-1533.7 423.5,-1533.7"/>
<text text-anchor="start" x="426.5" y="-1539.8" font-family="Helvetica,sans-Serif" font-size="11.00" fill="#000000">&lt; 2</text>
<polygon fill="#ffffff" stroke="transparent" points="511.5,-1533.7 511.5,-1552.7 556.5,-1552.7 556.5,-1533.7 511.5,-1533.7"/>
<polygon fill="none" stroke="#000000" points="511.5,-1533.7 511.5,-1552.7 556.5,-1552.7 556.5,-1533.7 511.5,-1533.7"/>
<text text-anchor="start" x="547.3862" y="-1539.8" font-family="Helvetica,sans-Serif" font-size="11.00" fill="#000000"> &#160;</text>
<polygon fill="#ffffff" stroke="transparent" points="556.5,-1533.7 556.5,-1552.7 611.5,-1552.7 611.5,-1533.7 556.5,-1533.7"/>
<polygon fill="none" stroke="#000000" points="556.5,-1533.7 556.5,-1552.7 611.5,-1552.7 611.5,-1533.7 556.5,-1533.7"/>
<text text-anchor="start" x="592.9053" y="-1539.8" font-family="Helvetica,sans-Serif" font-size="11.00" fill="#000000">3 &gt;</text>
</a>
</g>
</g>
<!-- AgLibraryCollectionImage&#45;&gt;Adobe_images -->
<g id="edge12" class="edge">
<title>AgLibraryCollectionImage:w&#45;&gt;Adobe_images:e</title>
<path fill="none" stroke="#000000" d="M409.188,-1559.7809C392.4954,-1554.6156 386.6595,-1539.4623 375,-1519.7 330.9056,-1444.9617 421.2763,-1328.7 334.5,-1328.7"/>
<polygon fill="#000000" stroke="#000000" points="415.571,-1560.6368 423.0215,-1565.2681 419.5355,-1561.1684 423.5,-1561.7 423.5,-1561.7 423.5,-1561.7 419.5355,-1561.1684 423.9785,-1558.1319 415.571,-1560.6368 415.571,-1560.6368"/>
<ellipse fill="none" stroke="#000000" cx="412.3993" cy="-1560.2115" rx="3.2" ry="3.2"/>
</g>
<!-- AgLibraryCollectionImageChangeCounter -->
<g id="node14" class="node">
<title>AgLibraryCollectionImageChangeCounter</title>
<g id="a_node14"><a xlink:href="../../tables/AgLibraryCollectionImageChangeCounter.html" xlink:title="AgLibraryCollectionImageChangeCounter" target="_top">
<polygon fill="#ffffff" stroke="transparent" points="707.5,-1585.2 707.5,-1646.2 985.5,-1646.2 985.5,-1585.2 707.5,-1585.2"/>
<polygon fill="#f5f5f5" stroke="transparent" points="707.5,-1622.7 707.5,-1645.7 985.5,-1645.7 985.5,-1622.7 707.5,-1622.7"/>
<polygon fill="none" stroke="#000000" points="707.5,-1622.7 707.5,-1645.7 985.5,-1645.7 985.5,-1622.7 707.5,-1622.7"/>
<text text-anchor="start" x="712.5" y="-1631.3" font-family="Helvetica,sans-Serif" font-weight="bold" font-size="11.00" fill="#000000">AgLibraryCollectionImageChangeCounter</text>
<text text-anchor="start" x="951.0219" y="-1630.8" font-family="Helvetica,sans-Serif" font-size="11.00" fill="#000000">[table]</text>
<polygon fill="none" stroke="#000000" points="707.5,-1603.7 707.5,-1622.7 985.5,-1622.7 985.5,-1603.7 707.5,-1603.7"/>
<text text-anchor="start" x="710.5" y="-1609.8" font-family="Helvetica,sans-Serif" font-size="11.00" fill="#000000">...</text>
<polygon fill="#ffffff" stroke="transparent" points="707.5,-1584.7 707.5,-1603.7 844.5,-1603.7 844.5,-1584.7 707.5,-1584.7"/>
<polygon fill="none" stroke="#000000" points="707.5,-1584.7 707.5,-1603.7 844.5,-1603.7 844.5,-1584.7 707.5,-1584.7"/>
<text text-anchor="start" x="710.5" y="-1590.8" font-family="Helvetica,sans-Serif" font-size="11.00" fill="#000000">&lt; 3</text>
<polygon fill="#ffffff" stroke="transparent" points="844.5,-1584.7 844.5,-1603.7 914.5,-1603.7 914.5,-1584.7 844.5,-1584.7"/>
<polygon fill="none" stroke="#000000" points="844.5,-1584.7 844.5,-1603.7 914.5,-1603.7 914.5,-1584.7 844.5,-1584.7"/>
<text text-anchor="start" x="905.3862" y="-1590.8" font-family="Helvetica,sans-Serif" font-size="11.00" fill="#000000"> &#160;</text>
<polygon fill="#ffffff" stroke="transparent" points="914.5,-1584.7 914.5,-1603.7 985.5,-1603.7 985.5,-1584.7 914.5,-1584.7"/>
<polygon fill="none" stroke="#000000" points="914.5,-1584.7 914.5,-1603.7 985.5,-1603.7 985.5,-1584.7 914.5,-1584.7"/>
<text text-anchor="start" x="976.3862" y="-1590.8" font-family="Helvetica,sans-Serif" font-size="11.00" fill="#000000"> &#160;</text>
</a>
</g>
</g>
<!-- AgLibraryCollectionImageChangeCounter&#45;&gt;Adobe_images -->
<g id="edge14" class="edge">
<title>AgLibraryCollectionImageChangeCounter:w&#45;&gt;Adobe_images:e</title>
<path fill="none" stroke="#000000" d="M692.9745,-1613.1182C609.9104,-1617.3717 427.0995,-1651.7029 375,-1605.7 328.3671,-1564.524 396.71,-1328.7 334.5,-1328.7"/>
<polygon fill="#000000" stroke="#000000" points="699.5033,-1612.9303 707.6036,-1616.2985 703.5017,-1612.8151 707.5,-1612.7 707.5,-1612.7 707.5,-1612.7 703.5017,-1612.8151 707.3964,-1609.1015 699.5033,-1612.9303 699.5033,-1612.9303"/>
<ellipse fill="none" stroke="#000000" cx="696.3046" cy="-1613.0224" rx="3.2" ry="3.2"/>
</g>
<!-- AgLibraryCollectionImageChangeCounter&#45;&gt;AgLibraryCollectionImage -->
<g id="edge13" class="edge">
<title>AgLibraryCollectionImageChangeCounter:w&#45;&gt;AgLibraryCollectionImage:e</title>
<path fill="none" stroke="#000000" d="M697.0259,-1611.8148C658.9856,-1605.0425 656.0393,-1561.7 611.5,-1561.7"/>
<polygon fill="#000000" stroke="#000000" points="707.0397,-1608.6468 706.366,-1616.6184 704.7716,-1616.4837 705.4454,-1608.5121 707.0397,-1608.6468"/>
<polyline fill="none" stroke="#000000" points="707.5,-1612.7 703.5142,-1612.3631 "/>
<ellipse fill="none" stroke="#000000" cx="700.3256" cy="-1612.0936" rx="3.2" ry="3.2"/>
</g>
<!-- AgLibraryCollectionImageOzAlbumAssetIds -->
<g id="node15" class="node">
<title>AgLibraryCollectionImageOzAlbumAssetIds</title>
<g id="a_node15"><a xlink:href="../../tables/AgLibraryCollectionImageOzAlbumAssetIds.html" xlink:title="AgLibraryCollectionImageOzAlbumAssetIds" target="_top">
<polygon fill="#ffffff" stroke="transparent" points="701,-1496.2 701,-1557.2 992,-1557.2 992,-1496.2 701,-1496.2"/>
<polygon fill="#f5f5f5" stroke="transparent" points="701.5,-1533.7 701.5,-1556.7 992.5,-1556.7 992.5,-1533.7 701.5,-1533.7"/>
<polygon fill="none" stroke="#000000" points="701.5,-1533.7 701.5,-1556.7 992.5,-1556.7 992.5,-1533.7 701.5,-1533.7"/>
<text text-anchor="start" x="706.5" y="-1542.3" font-family="Helvetica,sans-Serif" font-weight="bold" font-size="11.00" fill="#000000">AgLibraryCollectionImageOzAlbumAssetIds</text>
<text text-anchor="start" x="958.0219" y="-1541.8" font-family="Helvetica,sans-Serif" font-size="11.00" fill="#000000">[table]</text>
<polygon fill="none" stroke="#000000" points="701.5,-1514.7 701.5,-1533.7 992.5,-1533.7 992.5,-1514.7 701.5,-1514.7"/>
<text text-anchor="start" x="704.5" y="-1520.8" font-family="Helvetica,sans-Serif" font-size="11.00" fill="#000000">...</text>
<polygon fill="#ffffff" stroke="transparent" points="701.5,-1495.7 701.5,-1514.7 845.5,-1514.7 845.5,-1495.7 701.5,-1495.7"/>
<polygon fill="none" stroke="#000000" points="701.5,-1495.7 701.5,-1514.7 845.5,-1514.7 845.5,-1495.7 701.5,-1495.7"/>
<text text-anchor="start" x="704.5" y="-1501.8" font-family="Helvetica,sans-Serif" font-size="11.00" fill="#000000">&lt; 3</text>
<polygon fill="#ffffff" stroke="transparent" points="845.5,-1495.7 845.5,-1514.7 918.5,-1514.7 918.5,-1495.7 845.5,-1495.7"/>
<polygon fill="none" stroke="#000000" points="845.5,-1495.7 845.5,-1514.7 918.5,-1514.7 918.5,-1495.7 845.5,-1495.7"/>
<text text-anchor="start" x="909.3862" y="-1501.8" font-family="Helvetica,sans-Serif" font-size="11.00" fill="#000000"> &#160;</text>
<polygon fill="#ffffff" stroke="transparent" points="918.5,-1495.7 918.5,-1514.7 992.5,-1514.7 992.5,-1495.7 918.5,-1495.7"/>
<polygon fill="none" stroke="#000000" points="918.5,-1495.7 918.5,-1514.7 992.5,-1514.7 992.5,-1495.7 918.5,-1495.7"/>
<text text-anchor="start" x="983.3862" y="-1501.8" font-family="Helvetica,sans-Serif" font-size="11.00" fill="#000000"> &#160;</text>
</a>
</g>
</g>
<!-- AgLibraryCollectionImageOzAlbumAssetIds&#45;&gt;Adobe_images -->
<g id="edge16" class="edge">
<title>AgLibraryCollectionImageOzAlbumAssetIds:w&#45;&gt;Adobe_images:e</title>
<path fill="none" stroke="#000000" d="M686.9739,-1523.5904C620.7679,-1522.7962 400.2028,-1517.328 375,-1495.7 317.0419,-1445.9627 410.8737,-1328.7 334.5,-1328.7"/>
<polygon fill="#000000" stroke="#000000" points="693.5002,-1523.6396 701.4728,-1527.2999 697.5001,-1523.6698 701.5,-1523.7 701.5,-1523.7 701.5,-1523.7 697.5001,-1523.6698 701.5272,-1520.1001 693.5002,-1523.6396 693.5002,-1523.6396"/>
<ellipse fill="none" stroke="#000000" cx="690.3003" cy="-1523.6154" rx="3.2" ry="3.2"/>
</g>
<!-- AgLibraryCollectionImageOzAlbumAssetIds&#45;&gt;AgLibraryCollectionImage -->
<g id="edge15" class="edge">
<title>AgLibraryCollectionImageOzAlbumAssetIds:w&#45;&gt;AgLibraryCollectionImage:e</title>
<path fill="none" stroke="#000000" d="M686.9476,-1525.3328C656.6613,-1532.6063 649.4919,-1561.7 611.5,-1561.7"/>
<polygon fill="#000000" stroke="#000000" points="693.5499,-1524.5921 701.9014,-1527.2776 697.5249,-1524.146 701.5,-1523.7 701.5,-1523.7 701.5,-1523.7 697.5249,-1524.146 701.0986,-1520.1224 693.5499,-1524.5921 693.5499,-1524.5921"/>
<ellipse fill="none" stroke="#000000" cx="690.3698" cy="-1524.9489" rx="3.2" ry="3.2"/>
</g>
<!-- AgLibraryCollectionStackImage -->
<g id="node16" class="node">
<title>AgLibraryCollectionStackImage</title>
<g id="a_node16"><a xlink:href="../../tables/AgLibraryCollectionStackImage.html" xlink:title="AgLibraryCollectionStackImage" target="_top">
<polygon fill="#ffffff" stroke="transparent" points="407.5,-1424.2 407.5,-1485.2 627.5,-1485.2 627.5,-1424.2 407.5,-1424.2"/>
<polygon fill="#f5f5f5" stroke="transparent" points="407.5,-1461.7 407.5,-1484.7 627.5,-1484.7 627.5,-1461.7 407.5,-1461.7"/>
<polygon fill="none" stroke="#000000" points="407.5,-1461.7 407.5,-1484.7 627.5,-1484.7 627.5,-1461.7 407.5,-1461.7"/>
<text text-anchor="start" x="412.5" y="-1470.3" font-family="Helvetica,sans-Serif" font-weight="bold" font-size="11.00" fill="#000000">AgLibraryCollectionStackImage</text>
<text text-anchor="start" x="593.0219" y="-1469.8" font-family="Helvetica,sans-Serif" font-size="11.00" fill="#000000">[table]</text>
<polygon fill="none" stroke="#000000" points="407.5,-1442.7 407.5,-1461.7 627.5,-1461.7 627.5,-1442.7 407.5,-1442.7"/>
<text text-anchor="start" x="410.5" y="-1448.8" font-family="Helvetica,sans-Serif" font-size="11.00" fill="#000000">...</text>
<polygon fill="#ffffff" stroke="transparent" points="407.5,-1423.7 407.5,-1442.7 515.5,-1442.7 515.5,-1423.7 407.5,-1423.7"/>
<polygon fill="none" stroke="#000000" points="407.5,-1423.7 407.5,-1442.7 515.5,-1442.7 515.5,-1423.7 407.5,-1423.7"/>
<text text-anchor="start" x="410.5" y="-1429.8" font-family="Helvetica,sans-Serif" font-size="11.00" fill="#000000">&lt; 3</text>
<polygon fill="#ffffff" stroke="transparent" points="515.5,-1423.7 515.5,-1442.7 571.5,-1442.7 571.5,-1423.7 515.5,-1423.7"/>
<polygon fill="none" stroke="#000000" points="515.5,-1423.7 515.5,-1442.7 571.5,-1442.7 571.5,-1423.7 515.5,-1423.7"/>
<text text-anchor="start" x="562.3862" y="-1429.8" font-family="Helvetica,sans-Serif" font-size="11.00" fill="#000000"> &#160;</text>
<polygon fill="#ffffff" stroke="transparent" points="571.5,-1423.7 571.5,-1442.7 627.5,-1442.7 627.5,-1423.7 571.5,-1423.7"/>
<polygon fill="none" stroke="#000000" points="571.5,-1423.7 571.5,-1442.7 627.5,-1442.7 627.5,-1423.7 571.5,-1423.7"/>
<text text-anchor="start" x="618.3862" y="-1429.8" font-family="Helvetica,sans-Serif" font-size="11.00" fill="#000000"> &#160;</text>
</a>
</g>
</g>
<!-- AgLibraryCollectionStackImage&#45;&gt;Adobe_images -->
<g id="edge17" class="edge">
<title>AgLibraryCollectionStackImage:w&#45;&gt;Adobe_images:e</title>
<path fill="none" stroke="#000000" d="M393.3065,-1449.0166C352.5378,-1431.0291 392.4824,-1328.7 334.5,-1328.7"/>
<polygon fill="#000000" stroke="#000000" points="399.6393,-1450.2138 406.8312,-1455.2373 403.5696,-1450.9569 407.5,-1451.7 407.5,-1451.7 407.5,-1451.7 403.5696,-1450.9569 408.1688,-1448.1627 399.6393,-1450.2138 399.6393,-1450.2138"/>
<ellipse fill="none" stroke="#000000" cx="396.495" cy="-1449.6193" rx="3.2" ry="3.2"/>
</g>
<!-- AgLibraryFace -->
<g id="node17" class="node">
<title>AgLibraryFace</title>
<g id="a_node17"><a xlink:href="../../tables/AgLibraryFace.html" xlink:title="AgLibraryFace" target="_top">
<polygon fill="#ffffff" stroke="transparent" points="456,-1342.2 456,-1403.2 579,-1403.2 579,-1342.2 456,-1342.2"/>
<polygon fill="#f5f5f5" stroke="transparent" points="456.5,-1379.7 456.5,-1402.7 579.5,-1402.7 579.5,-1379.7 456.5,-1379.7"/>
<polygon fill="none" stroke="#000000" points="456.5,-1379.7 456.5,-1402.7 579.5,-1402.7 579.5,-1379.7 456.5,-1379.7"/>
<text text-anchor="start" x="461.5" y="-1388.3" font-family="Helvetica,sans-Serif" font-weight="bold" font-size="11.00" fill="#000000">AgLibraryFace</text>
<text text-anchor="start" x="545.0219" y="-1387.8" font-family="Helvetica,sans-Serif" font-size="11.00" fill="#000000">[table]</text>
<polygon fill="none" stroke="#000000" points="456.5,-1360.7 456.5,-1379.7 579.5,-1379.7 579.5,-1360.7 456.5,-1360.7"/>
<text text-anchor="start" x="459.5" y="-1366.8" font-family="Helvetica,sans-Serif" font-size="11.00" fill="#000000">...</text>
<polygon fill="#ffffff" stroke="transparent" points="456.5,-1341.7 456.5,-1360.7 511.5,-1360.7 511.5,-1341.7 456.5,-1341.7"/>
<polygon fill="none" stroke="#000000" points="456.5,-1341.7 456.5,-1360.7 511.5,-1360.7 511.5,-1341.7 456.5,-1341.7"/>
<text text-anchor="start" x="459.5" y="-1347.8" font-family="Helvetica,sans-Serif" font-size="11.00" fill="#000000">&lt; 1</text>
<polygon fill="#ffffff" stroke="transparent" points="511.5,-1341.7 511.5,-1360.7 540.5,-1360.7 540.5,-1341.7 511.5,-1341.7"/>
<polygon fill="none" stroke="#000000" points="511.5,-1341.7 511.5,-1360.7 540.5,-1360.7 540.5,-1341.7 511.5,-1341.7"/>
<text text-anchor="start" x="531.3862" y="-1347.8" font-family="Helvetica,sans-Serif" font-size="11.00" fill="#000000"> &#160;</text>
<polygon fill="#ffffff" stroke="transparent" points="540.5,-1341.7 540.5,-1360.7 579.5,-1360.7 579.5,-1341.7 540.5,-1341.7"/>
<polygon fill="none" stroke="#000000" points="540.5,-1341.7 540.5,-1360.7 579.5,-1360.7 579.5,-1341.7 540.5,-1341.7"/>
<text text-anchor="start" x="560.9053" y="-1347.8" font-family="Helvetica,sans-Serif" font-size="11.00" fill="#000000">3 &gt;</text>
</a>
</g>
</g>
<!-- AgLibraryFace&#45;&gt;Adobe_images -->
<g id="edge18" class="edge">
<title>AgLibraryFace:w&#45;&gt;Adobe_images:e</title>
<path fill="none" stroke="#000000" d="M441.9243,-1368.727C397.4852,-1362.5181 386.4513,-1328.7 334.5,-1328.7"/>
<polygon fill="#000000" stroke="#000000" points="448.5178,-1369.1671 456.2602,-1373.292 452.5089,-1369.4335 456.5,-1369.7 456.5,-1369.7 456.5,-1369.7 452.5089,-1369.4335 456.7398,-1366.108 448.5178,-1369.1671 448.5178,-1369.1671"/>
<ellipse fill="none" stroke="#000000" cx="445.3249" cy="-1368.9539" rx="3.2" ry="3.2"/>
</g>
<!-- AgLibraryFolderStackImage -->
<g id="node18" class="node">
<title>AgLibraryFolderStackImage</title>
<g id="a_node18"><a xlink:href="../../tables/AgLibraryFolderStackImage.html" xlink:title="AgLibraryFolderStackImage" target="_top">
<polygon fill="#ffffff" stroke="transparent" points="418,-1260.2 418,-1321.2 617,-1321.2 617,-1260.2 418,-1260.2"/>
<polygon fill="#f5f5f5" stroke="transparent" points="418.5,-1297.7 418.5,-1320.7 617.5,-1320.7 617.5,-1297.7 418.5,-1297.7"/>
<polygon fill="none" stroke="#000000" points="418.5,-1297.7 418.5,-1320.7 617.5,-1320.7 617.5,-1297.7 418.5,-1297.7"/>
<text text-anchor="start" x="423.5" y="-1306.3" font-family="Helvetica,sans-Serif" font-weight="bold" font-size="11.00" fill="#000000">AgLibraryFolderStackImage</text>
<text text-anchor="start" x="583.0219" y="-1305.8" font-family="Helvetica,sans-Serif" font-size="11.00" fill="#000000">[table]</text>
<polygon fill="none" stroke="#000000" points="418.5,-1278.7 418.5,-1297.7 617.5,-1297.7 617.5,-1278.7 418.5,-1278.7"/>
<text text-anchor="start" x="421.5" y="-1284.8" font-family="Helvetica,sans-Serif" font-size="11.00" fill="#000000">...</text>
<polygon fill="#ffffff" stroke="transparent" points="418.5,-1259.7 418.5,-1278.7 516.5,-1278.7 516.5,-1259.7 418.5,-1259.7"/>
<polygon fill="none" stroke="#000000" points="418.5,-1259.7 418.5,-1278.7 516.5,-1278.7 516.5,-1259.7 418.5,-1259.7"/>
<text text-anchor="start" x="421.5" y="-1265.8" font-family="Helvetica,sans-Serif" font-size="11.00" fill="#000000">&lt; 2</text>
<polygon fill="#ffffff" stroke="transparent" points="516.5,-1259.7 516.5,-1278.7 566.5,-1278.7 566.5,-1259.7 516.5,-1259.7"/>
<polygon fill="none" stroke="#000000" points="516.5,-1259.7 516.5,-1278.7 566.5,-1278.7 566.5,-1259.7 516.5,-1259.7"/>
<text text-anchor="start" x="557.3862" y="-1265.8" font-family="Helvetica,sans-Serif" font-size="11.00" fill="#000000"> &#160;</text>
<polygon fill="#ffffff" stroke="transparent" points="566.5,-1259.7 566.5,-1278.7 617.5,-1278.7 617.5,-1259.7 566.5,-1259.7"/>
<polygon fill="none" stroke="#000000" points="566.5,-1259.7 566.5,-1278.7 617.5,-1278.7 617.5,-1259.7 566.5,-1259.7"/>
<text text-anchor="start" x="608.3862" y="-1265.8" font-family="Helvetica,sans-Serif" font-size="11.00" fill="#000000"> &#160;</text>
</a>
</g>
</g>
<!-- AgLibraryFolderStackImage&#45;&gt;Adobe_images -->
<g id="edge19" class="edge">
<title>AgLibraryFolderStackImage:w&#45;&gt;Adobe_images:e</title>
<path fill="none" stroke="#000000" d="M403.9073,-1289.6775C375.9975,-1297.8674 370.5256,-1328.7 334.5,-1328.7"/>
<polygon fill="#000000" stroke="#000000" points="410.5725,-1288.7743 418.9835,-1291.2674 414.5362,-1288.2372 418.5,-1287.7 418.5,-1287.7 418.5,-1287.7 414.5362,-1288.2372 418.0165,-1284.1326 410.5725,-1288.7743 410.5725,-1288.7743"/>
<ellipse fill="none" stroke="#000000" cx="407.4014" cy="-1289.2041" rx="3.2" ry="3.2"/>
</g>
<!-- AgLibraryImageChangeCounter -->
<g id="node19" class="node">
<title>AgLibraryImageChangeCounter</title>
<g id="a_node19"><a xlink:href="../../tables/AgLibraryImageChangeCounter.html" xlink:title="AgLibraryImageChangeCounter" target="_top">
<polygon fill="#ffffff" stroke="transparent" points="407.5,-1178.2 407.5,-1239.2 627.5,-1239.2 627.5,-1178.2 407.5,-1178.2"/>
<polygon fill="#f5f5f5" stroke="transparent" points="407.5,-1215.7 407.5,-1238.7 627.5,-1238.7 627.5,-1215.7 407.5,-1215.7"/>
<polygon fill="none" stroke="#000000" points="407.5,-1215.7 407.5,-1238.7 627.5,-1238.7 627.5,-1215.7 407.5,-1215.7"/>
<text text-anchor="start" x="412.5" y="-1224.3" font-family="Helvetica,sans-Serif" font-weight="bold" font-size="11.00" fill="#000000">AgLibraryImageChangeCounter</text>
<text text-anchor="start" x="593.0219" y="-1223.8" font-family="Helvetica,sans-Serif" font-size="11.00" fill="#000000">[table]</text>
<polygon fill="none" stroke="#000000" points="407.5,-1196.7 407.5,-1215.7 627.5,-1215.7 627.5,-1196.7 407.5,-1196.7"/>
<text text-anchor="start" x="410.5" y="-1202.8" font-family="Helvetica,sans-Serif" font-size="11.00" fill="#000000">...</text>
<polygon fill="#ffffff" stroke="transparent" points="407.5,-1177.7 407.5,-1196.7 515.5,-1196.7 515.5,-1177.7 407.5,-1177.7"/>
<polygon fill="none" stroke="#000000" points="407.5,-1177.7 407.5,-1196.7 515.5,-1196.7 515.5,-1177.7 407.5,-1177.7"/>
<text text-anchor="start" x="410.5" y="-1183.8" font-family="Helvetica,sans-Serif" font-size="11.00" fill="#000000">&lt; 1</text>
<polygon fill="#ffffff" stroke="transparent" points="515.5,-1177.7 515.5,-1196.7 571.5,-1196.7 571.5,-1177.7 515.5,-1177.7"/>
<polygon fill="none" stroke="#000000" points="515.5,-1177.7 515.5,-1196.7 571.5,-1196.7 571.5,-1177.7 515.5,-1177.7"/>
<text text-anchor="start" x="562.3862" y="-1183.8" font-family="Helvetica,sans-Serif" font-size="11.00" fill="#000000"> &#160;</text>
<polygon fill="#ffffff" stroke="transparent" points="571.5,-1177.7 571.5,-1196.7 627.5,-1196.7 627.5,-1177.7 571.5,-1177.7"/>
<polygon fill="none" stroke="#000000" points="571.5,-1177.7 571.5,-1196.7 627.5,-1196.7 627.5,-1177.7 571.5,-1177.7"/>
<text text-anchor="start" x="618.3862" y="-1183.8" font-family="Helvetica,sans-Serif" font-size="11.00" fill="#000000"> &#160;</text>
</a>
</g>
</g>
<!-- AgLibraryImageChangeCounter&#45;&gt;Adobe_images -->
<g id="edge20" class="edge">
<title>AgLibraryImageChangeCounter:w&#45;&gt;Adobe_images:e</title>
<path fill="none" stroke="#000000" d="M396.9026,-1207.0813C350.238,-1220.5945 394.0964,-1328.7 334.5,-1328.7"/>
<polygon fill="#000000" stroke="#000000" points="406.1897,-1201.837 407.2238,-1209.7699 405.6372,-1209.9767 404.6031,-1202.0438 406.1897,-1201.837"/>
<polyline fill="none" stroke="#000000" points="407.5,-1205.7 403.5336,-1206.2171 "/>
<ellipse fill="none" stroke="#000000" cx="400.3604" cy="-1206.6307" rx="3.2" ry="3.2"/>
</g>
<!-- AgLibraryImageOzAssetIds -->
<g id="node20" class="node">
<title>AgLibraryImageOzAssetIds</title>
<g id="a_node20"><a xlink:href="../../tables/AgLibraryImageOzAssetIds.html" xlink:title="AgLibraryImageOzAssetIds" target="_top">
<polygon fill="#ffffff" stroke="transparent" points="383,-1022.7 383,-1156.7 652,-1156.7 652,-1022.7 383,-1022.7"/>
<polygon fill="#f5f5f5" stroke="transparent" points="385.5,-1131.7 385.5,-1154.7 650.5,-1154.7 650.5,-1131.7 385.5,-1131.7"/>
<polygon fill="none" stroke="#000000" points="385.5,-1131.7 385.5,-1154.7 650.5,-1154.7 650.5,-1131.7 385.5,-1131.7"/>
<text text-anchor="start" x="390.5" y="-1140.3" font-family="Helvetica,sans-Serif" font-weight="bold" font-size="11.00" fill="#000000">AgLibraryImageOzAssetIds</text>
<text text-anchor="start" x="615.5437" y="-1139.8" font-family="Helvetica,sans-Serif" font-size="11.00" fill="#000000">[table]</text>
<polygon fill="#ffffff" stroke="transparent" points="385.5,-1109.7 385.5,-1131.7 562.5,-1131.7 562.5,-1109.7 385.5,-1109.7"/>
<polygon fill="none" stroke="#000000" points="385.5,-1109.7 385.5,-1131.7 562.5,-1131.7 562.5,-1109.7 385.5,-1109.7"/>
<image xlink:href="../../images/foreignKeys.png" width="11px" height="12px" preserveAspectRatio="xMinYMin meet" x="390.5" y="-1126.7"/>
<text text-anchor="start" x="405.5" y="-1116.8" font-family="Helvetica,sans-Serif" font-size="11.00" fill="#000000">image</text>
<polygon fill="none" stroke="#000000" points="562.5,-1109.7 562.5,-1131.7 650.5,-1131.7 650.5,-1109.7 562.5,-1109.7"/>
<text text-anchor="start" x="565.2253" y="-1117.4" font-family="Helvetica,sans-Serif" font-size="11.00" fill="#000000">[2000000000,10]</text>
<polygon fill="#ffffff" stroke="transparent" points="385.5,-1087.7 385.5,-1109.7 562.5,-1109.7 562.5,-1087.7 385.5,-1087.7"/>
<polygon fill="none" stroke="#000000" points="385.5,-1087.7 385.5,-1109.7 562.5,-1109.7 562.5,-1087.7 385.5,-1087.7"/>
<text text-anchor="start" x="405.5" y="-1094.8" font-family="Helvetica,sans-Serif" font-size="11.00" fill="#000000">ozCatalogId</text>
<polygon fill="none" stroke="#000000" points="562.5,-1087.7 562.5,-1109.7 650.5,-1109.7 650.5,-1087.7 562.5,-1087.7"/>
<text text-anchor="start" x="565.2253" y="-1095.4" font-family="Helvetica,sans-Serif" font-size="11.00" fill="#000000">[2000000000,10]</text>
<polygon fill="#ffffff" stroke="transparent" points="385.5,-1065.7 385.5,-1087.7 562.5,-1087.7 562.5,-1065.7 385.5,-1065.7"/>
<polygon fill="none" stroke="#000000" points="385.5,-1065.7 385.5,-1087.7 562.5,-1087.7 562.5,-1065.7 385.5,-1065.7"/>
<text text-anchor="start" x="405.5" y="-1072.8" font-family="Helvetica,sans-Serif" font-size="11.00" fill="#000000">ozAssetId</text>
<polygon fill="none" stroke="#000000" points="562.5,-1065.7 562.5,-1087.7 650.5,-1087.7 650.5,-1065.7 562.5,-1065.7"/>
<text text-anchor="start" x="565.2253" y="-1073.4" font-family="Helvetica,sans-Serif" font-size="11.00" fill="#000000">[2000000000,10]</text>
<polygon fill="#ffffff" stroke="transparent" points="385.5,-1043.7 385.5,-1065.7 562.5,-1065.7 562.5,-1043.7 385.5,-1043.7"/>
<polygon fill="none" stroke="#000000" points="385.5,-1043.7 385.5,-1065.7 562.5,-1065.7 562.5,-1043.7 385.5,-1043.7"/>
<text text-anchor="start" x="405.5" y="-1050.8" font-family="Helvetica,sans-Serif" font-size="11.00" fill="#000000">ownedByCatalog</text>
<polygon fill="none" stroke="#000000" points="562.5,-1043.7 562.5,-1065.7 650.5,-1065.7 650.5,-1043.7 562.5,-1043.7"/>
<text text-anchor="start" x="565.2253" y="-1051.4" font-family="Helvetica,sans-Serif" font-size="11.00" fill="#000000">[2000000000,10]</text>
<polygon fill="#ffffff" stroke="transparent" points="385.5,-1024.7 385.5,-1043.7 478.5,-1043.7 478.5,-1024.7 385.5,-1024.7"/>
<polygon fill="none" stroke="#000000" points="385.5,-1024.7 385.5,-1043.7 478.5,-1043.7 478.5,-1024.7 385.5,-1024.7"/>
<text text-anchor="start" x="388.5" y="-1030.8" font-family="Helvetica,sans-Serif" font-size="11.00" fill="#000000">&lt; 1</text>
<polygon fill="#ffffff" stroke="transparent" points="478.5,-1024.7 478.5,-1043.7 562.5,-1043.7 562.5,-1024.7 478.5,-1024.7"/>
<polygon fill="none" stroke="#000000" points="478.5,-1024.7 478.5,-1043.7 562.5,-1043.7 562.5,-1024.7 478.5,-1024.7"/>
<text text-anchor="start" x="553.3862" y="-1030.8" font-family="Helvetica,sans-Serif" font-size="11.00" fill="#000000"> &#160;</text>
<polygon fill="#ffffff" stroke="transparent" points="562.5,-1024.7 562.5,-1043.7 650.5,-1043.7 650.5,-1024.7 562.5,-1024.7"/>
<polygon fill="none" stroke="#000000" points="562.5,-1024.7 562.5,-1043.7 650.5,-1043.7 650.5,-1024.7 562.5,-1024.7"/>
<text text-anchor="start" x="631.9053" y="-1030.8" font-family="Helvetica,sans-Serif" font-size="11.00" fill="#000000">0 &gt;</text>
<polygon fill="none" stroke="#000000" stroke-width="2" points="384,-1023.7 384,-1155.7 651,-1155.7 651,-1023.7 384,-1023.7"/>
</a>
</g>
</g>
<!-- AgLibraryImageOzAssetIds&#45;&gt;Adobe_images -->
<g id="edge21" class="edge">
<title>AgLibraryImageOzAssetIds:w&#45;&gt;Adobe_images:e</title>
<path fill="none" stroke="#000000" d="M371.0901,-1122.7586C305.8439,-1144.3609 424.1056,-1328.7 334.5,-1328.7"/>
<polygon fill="#000000" stroke="#000000" points="377.5804,-1121.8315 386.0092,-1124.2638 381.5402,-1121.2657 385.5,-1120.7 385.5,-1120.7 385.5,-1120.7 381.5402,-1121.2657 384.9908,-1117.1362 377.5804,-1121.8315 377.5804,-1121.8315"/>
<ellipse fill="none" stroke="#000000" cx="374.4126" cy="-1122.2841" rx="3.2" ry="3.2"/>
</g>
<!-- AgLibraryImageSyncedAssetData -->
<g id="node21" class="node">
<title>AgLibraryImageSyncedAssetData</title>
<g id="a_node21"><a xlink:href="../../tables/AgLibraryImageSyncedAssetData.html" xlink:title="AgLibraryImageSyncedAssetData" target="_top">
<polygon fill="#ffffff" stroke="transparent" points="402,-940.2 402,-1001.2 633,-1001.2 633,-940.2 402,-940.2"/>
<polygon fill="#f5f5f5" stroke="transparent" points="402.5,-977.7 402.5,-1000.7 633.5,-1000.7 633.5,-977.7 402.5,-977.7"/>
<polygon fill="none" stroke="#000000" points="402.5,-977.7 402.5,-1000.7 633.5,-1000.7 633.5,-977.7 402.5,-977.7"/>
<text text-anchor="start" x="407.5" y="-986.3" font-family="Helvetica,sans-Serif" font-weight="bold" font-size="11.00" fill="#000000">AgLibraryImageSyncedAssetData</text>
<text text-anchor="start" x="599.0219" y="-985.8" font-family="Helvetica,sans-Serif" font-size="11.00" fill="#000000">[table]</text>
<polygon fill="none" stroke="#000000" points="402.5,-958.7 402.5,-977.7 633.5,-977.7 633.5,-958.7 402.5,-958.7"/>
<text text-anchor="start" x="405.5" y="-964.8" font-family="Helvetica,sans-Serif" font-size="11.00" fill="#000000">...</text>
<polygon fill="#ffffff" stroke="transparent" points="402.5,-939.7 402.5,-958.7 516.5,-958.7 516.5,-939.7 402.5,-939.7"/>
<polygon fill="none" stroke="#000000" points="402.5,-939.7 402.5,-958.7 516.5,-958.7 516.5,-939.7 402.5,-939.7"/>
<text text-anchor="start" x="405.5" y="-945.8" font-family="Helvetica,sans-Serif" font-size="11.00" fill="#000000">&lt; 1</text>
<polygon fill="#ffffff" stroke="transparent" points="516.5,-939.7 516.5,-958.7 574.5,-958.7 574.5,-939.7 516.5,-939.7"/>
<polygon fill="none" stroke="#000000" points="516.5,-939.7 516.5,-958.7 574.5,-958.7 574.5,-939.7 516.5,-939.7"/>
<text text-anchor="start" x="565.3862" y="-945.8" font-family="Helvetica,sans-Serif" font-size="11.00" fill="#000000"> &#160;</text>
<polygon fill="#ffffff" stroke="transparent" points="574.5,-939.7 574.5,-958.7 633.5,-958.7 633.5,-939.7 574.5,-939.7"/>
<polygon fill="none" stroke="#000000" points="574.5,-939.7 574.5,-958.7 633.5,-958.7 633.5,-939.7 574.5,-939.7"/>
<text text-anchor="start" x="624.3862" y="-945.8" font-family="Helvetica,sans-Serif" font-size="11.00" fill="#000000"> &#160;</text>
</a>
</g>
</g>
<!-- AgLibraryImageSyncedAssetData&#45;&gt;Adobe_images -->
<g id="edge22" class="edge">
<title>AgLibraryImageSyncedAssetData:w&#45;&gt;Adobe_images:e</title>
<path fill="none" stroke="#000000" d="M388.4738,-972.2644C332.7394,-1014.0534 410.7121,-1328.7 334.5,-1328.7"/>
<polygon fill="#000000" stroke="#000000" points="394.8927,-970.1756 403.614,-971.1233 398.6963,-968.9378 402.5,-967.7 402.5,-967.7 402.5,-967.7 398.6963,-968.9378 401.386,-964.2767 394.8927,-970.1756 394.8927,-970.1756"/>
<ellipse fill="none" stroke="#000000" cx="391.8497" cy="-971.1658" rx="3.2" ry="3.2"/>
</g>
<!-- AgLibraryImportImage -->
<g id="node22" class="node">
<title>AgLibraryImportImage</title>
<g id="a_node22"><a xlink:href="../../tables/AgLibraryImportImage.html" xlink:title="AgLibraryImportImage" target="_top">
<polygon fill="#ffffff" stroke="transparent" points="434,-858.2 434,-919.2 601,-919.2 601,-858.2 434,-858.2"/>
<polygon fill="#f5f5f5" stroke="transparent" points="434.5,-895.7 434.5,-918.7 601.5,-918.7 601.5,-895.7 434.5,-895.7"/>
<polygon fill="none" stroke="#000000" points="434.5,-895.7 434.5,-918.7 601.5,-918.7 601.5,-895.7 434.5,-895.7"/>
<text text-anchor="start" x="439.5" y="-904.3" font-family="Helvetica,sans-Serif" font-weight="bold" font-size="11.00" fill="#000000">AgLibraryImportImage</text>
<text text-anchor="start" x="567.0219" y="-903.8" font-family="Helvetica,sans-Serif" font-size="11.00" fill="#000000">[table]</text>
<polygon fill="none" stroke="#000000" points="434.5,-876.7 434.5,-895.7 601.5,-895.7 601.5,-876.7 434.5,-876.7"/>
<text text-anchor="start" x="437.5" y="-882.8" font-family="Helvetica,sans-Serif" font-size="11.00" fill="#000000">...</text>
<polygon fill="#ffffff" stroke="transparent" points="434.5,-857.7 434.5,-876.7 516.5,-876.7 516.5,-857.7 434.5,-857.7"/>
<polygon fill="none" stroke="#000000" points="434.5,-857.7 434.5,-876.7 516.5,-876.7 516.5,-857.7 434.5,-857.7"/>
<text text-anchor="start" x="437.5" y="-863.8" font-family="Helvetica,sans-Serif" font-size="11.00" fill="#000000">&lt; 1</text>
<polygon fill="#ffffff" stroke="transparent" points="516.5,-857.7 516.5,-876.7 558.5,-876.7 558.5,-857.7 516.5,-857.7"/>
<polygon fill="none" stroke="#000000" points="516.5,-857.7 516.5,-876.7 558.5,-876.7 558.5,-857.7 516.5,-857.7"/>
<text text-anchor="start" x="549.3862" y="-863.8" font-family="Helvetica,sans-Serif" font-size="11.00" fill="#000000"> &#160;</text>
<polygon fill="#ffffff" stroke="transparent" points="558.5,-857.7 558.5,-876.7 601.5,-876.7 601.5,-857.7 558.5,-857.7"/>
<polygon fill="none" stroke="#000000" points="558.5,-857.7 558.5,-876.7 601.5,-876.7 601.5,-857.7 558.5,-857.7"/>
<text text-anchor="start" x="592.3862" y="-863.8" font-family="Helvetica,sans-Serif" font-size="11.00" fill="#000000"> &#160;</text>
</a>
</g>
</g>
<!-- AgLibraryImportImage&#45;&gt;Adobe_images -->
<g id="edge23" class="edge">
<title>AgLibraryImportImage:w&#45;&gt;Adobe_images:e</title>
<path fill="none" stroke="#000000" d="M420.0075,-886.9351C398.0589,-891.1135 388.6039,-905.8078 375,-929.7 330.9023,-1007.1479 423.6223,-1328.7 334.5,-1328.7"/>
<polygon fill="#000000" stroke="#000000" points="426.5289,-886.3794 434.8057,-889.287 430.5144,-886.0397 434.5,-885.7 434.5,-885.7 434.5,-885.7 430.5144,-886.0397 434.1943,-882.113 426.5289,-886.3794 426.5289,-886.3794"/>
<ellipse fill="none" stroke="#000000" cx="423.3405" cy="-886.6511" rx="3.2" ry="3.2"/>
</g>
<!-- AgLibraryIPTC -->
<g id="node23" class="node">
<title>AgLibraryIPTC</title>
<g id="a_node23"><a xlink:href="../../tables/AgLibraryIPTC.html" xlink:title="AgLibraryIPTC" target="_top">
<polygon fill="#ffffff" stroke="transparent" points="456,-776.2 456,-837.2 579,-837.2 579,-776.2 456,-776.2"/>
<polygon fill="#f5f5f5" stroke="transparent" points="456.5,-813.7 456.5,-836.7 579.5,-836.7 579.5,-813.7 456.5,-813.7"/>
<polygon fill="none" stroke="#000000" points="456.5,-813.7 456.5,-836.7 579.5,-836.7 579.5,-813.7 456.5,-813.7"/>
<text text-anchor="start" x="461.5" y="-822.3" font-family="Helvetica,sans-Serif" font-weight="bold" font-size="11.00" fill="#000000">AgLibraryIPTC</text>
<text text-anchor="start" x="545.0219" y="-821.8" font-family="Helvetica,sans-Serif" font-size="11.00" fill="#000000">[table]</text>
<polygon fill="none" stroke="#000000" points="456.5,-794.7 456.5,-813.7 579.5,-813.7 579.5,-794.7 456.5,-794.7"/>
<text text-anchor="start" x="459.5" y="-800.8" font-family="Helvetica,sans-Serif" font-size="11.00" fill="#000000">...</text>
<polygon fill="#ffffff" stroke="transparent" points="456.5,-775.7 456.5,-794.7 516.5,-794.7 516.5,-775.7 456.5,-775.7"/>
<polygon fill="none" stroke="#000000" points="456.5,-775.7 456.5,-794.7 516.5,-794.7 516.5,-775.7 456.5,-775.7"/>
<text text-anchor="start" x="459.5" y="-781.8" font-family="Helvetica,sans-Serif" font-size="11.00" fill="#000000">&lt; 1</text>
<polygon fill="#ffffff" stroke="transparent" points="516.5,-775.7 516.5,-794.7 547.5,-794.7 547.5,-775.7 516.5,-775.7"/>
<polygon fill="none" stroke="#000000" points="516.5,-775.7 516.5,-794.7 547.5,-794.7 547.5,-775.7 516.5,-775.7"/>
<text text-anchor="start" x="538.3862" y="-781.8" font-family="Helvetica,sans-Serif" font-size="11.00" fill="#000000"> &#160;</text>
<polygon fill="#ffffff" stroke="transparent" points="547.5,-775.7 547.5,-794.7 579.5,-794.7 579.5,-775.7 547.5,-775.7"/>
<polygon fill="none" stroke="#000000" points="547.5,-775.7 547.5,-794.7 579.5,-794.7 579.5,-775.7 547.5,-775.7"/>
<text text-anchor="start" x="570.3862" y="-781.8" font-family="Helvetica,sans-Serif" font-size="11.00" fill="#000000"> &#160;</text>
</a>
</g>
</g>
<!-- AgLibraryIPTC&#45;&gt;Adobe_images -->
<g id="edge24" class="edge">
<title>AgLibraryIPTC:w&#45;&gt;Adobe_images:e</title>
<path fill="none" stroke="#000000" d="M442.1046,-804.1783C410.8161,-806.4799 394.7353,-817.5695 375,-847.7 345.6129,-892.566 388.1336,-1328.7 334.5,-1328.7"/>
<polygon fill="#000000" stroke="#000000" points="448.5044,-803.9657 456.6196,-807.298 452.5022,-803.8328 456.5,-803.7 456.5,-803.7 456.5,-803.7 452.5022,-803.8328 456.3804,-800.102 448.5044,-803.9657 448.5044,-803.9657"/>
<ellipse fill="none" stroke="#000000" cx="445.3062" cy="-804.072" rx="3.2" ry="3.2"/>
</g>
<!-- AgLibraryKeywordImage -->
<g id="node24" class="node">
<title>AgLibraryKeywordImage</title>
<g id="a_node24"><a xlink:href="../../tables/AgLibraryKeywordImage.html" xlink:title="AgLibraryKeywordImage" target="_top">
<polygon fill="#ffffff" stroke="transparent" points="427,-694.2 427,-755.2 608,-755.2 608,-694.2 427,-694.2"/>
<polygon fill="#f5f5f5" stroke="transparent" points="427.5,-731.7 427.5,-754.7 608.5,-754.7 608.5,-731.7 427.5,-731.7"/>
<polygon fill="none" stroke="#000000" points="427.5,-731.7 427.5,-754.7 608.5,-754.7 608.5,-731.7 427.5,-731.7"/>
<text text-anchor="start" x="432.5" y="-740.3" font-family="Helvetica,sans-Serif" font-weight="bold" font-size="11.00" fill="#000000">AgLibraryKeywordImage</text>
<text text-anchor="start" x="574.0219" y="-739.8" font-family="Helvetica,sans-Serif" font-size="11.00" fill="#000000">[table]</text>
<polygon fill="none" stroke="#000000" points="427.5,-712.7 427.5,-731.7 608.5,-731.7 608.5,-712.7 427.5,-712.7"/>
<text text-anchor="start" x="430.5" y="-718.8" font-family="Helvetica,sans-Serif" font-size="11.00" fill="#000000">...</text>
<polygon fill="#ffffff" stroke="transparent" points="427.5,-693.7 427.5,-712.7 516.5,-712.7 516.5,-693.7 427.5,-693.7"/>
<polygon fill="none" stroke="#000000" points="427.5,-693.7 427.5,-712.7 516.5,-712.7 516.5,-693.7 427.5,-693.7"/>
<text text-anchor="start" x="430.5" y="-699.8" font-family="Helvetica,sans-Serif" font-size="11.00" fill="#000000">&lt; 2</text>
<polygon fill="#ffffff" stroke="transparent" points="516.5,-693.7 516.5,-712.7 562.5,-712.7 562.5,-693.7 516.5,-693.7"/>
<polygon fill="none" stroke="#000000" points="516.5,-693.7 516.5,-712.7 562.5,-712.7 562.5,-693.7 516.5,-693.7"/>
<text text-anchor="start" x="553.3862" y="-699.8" font-family="Helvetica,sans-Serif" font-size="11.00" fill="#000000"> &#160;</text>
<polygon fill="#ffffff" stroke="transparent" points="562.5,-693.7 562.5,-712.7 608.5,-712.7 608.5,-693.7 562.5,-693.7"/>
<polygon fill="none" stroke="#000000" points="562.5,-693.7 562.5,-712.7 608.5,-712.7 608.5,-693.7 562.5,-693.7"/>
<text text-anchor="start" x="599.3862" y="-699.8" font-family="Helvetica,sans-Serif" font-size="11.00" fill="#000000"> &#160;</text>
</a>
</g>
</g>
<!-- AgLibraryKeywordImage&#45;&gt;Adobe_images -->
<g id="edge25" class="edge">
<title>AgLibraryKeywordImage:w&#45;&gt;Adobe_images:e</title>
<path fill="none" stroke="#000000" d="M413.0814,-723.2975C393.9264,-728.1003 386.3667,-743.4627 375,-765.7 346.4547,-821.5445 397.2172,-1328.7 334.5,-1328.7"/>
<polygon fill="#000000" stroke="#000000" points="419.5487,-722.581 427.8964,-725.2781 423.5243,-722.1405 427.5,-721.7 427.5,-721.7 427.5,-721.7 423.5243,-722.1405 427.1036,-718.1219 419.5487,-722.581 419.5487,-722.581"/>
<ellipse fill="none" stroke="#000000" cx="416.3681" cy="-722.9334" rx="3.2" ry="3.2"/>
</g>
<!-- AgLibraryOzFeedbackInfo -->
<g id="node25" class="node">
<title>AgLibraryOzFeedbackInfo</title>
<g id="a_node25"><a xlink:href="../../tables/AgLibraryOzFeedbackInfo.html" xlink:title="AgLibraryOzFeedbackInfo" target="_top">
<polygon fill="#ffffff" stroke="transparent" points="423.5,-612.2 423.5,-673.2 611.5,-673.2 611.5,-612.2 423.5,-612.2"/>
<polygon fill="#f5f5f5" stroke="transparent" points="423.5,-649.7 423.5,-672.7 611.5,-672.7 611.5,-649.7 423.5,-649.7"/>
<polygon fill="none" stroke="#000000" points="423.5,-649.7 423.5,-672.7 611.5,-672.7 611.5,-649.7 423.5,-649.7"/>
<text text-anchor="start" x="428.5" y="-658.3" font-family="Helvetica,sans-Serif" font-weight="bold" font-size="11.00" fill="#000000">AgLibraryOzFeedbackInfo</text>
<text text-anchor="start" x="577.0219" y="-657.8" font-family="Helvetica,sans-Serif" font-size="11.00" fill="#000000">[table]</text>
<polygon fill="none" stroke="#000000" points="423.5,-630.7 423.5,-649.7 611.5,-649.7 611.5,-630.7 423.5,-630.7"/>
<text text-anchor="start" x="426.5" y="-636.8" font-family="Helvetica,sans-Serif" font-size="11.00" fill="#000000">...</text>
<polygon fill="#ffffff" stroke="transparent" points="423.5,-611.7 423.5,-630.7 515.5,-630.7 515.5,-611.7 423.5,-611.7"/>
<polygon fill="none" stroke="#000000" points="423.5,-611.7 423.5,-630.7 515.5,-630.7 515.5,-611.7 423.5,-611.7"/>
<text text-anchor="start" x="426.5" y="-617.8" font-family="Helvetica,sans-Serif" font-size="11.00" fill="#000000">&lt; 1</text>
<polygon fill="#ffffff" stroke="transparent" points="515.5,-611.7 515.5,-630.7 563.5,-630.7 563.5,-611.7 515.5,-611.7"/>
<polygon fill="none" stroke="#000000" points="515.5,-611.7 515.5,-630.7 563.5,-630.7 563.5,-611.7 515.5,-611.7"/>
<text text-anchor="start" x="554.3862" y="-617.8" font-family="Helvetica,sans-Serif" font-size="11.00" fill="#000000"> &#160;</text>
<polygon fill="#ffffff" stroke="transparent" points="563.5,-611.7 563.5,-630.7 611.5,-630.7 611.5,-611.7 563.5,-611.7"/>
<polygon fill="none" stroke="#000000" points="563.5,-611.7 563.5,-630.7 611.5,-630.7 611.5,-611.7 563.5,-611.7"/>
<text text-anchor="start" x="602.3862" y="-617.8" font-family="Helvetica,sans-Serif" font-size="11.00" fill="#000000"> &#160;</text>
</a>
</g>
</g>
<!-- AgLibraryOzFeedbackInfo&#45;&gt;Adobe_images -->
<g id="edge26" class="edge">
<title>AgLibraryOzFeedbackInfo:w&#45;&gt;Adobe_images:e</title>
<path fill="none" stroke="#000000" d="M408.7918,-641.6645C391.5248,-646.9649 385.1522,-662.5949 375,-683.7 343.8723,-748.4103 406.3078,-1328.7 334.5,-1328.7"/>
<polygon fill="#000000" stroke="#000000" points="415.5704,-640.7591 423.9766,-643.2683 419.5352,-640.2296 423.5,-639.7 423.5,-639.7 423.5,-639.7 419.5352,-640.2296 423.0234,-636.1317 415.5704,-640.7591 415.5704,-640.7591"/>
<ellipse fill="none" stroke="#000000" cx="412.3986" cy="-641.1828" rx="3.2" ry="3.2"/>
</g>
<!-- AgLibraryPublishedCollectionImage -->
<g id="node26" class="node">
<title>AgLibraryPublishedCollectionImage</title>
<g id="a_node26"><a xlink:href="../../tables/AgLibraryPublishedCollectionImage.html" xlink:title="AgLibraryPublishedCollectionImage" target="_top">
<polygon fill="#ffffff" stroke="transparent" points="395,-530.2 395,-591.2 640,-591.2 640,-530.2 395,-530.2"/>
<polygon fill="#f5f5f5" stroke="transparent" points="395.5,-567.7 395.5,-590.7 640.5,-590.7 640.5,-567.7 395.5,-567.7"/>
<polygon fill="none" stroke="#000000" points="395.5,-567.7 395.5,-590.7 640.5,-590.7 640.5,-567.7 395.5,-567.7"/>
<text text-anchor="start" x="400.5" y="-576.3" font-family="Helvetica,sans-Serif" font-weight="bold" font-size="11.00" fill="#000000">AgLibraryPublishedCollectionImage</text>
<text text-anchor="start" x="606.0219" y="-575.8" font-family="Helvetica,sans-Serif" font-size="11.00" fill="#000000">[table]</text>
<polygon fill="none" stroke="#000000" points="395.5,-548.7 395.5,-567.7 640.5,-567.7 640.5,-548.7 395.5,-548.7"/>
<text text-anchor="start" x="398.5" y="-554.8" font-family="Helvetica,sans-Serif" font-size="11.00" fill="#000000">...</text>
<polygon fill="#ffffff" stroke="transparent" points="395.5,-529.7 395.5,-548.7 516.5,-548.7 516.5,-529.7 395.5,-529.7"/>
<polygon fill="none" stroke="#000000" points="395.5,-529.7 395.5,-548.7 516.5,-548.7 516.5,-529.7 395.5,-529.7"/>
<text text-anchor="start" x="398.5" y="-535.8" font-family="Helvetica,sans-Serif" font-size="11.00" fill="#000000">&lt; 2</text>
<polygon fill="#ffffff" stroke="transparent" points="516.5,-529.7 516.5,-548.7 578.5,-548.7 578.5,-529.7 516.5,-529.7"/>
<polygon fill="none" stroke="#000000" points="516.5,-529.7 516.5,-548.7 578.5,-548.7 578.5,-529.7 516.5,-529.7"/>
<text text-anchor="start" x="569.3862" y="-535.8" font-family="Helvetica,sans-Serif" font-size="11.00" fill="#000000"> &#160;</text>
<polygon fill="#ffffff" stroke="transparent" points="578.5,-529.7 578.5,-548.7 640.5,-548.7 640.5,-529.7 578.5,-529.7"/>
<polygon fill="none" stroke="#000000" points="578.5,-529.7 578.5,-548.7 640.5,-548.7 640.5,-529.7 578.5,-529.7"/>
<text text-anchor="start" x="631.3862" y="-535.8" font-family="Helvetica,sans-Serif" font-size="11.00" fill="#000000"> &#160;</text>
</a>
</g>
</g>
<!-- AgLibraryPublishedCollectionImage&#45;&gt;Adobe_images -->
<g id="edge27" class="edge">
<title>AgLibraryPublishedCollectionImage:w&#45;&gt;Adobe_images:e</title>
<path fill="none" stroke="#000000" d="M382.7205,-564.8403C321.4936,-642.5664 415.567,-1328.7 334.5,-1328.7"/>
<polygon fill="#000000" stroke="#000000" points="388.5162,-561.6021 397.2559,-560.8427 392.0081,-559.651 395.5,-557.7 395.5,-557.7 395.5,-557.7 392.0081,-559.651 393.7441,-554.5573 388.5162,-561.6021 388.5162,-561.6021"/>
<ellipse fill="none" stroke="#000000" cx="385.7226" cy="-563.1629" rx="3.2" ry="3.2"/>
</g>
<!-- AgLibraryUpdatedImages -->
<g id="node27" class="node">
<title>AgLibraryUpdatedImages</title>
<g id="a_node27"><a xlink:href="../../tables/AgLibraryUpdatedImages.html" xlink:title="AgLibraryUpdatedImages" target="_top">
<polygon fill="#ffffff" stroke="transparent" points="425,-448.2 425,-509.2 610,-509.2 610,-448.2 425,-448.2"/>
<polygon fill="#f5f5f5" stroke="transparent" points="425.5,-485.7 425.5,-508.7 610.5,-508.7 610.5,-485.7 425.5,-485.7"/>
<polygon fill="none" stroke="#000000" points="425.5,-485.7 425.5,-508.7 610.5,-508.7 610.5,-485.7 425.5,-485.7"/>
<text text-anchor="start" x="430.5" y="-494.3" font-family="Helvetica,sans-Serif" font-weight="bold" font-size="11.00" fill="#000000">AgLibraryUpdatedImages</text>
<text text-anchor="start" x="576.0219" y="-493.8" font-family="Helvetica,sans-Serif" font-size="11.00" fill="#000000">[table]</text>
<polygon fill="none" stroke="#000000" points="425.5,-466.7 425.5,-485.7 610.5,-485.7 610.5,-466.7 425.5,-466.7"/>
<text text-anchor="start" x="428.5" y="-472.8" font-family="Helvetica,sans-Serif" font-size="11.00" fill="#000000">...</text>
<polygon fill="#ffffff" stroke="transparent" points="425.5,-447.7 425.5,-466.7 516.5,-466.7 516.5,-447.7 425.5,-447.7"/>
<polygon fill="none" stroke="#000000" points="425.5,-447.7 425.5,-466.7 516.5,-466.7 516.5,-447.7 425.5,-447.7"/>
<text text-anchor="start" x="428.5" y="-453.8" font-family="Helvetica,sans-Serif" font-size="11.00" fill="#000000">&lt; 1</text>
<polygon fill="#ffffff" stroke="transparent" points="516.5,-447.7 516.5,-466.7 563.5,-466.7 563.5,-447.7 516.5,-447.7"/>
<polygon fill="none" stroke="#000000" points="516.5,-447.7 516.5,-466.7 563.5,-466.7 563.5,-447.7 516.5,-447.7"/>
<text text-anchor="start" x="554.3862" y="-453.8" font-family="Helvetica,sans-Serif" font-size="11.00" fill="#000000"> &#160;</text>
<polygon fill="#ffffff" stroke="transparent" points="563.5,-447.7 563.5,-466.7 610.5,-466.7 610.5,-447.7 563.5,-447.7"/>
<polygon fill="none" stroke="#000000" points="563.5,-447.7 563.5,-466.7 610.5,-466.7 610.5,-447.7 563.5,-447.7"/>
<text text-anchor="start" x="601.3862" y="-453.8" font-family="Helvetica,sans-Serif" font-size="11.00" fill="#000000"> &#160;</text>
</a>
</g>
</g>
<!-- AgLibraryUpdatedImages&#45;&gt;Adobe_images -->
<g id="edge28" class="edge">
<title>AgLibraryUpdatedImages:w&#45;&gt;Adobe_images:e</title>
<path fill="none" stroke="#000000" d="M415.0281,-476.5421C393.6513,-480.2987 386.327,-496.3734 375,-519.7 355.3433,-560.1806 379.5007,-1328.7 334.5,-1328.7"/>
<polygon fill="#000000" stroke="#000000" points="424.3819,-471.777 425.0232,-479.7513 423.4284,-479.8795 422.7871,-471.9053 424.3819,-471.777"/>
<polyline fill="none" stroke="#000000" points="425.5,-475.7 421.5129,-476.0207 "/>
<ellipse fill="none" stroke="#000000" cx="418.3232" cy="-476.2772" rx="3.2" ry="3.2"/>
</g>
<!-- AgMetadataSearchIndex -->
<g id="node28" class="node">
<title>AgMetadataSearchIndex</title>
<g id="a_node28"><a xlink:href="../../tables/AgMetadataSearchIndex.html" xlink:title="AgMetadataSearchIndex" target="_top">
<polygon fill="#ffffff" stroke="transparent" points="428.5,-366.2 428.5,-427.2 606.5,-427.2 606.5,-366.2 428.5,-366.2"/>
<polygon fill="#f5f5f5" stroke="transparent" points="428.5,-403.7 428.5,-426.7 606.5,-426.7 606.5,-403.7 428.5,-403.7"/>
<polygon fill="none" stroke="#000000" points="428.5,-403.7 428.5,-426.7 606.5,-426.7 606.5,-403.7 428.5,-403.7"/>
<text text-anchor="start" x="433.5" y="-412.3" font-family="Helvetica,sans-Serif" font-weight="bold" font-size="11.00" fill="#000000">AgMetadataSearchIndex</text>
<text text-anchor="start" x="572.0219" y="-411.8" font-family="Helvetica,sans-Serif" font-size="11.00" fill="#000000">[table]</text>
<polygon fill="none" stroke="#000000" points="428.5,-384.7 428.5,-403.7 606.5,-403.7 606.5,-384.7 428.5,-384.7"/>
<text text-anchor="start" x="431.5" y="-390.8" font-family="Helvetica,sans-Serif" font-size="11.00" fill="#000000">...</text>
<polygon fill="#ffffff" stroke="transparent" points="428.5,-365.7 428.5,-384.7 515.5,-384.7 515.5,-365.7 428.5,-365.7"/>
<polygon fill="none" stroke="#000000" points="428.5,-365.7 428.5,-384.7 515.5,-384.7 515.5,-365.7 428.5,-365.7"/>
<text text-anchor="start" x="431.5" y="-371.8" font-family="Helvetica,sans-Serif" font-size="11.00" fill="#000000">&lt; 1</text>
<polygon fill="#ffffff" stroke="transparent" points="515.5,-365.7 515.5,-384.7 560.5,-384.7 560.5,-365.7 515.5,-365.7"/>
<polygon fill="none" stroke="#000000" points="515.5,-365.7 515.5,-384.7 560.5,-384.7 560.5,-365.7 515.5,-365.7"/>
<text text-anchor="start" x="551.3862" y="-371.8" font-family="Helvetica,sans-Serif" font-size="11.00" fill="#000000"> &#160;</text>
<polygon fill="#ffffff" stroke="transparent" points="560.5,-365.7 560.5,-384.7 606.5,-384.7 606.5,-365.7 560.5,-365.7"/>
<polygon fill="none" stroke="#000000" points="560.5,-365.7 560.5,-384.7 606.5,-384.7 606.5,-365.7 560.5,-365.7"/>
<text text-anchor="start" x="597.3862" y="-371.8" font-family="Helvetica,sans-Serif" font-size="11.00" fill="#000000"> &#160;</text>
</a>
</g>
</g>
<!-- AgMetadataSearchIndex&#45;&gt;Adobe_images -->
<g id="edge29" class="edge">
<title>AgMetadataSearchIndex:w&#45;&gt;Adobe_images:e</title>
<path fill="none" stroke="#000000" d="M414.1454,-395.1972C394.4223,-399.8315 386.3554,-415.0079 375,-437.7 352.8255,-482.0126 384.0511,-1328.7 334.5,-1328.7"/>
<polygon fill="#000000" stroke="#000000" points="420.5432,-394.53 428.8735,-397.2806 424.5216,-394.115 428.5,-393.7 428.5,-393.7 428.5,-393.7 424.5216,-394.115 428.1265,-390.1194 420.5432,-394.53 420.5432,-394.53"/>
<ellipse fill="none" stroke="#000000" cx="417.3604" cy="-394.8619" rx="3.2" ry="3.2"/>
</g>
<!-- AgOutputImageAsset -->
<g id="node29" class="node">
<title>AgOutputImageAsset</title>
<g id="a_node29"><a xlink:href="../../tables/AgOutputImageAsset.html" xlink:title="AgOutputImageAsset" target="_top">
<polygon fill="#ffffff" stroke="transparent" points="437,-284.2 437,-345.2 598,-345.2 598,-284.2 437,-284.2"/>
<polygon fill="#f5f5f5" stroke="transparent" points="437.5,-321.7 437.5,-344.7 598.5,-344.7 598.5,-321.7 437.5,-321.7"/>
<polygon fill="none" stroke="#000000" points="437.5,-321.7 437.5,-344.7 598.5,-344.7 598.5,-321.7 437.5,-321.7"/>
<text text-anchor="start" x="442.5" y="-330.3" font-family="Helvetica,sans-Serif" font-weight="bold" font-size="11.00" fill="#000000">AgOutputImageAsset</text>
<text text-anchor="start" x="564.0219" y="-329.8" font-family="Helvetica,sans-Serif" font-size="11.00" fill="#000000">[table]</text>
<polygon fill="none" stroke="#000000" points="437.5,-302.7 437.5,-321.7 598.5,-321.7 598.5,-302.7 437.5,-302.7"/>
<text text-anchor="start" x="440.5" y="-308.8" font-family="Helvetica,sans-Serif" font-size="11.00" fill="#000000">...</text>
<polygon fill="#ffffff" stroke="transparent" points="437.5,-283.7 437.5,-302.7 516.5,-302.7 516.5,-283.7 437.5,-283.7"/>
<polygon fill="none" stroke="#000000" points="437.5,-283.7 437.5,-302.7 516.5,-302.7 516.5,-283.7 437.5,-283.7"/>
<text text-anchor="start" x="440.5" y="-289.8" font-family="Helvetica,sans-Serif" font-size="11.00" fill="#000000">&lt; 2</text>
<polygon fill="#ffffff" stroke="transparent" points="516.5,-283.7 516.5,-302.7 557.5,-302.7 557.5,-283.7 516.5,-283.7"/>
<polygon fill="none" stroke="#000000" points="516.5,-283.7 516.5,-302.7 557.5,-302.7 557.5,-283.7 516.5,-283.7"/>
<text text-anchor="start" x="548.3862" y="-289.8" font-family="Helvetica,sans-Serif" font-size="11.00" fill="#000000"> &#160;</text>
<polygon fill="#ffffff" stroke="transparent" points="557.5,-283.7 557.5,-302.7 598.5,-302.7 598.5,-283.7 557.5,-283.7"/>
<polygon fill="none" stroke="#000000" points="557.5,-283.7 557.5,-302.7 598.5,-302.7 598.5,-283.7 557.5,-283.7"/>
<text text-anchor="start" x="589.3862" y="-289.8" font-family="Helvetica,sans-Serif" font-size="11.00" fill="#000000"> &#160;</text>
</a>
</g>
</g>
<!-- AgOutputImageAsset&#45;&gt;Adobe_images -->
<g id="edge30" class="edge">
<title>AgOutputImageAsset:w&#45;&gt;Adobe_images:e</title>
<path fill="none" stroke="#000000" d="M423.0683,-312.7441C399.6006,-316.5129 388.7291,-330.5389 375,-355.7 349.0859,-403.1924 388.6024,-1328.7 334.5,-1328.7"/>
<polygon fill="#000000" stroke="#000000" points="429.5209,-312.2773 437.7598,-315.2906 433.5104,-311.9887 437.5,-311.7 437.5,-311.7 437.5,-311.7 433.5104,-311.9887 437.2402,-308.1094 429.5209,-312.2773 429.5209,-312.2773"/>
<ellipse fill="none" stroke="#000000" cx="426.3292" cy="-312.5083" rx="3.2" ry="3.2"/>
</g>
<!-- AgSourceColorProfileConstants -->
<g id="node30" class="node">
<title>AgSourceColorProfileConstants</title>
<g id="a_node30"><a xlink:href="../../tables/AgSourceColorProfileConstants.html" xlink:title="AgSourceColorProfileConstants" target="_top">
<polygon fill="#ffffff" stroke="transparent" points="406,-202.2 406,-263.2 629,-263.2 629,-202.2 406,-202.2"/>
<polygon fill="#f5f5f5" stroke="transparent" points="406.5,-239.7 406.5,-262.7 629.5,-262.7 629.5,-239.7 406.5,-239.7"/>
<polygon fill="none" stroke="#000000" points="406.5,-239.7 406.5,-262.7 629.5,-262.7 629.5,-239.7 406.5,-239.7"/>
<text text-anchor="start" x="411.5" y="-248.3" font-family="Helvetica,sans-Serif" font-weight="bold" font-size="11.00" fill="#000000">AgSourceColorProfileConstants</text>
<text text-anchor="start" x="595.0219" y="-247.8" font-family="Helvetica,sans-Serif" font-size="11.00" fill="#000000">[table]</text>
<polygon fill="none" stroke="#000000" points="406.5,-220.7 406.5,-239.7 629.5,-239.7 629.5,-220.7 406.5,-220.7"/>
<text text-anchor="start" x="409.5" y="-226.8" font-family="Helvetica,sans-Serif" font-size="11.00" fill="#000000">...</text>
<polygon fill="#ffffff" stroke="transparent" points="406.5,-201.7 406.5,-220.7 516.5,-220.7 516.5,-201.7 406.5,-201.7"/>
<polygon fill="none" stroke="#000000" points="406.5,-201.7 406.5,-220.7 516.5,-220.7 516.5,-201.7 406.5,-201.7"/>
<text text-anchor="start" x="409.5" y="-207.8" font-family="Helvetica,sans-Serif" font-size="11.00" fill="#000000">&lt; 1</text>
<polygon fill="#ffffff" stroke="transparent" points="516.5,-201.7 516.5,-220.7 572.5,-220.7 572.5,-201.7 516.5,-201.7"/>
<polygon fill="none" stroke="#000000" points="516.5,-201.7 516.5,-220.7 572.5,-220.7 572.5,-201.7 516.5,-201.7"/>
<text text-anchor="start" x="563.3862" y="-207.8" font-family="Helvetica,sans-Serif" font-size="11.00" fill="#000000"> &#160;</text>
<polygon fill="#ffffff" stroke="transparent" points="572.5,-201.7 572.5,-220.7 629.5,-220.7 629.5,-201.7 572.5,-201.7"/>
<polygon fill="none" stroke="#000000" points="572.5,-201.7 572.5,-220.7 629.5,-220.7 629.5,-201.7 572.5,-201.7"/>
<text text-anchor="start" x="620.3862" y="-207.8" font-family="Helvetica,sans-Serif" font-size="11.00" fill="#000000"> &#160;</text>
</a>
</g>
</g>
<!-- AgSourceColorProfileConstants&#45;&gt;Adobe_images -->
<g id="edge31" class="edge">
<title>AgSourceColorProfileConstants:w&#45;&gt;Adobe_images:e</title>
<path fill="none" stroke="#000000" d="M392.5273,-233.3752C382.1116,-240.4173 380.8424,-256.6346 375,-273.7 356.002,-329.1923 393.1543,-1328.7 334.5,-1328.7"/>
<polygon fill="#000000" stroke="#000000" points="398.7632,-231.7351 407.4158,-233.1816 402.6316,-230.7175 406.5,-229.7 406.5,-229.7 406.5,-229.7 402.6316,-230.7175 405.5842,-226.2184 398.7632,-231.7351 398.7632,-231.7351"/>
<ellipse fill="none" stroke="#000000" cx="395.6684" cy="-232.5491" rx="3.2" ry="3.2"/>
</g>
<!-- AgTempImages -->
<g id="node31" class="node">
<title>AgTempImages</title>
<g id="a_node31"><a xlink:href="../../tables/AgTempImages.html" xlink:title="AgTempImages" target="_top">
<polygon fill="#ffffff" stroke="transparent" points="453.5,-120.2 453.5,-181.2 581.5,-181.2 581.5,-120.2 453.5,-120.2"/>
<polygon fill="#f5f5f5" stroke="transparent" points="453.5,-157.7 453.5,-180.7 581.5,-180.7 581.5,-157.7 453.5,-157.7"/>
<polygon fill="none" stroke="#000000" points="453.5,-157.7 453.5,-180.7 581.5,-180.7 581.5,-157.7 453.5,-157.7"/>
<text text-anchor="start" x="458.5" y="-166.3" font-family="Helvetica,sans-Serif" font-weight="bold" font-size="11.00" fill="#000000">AgTempImages</text>
<text text-anchor="start" x="547.0219" y="-165.8" font-family="Helvetica,sans-Serif" font-size="11.00" fill="#000000">[table]</text>
<polygon fill="none" stroke="#000000" points="453.5,-138.7 453.5,-157.7 581.5,-157.7 581.5,-138.7 453.5,-138.7"/>
<text text-anchor="start" x="456.5" y="-144.8" font-family="Helvetica,sans-Serif" font-size="11.00" fill="#000000">...</text>
<polygon fill="#ffffff" stroke="transparent" points="453.5,-119.7 453.5,-138.7 515.5,-138.7 515.5,-119.7 453.5,-119.7"/>
<polygon fill="none" stroke="#000000" points="453.5,-119.7 453.5,-138.7 515.5,-138.7 515.5,-119.7 453.5,-119.7"/>
<text text-anchor="start" x="456.5" y="-125.8" font-family="Helvetica,sans-Serif" font-size="11.00" fill="#000000">&lt; 1</text>
<polygon fill="#ffffff" stroke="transparent" points="515.5,-119.7 515.5,-138.7 548.5,-138.7 548.5,-119.7 515.5,-119.7"/>
<polygon fill="none" stroke="#000000" points="515.5,-119.7 515.5,-138.7 548.5,-138.7 548.5,-119.7 515.5,-119.7"/>
<text text-anchor="start" x="539.3862" y="-125.8" font-family="Helvetica,sans-Serif" font-size="11.00" fill="#000000"> &#160;</text>
<polygon fill="#ffffff" stroke="transparent" points="548.5,-119.7 548.5,-138.7 581.5,-138.7 581.5,-119.7 548.5,-119.7"/>
<polygon fill="none" stroke="#000000" points="548.5,-119.7 548.5,-138.7 581.5,-138.7 581.5,-119.7 548.5,-119.7"/>
<text text-anchor="start" x="572.3862" y="-125.8" font-family="Helvetica,sans-Serif" font-size="11.00" fill="#000000"> &#160;</text>
</a>
</g>
</g>
<!-- AgTempImages&#45;&gt;Adobe_images -->
<g id="edge32" class="edge">
<title>AgTempImages:w&#45;&gt;Adobe_images:e</title>
<path fill="none" stroke="#000000" d="M442.8187,-147.9718C410.1625,-149.7615 393.8762,-160.757 375,-191.7 342.0833,-245.6591 397.7067,-1328.7 334.5,-1328.7"/>
<polygon fill="#000000" stroke="#000000" points="452.5985,-143.7216 452.802,-151.7191 451.2026,-151.7598 450.999,-143.7624 452.5985,-143.7216"/>
<polyline fill="none" stroke="#000000" points="453.5,-147.7 449.5013,-147.8018 "/>
<ellipse fill="none" stroke="#000000" cx="446.3023" cy="-147.8832" rx="3.2" ry="3.2"/>
</g>
<!-- AgVideoInfo -->
<g id="node32" class="node">
<title>AgVideoInfo</title>
<g id="a_node32"><a xlink:href="../../tables/AgVideoInfo.html" xlink:title="AgVideoInfo" target="_top">
<polygon fill="#ffffff" stroke="transparent" points="463,-38.2 463,-99.2 572,-99.2 572,-38.2 463,-38.2"/>
<polygon fill="#f5f5f5" stroke="transparent" points="463.5,-75.7 463.5,-98.7 572.5,-98.7 572.5,-75.7 463.5,-75.7"/>
<polygon fill="none" stroke="#000000" points="463.5,-75.7 463.5,-98.7 572.5,-98.7 572.5,-75.7 463.5,-75.7"/>
<text text-anchor="start" x="468.5" y="-84.3" font-family="Helvetica,sans-Serif" font-weight="bold" font-size="11.00" fill="#000000">AgVideoInfo</text>
<text text-anchor="start" x="538.0219" y="-83.8" font-family="Helvetica,sans-Serif" font-size="11.00" fill="#000000">[table]</text>
<polygon fill="none" stroke="#000000" points="463.5,-56.7 463.5,-75.7 572.5,-75.7 572.5,-56.7 463.5,-56.7"/>
<text text-anchor="start" x="466.5" y="-62.8" font-family="Helvetica,sans-Serif" font-size="11.00" fill="#000000">...</text>
<polygon fill="#ffffff" stroke="transparent" points="463.5,-37.7 463.5,-56.7 516.5,-56.7 516.5,-37.7 463.5,-37.7"/>
<polygon fill="none" stroke="#000000" points="463.5,-37.7 463.5,-56.7 516.5,-56.7 516.5,-37.7 463.5,-37.7"/>
<text text-anchor="start" x="466.5" y="-43.8" font-family="Helvetica,sans-Serif" font-size="11.00" fill="#000000">&lt; 1</text>
<polygon fill="#ffffff" stroke="transparent" points="516.5,-37.7 516.5,-56.7 544.5,-56.7 544.5,-37.7 516.5,-37.7"/>
<polygon fill="none" stroke="#000000" points="516.5,-37.7 516.5,-56.7 544.5,-56.7 544.5,-37.7 516.5,-37.7"/>
<text text-anchor="start" x="535.3862" y="-43.8" font-family="Helvetica,sans-Serif" font-size="11.00" fill="#000000"> &#160;</text>
<polygon fill="#ffffff" stroke="transparent" points="544.5,-37.7 544.5,-56.7 572.5,-56.7 572.5,-37.7 544.5,-37.7"/>
<polygon fill="none" stroke="#000000" points="544.5,-37.7 544.5,-56.7 572.5,-56.7 572.5,-37.7 544.5,-37.7"/>
<text text-anchor="start" x="563.3862" y="-43.8" font-family="Helvetica,sans-Serif" font-size="11.00" fill="#000000"> &#160;</text>
</a>
</g>
</g>
<!-- AgVideoInfo&#45;&gt;Adobe_images -->
<g id="edge33" class="edge">
<title>AgVideoInfo:w&#45;&gt;Adobe_images:e</title>
<path fill="none" stroke="#000000" d="M448.9671,-66.0272C414.6534,-67.7628 395.9691,-77.0796 375,-109.7 338.36,-166.6989 402.2596,-1328.7 334.5,-1328.7"/>
<polygon fill="#000000" stroke="#000000" points="455.502,-65.8801 463.5811,-69.2991 459.501,-65.7901 463.5,-65.7 463.5,-65.7 463.5,-65.7 459.501,-65.7901 463.4189,-62.1009 455.502,-65.8801 455.502,-65.8801"/>
<ellipse fill="none" stroke="#000000" cx="452.3028" cy="-65.9522" rx="3.2" ry="3.2"/>
</g>
</g>
</svg>
