<?xml version="1.0" encoding="UTF-8" standalone="no"?>
<!DOCTYPE svg PUBLIC "-//W3C//DTD SVG 1.1//EN"
 "http://www.w3.org/Graphics/SVG/1.1/DTD/svg11.dtd">
<!-- Generated by graphviz version 2.40.1 (20161225.0304)
 -->
<!-- Title: twoDegreesRelationshipsDiagram Pages: 1 -->
<svg width="878pt" height="420pt"
 viewBox="0.00 0.00 878.00 420.20" xmlns="http://www.w3.org/2000/svg" xmlns:xlink="http://www.w3.org/1999/xlink">
<g id="graph0" class="graph" transform="scale(1 1) rotate(0) translate(4 416.2)">
<title>twoDegreesRelationshipsDiagram</title>
<polygon fill="#ffffff" stroke="transparent" points="-4,4 -4,-416.2 874,-416.2 874,4 -4,4"/>
<text text-anchor="middle" x="72.4936" y="-7.3" font-family="Helvetica,sans-Serif" font-size="11.00" fill="#000000">Generated by SchemaSpy</text>
<!-- Adobe_images -->
<g id="node1" class="node">
<title>Adobe_images</title>
<g id="a_node1"><a xlink:href="../../tables/Adobe_images.html" xlink:title="Adobe_images" target="_top">
<polygon fill="#ffffff" stroke="transparent" points="731.5,-347.2 731.5,-408.2 855.5,-408.2 855.5,-347.2 731.5,-347.2"/>
<polygon fill="#f5f5f5" stroke="transparent" points="731.5,-384.7 731.5,-407.7 855.5,-407.7 855.5,-384.7 731.5,-384.7"/>
<polygon fill="none" stroke="#000000" points="731.5,-384.7 731.5,-407.7 855.5,-407.7 855.5,-384.7 731.5,-384.7"/>
<text text-anchor="start" x="736.5" y="-393.3" font-family="Helvetica,sans-Serif" font-weight="bold" font-size="11.00" fill="#000000">Adobe_images</text>
<text text-anchor="start" x="821.0219" y="-392.8" font-family="Helvetica,sans-Serif" font-size="11.00" fill="#000000">[table]</text>
<polygon fill="none" stroke="#000000" points="731.5,-365.7 731.5,-384.7 855.5,-384.7 855.5,-365.7 731.5,-365.7"/>
<text text-anchor="start" x="734.5" y="-371.8" font-family="Helvetica,sans-Serif" font-size="11.00" fill="#000000">...</text>
<polygon fill="#ffffff" stroke="transparent" points="731.5,-346.7 731.5,-365.7 784.5,-365.7 784.5,-346.7 731.5,-346.7"/>
<polygon fill="none" stroke="#000000" points="731.5,-346.7 731.5,-365.7 784.5,-365.7 784.5,-346.7 731.5,-346.7"/>
<text text-anchor="start" x="734.5" y="-352.8" font-family="Helvetica,sans-Serif" font-size="11.00" fill="#000000">&lt; 2</text>
<polygon fill="#ffffff" stroke="transparent" points="784.5,-346.7 784.5,-365.7 812.5,-365.7 812.5,-346.7 784.5,-346.7"/>
<polygon fill="none" stroke="#000000" points="784.5,-346.7 784.5,-365.7 812.5,-365.7 812.5,-346.7 784.5,-346.7"/>
<text text-anchor="start" x="803.3862" y="-352.8" font-family="Helvetica,sans-Serif" font-size="11.00" fill="#000000"> &#160;</text>
<polygon fill="#ffffff" stroke="transparent" points="812.5,-346.7 812.5,-365.7 855.5,-365.7 855.5,-346.7 812.5,-346.7"/>
<polygon fill="none" stroke="#000000" points="812.5,-346.7 812.5,-365.7 855.5,-365.7 855.5,-346.7 812.5,-346.7"/>
<text text-anchor="start" x="830.7904" y="-352.8" font-family="Helvetica,sans-Serif" font-size="11.00" fill="#000000">31 &gt;</text>
</a>
</g>
</g>
<!-- AgLibraryFile -->
<g id="node2" class="node">
<title>AgLibraryFile</title>
<g id="a_node2"><a xlink:href="../../tables/AgLibraryFile.html" xlink:title="AgLibraryFile" target="_top">
<polygon fill="#ffffff" stroke="transparent" points="509,-208.2 509,-379.2 676,-379.2 676,-208.2 509,-208.2"/>
<polygon fill="#f5f5f5" stroke="transparent" points="509.5,-355.7 509.5,-378.7 676.5,-378.7 676.5,-355.7 509.5,-355.7"/>
<polygon fill="none" stroke="#000000" points="509.5,-355.7 509.5,-378.7 676.5,-378.7 676.5,-355.7 509.5,-355.7"/>
<text text-anchor="start" x="514.5" y="-364.3" font-family="Helvetica,sans-Serif" font-weight="bold" font-size="11.00" fill="#000000">AgLibraryFile</text>
<text text-anchor="start" x="641.5437" y="-363.8" font-family="Helvetica,sans-Serif" font-size="11.00" fill="#000000">[table]</text>
<polygon fill="none" stroke="#000000" points="509.5,-333.7 509.5,-355.7 676.5,-355.7 676.5,-333.7 509.5,-333.7"/>
<image xlink:href="../../images/primaryKeys.png" width="11px" height="12px" preserveAspectRatio="xMinYMin meet" x="514.5" y="-350.7"/>
<text text-anchor="start" x="529.5" y="-340.8" font-family="Helvetica,sans-Serif" font-size="11.00" fill="#000000">id_local</text>
<polygon fill="#ffffff" stroke="transparent" points="509.5,-311.7 509.5,-333.7 676.5,-333.7 676.5,-311.7 509.5,-311.7"/>
<polygon fill="none" stroke="#000000" points="509.5,-311.7 509.5,-333.7 676.5,-333.7 676.5,-311.7 509.5,-311.7"/>
<text text-anchor="start" x="529.5" y="-318.8" font-family="Helvetica,sans-Serif" font-size="11.00" fill="#000000">id_global</text>
<polygon fill="#ffffff" stroke="transparent" points="509.5,-289.7 509.5,-311.7 676.5,-311.7 676.5,-289.7 509.5,-289.7"/>
<polygon fill="none" stroke="#000000" points="509.5,-289.7 509.5,-311.7 676.5,-311.7 676.5,-289.7 509.5,-289.7"/>
<image xlink:href="../../images/foreignKeys.png" width="11px" height="12px" preserveAspectRatio="xMinYMin meet" x="514.5" y="-306.7"/>
<text text-anchor="start" x="529.5" y="-296.8" font-family="Helvetica,sans-Serif" font-size="11.00" fill="#000000">folder</text>
<polygon fill="#ffffff" stroke="transparent" points="509.5,-267.7 509.5,-289.7 676.5,-289.7 676.5,-267.7 509.5,-267.7"/>
<polygon fill="none" stroke="#000000" points="509.5,-267.7 509.5,-289.7 676.5,-289.7 676.5,-267.7 509.5,-267.7"/>
<text text-anchor="start" x="529.5" y="-274.8" font-family="Helvetica,sans-Serif" font-size="11.00" fill="#000000">importHash</text>
<polygon fill="#ffffff" stroke="transparent" points="509.5,-245.7 509.5,-267.7 676.5,-267.7 676.5,-245.7 509.5,-245.7"/>
<polygon fill="none" stroke="#000000" points="509.5,-245.7 509.5,-267.7 676.5,-267.7 676.5,-245.7 509.5,-245.7"/>
<text text-anchor="start" x="529.5" y="-252.8" font-family="Helvetica,sans-Serif" font-size="11.00" fill="#000000">lc_idx_filename</text>
<polygon fill="none" stroke="#000000" points="509.5,-226.7 509.5,-245.7 676.5,-245.7 676.5,-226.7 509.5,-226.7"/>
<text text-anchor="start" x="512.5" y="-232.8" font-family="Helvetica,sans-Serif" font-size="11.00" fill="#000000">...</text>
<polygon fill="#ffffff" stroke="transparent" points="509.5,-207.7 509.5,-226.7 586.5,-226.7 586.5,-207.7 509.5,-207.7"/>
<polygon fill="none" stroke="#000000" points="509.5,-207.7 509.5,-226.7 586.5,-226.7 586.5,-207.7 509.5,-207.7"/>
<text text-anchor="start" x="512.5" y="-213.8" font-family="Helvetica,sans-Serif" font-size="11.00" fill="#000000">&lt; 1</text>
<polygon fill="#ffffff" stroke="transparent" points="586.5,-207.7 586.5,-226.7 626.5,-226.7 626.5,-207.7 586.5,-207.7"/>
<polygon fill="none" stroke="#000000" points="586.5,-207.7 586.5,-226.7 626.5,-226.7 626.5,-207.7 586.5,-207.7"/>
<text text-anchor="start" x="617.3862" y="-213.8" font-family="Helvetica,sans-Serif" font-size="11.00" fill="#000000"> &#160;</text>
<polygon fill="#ffffff" stroke="transparent" points="626.5,-207.7 626.5,-226.7 676.5,-226.7 676.5,-207.7 626.5,-207.7"/>
<polygon fill="none" stroke="#000000" points="626.5,-207.7 626.5,-226.7 676.5,-226.7 676.5,-207.7 626.5,-207.7"/>
<text text-anchor="start" x="657.9053" y="-213.8" font-family="Helvetica,sans-Serif" font-size="11.00" fill="#000000">2 &gt;</text>
</a>
</g>
</g>
<!-- Adobe_images&#45;&gt;AgLibraryFile -->
<g id="edge1" class="edge">
<title>Adobe_images:w&#45;&gt;AgLibraryFile:e</title>
<path fill="none" stroke="#000000" d="M717.1528,-371.2586C702.6766,-363.3786 698.4709,-344.7 676.5,-344.7"/>
<polygon fill="#000000" stroke="#000000" points="723.7207,-372.834 730.6603,-378.2007 727.6103,-373.767 731.5,-374.7 731.5,-374.7 731.5,-374.7 727.6103,-373.767 732.3397,-371.1993 723.7207,-372.834 723.7207,-372.834"/>
<ellipse fill="none" stroke="#000000" cx="720.6089" cy="-372.0876" rx="3.2" ry="3.2"/>
</g>
<!-- AgLibraryFolder -->
<g id="node5" class="node">
<title>AgLibraryFolder</title>
<g id="a_node5"><a xlink:href="../../tables/AgLibraryFolder.html" xlink:title="AgLibraryFolder" target="_top">
<polygon fill="#ffffff" stroke="transparent" points="220,-106.7 220,-240.7 460,-240.7 460,-106.7 220,-106.7"/>
<polygon fill="#f5f5f5" stroke="transparent" points="222,-215.7 222,-238.7 458,-238.7 458,-215.7 222,-215.7"/>
<polygon fill="none" stroke="#000000" points="222,-215.7 222,-238.7 458,-238.7 458,-215.7 222,-215.7"/>
<text text-anchor="start" x="227" y="-224.3" font-family="Helvetica,sans-Serif" font-weight="bold" font-size="11.00" fill="#000000">AgLibraryFolder</text>
<text text-anchor="start" x="423.0437" y="-223.8" font-family="Helvetica,sans-Serif" font-size="11.00" fill="#000000">[table]</text>
<polygon fill="none" stroke="#000000" points="222,-193.7 222,-215.7 336,-215.7 336,-193.7 222,-193.7"/>
<image xlink:href="../../images/primaryKeys.png" width="11px" height="12px" preserveAspectRatio="xMinYMin meet" x="227" y="-210.7"/>
<text text-anchor="start" x="242" y="-200.8" font-family="Helvetica,sans-Serif" font-size="11.00" fill="#000000">id_local</text>
<polygon fill="none" stroke="#000000" points="336,-193.7 336,-215.7 458,-215.7 458,-193.7 336,-193.7"/>
<text text-anchor="start" x="338.9156" y="-201.4" font-family="Helvetica,sans-Serif" font-size="11.00" fill="#000000">integer[2000000000,10]</text>
<polygon fill="#ffffff" stroke="transparent" points="222,-171.7 222,-193.7 336,-193.7 336,-171.7 222,-171.7"/>
<polygon fill="none" stroke="#000000" points="222,-171.7 222,-193.7 336,-193.7 336,-171.7 222,-171.7"/>
<text text-anchor="start" x="242" y="-178.8" font-family="Helvetica,sans-Serif" font-size="11.00" fill="#000000">id_global</text>
<polygon fill="none" stroke="#000000" points="336,-171.7 336,-193.7 458,-193.7 458,-171.7 336,-171.7"/>
<text text-anchor="start" x="339" y="-179.4" font-family="Helvetica,sans-Serif" font-size="11.00" fill="#000000">[2000000000,10]</text>
<polygon fill="#ffffff" stroke="transparent" points="222,-149.7 222,-171.7 336,-171.7 336,-149.7 222,-149.7"/>
<polygon fill="none" stroke="#000000" points="222,-149.7 222,-171.7 336,-171.7 336,-149.7 222,-149.7"/>
<text text-anchor="start" x="242" y="-156.8" font-family="Helvetica,sans-Serif" font-size="11.00" fill="#000000">pathFromRoot</text>
<polygon fill="none" stroke="#000000" points="336,-149.7 336,-171.7 458,-171.7 458,-149.7 336,-149.7"/>
<text text-anchor="start" x="339" y="-157.4" font-family="Helvetica,sans-Serif" font-size="11.00" fill="#000000">[2000000000,10]</text>
<polygon fill="#ffffff" stroke="transparent" points="222,-127.7 222,-149.7 336,-149.7 336,-127.7 222,-127.7"/>
<polygon fill="none" stroke="#000000" points="222,-127.7 222,-149.7 336,-149.7 336,-127.7 222,-127.7"/>
<image xlink:href="../../images/foreignKeys.png" width="11px" height="12px" preserveAspectRatio="xMinYMin meet" x="227" y="-144.7"/>
<text text-anchor="start" x="242" y="-134.8" font-family="Helvetica,sans-Serif" font-size="11.00" fill="#000000">rootFolder</text>
<polygon fill="none" stroke="#000000" points="336,-127.7 336,-149.7 458,-149.7 458,-127.7 336,-127.7"/>
<text text-anchor="start" x="338.9156" y="-135.4" font-family="Helvetica,sans-Serif" font-size="11.00" fill="#000000">integer[2000000000,10]</text>
<polygon fill="#ffffff" stroke="transparent" points="222,-108.7 222,-127.7 283,-127.7 283,-108.7 222,-108.7"/>
<polygon fill="none" stroke="#000000" points="222,-108.7 222,-127.7 283,-127.7 283,-108.7 222,-108.7"/>
<text text-anchor="start" x="225" y="-114.8" font-family="Helvetica,sans-Serif" font-size="11.00" fill="#000000">&lt; 1</text>
<polygon fill="#ffffff" stroke="transparent" points="283,-108.7 283,-127.7 336,-127.7 336,-108.7 283,-108.7"/>
<polygon fill="none" stroke="#000000" points="283,-108.7 283,-127.7 336,-127.7 336,-108.7 283,-108.7"/>
<text text-anchor="start" x="326.8862" y="-114.8" font-family="Helvetica,sans-Serif" font-size="11.00" fill="#000000"> &#160;</text>
<polygon fill="#ffffff" stroke="transparent" points="336,-108.7 336,-127.7 458,-127.7 458,-108.7 336,-108.7"/>
<polygon fill="none" stroke="#000000" points="336,-108.7 336,-127.7 458,-127.7 458,-108.7 336,-108.7"/>
<text text-anchor="start" x="439.4053" y="-114.8" font-family="Helvetica,sans-Serif" font-size="11.00" fill="#000000">2 &gt;</text>
<polygon fill="none" stroke="#000000" stroke-width="2" points="221,-107.7 221,-239.7 459,-239.7 459,-107.7 221,-107.7"/>
</a>
</g>
</g>
<!-- AgLibraryFile&#45;&gt;AgLibraryFolder -->
<g id="edge4" class="edge">
<title>AgLibraryFile:w&#45;&gt;AgLibraryFolder:e</title>
<path fill="none" stroke="#000000" d="M495.3716,-296.575C470.9509,-278.2 500.3661,-204.7 458,-204.7"/>
<polygon fill="#000000" stroke="#000000" points="501.8206,-298.4578 508.491,-304.1557 505.6603,-299.5789 509.5,-300.7 509.5,-300.7 509.5,-300.7 505.6603,-299.5789 510.509,-297.2443 501.8206,-298.4578 501.8206,-298.4578"/>
<ellipse fill="none" stroke="#000000" cx="498.7489" cy="-297.561" rx="3.2" ry="3.2"/>
</g>
<!-- AgDNGProxyInfo -->
<g id="node3" class="node">
<title>AgDNGProxyInfo</title>
<g id="a_node3"><a xlink:href="../../tables/AgDNGProxyInfo.html" xlink:title="AgDNGProxyInfo" target="_top">
<polygon fill="#ffffff" stroke="transparent" points="725,-265.2 725,-326.2 862,-326.2 862,-265.2 725,-265.2"/>
<polygon fill="#f5f5f5" stroke="transparent" points="725.5,-302.7 725.5,-325.7 862.5,-325.7 862.5,-302.7 725.5,-302.7"/>
<polygon fill="none" stroke="#000000" points="725.5,-302.7 725.5,-325.7 862.5,-325.7 862.5,-302.7 725.5,-302.7"/>
<text text-anchor="start" x="730.5" y="-311.3" font-family="Helvetica,sans-Serif" font-weight="bold" font-size="11.00" fill="#000000">AgDNGProxyInfo</text>
<text text-anchor="start" x="828.0219" y="-310.8" font-family="Helvetica,sans-Serif" font-size="11.00" fill="#000000">[table]</text>
<polygon fill="none" stroke="#000000" points="725.5,-283.7 725.5,-302.7 862.5,-302.7 862.5,-283.7 725.5,-283.7"/>
<text text-anchor="start" x="728.5" y="-289.8" font-family="Helvetica,sans-Serif" font-size="11.00" fill="#000000">...</text>
<polygon fill="#ffffff" stroke="transparent" points="725.5,-264.7 725.5,-283.7 792.5,-283.7 792.5,-264.7 725.5,-264.7"/>
<polygon fill="none" stroke="#000000" points="725.5,-264.7 725.5,-283.7 792.5,-283.7 792.5,-264.7 725.5,-264.7"/>
<text text-anchor="start" x="728.5" y="-270.8" font-family="Helvetica,sans-Serif" font-size="11.00" fill="#000000">&lt; 1</text>
<polygon fill="#ffffff" stroke="transparent" points="792.5,-264.7 792.5,-283.7 827.5,-283.7 827.5,-264.7 792.5,-264.7"/>
<polygon fill="none" stroke="#000000" points="792.5,-264.7 792.5,-283.7 827.5,-283.7 827.5,-264.7 792.5,-264.7"/>
<text text-anchor="start" x="818.3862" y="-270.8" font-family="Helvetica,sans-Serif" font-size="11.00" fill="#000000"> &#160;</text>
<polygon fill="#ffffff" stroke="transparent" points="827.5,-264.7 827.5,-283.7 862.5,-283.7 862.5,-264.7 827.5,-264.7"/>
<polygon fill="none" stroke="#000000" points="827.5,-264.7 827.5,-283.7 862.5,-283.7 862.5,-264.7 827.5,-264.7"/>
<text text-anchor="start" x="853.3862" y="-270.8" font-family="Helvetica,sans-Serif" font-size="11.00" fill="#000000"> &#160;</text>
</a>
</g>
</g>
<!-- AgDNGProxyInfo&#45;&gt;AgLibraryFile -->
<g id="edge2" class="edge">
<title>AgDNGProxyInfo:w&#45;&gt;AgLibraryFile:e</title>
<path fill="none" stroke="#000000" d="M711.384,-296.8714C699.4189,-305.1146 696.0504,-322.7 676.5,-322.7"/>
<polygon fill="#000000" stroke="#000000" points="717.828,-294.9672 726.5202,-296.1524 721.664,-293.8336 725.5,-292.7 725.5,-292.7 725.5,-292.7 721.664,-293.8336 724.4798,-289.2476 717.828,-294.9672 717.828,-294.9672"/>
<ellipse fill="none" stroke="#000000" cx="714.7591" cy="-295.874" rx="3.2" ry="3.2"/>
</g>
<!-- AgFolderContent -->
<g id="node4" class="node">
<title>AgFolderContent</title>
<g id="a_node4"><a xlink:href="../../tables/AgFolderContent.html" xlink:title="AgFolderContent" target="_top">
<polygon fill="#ffffff" stroke="transparent" points="524.5,-38.2 524.5,-187.2 660.5,-187.2 660.5,-38.2 524.5,-38.2"/>
<polygon fill="#f5f5f5" stroke="transparent" points="524.5,-163.7 524.5,-186.7 660.5,-186.7 660.5,-163.7 524.5,-163.7"/>
<polygon fill="none" stroke="#000000" points="524.5,-163.7 524.5,-186.7 660.5,-186.7 660.5,-163.7 524.5,-163.7"/>
<text text-anchor="start" x="529.5" y="-172.3" font-family="Helvetica,sans-Serif" font-weight="bold" font-size="11.00" fill="#000000">AgFolderContent</text>
<text text-anchor="start" x="626.0219" y="-171.8" font-family="Helvetica,sans-Serif" font-size="11.00" fill="#000000">[table]</text>
<polygon fill="none" stroke="#000000" points="524.5,-141.7 524.5,-163.7 660.5,-163.7 660.5,-141.7 524.5,-141.7"/>
<image xlink:href="../../images/primaryKeys.png" width="11px" height="12px" preserveAspectRatio="xMinYMin meet" x="529.5" y="-158.7"/>
<text text-anchor="start" x="553.5" y="-148.8" font-family="Helvetica,sans-Serif" font-size="11.00" fill="#000000">id_local</text>
<polygon fill="#ffffff" stroke="transparent" points="524.5,-119.7 524.5,-141.7 660.5,-141.7 660.5,-119.7 524.5,-119.7"/>
<polygon fill="none" stroke="#000000" points="524.5,-119.7 524.5,-141.7 660.5,-141.7 660.5,-119.7 524.5,-119.7"/>
<text text-anchor="start" x="553.5" y="-126.8" font-family="Helvetica,sans-Serif" font-size="11.00" fill="#000000">id_global</text>
<polygon fill="#ffffff" stroke="transparent" points="524.5,-97.7 524.5,-119.7 660.5,-119.7 660.5,-97.7 524.5,-97.7"/>
<polygon fill="none" stroke="#000000" points="524.5,-97.7 524.5,-119.7 660.5,-119.7 660.5,-97.7 524.5,-97.7"/>
<image xlink:href="../../images/foreignKeys.png" width="11px" height="12px" preserveAspectRatio="xMinYMin meet" x="529.5" y="-114.7"/>
<text text-anchor="start" x="553.5" y="-104.8" font-family="Helvetica,sans-Serif" font-size="11.00" fill="#000000">containingFolder</text>
<polygon fill="#ffffff" stroke="transparent" points="524.5,-75.7 524.5,-97.7 660.5,-97.7 660.5,-75.7 524.5,-75.7"/>
<polygon fill="none" stroke="#000000" points="524.5,-75.7 524.5,-97.7 660.5,-97.7 660.5,-75.7 524.5,-75.7"/>
<text text-anchor="start" x="553.5" y="-82.8" font-family="Helvetica,sans-Serif" font-size="11.00" fill="#000000">owningModule</text>
<polygon fill="none" stroke="#000000" points="524.5,-56.7 524.5,-75.7 660.5,-75.7 660.5,-56.7 524.5,-56.7"/>
<text text-anchor="start" x="527.5" y="-62.8" font-family="Helvetica,sans-Serif" font-size="11.00" fill="#000000">...</text>
<polygon fill="#ffffff" stroke="transparent" points="524.5,-37.7 524.5,-56.7 590.5,-56.7 590.5,-37.7 524.5,-37.7"/>
<polygon fill="none" stroke="#000000" points="524.5,-37.7 524.5,-56.7 590.5,-56.7 590.5,-37.7 524.5,-37.7"/>
<text text-anchor="start" x="527.5" y="-43.8" font-family="Helvetica,sans-Serif" font-size="11.00" fill="#000000">&lt; 1</text>
<polygon fill="#ffffff" stroke="transparent" points="590.5,-37.7 590.5,-56.7 625.5,-56.7 625.5,-37.7 590.5,-37.7"/>
<polygon fill="none" stroke="#000000" points="590.5,-37.7 590.5,-56.7 625.5,-56.7 625.5,-37.7 590.5,-37.7"/>
<text text-anchor="start" x="616.3862" y="-43.8" font-family="Helvetica,sans-Serif" font-size="11.00" fill="#000000"> &#160;</text>
<polygon fill="#ffffff" stroke="transparent" points="625.5,-37.7 625.5,-56.7 660.5,-56.7 660.5,-37.7 625.5,-37.7"/>
<polygon fill="none" stroke="#000000" points="625.5,-37.7 625.5,-56.7 660.5,-56.7 660.5,-37.7 625.5,-37.7"/>
<text text-anchor="start" x="651.3862" y="-43.8" font-family="Helvetica,sans-Serif" font-size="11.00" fill="#000000"> &#160;</text>
</a>
</g>
</g>
<!-- AgFolderContent&#45;&gt;AgLibraryFolder -->
<g id="edge3" class="edge">
<title>AgFolderContent:w&#45;&gt;AgLibraryFolder:e</title>
<path fill="none" stroke="#000000" d="M510.4374,-111.8941C479.6902,-128.5516 504.2266,-204.7 458,-204.7"/>
<polygon fill="#000000" stroke="#000000" points="516.6987,-110.472 525.2974,-112.2106 520.5994,-109.586 524.5,-108.7 524.5,-108.7 524.5,-108.7 520.5994,-109.586 523.7026,-105.1894 516.6987,-110.472 516.6987,-110.472"/>
<ellipse fill="none" stroke="#000000" cx="513.5782" cy="-111.1808" rx="3.2" ry="3.2"/>
</g>
<!-- AgLibraryRootFolder -->
<g id="node6" class="node">
<title>AgLibraryRootFolder</title>
<g id="a_node6"><a xlink:href="../../tables/AgLibraryRootFolder.html" xlink:title="AgLibraryRootFolder" target="_top">
<polygon fill="#ffffff" stroke="transparent" points="8,-46.2 8,-173.2 171,-173.2 171,-46.2 8,-46.2"/>
<polygon fill="#f5f5f5" stroke="transparent" points="8.5,-149.7 8.5,-172.7 171.5,-172.7 171.5,-149.7 8.5,-149.7"/>
<polygon fill="none" stroke="#000000" points="8.5,-149.7 8.5,-172.7 171.5,-172.7 171.5,-149.7 8.5,-149.7"/>
<text text-anchor="start" x="13.5" y="-158.3" font-family="Helvetica,sans-Serif" font-weight="bold" font-size="11.00" fill="#000000">AgLibraryRootFolder</text>
<text text-anchor="start" x="136.5437" y="-157.8" font-family="Helvetica,sans-Serif" font-size="11.00" fill="#000000">[table]</text>
<polygon fill="none" stroke="#000000" points="8.5,-127.7 8.5,-149.7 171.5,-149.7 171.5,-127.7 8.5,-127.7"/>
<image xlink:href="../../images/primaryKeys.png" width="11px" height="12px" preserveAspectRatio="xMinYMin meet" x="13.5" y="-144.7"/>
<text text-anchor="start" x="28.5" y="-134.8" font-family="Helvetica,sans-Serif" font-size="11.00" fill="#000000">id_local</text>
<polygon fill="#ffffff" stroke="transparent" points="8.5,-105.7 8.5,-127.7 171.5,-127.7 171.5,-105.7 8.5,-105.7"/>
<polygon fill="none" stroke="#000000" points="8.5,-105.7 8.5,-127.7 171.5,-127.7 171.5,-105.7 8.5,-105.7"/>
<text text-anchor="start" x="28.5" y="-112.8" font-family="Helvetica,sans-Serif" font-size="11.00" fill="#000000">id_global</text>
<polygon fill="#ffffff" stroke="transparent" points="8.5,-83.7 8.5,-105.7 171.5,-105.7 171.5,-83.7 8.5,-83.7"/>
<polygon fill="none" stroke="#000000" points="8.5,-83.7 8.5,-105.7 171.5,-105.7 171.5,-83.7 8.5,-83.7"/>
<text text-anchor="start" x="28.5" y="-90.8" font-family="Helvetica,sans-Serif" font-size="11.00" fill="#000000">absolutePath</text>
<polygon fill="none" stroke="#000000" points="8.5,-64.7 8.5,-83.7 171.5,-83.7 171.5,-64.7 8.5,-64.7"/>
<text text-anchor="start" x="11.5" y="-70.8" font-family="Helvetica,sans-Serif" font-size="11.00" fill="#000000">...</text>
<polygon fill="#ffffff" stroke="transparent" points="8.5,-45.7 8.5,-64.7 79.5,-64.7 79.5,-45.7 8.5,-45.7"/>
<polygon fill="none" stroke="#000000" points="8.5,-45.7 8.5,-64.7 79.5,-64.7 79.5,-45.7 8.5,-45.7"/>
<text text-anchor="start" x="11.5" y="-51.8" font-family="Helvetica,sans-Serif" font-size="11.00" fill="#000000"> &#160;</text>
<polygon fill="#ffffff" stroke="transparent" points="79.5,-45.7 79.5,-64.7 120.5,-64.7 120.5,-45.7 79.5,-45.7"/>
<polygon fill="none" stroke="#000000" points="79.5,-45.7 79.5,-64.7 120.5,-64.7 120.5,-45.7 79.5,-45.7"/>
<text text-anchor="start" x="111.3862" y="-51.8" font-family="Helvetica,sans-Serif" font-size="11.00" fill="#000000"> &#160;</text>
<polygon fill="#ffffff" stroke="transparent" points="120.5,-45.7 120.5,-64.7 171.5,-64.7 171.5,-45.7 120.5,-45.7"/>
<polygon fill="none" stroke="#000000" points="120.5,-45.7 120.5,-64.7 171.5,-64.7 171.5,-45.7 120.5,-45.7"/>
<text text-anchor="start" x="152.9053" y="-51.8" font-family="Helvetica,sans-Serif" font-size="11.00" fill="#000000">1 &gt;</text>
</a>
</g>
</g>
<!-- AgLibraryFolder&#45;&gt;AgLibraryRootFolder -->
<g id="edge5" class="edge">
<title>AgLibraryFolder:w&#45;&gt;AgLibraryRootFolder:e</title>
<path fill="none" stroke="#000000" d="M207.4203,-138.7C195.5435,-138.7 188.158,-138.7 171.5,-138.7"/>
<polygon fill="#000000" stroke="#000000" points="214,-138.7001 222,-142.3 218,-138.7 222,-138.7 222,-138.7 222,-138.7 218,-138.7 222,-135.1 214,-138.7001 214,-138.7001"/>
<ellipse fill="none" stroke="#000000" cx="210.8" cy="-138.7001" rx="3.2" ry="3.2"/>
</g>
</g>
</svg>
