<?xml version="1.0" encoding="UTF-8" standalone="no"?>
<!DOCTYPE svg PUBLIC "-//W3C//DTD SVG 1.1//EN"
 "http://www.w3.org/Graphics/SVG/1.1/DTD/svg11.dtd">
<!-- Generated by graphviz version 2.40.1 (20161225.0304)
 -->
<!-- Title: twoDegreesRelationshipsDiagramImplied Pages: 1 -->
<svg width="979pt" height="1227pt"
 viewBox="0.00 0.00 979.14 1227.00" xmlns="http://www.w3.org/2000/svg" xmlns:xlink="http://www.w3.org/1999/xlink">
<g id="graph0" class="graph" transform="scale(1 1) rotate(0) translate(4 1222.9977)">
<title>twoDegreesRelationshipsDiagramImplied</title>
<polygon fill="#ffffff" stroke="transparent" points="-4,4 -4,-1222.9977 975.143,-1222.9977 975.143,4 -4,4"/>
<text text-anchor="middle" x="72.4936" y="-7.3" font-family="Helvetica,sans-Serif" font-size="11.00" fill="#000000">Generated by SchemaSpy</text>
<!-- AgLibraryCollection -->
<g id="node1" class="node">
<title>AgLibraryCollection</title>
<g id="a_node1"><a xlink:href="../../tables/AgLibraryCollection.html" xlink:title="AgLibraryCollection" target="_top">
<polygon fill="#ffffff" stroke="transparent" points="46.143,-599.2709 46.143,-799.2709 307.143,-799.2709 307.143,-599.2709 46.143,-599.2709"/>
<polygon fill="#f5f5f5" stroke="transparent" points="48.643,-774.2709 48.643,-797.2709 305.643,-797.2709 305.643,-774.2709 48.643,-774.2709"/>
<polygon fill="none" stroke="#000000" points="48.643,-774.2709 48.643,-797.2709 305.643,-797.2709 305.643,-774.2709 48.643,-774.2709"/>
<text text-anchor="start" x="53.643" y="-782.8709" font-family="Helvetica,sans-Serif" font-weight="bold" font-size="11.00" fill="#000000">AgLibraryCollection</text>
<text text-anchor="start" x="270.6867" y="-782.3709" font-family="Helvetica,sans-Serif" font-size="11.00" fill="#000000">[table]</text>
<polygon fill="none" stroke="#000000" points="48.643,-752.2709 48.643,-774.2709 183.643,-774.2709 183.643,-752.2709 48.643,-752.2709"/>
<image xlink:href="../../images/primaryKeys.png" width="11px" height="12px" preserveAspectRatio="xMinYMin meet" x="53.643" y="-769.271"/>
<text text-anchor="start" x="68.643" y="-759.3709" font-family="Helvetica,sans-Serif" font-size="11.00" fill="#000000">id_local</text>
<polygon fill="none" stroke="#000000" points="183.643,-752.2709 183.643,-774.2709 305.643,-774.2709 305.643,-752.2709 183.643,-752.2709"/>
<text text-anchor="start" x="186.5586" y="-759.9709" font-family="Helvetica,sans-Serif" font-size="11.00" fill="#000000">integer[2000000000,10]</text>
<polygon fill="none" stroke="#000000" points="48.643,-730.2709 48.643,-752.2709 183.643,-752.2709 183.643,-730.2709 48.643,-730.2709"/>
<text text-anchor="start" x="68.643" y="-737.3709" font-family="Helvetica,sans-Serif" font-size="11.00" fill="#000000">creationId</text>
<polygon fill="none" stroke="#000000" points="183.643,-730.2709 183.643,-752.2709 305.643,-752.2709 305.643,-730.2709 183.643,-730.2709"/>
<text text-anchor="start" x="186.643" y="-737.9709" font-family="Helvetica,sans-Serif" font-size="11.00" fill="#000000">[2000000000,10]</text>
<polygon fill="#ffffff" stroke="transparent" points="48.643,-708.2709 48.643,-730.2709 183.643,-730.2709 183.643,-708.2709 48.643,-708.2709"/>
<polygon fill="none" stroke="#000000" points="48.643,-708.2709 48.643,-730.2709 183.643,-730.2709 183.643,-708.2709 48.643,-708.2709"/>
<text text-anchor="start" x="68.643" y="-715.3709" font-family="Helvetica,sans-Serif" font-size="11.00" fill="#000000">genealogy</text>
<polygon fill="none" stroke="#000000" points="183.643,-708.2709 183.643,-730.2709 305.643,-730.2709 305.643,-708.2709 183.643,-708.2709"/>
<text text-anchor="start" x="186.643" y="-715.9709" font-family="Helvetica,sans-Serif" font-size="11.00" fill="#000000">[2000000000,10]</text>
<polygon fill="none" stroke="#000000" points="48.643,-686.2709 48.643,-708.2709 183.643,-708.2709 183.643,-686.2709 48.643,-686.2709"/>
<text text-anchor="start" x="68.643" y="-693.3709" font-family="Helvetica,sans-Serif" font-size="11.00" fill="#000000">imageCount</text>
<polygon fill="none" stroke="#000000" points="183.643,-686.2709 183.643,-708.2709 305.643,-708.2709 305.643,-686.2709 183.643,-686.2709"/>
<text text-anchor="start" x="186.643" y="-693.9709" font-family="Helvetica,sans-Serif" font-size="11.00" fill="#000000">[2000000000,10]</text>
<polygon fill="#ffffff" stroke="transparent" points="48.643,-664.2709 48.643,-686.2709 183.643,-686.2709 183.643,-664.2709 48.643,-664.2709"/>
<polygon fill="none" stroke="#000000" points="48.643,-664.2709 48.643,-686.2709 183.643,-686.2709 183.643,-664.2709 48.643,-664.2709"/>
<text text-anchor="start" x="68.643" y="-671.3709" font-family="Helvetica,sans-Serif" font-size="11.00" fill="#000000">name</text>
<polygon fill="none" stroke="#000000" points="183.643,-664.2709 183.643,-686.2709 305.643,-686.2709 305.643,-664.2709 183.643,-664.2709"/>
<text text-anchor="start" x="186.643" y="-671.9709" font-family="Helvetica,sans-Serif" font-size="11.00" fill="#000000">[2000000000,10]</text>
<polygon fill="#ffffff" stroke="transparent" points="48.643,-642.2709 48.643,-664.2709 183.643,-664.2709 183.643,-642.2709 48.643,-642.2709"/>
<polygon fill="none" stroke="#000000" points="48.643,-642.2709 48.643,-664.2709 183.643,-664.2709 183.643,-642.2709 48.643,-642.2709"/>
<image xlink:href="../../images/foreignKeys.png" width="11px" height="12px" preserveAspectRatio="xMinYMin meet" x="53.643" y="-659.271"/>
<text text-anchor="start" x="68.643" y="-649.3709" font-family="Helvetica,sans-Serif" font-size="11.00" fill="#000000">parent</text>
<polygon fill="none" stroke="#000000" points="183.643,-642.2709 183.643,-664.2709 305.643,-664.2709 305.643,-642.2709 183.643,-642.2709"/>
<text text-anchor="start" x="186.5586" y="-649.9709" font-family="Helvetica,sans-Serif" font-size="11.00" fill="#000000">integer[2000000000,10]</text>
<polygon fill="none" stroke="#000000" points="48.643,-620.2709 48.643,-642.2709 183.643,-642.2709 183.643,-620.2709 48.643,-620.2709"/>
<text text-anchor="start" x="68.643" y="-627.3709" font-family="Helvetica,sans-Serif" font-size="11.00" fill="#000000">systemOnly</text>
<polygon fill="none" stroke="#000000" points="183.643,-620.2709 183.643,-642.2709 305.643,-642.2709 305.643,-620.2709 183.643,-620.2709"/>
<text text-anchor="start" x="186.643" y="-627.9709" font-family="Helvetica,sans-Serif" font-size="11.00" fill="#000000">[2000000000,10]</text>
<polygon fill="#ffffff" stroke="transparent" points="48.643,-601.2709 48.643,-620.2709 120.643,-620.2709 120.643,-601.2709 48.643,-601.2709"/>
<polygon fill="none" stroke="#000000" points="48.643,-601.2709 48.643,-620.2709 120.643,-620.2709 120.643,-601.2709 48.643,-601.2709"/>
<text text-anchor="start" x="51.643" y="-607.3709" font-family="Helvetica,sans-Serif" font-size="11.00" fill="#000000">&lt; 1</text>
<polygon fill="#ffffff" stroke="transparent" points="120.643,-601.2709 120.643,-620.2709 183.643,-620.2709 183.643,-601.2709 120.643,-601.2709"/>
<polygon fill="none" stroke="#000000" points="120.643,-601.2709 120.643,-620.2709 183.643,-620.2709 183.643,-601.2709 120.643,-601.2709"/>
<text text-anchor="start" x="174.5292" y="-607.3709" font-family="Helvetica,sans-Serif" font-size="11.00" fill="#000000"> &#160;</text>
<polygon fill="#ffffff" stroke="transparent" points="183.643,-601.2709 183.643,-620.2709 305.643,-620.2709 305.643,-601.2709 183.643,-601.2709"/>
<polygon fill="none" stroke="#000000" points="183.643,-601.2709 183.643,-620.2709 305.643,-620.2709 305.643,-601.2709 183.643,-601.2709"/>
<text text-anchor="start" x="280.9334" y="-607.3709" font-family="Helvetica,sans-Serif" font-size="11.00" fill="#000000">13 &gt;</text>
<polygon fill="none" stroke="#000000" stroke-width="2" points="47.143,-600.2709 47.143,-798.2709 306.143,-798.2709 306.143,-600.2709 47.143,-600.2709"/>
</a>
</g>
</g>
<!-- AgLibraryCollection&#45;&gt;AgLibraryCollection -->
<g id="edge1" class="edge">
<title>AgLibraryCollection:w&#45;&gt;AgLibraryCollection:e</title>
<path fill="none" stroke="#000000" d="M36.1632,-660.6779C-28.6945,-705.9199 -17.6607,-816.2709 177.143,-816.2709 383.643,-816.2709 383.643,-802.2709 305.643,-763.2709"/>
<polygon fill="#000000" stroke="#000000" points="41.7635,-657.3541 50.4805,-656.3667 45.2033,-655.3125 48.643,-653.2709 48.643,-653.2709 48.643,-653.2709 45.2033,-655.3125 46.8056,-650.1751 41.7635,-657.3541 41.7635,-657.3541"/>
<ellipse fill="none" stroke="#000000" cx="39.0117" cy="-658.9873" rx="3.2" ry="3.2"/>
</g>
<!-- AgLibraryCollectionContent -->
<g id="node2" class="node">
<title>AgLibraryCollectionContent</title>
<g id="a_node2"><a xlink:href="../../tables/AgLibraryCollectionContent.html" xlink:title="AgLibraryCollectionContent" target="_top">
<polygon fill="#ffffff" stroke="transparent" points="390.143,-652.7709 390.143,-779.7709 589.143,-779.7709 589.143,-652.7709 390.143,-652.7709"/>
<polygon fill="#f5f5f5" stroke="transparent" points="390.643,-756.2709 390.643,-779.2709 589.643,-779.2709 589.643,-756.2709 390.643,-756.2709"/>
<polygon fill="none" stroke="#000000" points="390.643,-756.2709 390.643,-779.2709 589.643,-779.2709 589.643,-756.2709 390.643,-756.2709"/>
<text text-anchor="start" x="395.643" y="-764.8709" font-family="Helvetica,sans-Serif" font-weight="bold" font-size="11.00" fill="#000000">AgLibraryCollectionContent</text>
<text text-anchor="start" x="555.1649" y="-764.3709" font-family="Helvetica,sans-Serif" font-size="11.00" fill="#000000">[table]</text>
<polygon fill="none" stroke="#000000" points="390.643,-734.2709 390.643,-756.2709 589.643,-756.2709 589.643,-734.2709 390.643,-734.2709"/>
<image xlink:href="../../images/primaryKeys.png" width="11px" height="12px" preserveAspectRatio="xMinYMin meet" x="395.643" y="-751.271"/>
<text text-anchor="start" x="419.643" y="-741.3709" font-family="Helvetica,sans-Serif" font-size="11.00" fill="#000000">id_local</text>
<polygon fill="#ffffff" stroke="transparent" points="390.643,-712.2709 390.643,-734.2709 589.643,-734.2709 589.643,-712.2709 390.643,-712.2709"/>
<polygon fill="none" stroke="#000000" points="390.643,-712.2709 390.643,-734.2709 589.643,-734.2709 589.643,-712.2709 390.643,-712.2709"/>
<image xlink:href="../../images/foreignKeys.png" width="11px" height="12px" preserveAspectRatio="xMinYMin meet" x="395.643" y="-729.271"/>
<text text-anchor="start" x="419.643" y="-719.3709" font-family="Helvetica,sans-Serif" font-size="11.00" fill="#000000">collection</text>
<polygon fill="#ffffff" stroke="transparent" points="390.643,-690.2709 390.643,-712.2709 589.643,-712.2709 589.643,-690.2709 390.643,-690.2709"/>
<polygon fill="none" stroke="#000000" points="390.643,-690.2709 390.643,-712.2709 589.643,-712.2709 589.643,-690.2709 390.643,-690.2709"/>
<text text-anchor="start" x="419.643" y="-697.3709" font-family="Helvetica,sans-Serif" font-size="11.00" fill="#000000">owningModule</text>
<polygon fill="none" stroke="#000000" points="390.643,-671.2709 390.643,-690.2709 589.643,-690.2709 589.643,-671.2709 390.643,-671.2709"/>
<text text-anchor="start" x="393.643" y="-677.3709" font-family="Helvetica,sans-Serif" font-size="11.00" fill="#000000">...</text>
<polygon fill="#ffffff" stroke="transparent" points="390.643,-652.2709 390.643,-671.2709 488.643,-671.2709 488.643,-652.2709 390.643,-652.2709"/>
<polygon fill="none" stroke="#000000" points="390.643,-652.2709 390.643,-671.2709 488.643,-671.2709 488.643,-652.2709 390.643,-652.2709"/>
<text text-anchor="start" x="393.643" y="-658.3709" font-family="Helvetica,sans-Serif" font-size="11.00" fill="#000000">&lt; 1</text>
<polygon fill="#ffffff" stroke="transparent" points="488.643,-652.2709 488.643,-671.2709 538.643,-671.2709 538.643,-652.2709 488.643,-652.2709"/>
<polygon fill="none" stroke="#000000" points="488.643,-652.2709 488.643,-671.2709 538.643,-671.2709 538.643,-652.2709 488.643,-652.2709"/>
<text text-anchor="start" x="529.5292" y="-658.3709" font-family="Helvetica,sans-Serif" font-size="11.00" fill="#000000"> &#160;</text>
<polygon fill="#ffffff" stroke="transparent" points="538.643,-652.2709 538.643,-671.2709 589.643,-671.2709 589.643,-652.2709 538.643,-652.2709"/>
<polygon fill="none" stroke="#000000" points="538.643,-652.2709 538.643,-671.2709 589.643,-671.2709 589.643,-652.2709 538.643,-652.2709"/>
<text text-anchor="start" x="580.5292" y="-658.3709" font-family="Helvetica,sans-Serif" font-size="11.00" fill="#000000"> &#160;</text>
</a>
</g>
</g>
<!-- AgLibraryCollectionContent&#45;&gt;AgLibraryCollection -->
<g id="edge2" class="edge">
<title>AgLibraryCollectionContent:w&#45;&gt;AgLibraryCollection:e</title>
<path fill="none" stroke="#000000" d="M376.3311,-725.0935C347.8365,-732.9187 342.0127,-763.2709 305.643,-763.2709"/>
<polygon fill="#000000" stroke="#000000" points="382.7071,-724.2816 391.0978,-726.842 386.6751,-723.7762 390.643,-723.2709 390.643,-723.2709 390.643,-723.2709 386.6751,-723.7762 390.1882,-719.6997 382.7071,-724.2816 382.7071,-724.2816"/>
<ellipse fill="none" stroke="#000000" cx="379.5328" cy="-724.6859" rx="3.2" ry="3.2"/>
</g>
<!-- AgLibraryCollectionImage -->
<g id="node3" class="node">
<title>AgLibraryCollectionImage</title>
<g id="a_node3"><a xlink:href="../../tables/AgLibraryCollectionImage.html" xlink:title="AgLibraryCollectionImage" target="_top">
<polygon fill="#ffffff" stroke="transparent" points="395.643,-303.7709 395.643,-364.7709 583.643,-364.7709 583.643,-303.7709 395.643,-303.7709"/>
<polygon fill="#f5f5f5" stroke="transparent" points="395.643,-341.2709 395.643,-364.2709 583.643,-364.2709 583.643,-341.2709 395.643,-341.2709"/>
<polygon fill="none" stroke="#000000" points="395.643,-341.2709 395.643,-364.2709 583.643,-364.2709 583.643,-341.2709 395.643,-341.2709"/>
<text text-anchor="start" x="400.643" y="-349.8709" font-family="Helvetica,sans-Serif" font-weight="bold" font-size="11.00" fill="#000000">AgLibraryCollectionImage</text>
<text text-anchor="start" x="549.1649" y="-349.3709" font-family="Helvetica,sans-Serif" font-size="11.00" fill="#000000">[table]</text>
<polygon fill="none" stroke="#000000" points="395.643,-322.2709 395.643,-341.2709 583.643,-341.2709 583.643,-322.2709 395.643,-322.2709"/>
<text text-anchor="start" x="398.643" y="-328.3709" font-family="Helvetica,sans-Serif" font-size="11.00" fill="#000000">...</text>
<polygon fill="#ffffff" stroke="transparent" points="395.643,-303.2709 395.643,-322.2709 483.643,-322.2709 483.643,-303.2709 395.643,-303.2709"/>
<polygon fill="none" stroke="#000000" points="395.643,-303.2709 395.643,-322.2709 483.643,-322.2709 483.643,-303.2709 395.643,-303.2709"/>
<text text-anchor="start" x="398.643" y="-309.3709" font-family="Helvetica,sans-Serif" font-size="11.00" fill="#000000">&lt; 2</text>
<polygon fill="#ffffff" stroke="transparent" points="483.643,-303.2709 483.643,-322.2709 528.643,-322.2709 528.643,-303.2709 483.643,-303.2709"/>
<polygon fill="none" stroke="#000000" points="483.643,-303.2709 483.643,-322.2709 528.643,-322.2709 528.643,-303.2709 483.643,-303.2709"/>
<text text-anchor="start" x="519.5292" y="-309.3709" font-family="Helvetica,sans-Serif" font-size="11.00" fill="#000000"> &#160;</text>
<polygon fill="#ffffff" stroke="transparent" points="528.643,-303.2709 528.643,-322.2709 583.643,-322.2709 583.643,-303.2709 528.643,-303.2709"/>
<polygon fill="none" stroke="#000000" points="528.643,-303.2709 528.643,-322.2709 583.643,-322.2709 583.643,-303.2709 528.643,-303.2709"/>
<text text-anchor="start" x="565.0483" y="-309.3709" font-family="Helvetica,sans-Serif" font-size="11.00" fill="#000000">3 &gt;</text>
</a>
</g>
</g>
<!-- AgLibraryCollectionImage&#45;&gt;AgLibraryCollection -->
<g id="edge3" class="edge">
<title>AgLibraryCollectionImage:w&#45;&gt;AgLibraryCollection:e</title>
<path fill="none" stroke="#000000" d="M374.0121,-354.4023C364.2361,-359.8521 355.3515,-366.6941 348.143,-375.2709 292.3357,-441.6712 392.381,-763.2709 305.643,-763.2709"/>
<polygon fill="#000000" stroke="#000000" points="380.1007,-351.4763 388.8706,-351.2558 383.706,-349.7437 387.3112,-348.011 387.3112,-348.011 387.3112,-348.011 383.706,-349.7437 385.7519,-344.7663 380.1007,-351.4763 380.1007,-351.4763"/>
<ellipse fill="none" stroke="#000000" cx="377.2165" cy="-352.8624" rx="3.2" ry="3.2"/>
</g>
<!-- Adobe_images -->
<g id="node4" class="node">
<title>Adobe_images</title>
<g id="a_node4"><a xlink:href="../../tables/Adobe_images.html" xlink:title="Adobe_images" target="_top">
<polygon fill="#ffffff" stroke="transparent" points="114.643,-127.7709 114.643,-188.7709 238.643,-188.7709 238.643,-127.7709 114.643,-127.7709"/>
<polygon fill="#f5f5f5" stroke="transparent" points="114.643,-165.2709 114.643,-188.2709 238.643,-188.2709 238.643,-165.2709 114.643,-165.2709"/>
<polygon fill="none" stroke="#000000" points="114.643,-165.2709 114.643,-188.2709 238.643,-188.2709 238.643,-165.2709 114.643,-165.2709"/>
<text text-anchor="start" x="119.643" y="-173.8709" font-family="Helvetica,sans-Serif" font-weight="bold" font-size="11.00" fill="#000000">Adobe_images</text>
<text text-anchor="start" x="204.1649" y="-173.3709" font-family="Helvetica,sans-Serif" font-size="11.00" fill="#000000">[table]</text>
<polygon fill="none" stroke="#000000" points="114.643,-146.2709 114.643,-165.2709 238.643,-165.2709 238.643,-146.2709 114.643,-146.2709"/>
<text text-anchor="start" x="117.643" y="-152.3709" font-family="Helvetica,sans-Serif" font-size="11.00" fill="#000000">...</text>
<polygon fill="#ffffff" stroke="transparent" points="114.643,-127.2709 114.643,-146.2709 167.643,-146.2709 167.643,-127.2709 114.643,-127.2709"/>
<polygon fill="none" stroke="#000000" points="114.643,-127.2709 114.643,-146.2709 167.643,-146.2709 167.643,-127.2709 114.643,-127.2709"/>
<text text-anchor="start" x="117.643" y="-133.3709" font-family="Helvetica,sans-Serif" font-size="11.00" fill="#000000">&lt; 2</text>
<polygon fill="#ffffff" stroke="transparent" points="167.643,-127.2709 167.643,-146.2709 195.643,-146.2709 195.643,-127.2709 167.643,-127.2709"/>
<polygon fill="none" stroke="#000000" points="167.643,-127.2709 167.643,-146.2709 195.643,-146.2709 195.643,-127.2709 167.643,-127.2709"/>
<text text-anchor="start" x="186.5292" y="-133.3709" font-family="Helvetica,sans-Serif" font-size="11.00" fill="#000000"> &#160;</text>
<polygon fill="#ffffff" stroke="transparent" points="195.643,-127.2709 195.643,-146.2709 238.643,-146.2709 238.643,-127.2709 195.643,-127.2709"/>
<polygon fill="none" stroke="#000000" points="195.643,-127.2709 195.643,-146.2709 238.643,-146.2709 238.643,-127.2709 195.643,-127.2709"/>
<text text-anchor="start" x="213.9334" y="-133.3709" font-family="Helvetica,sans-Serif" font-size="11.00" fill="#000000">31 &gt;</text>
</a>
</g>
</g>
<!-- AgLibraryCollectionImage&#45;&gt;Adobe_images -->
<g id="edge4" class="edge">
<title>AgLibraryCollectionImage:w&#45;&gt;Adobe_images:e</title>
<path fill="none" stroke="#000000" d="M393.7274,-292.9369C377.9724,-284.632 362.2125,-275.3299 348.143,-265.2709 292.0274,-225.1509 307.6254,-155.2709 238.643,-155.2709"/>
<polygon fill="#000000" stroke="#000000" points="399.7979,-296.0357 405.2864,-302.8795 403.3606,-297.8544 406.9232,-299.6731 406.9232,-299.6731 406.9232,-299.6731 403.3606,-297.8544 408.5601,-296.4667 399.7979,-296.0357 399.7979,-296.0357"/>
<ellipse fill="none" stroke="#000000" cx="396.9478" cy="-294.5808" rx="3.2" ry="3.2"/>
</g>
<!-- AgLibraryCollectionImageChangeCounter -->
<g id="node5" class="node">
<title>AgLibraryCollectionImageChangeCounter</title>
<g id="a_node5"><a xlink:href="../../tables/AgLibraryCollectionImageChangeCounter.html" xlink:title="AgLibraryCollectionImageChangeCounter" target="_top">
<polygon fill="#ffffff" stroke="transparent" points="678.643,-248.7709 678.643,-309.7709 956.643,-309.7709 956.643,-248.7709 678.643,-248.7709"/>
<polygon fill="#f5f5f5" stroke="transparent" points="678.643,-286.2709 678.643,-309.2709 956.643,-309.2709 956.643,-286.2709 678.643,-286.2709"/>
<polygon fill="none" stroke="#000000" points="678.643,-286.2709 678.643,-309.2709 956.643,-309.2709 956.643,-286.2709 678.643,-286.2709"/>
<text text-anchor="start" x="683.643" y="-294.8709" font-family="Helvetica,sans-Serif" font-weight="bold" font-size="11.00" fill="#000000">AgLibraryCollectionImageChangeCounter</text>
<text text-anchor="start" x="922.1649" y="-294.3709" font-family="Helvetica,sans-Serif" font-size="11.00" fill="#000000">[table]</text>
<polygon fill="none" stroke="#000000" points="678.643,-267.2709 678.643,-286.2709 956.643,-286.2709 956.643,-267.2709 678.643,-267.2709"/>
<text text-anchor="start" x="681.643" y="-273.3709" font-family="Helvetica,sans-Serif" font-size="11.00" fill="#000000">...</text>
<polygon fill="#ffffff" stroke="transparent" points="678.643,-248.2709 678.643,-267.2709 815.643,-267.2709 815.643,-248.2709 678.643,-248.2709"/>
<polygon fill="none" stroke="#000000" points="678.643,-248.2709 678.643,-267.2709 815.643,-267.2709 815.643,-248.2709 678.643,-248.2709"/>
<text text-anchor="start" x="681.643" y="-254.3709" font-family="Helvetica,sans-Serif" font-size="11.00" fill="#000000">&lt; 3</text>
<polygon fill="#ffffff" stroke="transparent" points="815.643,-248.2709 815.643,-267.2709 885.643,-267.2709 885.643,-248.2709 815.643,-248.2709"/>
<polygon fill="none" stroke="#000000" points="815.643,-248.2709 815.643,-267.2709 885.643,-267.2709 885.643,-248.2709 815.643,-248.2709"/>
<text text-anchor="start" x="876.5292" y="-254.3709" font-family="Helvetica,sans-Serif" font-size="11.00" fill="#000000"> &#160;</text>
<polygon fill="#ffffff" stroke="transparent" points="885.643,-248.2709 885.643,-267.2709 956.643,-267.2709 956.643,-248.2709 885.643,-248.2709"/>
<polygon fill="none" stroke="#000000" points="885.643,-248.2709 885.643,-267.2709 956.643,-267.2709 956.643,-248.2709 885.643,-248.2709"/>
<text text-anchor="start" x="947.5292" y="-254.3709" font-family="Helvetica,sans-Serif" font-size="11.00" fill="#000000"> &#160;</text>
</a>
</g>
</g>
<!-- AgLibraryCollectionImageChangeCounter&#45;&gt;AgLibraryCollection -->
<g id="edge5" class="edge">
<title>AgLibraryCollectionImageChangeCounter:w&#45;&gt;AgLibraryCollection:e</title>
<path fill="none" stroke="#000000" d="M656.0207,-273.7391C529.2278,-271.0955 370.5119,-272.2133 348.143,-293.2709 271.7841,-365.1538 410.5136,-763.2709 305.643,-763.2709"/>
<polygon fill="#000000" stroke="#000000" points="662.5304,-273.8833 670.4487,-277.6597 666.5294,-273.9719 670.5284,-274.0606 670.5284,-274.0606 670.5284,-274.0606 666.5294,-273.9719 670.6082,-270.4615 662.5304,-273.8833 662.5304,-273.8833"/>
<ellipse fill="none" stroke="#000000" cx="659.3312" cy="-273.8124" rx="3.2" ry="3.2"/>
</g>
<!-- AgLibraryCollectionImageChangeCounter&#45;&gt;AgLibraryCollectionImage -->
<g id="edge6" class="edge">
<title>AgLibraryCollectionImageChangeCounter:w&#45;&gt;AgLibraryCollectionImage:e</title>
<path fill="none" stroke="#000000" d="M660.1355,-305.6822C636.9002,-309.5784 613.4909,-313.5037 591.777,-317.1448"/>
<polygon fill="#000000" stroke="#000000" points="668.9827,-300.1428 670.3058,-308.0327 668.7278,-308.2973 667.4048,-300.4074 668.9827,-300.1428"/>
<polyline fill="none" stroke="#000000" points="670.4332,-303.9554 666.4883,-304.617 "/>
<ellipse fill="none" stroke="#000000" cx="663.3324" cy="-305.1462" rx="3.2" ry="3.2"/>
</g>
<!-- AgLibraryCollectionImageChangeCounter&#45;&gt;Adobe_images -->
<g id="edge7" class="edge">
<title>AgLibraryCollectionImageChangeCounter:w&#45;&gt;Adobe_images:e</title>
<path fill="none" stroke="#000000" d="M792.0997,-231.9982C761.5048,-180.9393 704.9948,-102.4549 631.143,-69.2709 516.4149,-17.7198 467.0161,-28.1705 348.143,-69.2709 289.6581,-89.4921 300.525,-155.2709 238.643,-155.2709"/>
<polygon fill="#000000" stroke="#000000" points="795.4602,-237.7525 796.386,-246.4762 797.4774,-241.2066 799.4947,-244.6607 799.4947,-244.6607 799.4947,-244.6607 797.4774,-241.2066 802.6033,-242.8452 795.4602,-237.7525 795.4602,-237.7525"/>
<ellipse fill="none" stroke="#000000" cx="793.8464" cy="-234.9892" rx="3.2" ry="3.2"/>
</g>
<!-- AgLibraryCollectionImageOzAlbumAssetIds -->
<g id="node6" class="node">
<title>AgLibraryCollectionImageOzAlbumAssetIds</title>
<g id="a_node6"><a xlink:href="../../tables/AgLibraryCollectionImageOzAlbumAssetIds.html" xlink:title="AgLibraryCollectionImageOzAlbumAssetIds" target="_top">
<polygon fill="#ffffff" stroke="transparent" points="672.143,-421.7709 672.143,-482.7709 963.143,-482.7709 963.143,-421.7709 672.143,-421.7709"/>
<polygon fill="#f5f5f5" stroke="transparent" points="672.643,-459.2709 672.643,-482.2709 963.643,-482.2709 963.643,-459.2709 672.643,-459.2709"/>
<polygon fill="none" stroke="#000000" points="672.643,-459.2709 672.643,-482.2709 963.643,-482.2709 963.643,-459.2709 672.643,-459.2709"/>
<text text-anchor="start" x="677.643" y="-467.8709" font-family="Helvetica,sans-Serif" font-weight="bold" font-size="11.00" fill="#000000">AgLibraryCollectionImageOzAlbumAssetIds</text>
<text text-anchor="start" x="929.1649" y="-467.3709" font-family="Helvetica,sans-Serif" font-size="11.00" fill="#000000">[table]</text>
<polygon fill="none" stroke="#000000" points="672.643,-440.2709 672.643,-459.2709 963.643,-459.2709 963.643,-440.2709 672.643,-440.2709"/>
<text text-anchor="start" x="675.643" y="-446.3709" font-family="Helvetica,sans-Serif" font-size="11.00" fill="#000000">...</text>
<polygon fill="#ffffff" stroke="transparent" points="672.643,-421.2709 672.643,-440.2709 816.643,-440.2709 816.643,-421.2709 672.643,-421.2709"/>
<polygon fill="none" stroke="#000000" points="672.643,-421.2709 672.643,-440.2709 816.643,-440.2709 816.643,-421.2709 672.643,-421.2709"/>
<text text-anchor="start" x="675.643" y="-427.3709" font-family="Helvetica,sans-Serif" font-size="11.00" fill="#000000">&lt; 4</text>
<polygon fill="#ffffff" stroke="transparent" points="816.643,-421.2709 816.643,-440.2709 889.643,-440.2709 889.643,-421.2709 816.643,-421.2709"/>
<polygon fill="none" stroke="#000000" points="816.643,-421.2709 816.643,-440.2709 889.643,-440.2709 889.643,-421.2709 816.643,-421.2709"/>
<text text-anchor="start" x="880.5292" y="-427.3709" font-family="Helvetica,sans-Serif" font-size="11.00" fill="#000000"> &#160;</text>
<polygon fill="#ffffff" stroke="transparent" points="889.643,-421.2709 889.643,-440.2709 963.643,-440.2709 963.643,-421.2709 889.643,-421.2709"/>
<polygon fill="none" stroke="#000000" points="889.643,-421.2709 889.643,-440.2709 963.643,-440.2709 963.643,-421.2709 889.643,-421.2709"/>
<text text-anchor="start" x="954.5292" y="-427.3709" font-family="Helvetica,sans-Serif" font-size="11.00" fill="#000000"> &#160;</text>
</a>
</g>
</g>
<!-- AgLibraryCollectionImageOzAlbumAssetIds&#45;&gt;AgLibraryCollection -->
<g id="edge8" class="edge">
<title>AgLibraryCollectionImageOzAlbumAssetIds:w&#45;&gt;AgLibraryCollection:e</title>
<path fill="none" stroke="#000000" d="M769.3304,-496.3874C733.6741,-526.5438 682.5964,-564.953 631.143,-587.2709 513.5934,-638.2578 445.1049,-558.5094 348.143,-642.2709 305.0099,-679.5318 362.6416,-763.2709 305.643,-763.2709"/>
<polygon fill="#000000" stroke="#000000" points="774.2798,-492.1325 782.6931,-489.6471 777.313,-489.5248 780.3462,-486.9172 780.3462,-486.9172 780.3462,-486.9172 777.313,-489.5248 777.9993,-484.1873 774.2798,-492.1325 774.2798,-492.1325"/>
<ellipse fill="none" stroke="#000000" cx="771.8532" cy="-494.2186" rx="3.2" ry="3.2"/>
</g>
<!-- AgLibraryCollectionImageOzAlbumAssetIds&#45;&gt;AgLibraryCollectionImage -->
<g id="edge9" class="edge">
<title>AgLibraryCollectionImageOzAlbumAssetIds:w&#45;&gt;AgLibraryCollectionImage:e</title>
<path fill="none" stroke="#000000" d="M725.9461,-412.0718C695.9932,-399.572 662.394,-386.2128 631.143,-375.2709 618.4698,-370.8336 605.0434,-366.492 591.7059,-362.3934"/>
<polygon fill="#000000" stroke="#000000" points="732.0557,-414.6413 738.0345,-421.0612 735.7429,-416.192 739.4301,-417.7427 739.4301,-417.7427 739.4301,-417.7427 735.7429,-416.192 740.8258,-414.4243 732.0557,-414.6413 732.0557,-414.6413"/>
<ellipse fill="none" stroke="#000000" cx="729.106" cy="-413.4007" rx="3.2" ry="3.2"/>
</g>
<!-- AgLibraryCollectionImageOzAlbumAssetIds&#45;&gt;Adobe_images -->
<g id="edge10" class="edge">
<title>AgLibraryCollectionImageOzAlbumAssetIds:w&#45;&gt;Adobe_images:e</title>
<path fill="none" stroke="#000000" d="M747.8095,-409.1342C717.1751,-386.5091 683.7819,-356.0366 664.143,-320.2709 614.8619,-230.5217 708.5551,-159.2852 631.143,-92.2709 583.5954,-51.1097 408.9013,-76.0398 348.143,-92.2709 293.8986,-106.7618 294.7897,-155.2709 238.643,-155.2709"/>
<polygon fill="#000000" stroke="#000000" points="753.3165,-413.0709 757.731,-420.652 756.5706,-415.3971 759.8246,-417.7233 759.8246,-417.7233 759.8246,-417.7233 756.5706,-415.3971 761.9182,-414.7947 753.3165,-413.0709 753.3165,-413.0709"/>
<ellipse fill="none" stroke="#000000" cx="750.7133" cy="-411.2099" rx="3.2" ry="3.2"/>
</g>
<!-- AgPendingOzAlbumAssetIds_sortOrder -->
<g id="node7" class="node">
<title>AgPendingOzAlbumAssetIds_sortOrder</title>
<g id="a_node7"><a xlink:href="../../tables/AgPendingOzAlbumAssetIds_sortOrder.html" xlink:title="AgPendingOzAlbumAssetIds_sortOrder" target="_top">
<polygon fill="#ffffff" stroke="transparent" points="356.143,-515.7709 356.143,-576.7709 623.143,-576.7709 623.143,-515.7709 356.143,-515.7709"/>
<polygon fill="#f5f5f5" stroke="transparent" points="356.643,-553.2709 356.643,-576.2709 623.643,-576.2709 623.643,-553.2709 356.643,-553.2709"/>
<polygon fill="none" stroke="#000000" points="356.643,-553.2709 356.643,-576.2709 623.643,-576.2709 623.643,-553.2709 356.643,-553.2709"/>
<text text-anchor="start" x="361.643" y="-561.8709" font-family="Helvetica,sans-Serif" font-weight="bold" font-size="11.00" fill="#000000">AgPendingOzAlbumAssetIds_sortOrder</text>
<text text-anchor="start" x="589.1649" y="-561.3709" font-family="Helvetica,sans-Serif" font-size="11.00" fill="#000000">[table]</text>
<polygon fill="none" stroke="#000000" points="356.643,-534.2709 356.643,-553.2709 623.643,-553.2709 623.643,-534.2709 356.643,-534.2709"/>
<text text-anchor="start" x="359.643" y="-540.3709" font-family="Helvetica,sans-Serif" font-size="11.00" fill="#000000">...</text>
<polygon fill="#ffffff" stroke="transparent" points="356.643,-515.2709 356.643,-534.2709 479.643,-534.2709 479.643,-515.2709 356.643,-515.2709"/>
<polygon fill="none" stroke="#000000" points="356.643,-515.2709 356.643,-534.2709 479.643,-534.2709 479.643,-515.2709 356.643,-515.2709"/>
<text text-anchor="start" x="359.643" y="-521.3709" font-family="Helvetica,sans-Serif" font-size="11.00" fill="#000000"> &#160;</text>
<polygon fill="#ffffff" stroke="transparent" points="479.643,-515.2709 479.643,-534.2709 546.643,-534.2709 546.643,-515.2709 479.643,-515.2709"/>
<polygon fill="none" stroke="#000000" points="479.643,-515.2709 479.643,-534.2709 546.643,-534.2709 546.643,-515.2709 479.643,-515.2709"/>
<text text-anchor="start" x="537.5292" y="-521.3709" font-family="Helvetica,sans-Serif" font-size="11.00" fill="#000000"> &#160;</text>
<polygon fill="#ffffff" stroke="transparent" points="546.643,-515.2709 546.643,-534.2709 623.643,-534.2709 623.643,-515.2709 546.643,-515.2709"/>
<polygon fill="none" stroke="#000000" points="546.643,-515.2709 546.643,-534.2709 623.643,-534.2709 623.643,-515.2709 546.643,-515.2709"/>
<text text-anchor="start" x="605.0483" y="-521.3709" font-family="Helvetica,sans-Serif" font-size="11.00" fill="#000000">3 &gt;</text>
</a>
</g>
</g>
<!-- AgLibraryCollectionImageOzAlbumAssetIds&#45;&gt;AgPendingOzAlbumAssetIds_sortOrder -->
<g id="edge11" class="edge">
<title>AgLibraryCollectionImageOzAlbumAssetIds:w&#45;&gt;AgPendingOzAlbumAssetIds_sortOrder:e</title>
<path fill="none" stroke="#000000" stroke-dasharray="5,2" d="M760.9388,-494.8837C723.8687,-518.5542 673.2769,-543.2709 623.643,-543.2709"/>
<polygon fill="#000000" stroke="#000000" points="766.2965,-491.3438 774.9557,-489.9373 769.6338,-489.1387 772.9711,-486.9337 772.9711,-486.9337 772.9711,-486.9337 769.6338,-489.1387 770.9866,-483.9301 766.2965,-491.3438 766.2965,-491.3438"/>
<ellipse fill="none" stroke="#000000" cx="763.6266" cy="-493.1079" rx="3.2" ry="3.2"/>
</g>
<!-- AgLibraryCollectionImageOzSortOrder -->
<g id="node8" class="node">
<title>AgLibraryCollectionImageOzSortOrder</title>
<g id="a_node8"><a xlink:href="../../tables/AgLibraryCollectionImageOzSortOrder.html" xlink:title="AgLibraryCollectionImageOzSortOrder" target="_top">
<polygon fill="#ffffff" stroke="transparent" points="687.643,-656.7709 687.643,-717.7709 947.643,-717.7709 947.643,-656.7709 687.643,-656.7709"/>
<polygon fill="#f5f5f5" stroke="transparent" points="687.643,-694.2709 687.643,-717.2709 947.643,-717.2709 947.643,-694.2709 687.643,-694.2709"/>
<polygon fill="none" stroke="#000000" points="687.643,-694.2709 687.643,-717.2709 947.643,-717.2709 947.643,-694.2709 687.643,-694.2709"/>
<text text-anchor="start" x="692.643" y="-702.8709" font-family="Helvetica,sans-Serif" font-weight="bold" font-size="11.00" fill="#000000">AgLibraryCollectionImageOzSortOrder</text>
<text text-anchor="start" x="913.1649" y="-702.3709" font-family="Helvetica,sans-Serif" font-size="11.00" fill="#000000">[table]</text>
<polygon fill="none" stroke="#000000" points="687.643,-675.2709 687.643,-694.2709 947.643,-694.2709 947.643,-675.2709 687.643,-675.2709"/>
<text text-anchor="start" x="690.643" y="-681.3709" font-family="Helvetica,sans-Serif" font-size="11.00" fill="#000000">...</text>
<polygon fill="#ffffff" stroke="transparent" points="687.643,-656.2709 687.643,-675.2709 815.643,-675.2709 815.643,-656.2709 687.643,-656.2709"/>
<polygon fill="none" stroke="#000000" points="687.643,-656.2709 687.643,-675.2709 815.643,-675.2709 815.643,-656.2709 687.643,-656.2709"/>
<text text-anchor="start" x="690.643" y="-662.3709" font-family="Helvetica,sans-Serif" font-size="11.00" fill="#000000">&lt; 2</text>
<polygon fill="#ffffff" stroke="transparent" points="815.643,-656.2709 815.643,-675.2709 881.643,-675.2709 881.643,-656.2709 815.643,-656.2709"/>
<polygon fill="none" stroke="#000000" points="815.643,-656.2709 815.643,-675.2709 881.643,-675.2709 881.643,-656.2709 815.643,-656.2709"/>
<text text-anchor="start" x="872.5292" y="-662.3709" font-family="Helvetica,sans-Serif" font-size="11.00" fill="#000000"> &#160;</text>
<polygon fill="#ffffff" stroke="transparent" points="881.643,-656.2709 881.643,-675.2709 947.643,-675.2709 947.643,-656.2709 881.643,-656.2709"/>
<polygon fill="none" stroke="#000000" points="881.643,-656.2709 881.643,-675.2709 947.643,-675.2709 947.643,-656.2709 881.643,-656.2709"/>
<text text-anchor="start" x="938.5292" y="-662.3709" font-family="Helvetica,sans-Serif" font-size="11.00" fill="#000000"> &#160;</text>
</a>
</g>
</g>
<!-- AgLibraryCollectionImageOzSortOrder&#45;&gt;AgLibraryCollection -->
<g id="edge12" class="edge">
<title>AgLibraryCollectionImageOzSortOrder:w&#45;&gt;AgLibraryCollection:e</title>
<path fill="none" stroke="#000000" d="M758.6165,-730.0113C723.4718,-752.7808 676.9192,-778.4703 631.143,-790.2709 509.3471,-821.6685 468.9182,-825.3908 348.143,-790.2709 326.6547,-784.0224 328.0214,-763.2709 305.643,-763.2709"/>
<polygon fill="#000000" stroke="#000000" points="764.3577,-726.2058 773.0149,-724.7864 767.6918,-723.9958 771.0259,-721.7858 771.0259,-721.7858 771.0259,-721.7858 767.6918,-723.9958 769.0369,-718.7851 764.3577,-726.2058 764.3577,-726.2058"/>
<ellipse fill="none" stroke="#000000" cx="761.6905" cy="-727.9738" rx="3.2" ry="3.2"/>
</g>
<!-- AgLibraryCollectionImageOzSortOrder&#45;&gt;AgLibraryCollectionImage -->
<g id="edge13" class="edge">
<title>AgLibraryCollectionImageOzSortOrder:w&#45;&gt;AgLibraryCollectionImage:e</title>
<path fill="none" stroke="#000000" d="M776.0559,-645.1338C741.5471,-608.0022 693.5297,-550.9746 664.143,-493.2709 639.4301,-444.7446 669.4696,-413.9569 631.143,-375.2709 620.1626,-364.1875 606.381,-356.0581 591.7565,-350.1043"/>
<polygon fill="#000000" stroke="#000000" points="785.5721,-649.4275 779.739,-654.9025 778.644,-653.7359 784.4771,-648.2609 785.5721,-649.4275"/>
<polyline fill="none" stroke="#000000" points="783.203,-652.7483 780.4655,-649.8318 "/>
<ellipse fill="none" stroke="#000000" cx="778.2755" cy="-647.4986" rx="3.2" ry="3.2"/>
</g>
<!-- AgLibraryCollectionOzAlbumIds -->
<g id="node9" class="node">
<title>AgLibraryCollectionOzAlbumIds</title>
<g id="a_node9"><a xlink:href="../../tables/AgLibraryCollectionOzAlbumIds.html" xlink:title="AgLibraryCollectionOzAlbumIds" target="_top">
<polygon fill="#ffffff" stroke="transparent" points="378.143,-386.2709 378.143,-494.2709 601.143,-494.2709 601.143,-386.2709 378.143,-386.2709"/>
<polygon fill="#f5f5f5" stroke="transparent" points="378.643,-471.2709 378.643,-494.2709 601.643,-494.2709 601.643,-471.2709 378.643,-471.2709"/>
<polygon fill="none" stroke="#000000" points="378.643,-471.2709 378.643,-494.2709 601.643,-494.2709 601.643,-471.2709 378.643,-471.2709"/>
<text text-anchor="start" x="383.643" y="-479.8709" font-family="Helvetica,sans-Serif" font-weight="bold" font-size="11.00" fill="#000000">AgLibraryCollectionOzAlbumIds</text>
<text text-anchor="start" x="567.1649" y="-479.3709" font-family="Helvetica,sans-Serif" font-size="11.00" fill="#000000">[table]</text>
<polygon fill="#ffffff" stroke="transparent" points="378.643,-449.2709 378.643,-471.2709 601.643,-471.2709 601.643,-449.2709 378.643,-449.2709"/>
<polygon fill="none" stroke="#000000" points="378.643,-449.2709 378.643,-471.2709 601.643,-471.2709 601.643,-449.2709 378.643,-449.2709"/>
<image xlink:href="../../images/foreignKeys.png" width="11px" height="12px" preserveAspectRatio="xMinYMin meet" x="383.643" y="-466.271"/>
<text text-anchor="start" x="407.643" y="-456.3709" font-family="Helvetica,sans-Serif" font-size="11.00" fill="#000000">collection</text>
<polygon fill="#ffffff" stroke="transparent" points="378.643,-427.2709 378.643,-449.2709 601.643,-449.2709 601.643,-427.2709 378.643,-427.2709"/>
<polygon fill="none" stroke="#000000" points="378.643,-427.2709 378.643,-449.2709 601.643,-449.2709 601.643,-427.2709 378.643,-427.2709"/>
<text text-anchor="start" x="407.643" y="-434.3709" font-family="Helvetica,sans-Serif" font-size="11.00" fill="#000000">ozCatalogId</text>
<polygon fill="#ffffff" stroke="transparent" points="378.643,-405.2709 378.643,-427.2709 601.643,-427.2709 601.643,-405.2709 378.643,-405.2709"/>
<polygon fill="none" stroke="#000000" points="378.643,-405.2709 378.643,-427.2709 601.643,-427.2709 601.643,-405.2709 378.643,-405.2709"/>
<text text-anchor="start" x="407.643" y="-412.3709" font-family="Helvetica,sans-Serif" font-size="11.00" fill="#000000">ozAlbumId</text>
<polygon fill="#ffffff" stroke="transparent" points="378.643,-386.2709 378.643,-405.2709 488.643,-405.2709 488.643,-386.2709 378.643,-386.2709"/>
<polygon fill="none" stroke="#000000" points="378.643,-386.2709 378.643,-405.2709 488.643,-405.2709 488.643,-386.2709 378.643,-386.2709"/>
<text text-anchor="start" x="381.643" y="-392.3709" font-family="Helvetica,sans-Serif" font-size="11.00" fill="#000000">&lt; 1</text>
<polygon fill="#ffffff" stroke="transparent" points="488.643,-386.2709 488.643,-405.2709 544.643,-405.2709 544.643,-386.2709 488.643,-386.2709"/>
<polygon fill="none" stroke="#000000" points="488.643,-386.2709 488.643,-405.2709 544.643,-405.2709 544.643,-386.2709 488.643,-386.2709"/>
<text text-anchor="start" x="535.5292" y="-392.3709" font-family="Helvetica,sans-Serif" font-size="11.00" fill="#000000"> &#160;</text>
<polygon fill="#ffffff" stroke="transparent" points="544.643,-386.2709 544.643,-405.2709 601.643,-405.2709 601.643,-386.2709 544.643,-386.2709"/>
<polygon fill="none" stroke="#000000" points="544.643,-386.2709 544.643,-405.2709 601.643,-405.2709 601.643,-386.2709 544.643,-386.2709"/>
<text text-anchor="start" x="592.5292" y="-392.3709" font-family="Helvetica,sans-Serif" font-size="11.00" fill="#000000"> &#160;</text>
</a>
</g>
</g>
<!-- AgLibraryCollectionOzAlbumIds&#45;&gt;AgLibraryCollection -->
<g id="edge14" class="edge">
<title>AgLibraryCollectionOzAlbumIds:w&#45;&gt;AgLibraryCollection:e</title>
<path fill="none" stroke="#000000" d="M364.6375,-464.3804C355.0598,-471.8945 354.7854,-488.6145 348.143,-505.2709 326.6195,-559.2435 363.749,-763.2709 305.643,-763.2709"/>
<polygon fill="#000000" stroke="#000000" points="370.9667,-462.5233 379.6566,-463.7252 374.8048,-461.3971 378.643,-460.2709 378.643,-460.2709 378.643,-460.2709 374.8048,-461.3971 377.6294,-456.8165 370.9667,-462.5233 370.9667,-462.5233"/>
<ellipse fill="none" stroke="#000000" cx="367.8961" cy="-463.4243" rx="3.2" ry="3.2"/>
</g>
<!-- AgLibraryCollectionStack -->
<g id="node10" class="node">
<title>AgLibraryCollectionStack</title>
<g id="a_node10"><a xlink:href="../../tables/AgLibraryCollectionStack.html" xlink:title="AgLibraryCollectionStack" target="_top">
<polygon fill="#ffffff" stroke="transparent" points="397.143,-1088.7709 397.143,-1149.7709 582.143,-1149.7709 582.143,-1088.7709 397.143,-1088.7709"/>
<polygon fill="#f5f5f5" stroke="transparent" points="397.643,-1126.2709 397.643,-1149.2709 582.643,-1149.2709 582.643,-1126.2709 397.643,-1126.2709"/>
<polygon fill="none" stroke="#000000" points="397.643,-1126.2709 397.643,-1149.2709 582.643,-1149.2709 582.643,-1126.2709 397.643,-1126.2709"/>
<text text-anchor="start" x="402.643" y="-1134.8709" font-family="Helvetica,sans-Serif" font-weight="bold" font-size="11.00" fill="#000000">AgLibraryCollectionStack</text>
<text text-anchor="start" x="548.1649" y="-1134.3709" font-family="Helvetica,sans-Serif" font-size="11.00" fill="#000000">[table]</text>
<polygon fill="none" stroke="#000000" points="397.643,-1107.2709 397.643,-1126.2709 582.643,-1126.2709 582.643,-1107.2709 397.643,-1107.2709"/>
<text text-anchor="start" x="400.643" y="-1113.3709" font-family="Helvetica,sans-Serif" font-size="11.00" fill="#000000">...</text>
<polygon fill="#ffffff" stroke="transparent" points="397.643,-1088.2709 397.643,-1107.2709 483.643,-1107.2709 483.643,-1088.2709 397.643,-1088.2709"/>
<polygon fill="none" stroke="#000000" points="397.643,-1088.2709 397.643,-1107.2709 483.643,-1107.2709 483.643,-1088.2709 397.643,-1088.2709"/>
<text text-anchor="start" x="400.643" y="-1094.3709" font-family="Helvetica,sans-Serif" font-size="11.00" fill="#000000">&lt; 1</text>
<polygon fill="#ffffff" stroke="transparent" points="483.643,-1088.2709 483.643,-1107.2709 528.643,-1107.2709 528.643,-1088.2709 483.643,-1088.2709"/>
<polygon fill="none" stroke="#000000" points="483.643,-1088.2709 483.643,-1107.2709 528.643,-1107.2709 528.643,-1088.2709 483.643,-1088.2709"/>
<text text-anchor="start" x="519.5292" y="-1094.3709" font-family="Helvetica,sans-Serif" font-size="11.00" fill="#000000"> &#160;</text>
<polygon fill="#ffffff" stroke="transparent" points="528.643,-1088.2709 528.643,-1107.2709 582.643,-1107.2709 582.643,-1088.2709 528.643,-1088.2709"/>
<polygon fill="none" stroke="#000000" points="528.643,-1088.2709 528.643,-1107.2709 582.643,-1107.2709 582.643,-1088.2709 528.643,-1088.2709"/>
<text text-anchor="start" x="564.0483" y="-1094.3709" font-family="Helvetica,sans-Serif" font-size="11.00" fill="#000000">2 &gt;</text>
</a>
</g>
</g>
<!-- AgLibraryCollectionStack&#45;&gt;AgLibraryCollection -->
<g id="edge15" class="edge">
<title>AgLibraryCollectionStack:w&#45;&gt;AgLibraryCollection:e</title>
<path fill="none" stroke="#000000" d="M375.8578,-1099.832C365.4017,-1094.2791 355.86,-1087.2229 348.143,-1078.2709 302.0242,-1024.7709 376.2773,-763.2709 305.643,-763.2709"/>
<polygon fill="#000000" stroke="#000000" points="381.7379,-1102.5399 387.4985,-1109.1563 385.3711,-1104.2131 389.0044,-1105.8863 389.0044,-1105.8863 389.0044,-1105.8863 385.3711,-1104.2131 390.5103,-1102.6164 381.7379,-1102.5399 381.7379,-1102.5399"/>
<ellipse fill="none" stroke="#000000" cx="378.8313" cy="-1101.2013" rx="3.2" ry="3.2"/>
</g>
<!-- AgLibraryCollectionStackData -->
<g id="node11" class="node">
<title>AgLibraryCollectionStackData</title>
<g id="a_node11"><a xlink:href="../../tables/AgLibraryCollectionStackData.html" xlink:title="AgLibraryCollectionStackData" target="_top">
<polygon fill="#ffffff" stroke="transparent" points="712.143,-1115.7709 712.143,-1176.7709 923.143,-1176.7709 923.143,-1115.7709 712.143,-1115.7709"/>
<polygon fill="#f5f5f5" stroke="transparent" points="712.643,-1153.2709 712.643,-1176.2709 923.643,-1176.2709 923.643,-1153.2709 712.643,-1153.2709"/>
<polygon fill="none" stroke="#000000" points="712.643,-1153.2709 712.643,-1176.2709 923.643,-1176.2709 923.643,-1153.2709 712.643,-1153.2709"/>
<text text-anchor="start" x="717.643" y="-1161.8709" font-family="Helvetica,sans-Serif" font-weight="bold" font-size="11.00" fill="#000000">AgLibraryCollectionStackData</text>
<text text-anchor="start" x="889.1649" y="-1161.3709" font-family="Helvetica,sans-Serif" font-size="11.00" fill="#000000">[table]</text>
<polygon fill="none" stroke="#000000" points="712.643,-1134.2709 712.643,-1153.2709 923.643,-1153.2709 923.643,-1134.2709 712.643,-1134.2709"/>
<text text-anchor="start" x="715.643" y="-1140.3709" font-family="Helvetica,sans-Serif" font-size="11.00" fill="#000000">...</text>
<polygon fill="#ffffff" stroke="transparent" points="712.643,-1115.2709 712.643,-1134.2709 816.643,-1134.2709 816.643,-1115.2709 712.643,-1115.2709"/>
<polygon fill="none" stroke="#000000" points="712.643,-1115.2709 712.643,-1134.2709 816.643,-1134.2709 816.643,-1115.2709 712.643,-1115.2709"/>
<text text-anchor="start" x="715.643" y="-1121.3709" font-family="Helvetica,sans-Serif" font-size="11.00" fill="#000000">&lt; 2</text>
<polygon fill="#ffffff" stroke="transparent" points="816.643,-1115.2709 816.643,-1134.2709 869.643,-1134.2709 869.643,-1115.2709 816.643,-1115.2709"/>
<polygon fill="none" stroke="#000000" points="816.643,-1115.2709 816.643,-1134.2709 869.643,-1134.2709 869.643,-1115.2709 816.643,-1115.2709"/>
<text text-anchor="start" x="860.5292" y="-1121.3709" font-family="Helvetica,sans-Serif" font-size="11.00" fill="#000000"> &#160;</text>
<polygon fill="#ffffff" stroke="transparent" points="869.643,-1115.2709 869.643,-1134.2709 923.643,-1134.2709 923.643,-1115.2709 869.643,-1115.2709"/>
<polygon fill="none" stroke="#000000" points="869.643,-1115.2709 869.643,-1134.2709 923.643,-1134.2709 923.643,-1115.2709 869.643,-1115.2709"/>
<text text-anchor="start" x="914.5292" y="-1121.3709" font-family="Helvetica,sans-Serif" font-size="11.00" fill="#000000"> &#160;</text>
</a>
</g>
</g>
<!-- AgLibraryCollectionStackData&#45;&gt;AgLibraryCollection -->
<g id="edge16" class="edge">
<title>AgLibraryCollectionStackData:w&#45;&gt;AgLibraryCollection:e</title>
<path fill="none" stroke="#000000" d="M716.722,-1185.3926C611.1433,-1218.9949 447.2588,-1249.3424 348.143,-1160.2709 282.1494,-1100.9649 394.3693,-763.2709 305.643,-763.2709"/>
<polygon fill="#000000" stroke="#000000" points="722.9759,-1183.3458 731.6989,-1184.2788 726.7775,-1182.1016 730.5791,-1180.8574 730.5791,-1180.8574 730.5791,-1180.8574 726.7775,-1182.1016 729.4593,-1177.436 722.9759,-1183.3458 722.9759,-1183.3458"/>
<ellipse fill="none" stroke="#000000" cx="719.9347" cy="-1184.3412" rx="3.2" ry="3.2"/>
</g>
<!-- AgLibraryCollectionStackData&#45;&gt;AgLibraryCollectionStack -->
<g id="edge17" class="edge">
<title>AgLibraryCollectionStackData:w&#45;&gt;AgLibraryCollectionStack:e</title>
<path fill="none" stroke="#000000" d="M689.4012,-1135.7144C656.5266,-1133.0082 621.637,-1130.1362 590.3711,-1127.5625"/>
<polygon fill="#000000" stroke="#000000" points="695.872,-1136.247 703.5497,-1140.4912 699.8585,-1136.5752 703.8451,-1136.9034 703.8451,-1136.9034 703.8451,-1136.9034 699.8585,-1136.5752 704.1404,-1133.3155 695.872,-1136.247 695.872,-1136.247"/>
<ellipse fill="none" stroke="#000000" cx="692.6828" cy="-1135.9845" rx="3.2" ry="3.2"/>
</g>
<!-- AgLibraryCollectionStackImage -->
<g id="node12" class="node">
<title>AgLibraryCollectionStackImage</title>
<g id="a_node12"><a xlink:href="../../tables/AgLibraryCollectionStackImage.html" xlink:title="AgLibraryCollectionStackImage" target="_top">
<polygon fill="#ffffff" stroke="transparent" points="707.643,-800.7709 707.643,-861.7709 927.643,-861.7709 927.643,-800.7709 707.643,-800.7709"/>
<polygon fill="#f5f5f5" stroke="transparent" points="707.643,-838.2709 707.643,-861.2709 927.643,-861.2709 927.643,-838.2709 707.643,-838.2709"/>
<polygon fill="none" stroke="#000000" points="707.643,-838.2709 707.643,-861.2709 927.643,-861.2709 927.643,-838.2709 707.643,-838.2709"/>
<text text-anchor="start" x="712.643" y="-846.8709" font-family="Helvetica,sans-Serif" font-weight="bold" font-size="11.00" fill="#000000">AgLibraryCollectionStackImage</text>
<text text-anchor="start" x="893.1649" y="-846.3709" font-family="Helvetica,sans-Serif" font-size="11.00" fill="#000000">[table]</text>
<polygon fill="none" stroke="#000000" points="707.643,-819.2709 707.643,-838.2709 927.643,-838.2709 927.643,-819.2709 707.643,-819.2709"/>
<text text-anchor="start" x="710.643" y="-825.3709" font-family="Helvetica,sans-Serif" font-size="11.00" fill="#000000">...</text>
<polygon fill="#ffffff" stroke="transparent" points="707.643,-800.2709 707.643,-819.2709 815.643,-819.2709 815.643,-800.2709 707.643,-800.2709"/>
<polygon fill="none" stroke="#000000" points="707.643,-800.2709 707.643,-819.2709 815.643,-819.2709 815.643,-800.2709 707.643,-800.2709"/>
<text text-anchor="start" x="710.643" y="-806.3709" font-family="Helvetica,sans-Serif" font-size="11.00" fill="#000000">&lt; 3</text>
<polygon fill="#ffffff" stroke="transparent" points="815.643,-800.2709 815.643,-819.2709 871.643,-819.2709 871.643,-800.2709 815.643,-800.2709"/>
<polygon fill="none" stroke="#000000" points="815.643,-800.2709 815.643,-819.2709 871.643,-819.2709 871.643,-800.2709 815.643,-800.2709"/>
<text text-anchor="start" x="862.5292" y="-806.3709" font-family="Helvetica,sans-Serif" font-size="11.00" fill="#000000"> &#160;</text>
<polygon fill="#ffffff" stroke="transparent" points="871.643,-800.2709 871.643,-819.2709 927.643,-819.2709 927.643,-800.2709 871.643,-800.2709"/>
<polygon fill="none" stroke="#000000" points="871.643,-800.2709 871.643,-819.2709 927.643,-819.2709 927.643,-800.2709 871.643,-800.2709"/>
<text text-anchor="start" x="918.5292" y="-806.3709" font-family="Helvetica,sans-Serif" font-size="11.00" fill="#000000"> &#160;</text>
</a>
</g>
</g>
<!-- AgLibraryCollectionStackImage&#45;&gt;AgLibraryCollection -->
<g id="edge18" class="edge">
<title>AgLibraryCollectionStackImage:w&#45;&gt;AgLibraryCollection:e</title>
<path fill="none" stroke="#000000" d="M684.9257,-837.4658C567.2701,-840.8764 405.481,-839.8539 348.143,-812.2709 322.1646,-799.7737 334.4712,-763.2709 305.643,-763.2709"/>
<polygon fill="#000000" stroke="#000000" points="691.4103,-837.2651 699.5179,-840.6158 695.4084,-837.1413 699.4065,-837.0175 699.4065,-837.0175 699.4065,-837.0175 695.4084,-837.1413 699.2951,-833.4192 691.4103,-837.2651 691.4103,-837.2651"/>
<ellipse fill="none" stroke="#000000" cx="688.2118" cy="-837.3641" rx="3.2" ry="3.2"/>
</g>
<!-- AgLibraryCollectionStackImage&#45;&gt;Adobe_images -->
<g id="edge19" class="edge">
<title>AgLibraryCollectionStackImage:w&#45;&gt;Adobe_images:e</title>
<path fill="none" stroke="#000000" d="M735.0761,-788.9995C709.6385,-772.7904 683.3137,-752.3153 664.143,-728.2709 638.621,-696.2604 662.5034,-668.5878 631.143,-642.2709 532.9927,-559.9053 441.2592,-675.2877 348.143,-587.2709 204.1991,-451.2099 436.7148,-155.2709 238.643,-155.2709"/>
<polygon fill="#000000" stroke="#000000" points="740.6419,-792.4212 745.5717,-799.6778 744.0495,-794.5161 747.4571,-796.611 747.4571,-796.611 747.4571,-796.611 744.0495,-794.5161 749.3425,-793.5442 740.6419,-792.4212 740.6419,-792.4212"/>
<ellipse fill="none" stroke="#000000" cx="737.9159" cy="-790.7453" rx="3.2" ry="3.2"/>
</g>
<!-- AgLibraryCollectionStackImage&#45;&gt;AgLibraryCollectionStack -->
<g id="edge20" class="edge">
<title>AgLibraryCollectionStackImage:w&#45;&gt;AgLibraryCollectionStack:e</title>
<path fill="none" stroke="#000000" d="M793.8586,-879.0993C763.6097,-935.0572 706.1653,-1026.6091 631.143,-1078.2709 618.82,-1086.7568 604.7399,-1093.5053 590.3493,-1098.8675"/>
<polygon fill="#000000" stroke="#000000" points="797.0373,-873.096 803.9624,-867.7106 798.909,-869.561 800.7808,-866.026 800.7808,-866.026 800.7808,-866.026 798.909,-869.561 797.5993,-864.3414 797.0373,-873.096 797.0373,-873.096"/>
<ellipse fill="none" stroke="#000000" cx="795.5398" cy="-875.9241" rx="3.2" ry="3.2"/>
</g>
<!-- AgLibraryCollectionSyncedAlbumData -->
<g id="node13" class="node">
<title>AgLibraryCollectionSyncedAlbumData</title>
<g id="a_node13"><a xlink:href="../../tables/AgLibraryCollectionSyncedAlbumData.html" xlink:title="AgLibraryCollectionSyncedAlbumData" target="_top">
<polygon fill="#ffffff" stroke="transparent" points="360.143,-962.7709 360.143,-1067.7709 619.143,-1067.7709 619.143,-962.7709 360.143,-962.7709"/>
<polygon fill="#f5f5f5" stroke="transparent" points="360.643,-1044.2709 360.643,-1067.2709 619.643,-1067.2709 619.643,-1044.2709 360.643,-1044.2709"/>
<polygon fill="none" stroke="#000000" points="360.643,-1044.2709 360.643,-1067.2709 619.643,-1067.2709 619.643,-1044.2709 360.643,-1044.2709"/>
<text text-anchor="start" x="365.643" y="-1052.8709" font-family="Helvetica,sans-Serif" font-weight="bold" font-size="11.00" fill="#000000">AgLibraryCollectionSyncedAlbumData</text>
<text text-anchor="start" x="585.1649" y="-1052.3709" font-family="Helvetica,sans-Serif" font-size="11.00" fill="#000000">[table]</text>
<polygon fill="#ffffff" stroke="transparent" points="360.643,-1022.2709 360.643,-1044.2709 619.643,-1044.2709 619.643,-1022.2709 360.643,-1022.2709"/>
<polygon fill="none" stroke="#000000" points="360.643,-1022.2709 360.643,-1044.2709 619.643,-1044.2709 619.643,-1022.2709 360.643,-1022.2709"/>
<image xlink:href="../../images/foreignKeys.png" width="11px" height="12px" preserveAspectRatio="xMinYMin meet" x="365.643" y="-1039.27"/>
<text text-anchor="start" x="389.643" y="-1029.3709" font-family="Helvetica,sans-Serif" font-size="11.00" fill="#000000">collection</text>
<polygon fill="#ffffff" stroke="transparent" points="360.643,-1000.2709 360.643,-1022.2709 619.643,-1022.2709 619.643,-1000.2709 360.643,-1000.2709"/>
<polygon fill="none" stroke="#000000" points="360.643,-1000.2709 360.643,-1022.2709 619.643,-1022.2709 619.643,-1000.2709 360.643,-1000.2709"/>
<text text-anchor="start" x="389.643" y="-1007.3709" font-family="Helvetica,sans-Serif" font-size="11.00" fill="#000000">payloadKey</text>
<polygon fill="none" stroke="#000000" points="360.643,-981.2709 360.643,-1000.2709 619.643,-1000.2709 619.643,-981.2709 360.643,-981.2709"/>
<text text-anchor="start" x="363.643" y="-987.3709" font-family="Helvetica,sans-Serif" font-size="11.00" fill="#000000">...</text>
<polygon fill="#ffffff" stroke="transparent" points="360.643,-962.2709 360.643,-981.2709 488.643,-981.2709 488.643,-962.2709 360.643,-962.2709"/>
<polygon fill="none" stroke="#000000" points="360.643,-962.2709 360.643,-981.2709 488.643,-981.2709 488.643,-962.2709 360.643,-962.2709"/>
<text text-anchor="start" x="363.643" y="-968.3709" font-family="Helvetica,sans-Serif" font-size="11.00" fill="#000000">&lt; 1</text>
<polygon fill="#ffffff" stroke="transparent" points="488.643,-962.2709 488.643,-981.2709 553.643,-981.2709 553.643,-962.2709 488.643,-962.2709"/>
<polygon fill="none" stroke="#000000" points="488.643,-962.2709 488.643,-981.2709 553.643,-981.2709 553.643,-962.2709 488.643,-962.2709"/>
<text text-anchor="start" x="544.5292" y="-968.3709" font-family="Helvetica,sans-Serif" font-size="11.00" fill="#000000"> &#160;</text>
<polygon fill="#ffffff" stroke="transparent" points="553.643,-962.2709 553.643,-981.2709 619.643,-981.2709 619.643,-962.2709 553.643,-962.2709"/>
<polygon fill="none" stroke="#000000" points="553.643,-962.2709 553.643,-981.2709 619.643,-981.2709 619.643,-962.2709 553.643,-962.2709"/>
<text text-anchor="start" x="610.5292" y="-968.3709" font-family="Helvetica,sans-Serif" font-size="11.00" fill="#000000"> &#160;</text>
</a>
</g>
</g>
<!-- AgLibraryCollectionSyncedAlbumData&#45;&gt;AgLibraryCollection -->
<g id="edge21" class="edge">
<title>AgLibraryCollectionSyncedAlbumData:w&#45;&gt;AgLibraryCollection:e</title>
<path fill="none" stroke="#000000" d="M347.3055,-1027.3804C310.2756,-987.8956 361.4935,-763.2709 305.643,-763.2709"/>
<polygon fill="#000000" stroke="#000000" points="353.3249,-1030.0389 359.1886,-1036.564 356.984,-1031.6549 360.643,-1033.2709 360.643,-1033.2709 360.643,-1033.2709 356.984,-1031.6549 362.0974,-1029.9777 353.3249,-1030.0389 353.3249,-1030.0389"/>
<ellipse fill="none" stroke="#000000" cx="350.3977" cy="-1028.7461" rx="3.2" ry="3.2"/>
</g>
<!-- AgLibraryCollectionTrackedAssets -->
<g id="node14" class="node">
<title>AgLibraryCollectionTrackedAssets</title>
<g id="a_node14"><a xlink:href="../../tables/AgLibraryCollectionTrackedAssets.html" xlink:title="AgLibraryCollectionTrackedAssets" target="_top">
<polygon fill="#ffffff" stroke="transparent" points="370.143,-855.2709 370.143,-941.2709 609.143,-941.2709 609.143,-855.2709 370.143,-855.2709"/>
<polygon fill="#f5f5f5" stroke="transparent" points="370.643,-918.2709 370.643,-941.2709 609.643,-941.2709 609.643,-918.2709 370.643,-918.2709"/>
<polygon fill="none" stroke="#000000" points="370.643,-918.2709 370.643,-941.2709 609.643,-941.2709 609.643,-918.2709 370.643,-918.2709"/>
<text text-anchor="start" x="375.643" y="-926.8709" font-family="Helvetica,sans-Serif" font-weight="bold" font-size="11.00" fill="#000000">AgLibraryCollectionTrackedAssets</text>
<text text-anchor="start" x="575.1649" y="-926.3709" font-family="Helvetica,sans-Serif" font-size="11.00" fill="#000000">[table]</text>
<polygon fill="#ffffff" stroke="transparent" points="370.643,-896.2709 370.643,-918.2709 609.643,-918.2709 609.643,-896.2709 370.643,-896.2709"/>
<polygon fill="none" stroke="#000000" points="370.643,-896.2709 370.643,-918.2709 609.643,-918.2709 609.643,-896.2709 370.643,-896.2709"/>
<image xlink:href="../../images/foreignKeys.png" width="11px" height="12px" preserveAspectRatio="xMinYMin meet" x="375.643" y="-913.271"/>
<text text-anchor="start" x="399.643" y="-903.3709" font-family="Helvetica,sans-Serif" font-size="11.00" fill="#000000">collection</text>
<polygon fill="#ffffff" stroke="transparent" points="370.643,-874.2709 370.643,-896.2709 609.643,-896.2709 609.643,-874.2709 370.643,-874.2709"/>
<polygon fill="none" stroke="#000000" points="370.643,-874.2709 370.643,-896.2709 609.643,-896.2709 609.643,-874.2709 370.643,-874.2709"/>
<text text-anchor="start" x="399.643" y="-881.3709" font-family="Helvetica,sans-Serif" font-size="11.00" fill="#000000">ozCatalogId</text>
<polygon fill="#ffffff" stroke="transparent" points="370.643,-855.2709 370.643,-874.2709 488.643,-874.2709 488.643,-855.2709 370.643,-855.2709"/>
<polygon fill="none" stroke="#000000" points="370.643,-855.2709 370.643,-874.2709 488.643,-874.2709 488.643,-855.2709 370.643,-855.2709"/>
<text text-anchor="start" x="373.643" y="-861.3709" font-family="Helvetica,sans-Serif" font-size="11.00" fill="#000000">&lt; 1</text>
<polygon fill="#ffffff" stroke="transparent" points="488.643,-855.2709 488.643,-874.2709 548.643,-874.2709 548.643,-855.2709 488.643,-855.2709"/>
<polygon fill="none" stroke="#000000" points="488.643,-855.2709 488.643,-874.2709 548.643,-874.2709 548.643,-855.2709 488.643,-855.2709"/>
<text text-anchor="start" x="539.5292" y="-861.3709" font-family="Helvetica,sans-Serif" font-size="11.00" fill="#000000"> &#160;</text>
<polygon fill="#ffffff" stroke="transparent" points="548.643,-855.2709 548.643,-874.2709 609.643,-874.2709 609.643,-855.2709 548.643,-855.2709"/>
<polygon fill="none" stroke="#000000" points="548.643,-855.2709 548.643,-874.2709 609.643,-874.2709 609.643,-855.2709 548.643,-855.2709"/>
<text text-anchor="start" x="600.5292" y="-861.3709" font-family="Helvetica,sans-Serif" font-size="11.00" fill="#000000"> &#160;</text>
</a>
</g>
</g>
<!-- AgLibraryCollectionTrackedAssets&#45;&gt;AgLibraryCollection -->
<g id="edge22" class="edge">
<title>AgLibraryCollectionTrackedAssets:w&#45;&gt;AgLibraryCollection:e</title>
<path fill="none" stroke="#000000" d="M356.4267,-904.6486C311.5726,-885.1318 370.2381,-763.2709 305.643,-763.2709"/>
<polygon fill="#000000" stroke="#000000" points="362.7757,-905.8197 369.99,-910.8112 366.7094,-906.5453 370.643,-907.2709 370.643,-907.2709 370.643,-907.2709 366.7094,-906.5453 371.2961,-903.7306 362.7757,-905.8197 362.7757,-905.8197"/>
<ellipse fill="none" stroke="#000000" cx="359.6288" cy="-905.2392" rx="3.2" ry="3.2"/>
</g>
<!-- AgOutputImageAsset -->
<g id="node15" class="node">
<title>AgOutputImageAsset</title>
<g id="a_node15"><a xlink:href="../../tables/AgOutputImageAsset.html" xlink:title="AgOutputImageAsset" target="_top">
<polygon fill="#ffffff" stroke="transparent" points="409.143,-103.2709 409.143,-255.2709 570.143,-255.2709 570.143,-103.2709 409.143,-103.2709"/>
<polygon fill="#f5f5f5" stroke="transparent" points="409.643,-232.2709 409.643,-255.2709 570.643,-255.2709 570.643,-232.2709 409.643,-232.2709"/>
<polygon fill="none" stroke="#000000" points="409.643,-232.2709 409.643,-255.2709 570.643,-255.2709 570.643,-232.2709 409.643,-232.2709"/>
<text text-anchor="start" x="414.643" y="-240.8709" font-family="Helvetica,sans-Serif" font-weight="bold" font-size="11.00" fill="#000000">AgOutputImageAsset</text>
<text text-anchor="start" x="536.1649" y="-240.3709" font-family="Helvetica,sans-Serif" font-size="11.00" fill="#000000">[table]</text>
<polygon fill="none" stroke="#000000" points="409.643,-210.2709 409.643,-232.2709 570.643,-232.2709 570.643,-210.2709 409.643,-210.2709"/>
<image xlink:href="../../images/primaryKeys.png" width="11px" height="12px" preserveAspectRatio="xMinYMin meet" x="414.643" y="-227.271"/>
<text text-anchor="start" x="438.643" y="-217.3709" font-family="Helvetica,sans-Serif" font-size="11.00" fill="#000000">id_local</text>
<polygon fill="#ffffff" stroke="transparent" points="409.643,-188.2709 409.643,-210.2709 570.643,-210.2709 570.643,-188.2709 409.643,-188.2709"/>
<polygon fill="none" stroke="#000000" points="409.643,-188.2709 409.643,-210.2709 570.643,-210.2709 570.643,-188.2709 409.643,-188.2709"/>
<text text-anchor="start" x="438.643" y="-195.3709" font-family="Helvetica,sans-Serif" font-size="11.00" fill="#000000">assetId</text>
<polygon fill="#ffffff" stroke="transparent" points="409.643,-166.2709 409.643,-188.2709 570.643,-188.2709 570.643,-166.2709 409.643,-166.2709"/>
<polygon fill="none" stroke="#000000" points="409.643,-166.2709 409.643,-188.2709 570.643,-188.2709 570.643,-166.2709 409.643,-166.2709"/>
<image xlink:href="../../images/foreignKeys.png" width="11px" height="12px" preserveAspectRatio="xMinYMin meet" x="414.643" y="-183.271"/>
<text text-anchor="start" x="438.643" y="-173.3709" font-family="Helvetica,sans-Serif" font-size="11.00" fill="#000000">collection</text>
<polygon fill="#ffffff" stroke="transparent" points="409.643,-144.2709 409.643,-166.2709 570.643,-166.2709 570.643,-144.2709 409.643,-144.2709"/>
<polygon fill="none" stroke="#000000" points="409.643,-144.2709 409.643,-166.2709 570.643,-166.2709 570.643,-144.2709 409.643,-144.2709"/>
<image xlink:href="../../images/foreignKeys.png" width="11px" height="12px" preserveAspectRatio="xMinYMin meet" x="414.643" y="-161.271"/>
<text text-anchor="start" x="438.643" y="-151.3709" font-family="Helvetica,sans-Serif" font-size="11.00" fill="#000000">image</text>
<polygon fill="#ffffff" stroke="transparent" points="409.643,-122.2709 409.643,-144.2709 570.643,-144.2709 570.643,-122.2709 409.643,-122.2709"/>
<polygon fill="none" stroke="#000000" points="409.643,-122.2709 409.643,-144.2709 570.643,-144.2709 570.643,-122.2709 409.643,-122.2709"/>
<text text-anchor="start" x="438.643" y="-129.3709" font-family="Helvetica,sans-Serif" font-size="11.00" fill="#000000">moduleId</text>
<polygon fill="#ffffff" stroke="transparent" points="409.643,-103.2709 409.643,-122.2709 488.643,-122.2709 488.643,-103.2709 409.643,-103.2709"/>
<polygon fill="none" stroke="#000000" points="409.643,-103.2709 409.643,-122.2709 488.643,-122.2709 488.643,-103.2709 409.643,-103.2709"/>
<text text-anchor="start" x="412.643" y="-109.3709" font-family="Helvetica,sans-Serif" font-size="11.00" fill="#000000">&lt; 2</text>
<polygon fill="#ffffff" stroke="transparent" points="488.643,-103.2709 488.643,-122.2709 529.643,-122.2709 529.643,-103.2709 488.643,-103.2709"/>
<polygon fill="none" stroke="#000000" points="488.643,-103.2709 488.643,-122.2709 529.643,-122.2709 529.643,-103.2709 488.643,-103.2709"/>
<text text-anchor="start" x="520.5292" y="-109.3709" font-family="Helvetica,sans-Serif" font-size="11.00" fill="#000000"> &#160;</text>
<polygon fill="#ffffff" stroke="transparent" points="529.643,-103.2709 529.643,-122.2709 570.643,-122.2709 570.643,-103.2709 529.643,-103.2709"/>
<polygon fill="none" stroke="#000000" points="529.643,-103.2709 529.643,-122.2709 570.643,-122.2709 570.643,-103.2709 529.643,-103.2709"/>
<text text-anchor="start" x="561.5292" y="-109.3709" font-family="Helvetica,sans-Serif" font-size="11.00" fill="#000000"> &#160;</text>
</a>
</g>
</g>
<!-- AgOutputImageAsset&#45;&gt;AgLibraryCollection -->
<g id="edge23" class="edge">
<title>AgOutputImageAsset:w&#45;&gt;AgLibraryCollection:e</title>
<path fill="none" stroke="#000000" d="M395.3163,-178.8485C361.0859,-187.2539 362.6494,-227.9386 348.143,-269.2709 329.8986,-321.2539 360.7347,-763.2709 305.643,-763.2709"/>
<polygon fill="#000000" stroke="#000000" points="401.6911,-178.1466 410.0371,-180.8492 405.6671,-177.7087 409.643,-177.2709 409.643,-177.2709 409.643,-177.2709 405.6671,-177.7087 409.249,-173.6925 401.6911,-178.1466 401.6911,-178.1466"/>
<ellipse fill="none" stroke="#000000" cx="398.5103" cy="-178.4969" rx="3.2" ry="3.2"/>
</g>
<!-- AgOutputImageAsset&#45;&gt;Adobe_images -->
<g id="edge24" class="edge">
<title>AgOutputImageAsset:w&#45;&gt;Adobe_images:e</title>
<path fill="none" stroke="#000000" d="M395.2231,-155.2709C330.8682,-155.2709 309.5961,-155.2709 238.643,-155.2709"/>
<polygon fill="#000000" stroke="#000000" points="401.643,-155.2709 409.643,-158.8709 405.643,-155.2709 409.643,-155.2709 409.643,-155.2709 409.643,-155.2709 405.643,-155.2709 409.643,-151.6709 401.643,-155.2709 401.643,-155.2709"/>
<ellipse fill="none" stroke="#000000" cx="398.443" cy="-155.271" rx="3.2" ry="3.2"/>
</g>
</g>
</svg>
