<?xml version="1.0" encoding="UTF-8" standalone="no"?>
<!DOCTYPE svg PUBLIC "-//W3C//DTD SVG 1.1//EN"
 "http://www.w3.org/Graphics/SVG/1.1/DTD/svg11.dtd">
<!-- Generated by graphviz version 2.40.1 (20161225.0304)
 -->
<!-- Title: oneDegreeRelationshipsDiagram Pages: 1 -->
<svg width="503pt" height="435pt"
 viewBox="0.00 0.00 503.00 435.20" xmlns="http://www.w3.org/2000/svg" xmlns:xlink="http://www.w3.org/1999/xlink">
<g id="graph0" class="graph" transform="scale(1 1) rotate(0) translate(4 431.2)">
<title>oneDegreeRelationshipsDiagram</title>
<polygon fill="#ffffff" stroke="transparent" points="-4,4 -4,-431.2 499,-431.2 499,4 -4,4"/>
<text text-anchor="middle" x="72.4936" y="-7.3" font-family="Helvetica,sans-Serif" font-size="11.00" fill="#000000">Generated by SchemaSpy</text>
<!-- AgOutputImageAsset -->
<g id="node1" class="node">
<title>AgOutputImageAsset</title>
<g id="a_node1"><a xlink:href="../../tables/AgOutputImageAsset.html" xlink:title="AgOutputImageAsset" target="_top">
<polygon fill="#ffffff" stroke="transparent" points="218,-238.7 218,-394.7 487,-394.7 487,-238.7 218,-238.7"/>
<polygon fill="#f5f5f5" stroke="transparent" points="220.5,-369.7 220.5,-392.7 485.5,-392.7 485.5,-369.7 220.5,-369.7"/>
<polygon fill="none" stroke="#000000" points="220.5,-369.7 220.5,-392.7 485.5,-392.7 485.5,-369.7 220.5,-369.7"/>
<text text-anchor="start" x="225.5" y="-378.3" font-family="Helvetica,sans-Serif" font-weight="bold" font-size="11.00" fill="#000000">AgOutputImageAsset</text>
<text text-anchor="start" x="450.5437" y="-377.8" font-family="Helvetica,sans-Serif" font-size="11.00" fill="#000000">[table]</text>
<polygon fill="none" stroke="#000000" points="220.5,-347.7 220.5,-369.7 363.5,-369.7 363.5,-347.7 220.5,-347.7"/>
<image xlink:href="../../images/primaryKeys.png" width="11px" height="12px" preserveAspectRatio="xMinYMin meet" x="225.5" y="-364.7"/>
<text text-anchor="start" x="240.5" y="-354.8" font-family="Helvetica,sans-Serif" font-size="11.00" fill="#000000">id_local</text>
<polygon fill="none" stroke="#000000" points="363.5,-347.7 363.5,-369.7 485.5,-369.7 485.5,-347.7 363.5,-347.7"/>
<text text-anchor="start" x="366.4156" y="-355.4" font-family="Helvetica,sans-Serif" font-size="11.00" fill="#000000">integer[2000000000,10]</text>
<polygon fill="#ffffff" stroke="transparent" points="220.5,-325.7 220.5,-347.7 363.5,-347.7 363.5,-325.7 220.5,-325.7"/>
<polygon fill="none" stroke="#000000" points="220.5,-325.7 220.5,-347.7 363.5,-347.7 363.5,-325.7 220.5,-325.7"/>
<text text-anchor="start" x="240.5" y="-332.8" font-family="Helvetica,sans-Serif" font-size="11.00" fill="#000000">assetId</text>
<polygon fill="none" stroke="#000000" points="363.5,-325.7 363.5,-347.7 485.5,-347.7 485.5,-325.7 363.5,-325.7"/>
<text text-anchor="start" x="366.5" y="-333.4" font-family="Helvetica,sans-Serif" font-size="11.00" fill="#000000">[2000000000,10]</text>
<polygon fill="#ffffff" stroke="transparent" points="220.5,-303.7 220.5,-325.7 363.5,-325.7 363.5,-303.7 220.5,-303.7"/>
<polygon fill="none" stroke="#000000" points="220.5,-303.7 220.5,-325.7 363.5,-325.7 363.5,-303.7 220.5,-303.7"/>
<image xlink:href="../../images/foreignKeys.png" width="11px" height="12px" preserveAspectRatio="xMinYMin meet" x="225.5" y="-320.7"/>
<text text-anchor="start" x="240.5" y="-310.8" font-family="Helvetica,sans-Serif" font-size="11.00" fill="#000000">collection</text>
<polygon fill="none" stroke="#000000" points="363.5,-303.7 363.5,-325.7 485.5,-325.7 485.5,-303.7 363.5,-303.7"/>
<text text-anchor="start" x="366.4156" y="-311.4" font-family="Helvetica,sans-Serif" font-size="11.00" fill="#000000">integer[2000000000,10]</text>
<polygon fill="#ffffff" stroke="transparent" points="220.5,-281.7 220.5,-303.7 363.5,-303.7 363.5,-281.7 220.5,-281.7"/>
<polygon fill="none" stroke="#000000" points="220.5,-281.7 220.5,-303.7 363.5,-303.7 363.5,-281.7 220.5,-281.7"/>
<image xlink:href="../../images/foreignKeys.png" width="11px" height="12px" preserveAspectRatio="xMinYMin meet" x="225.5" y="-298.7"/>
<text text-anchor="start" x="240.5" y="-288.8" font-family="Helvetica,sans-Serif" font-size="11.00" fill="#000000">image</text>
<polygon fill="none" stroke="#000000" points="363.5,-281.7 363.5,-303.7 485.5,-303.7 485.5,-281.7 363.5,-281.7"/>
<text text-anchor="start" x="366.4156" y="-289.4" font-family="Helvetica,sans-Serif" font-size="11.00" fill="#000000">integer[2000000000,10]</text>
<polygon fill="#ffffff" stroke="transparent" points="220.5,-259.7 220.5,-281.7 363.5,-281.7 363.5,-259.7 220.5,-259.7"/>
<polygon fill="none" stroke="#000000" points="220.5,-259.7 220.5,-281.7 363.5,-281.7 363.5,-259.7 220.5,-259.7"/>
<text text-anchor="start" x="240.5" y="-266.8" font-family="Helvetica,sans-Serif" font-size="11.00" fill="#000000">moduleId</text>
<polygon fill="none" stroke="#000000" points="363.5,-259.7 363.5,-281.7 485.5,-281.7 485.5,-259.7 363.5,-259.7"/>
<text text-anchor="start" x="366.5" y="-267.4" font-family="Helvetica,sans-Serif" font-size="11.00" fill="#000000">[2000000000,10]</text>
<polygon fill="#ffffff" stroke="transparent" points="220.5,-240.7 220.5,-259.7 296.5,-259.7 296.5,-240.7 220.5,-240.7"/>
<polygon fill="none" stroke="#000000" points="220.5,-240.7 220.5,-259.7 296.5,-259.7 296.5,-240.7 220.5,-240.7"/>
<text text-anchor="start" x="223.5" y="-246.8" font-family="Helvetica,sans-Serif" font-size="11.00" fill="#000000">&lt; 2</text>
<polygon fill="#ffffff" stroke="transparent" points="296.5,-240.7 296.5,-259.7 363.5,-259.7 363.5,-240.7 296.5,-240.7"/>
<polygon fill="none" stroke="#000000" points="296.5,-240.7 296.5,-259.7 363.5,-259.7 363.5,-240.7 296.5,-240.7"/>
<text text-anchor="start" x="354.3862" y="-246.8" font-family="Helvetica,sans-Serif" font-size="11.00" fill="#000000"> &#160;</text>
<polygon fill="#ffffff" stroke="transparent" points="363.5,-240.7 363.5,-259.7 485.5,-259.7 485.5,-240.7 363.5,-240.7"/>
<polygon fill="none" stroke="#000000" points="363.5,-240.7 363.5,-259.7 485.5,-259.7 485.5,-240.7 363.5,-240.7"/>
<text text-anchor="start" x="466.9053" y="-246.8" font-family="Helvetica,sans-Serif" font-size="11.00" fill="#000000">0 &gt;</text>
<polygon fill="none" stroke="#000000" stroke-width="2" points="219,-239.7 219,-393.7 486,-393.7 486,-239.7 219,-239.7"/>
</a>
</g>
</g>
<!-- AgLibraryCollection -->
<g id="node2" class="node">
<title>AgLibraryCollection</title>
<g id="a_node2"><a xlink:href="../../tables/AgLibraryCollection.html" xlink:title="AgLibraryCollection" target="_top">
<polygon fill="#ffffff" stroke="transparent" points="12,-274.2 12,-423.2 165,-423.2 165,-274.2 12,-274.2"/>
<polygon fill="#f5f5f5" stroke="transparent" points="12.5,-399.7 12.5,-422.7 165.5,-422.7 165.5,-399.7 12.5,-399.7"/>
<polygon fill="none" stroke="#000000" points="12.5,-399.7 12.5,-422.7 165.5,-422.7 165.5,-399.7 12.5,-399.7"/>
<text text-anchor="start" x="17.5" y="-408.3" font-family="Helvetica,sans-Serif" font-weight="bold" font-size="11.00" fill="#000000">AgLibraryCollection</text>
<text text-anchor="start" x="131.0219" y="-407.8" font-family="Helvetica,sans-Serif" font-size="11.00" fill="#000000">[table]</text>
<polygon fill="none" stroke="#000000" points="12.5,-377.7 12.5,-399.7 165.5,-399.7 165.5,-377.7 12.5,-377.7"/>
<image xlink:href="../../images/primaryKeys.png" width="11px" height="12px" preserveAspectRatio="xMinYMin meet" x="17.5" y="-394.7"/>
<text text-anchor="start" x="41.5" y="-384.8" font-family="Helvetica,sans-Serif" font-size="11.00" fill="#000000">id_local</text>
<polygon fill="#ffffff" stroke="transparent" points="12.5,-355.7 12.5,-377.7 165.5,-377.7 165.5,-355.7 12.5,-355.7"/>
<polygon fill="none" stroke="#000000" points="12.5,-355.7 12.5,-377.7 165.5,-377.7 165.5,-355.7 12.5,-355.7"/>
<text text-anchor="start" x="41.5" y="-362.8" font-family="Helvetica,sans-Serif" font-size="11.00" fill="#000000">genealogy</text>
<polygon fill="#ffffff" stroke="transparent" points="12.5,-333.7 12.5,-355.7 165.5,-355.7 165.5,-333.7 12.5,-333.7"/>
<polygon fill="none" stroke="#000000" points="12.5,-333.7 12.5,-355.7 165.5,-355.7 165.5,-333.7 12.5,-333.7"/>
<text text-anchor="start" x="41.5" y="-340.8" font-family="Helvetica,sans-Serif" font-size="11.00" fill="#000000">name</text>
<polygon fill="#ffffff" stroke="transparent" points="12.5,-311.7 12.5,-333.7 165.5,-333.7 165.5,-311.7 12.5,-311.7"/>
<polygon fill="none" stroke="#000000" points="12.5,-311.7 12.5,-333.7 165.5,-333.7 165.5,-311.7 12.5,-311.7"/>
<image xlink:href="../../images/foreignKeys.png" width="11px" height="12px" preserveAspectRatio="xMinYMin meet" x="17.5" y="-328.7"/>
<text text-anchor="start" x="41.5" y="-318.8" font-family="Helvetica,sans-Serif" font-size="11.00" fill="#000000">parent</text>
<polygon fill="none" stroke="#000000" points="12.5,-292.7 12.5,-311.7 165.5,-311.7 165.5,-292.7 12.5,-292.7"/>
<text text-anchor="start" x="15.5" y="-298.8" font-family="Helvetica,sans-Serif" font-size="11.00" fill="#000000">...</text>
<polygon fill="#ffffff" stroke="transparent" points="12.5,-273.7 12.5,-292.7 79.5,-292.7 79.5,-273.7 12.5,-273.7"/>
<polygon fill="none" stroke="#000000" points="12.5,-273.7 12.5,-292.7 79.5,-292.7 79.5,-273.7 12.5,-273.7"/>
<text text-anchor="start" x="15.5" y="-279.8" font-family="Helvetica,sans-Serif" font-size="11.00" fill="#000000">&lt; 1</text>
<polygon fill="#ffffff" stroke="transparent" points="79.5,-273.7 79.5,-292.7 114.5,-292.7 114.5,-273.7 79.5,-273.7"/>
<polygon fill="none" stroke="#000000" points="79.5,-273.7 79.5,-292.7 114.5,-292.7 114.5,-273.7 79.5,-273.7"/>
<text text-anchor="start" x="105.3862" y="-279.8" font-family="Helvetica,sans-Serif" font-size="11.00" fill="#000000"> &#160;</text>
<polygon fill="#ffffff" stroke="transparent" points="114.5,-273.7 114.5,-292.7 165.5,-292.7 165.5,-273.7 114.5,-273.7"/>
<polygon fill="none" stroke="#000000" points="114.5,-273.7 114.5,-292.7 165.5,-292.7 165.5,-273.7 114.5,-273.7"/>
<text text-anchor="start" x="140.7904" y="-279.8" font-family="Helvetica,sans-Serif" font-size="11.00" fill="#000000">13 &gt;</text>
</a>
</g>
</g>
<!-- AgOutputImageAsset&#45;&gt;AgLibraryCollection -->
<g id="edge1" class="edge">
<title>AgOutputImageAsset:w&#45;&gt;AgLibraryCollection:e</title>
<path fill="none" stroke="#000000" d="M206.5792,-318.8906C185.8948,-334.5448 200.5555,-388.7 165.5,-388.7"/>
<polygon fill="#000000" stroke="#000000" points="212.8396,-317.0061 221.5377,-318.1472 216.6698,-315.853 220.5,-314.7 220.5,-314.7 220.5,-314.7 216.6698,-315.853 219.4623,-311.2528 212.8396,-317.0061 212.8396,-317.0061"/>
<ellipse fill="none" stroke="#000000" cx="209.7754" cy="-317.9285" rx="3.2" ry="3.2"/>
</g>
<!-- Adobe_images -->
<g id="node3" class="node">
<title>Adobe_images</title>
<g id="a_node3"><a xlink:href="../../tables/Adobe_images.html" xlink:title="Adobe_images" target="_top">
<polygon fill="#ffffff" stroke="transparent" points="8,-38.2 8,-253.2 169,-253.2 169,-38.2 8,-38.2"/>
<polygon fill="#f5f5f5" stroke="transparent" points="8.5,-229.7 8.5,-252.7 169.5,-252.7 169.5,-229.7 8.5,-229.7"/>
<polygon fill="none" stroke="#000000" points="8.5,-229.7 8.5,-252.7 169.5,-252.7 169.5,-229.7 8.5,-229.7"/>
<text text-anchor="start" x="13.5" y="-238.3" font-family="Helvetica,sans-Serif" font-weight="bold" font-size="11.00" fill="#000000">Adobe_images</text>
<text text-anchor="start" x="134.5437" y="-237.8" font-family="Helvetica,sans-Serif" font-size="11.00" fill="#000000">[table]</text>
<polygon fill="none" stroke="#000000" points="8.5,-207.7 8.5,-229.7 169.5,-229.7 169.5,-207.7 8.5,-207.7"/>
<image xlink:href="../../images/primaryKeys.png" width="11px" height="12px" preserveAspectRatio="xMinYMin meet" x="13.5" y="-224.7"/>
<text text-anchor="start" x="28.5" y="-214.8" font-family="Helvetica,sans-Serif" font-size="11.00" fill="#000000">id_local</text>
<polygon fill="#ffffff" stroke="transparent" points="8.5,-185.7 8.5,-207.7 169.5,-207.7 169.5,-185.7 8.5,-185.7"/>
<polygon fill="none" stroke="#000000" points="8.5,-185.7 8.5,-207.7 169.5,-207.7 169.5,-185.7 8.5,-185.7"/>
<text text-anchor="start" x="28.5" y="-192.8" font-family="Helvetica,sans-Serif" font-size="11.00" fill="#000000">id_global</text>
<polygon fill="#ffffff" stroke="transparent" points="8.5,-163.7 8.5,-185.7 169.5,-185.7 169.5,-163.7 8.5,-163.7"/>
<polygon fill="none" stroke="#000000" points="8.5,-163.7 8.5,-185.7 169.5,-185.7 169.5,-163.7 8.5,-163.7"/>
<text text-anchor="start" x="28.5" y="-170.8" font-family="Helvetica,sans-Serif" font-size="11.00" fill="#000000">captureTime</text>
<polygon fill="#ffffff" stroke="transparent" points="8.5,-141.7 8.5,-163.7 169.5,-163.7 169.5,-141.7 8.5,-141.7"/>
<polygon fill="none" stroke="#000000" points="8.5,-141.7 8.5,-163.7 169.5,-163.7 169.5,-141.7 8.5,-141.7"/>
<image xlink:href="../../images/foreignKeys.png" width="11px" height="12px" preserveAspectRatio="xMinYMin meet" x="13.5" y="-158.7"/>
<text text-anchor="start" x="28.5" y="-148.8" font-family="Helvetica,sans-Serif" font-size="11.00" fill="#000000">masterImage</text>
<polygon fill="#ffffff" stroke="transparent" points="8.5,-119.7 8.5,-141.7 169.5,-141.7 169.5,-119.7 8.5,-119.7"/>
<polygon fill="none" stroke="#000000" points="8.5,-119.7 8.5,-141.7 169.5,-141.7 169.5,-119.7 8.5,-119.7"/>
<text text-anchor="start" x="28.5" y="-126.8" font-family="Helvetica,sans-Serif" font-size="11.00" fill="#000000">originalRootEntity</text>
<polygon fill="#ffffff" stroke="transparent" points="8.5,-97.7 8.5,-119.7 169.5,-119.7 169.5,-97.7 8.5,-97.7"/>
<polygon fill="none" stroke="#000000" points="8.5,-97.7 8.5,-119.7 169.5,-119.7 169.5,-97.7 8.5,-97.7"/>
<text text-anchor="start" x="28.5" y="-104.8" font-family="Helvetica,sans-Serif" font-size="11.00" fill="#000000">rating</text>
<polygon fill="#ffffff" stroke="transparent" points="8.5,-75.7 8.5,-97.7 169.5,-97.7 169.5,-75.7 8.5,-75.7"/>
<polygon fill="none" stroke="#000000" points="8.5,-75.7 8.5,-97.7 169.5,-97.7 169.5,-75.7 8.5,-75.7"/>
<image xlink:href="../../images/foreignKeys.png" width="11px" height="12px" preserveAspectRatio="xMinYMin meet" x="13.5" y="-92.7"/>
<text text-anchor="start" x="28.5" y="-82.8" font-family="Helvetica,sans-Serif" font-size="11.00" fill="#000000">rootFile</text>
<polygon fill="none" stroke="#000000" points="8.5,-56.7 8.5,-75.7 169.5,-75.7 169.5,-56.7 8.5,-56.7"/>
<text text-anchor="start" x="11.5" y="-62.8" font-family="Helvetica,sans-Serif" font-size="11.00" fill="#000000">...</text>
<polygon fill="#ffffff" stroke="transparent" points="8.5,-37.7 8.5,-56.7 79.5,-56.7 79.5,-37.7 8.5,-37.7"/>
<polygon fill="none" stroke="#000000" points="8.5,-37.7 8.5,-56.7 79.5,-56.7 79.5,-37.7 8.5,-37.7"/>
<text text-anchor="start" x="11.5" y="-43.8" font-family="Helvetica,sans-Serif" font-size="11.00" fill="#000000">&lt; 2</text>
<polygon fill="#ffffff" stroke="transparent" points="79.5,-37.7 79.5,-56.7 116.5,-56.7 116.5,-37.7 79.5,-37.7"/>
<polygon fill="none" stroke="#000000" points="79.5,-37.7 79.5,-56.7 116.5,-56.7 116.5,-37.7 79.5,-37.7"/>
<text text-anchor="start" x="107.3862" y="-43.8" font-family="Helvetica,sans-Serif" font-size="11.00" fill="#000000"> &#160;</text>
<polygon fill="#ffffff" stroke="transparent" points="116.5,-37.7 116.5,-56.7 169.5,-56.7 169.5,-37.7 116.5,-37.7"/>
<polygon fill="none" stroke="#000000" points="116.5,-37.7 116.5,-56.7 169.5,-56.7 169.5,-37.7 116.5,-37.7"/>
<text text-anchor="start" x="144.7904" y="-43.8" font-family="Helvetica,sans-Serif" font-size="11.00" fill="#000000">31 &gt;</text>
</a>
</g>
</g>
<!-- AgOutputImageAsset&#45;&gt;Adobe_images -->
<g id="edge2" class="edge">
<title>AgOutputImageAsset:w&#45;&gt;Adobe_images:e</title>
<path fill="none" stroke="#000000" d="M206.5503,-288.071C187.7607,-271.8706 203.3581,-218.7 169.5,-218.7"/>
<polygon fill="#000000" stroke="#000000" points="212.9071,-290.1804 219.3662,-296.1168 216.7036,-291.4402 220.5,-292.7 220.5,-292.7 220.5,-292.7 216.7036,-291.4402 221.6338,-289.2832 212.9071,-290.1804 212.9071,-290.1804"/>
<ellipse fill="none" stroke="#000000" cx="209.87" cy="-289.1725" rx="3.2" ry="3.2"/>
</g>
</g>
</svg>
