<?xml version="1.0" encoding="UTF-8" standalone="no"?>
<!DOCTYPE svg PUBLIC "-//W3C//DTD SVG 1.1//EN"
 "http://www.w3.org/Graphics/SVG/1.1/DTD/svg11.dtd">
<!-- Generated by graphviz version 2.40.1 (20161225.0304)
 -->
<!-- Title: twoDegreesRelationshipsDiagramImplied Pages: 1 -->
<svg width="907pt" height="498pt"
 viewBox="0.00 0.00 907.00 498.20" xmlns="http://www.w3.org/2000/svg" xmlns:xlink="http://www.w3.org/1999/xlink">
<g id="graph0" class="graph" transform="scale(1 1) rotate(0) translate(4 494.2)">
<title>twoDegreesRelationshipsDiagramImplied</title>
<polygon fill="#ffffff" stroke="transparent" points="-4,4 -4,-494.2 903,-494.2 903,4 -4,4"/>
<text text-anchor="middle" x="72.4936" y="-7.3" font-family="Helvetica,sans-Serif" font-size="11.00" fill="#000000">Generated by SchemaSpy</text>
<!-- AgDeletedOzAlbumAssetIds -->
<g id="node1" class="node">
<title>AgDeletedOzAlbumAssetIds</title>
<g id="a_node1"><a xlink:href="../../tables/AgDeletedOzAlbumAssetIds.html" xlink:title="AgDeletedOzAlbumAssetIds" target="_top">
<polygon fill="#ffffff" stroke="transparent" points="645,-227.2 645,-335.2 846,-335.2 846,-227.2 645,-227.2"/>
<polygon fill="#f5f5f5" stroke="transparent" points="645.5,-312.2 645.5,-335.2 846.5,-335.2 846.5,-312.2 645.5,-312.2"/>
<polygon fill="none" stroke="#000000" points="645.5,-312.2 645.5,-335.2 846.5,-335.2 846.5,-312.2 645.5,-312.2"/>
<text text-anchor="start" x="650.5" y="-320.8" font-family="Helvetica,sans-Serif" font-weight="bold" font-size="11.00" fill="#000000">AgDeletedOzAlbumAssetIds</text>
<text text-anchor="start" x="812.0219" y="-320.3" font-family="Helvetica,sans-Serif" font-size="11.00" fill="#000000">[table]</text>
<polygon fill="#ffffff" stroke="transparent" points="645.5,-290.2 645.5,-312.2 846.5,-312.2 846.5,-290.2 645.5,-290.2"/>
<polygon fill="none" stroke="#000000" points="645.5,-290.2 645.5,-312.2 846.5,-312.2 846.5,-290.2 645.5,-290.2"/>
<text text-anchor="start" x="674.5" y="-297.3" font-family="Helvetica,sans-Serif" font-size="11.00" fill="#000000">ozCatalogId</text>
<polygon fill="#ffffff" stroke="transparent" points="645.5,-268.2 645.5,-290.2 846.5,-290.2 846.5,-268.2 645.5,-268.2"/>
<polygon fill="none" stroke="#000000" points="645.5,-268.2 645.5,-290.2 846.5,-290.2 846.5,-268.2 645.5,-268.2"/>
<image xlink:href="../../images/foreignKeys.png" width="11px" height="12px" preserveAspectRatio="xMinYMin meet" x="650.5" y="-285.2"/>
<text text-anchor="start" x="674.5" y="-275.3" font-family="Helvetica,sans-Serif" font-size="11.00" fill="#000000">ozAlbumAssetId</text>
<polygon fill="#ffffff" stroke="transparent" points="645.5,-246.2 645.5,-268.2 846.5,-268.2 846.5,-246.2 645.5,-246.2"/>
<polygon fill="none" stroke="#000000" points="645.5,-246.2 645.5,-268.2 846.5,-268.2 846.5,-246.2 645.5,-246.2"/>
<text text-anchor="start" x="674.5" y="-253.3" font-family="Helvetica,sans-Serif" font-size="11.00" fill="#000000">changeCounter</text>
<polygon fill="#ffffff" stroke="transparent" points="645.5,-227.2 645.5,-246.2 744.5,-246.2 744.5,-227.2 645.5,-227.2"/>
<polygon fill="none" stroke="#000000" points="645.5,-227.2 645.5,-246.2 744.5,-246.2 744.5,-227.2 645.5,-227.2"/>
<text text-anchor="start" x="648.5" y="-233.3" font-family="Helvetica,sans-Serif" font-size="11.00" fill="#000000">&lt; 1</text>
<polygon fill="#ffffff" stroke="transparent" points="744.5,-227.2 744.5,-246.2 795.5,-246.2 795.5,-227.2 744.5,-227.2"/>
<polygon fill="none" stroke="#000000" points="744.5,-227.2 744.5,-246.2 795.5,-246.2 795.5,-227.2 744.5,-227.2"/>
<text text-anchor="start" x="786.3862" y="-233.3" font-family="Helvetica,sans-Serif" font-size="11.00" fill="#000000"> &#160;</text>
<polygon fill="#ffffff" stroke="transparent" points="795.5,-227.2 795.5,-246.2 846.5,-246.2 846.5,-227.2 795.5,-227.2"/>
<polygon fill="none" stroke="#000000" points="795.5,-227.2 795.5,-246.2 846.5,-246.2 846.5,-227.2 795.5,-227.2"/>
<text text-anchor="start" x="837.3862" y="-233.3" font-family="Helvetica,sans-Serif" font-size="11.00" fill="#000000"> &#160;</text>
</a>
</g>
</g>
<!-- AgPendingOzAlbumAssetIds_sortOrder -->
<g id="node2" class="node">
<title>AgPendingOzAlbumAssetIds_sortOrder</title>
<g id="a_node2"><a xlink:href="../../tables/AgPendingOzAlbumAssetIds_sortOrder.html" xlink:title="AgPendingOzAlbumAssetIds_sortOrder" target="_top">
<polygon fill="#ffffff" stroke="transparent" points="210,-226.2 210,-316.2 551,-316.2 551,-226.2 210,-226.2"/>
<polygon fill="#f5f5f5" stroke="transparent" points="212.5,-291.2 212.5,-314.2 549.5,-314.2 549.5,-291.2 212.5,-291.2"/>
<polygon fill="none" stroke="#000000" points="212.5,-291.2 212.5,-314.2 549.5,-314.2 549.5,-291.2 212.5,-291.2"/>
<text text-anchor="start" x="217.5" y="-299.8" font-family="Helvetica,sans-Serif" font-weight="bold" font-size="11.00" fill="#000000">AgPendingOzAlbumAssetIds_sortOrder</text>
<text text-anchor="start" x="514.5437" y="-299.3" font-family="Helvetica,sans-Serif" font-size="11.00" fill="#000000">[table]</text>
<polygon fill="none" stroke="#000000" points="212.5,-269.2 212.5,-291.2 461.5,-291.2 461.5,-269.2 212.5,-269.2"/>
<image xlink:href="../../images/primaryKeys.png" width="11px" height="12px" preserveAspectRatio="xMinYMin meet" x="217.5" y="-286.2"/>
<text text-anchor="start" x="232.5" y="-276.3" font-family="Helvetica,sans-Serif" font-size="11.00" fill="#000000">ozAlbumAssetId</text>
<polygon fill="none" stroke="#000000" points="461.5,-269.2 461.5,-291.2 549.5,-291.2 549.5,-269.2 461.5,-269.2"/>
<text text-anchor="start" x="464.2253" y="-276.9" font-family="Helvetica,sans-Serif" font-size="11.00" fill="#000000">[2000000000,10]</text>
<polygon fill="none" stroke="#000000" points="212.5,-247.2 212.5,-269.2 461.5,-269.2 461.5,-247.2 212.5,-247.2"/>
<text text-anchor="start" x="232.5" y="-254.3" font-family="Helvetica,sans-Serif" font-size="11.00" fill="#000000">ozSortOrder</text>
<polygon fill="none" stroke="#000000" points="461.5,-247.2 461.5,-269.2 549.5,-269.2 549.5,-247.2 461.5,-247.2"/>
<text text-anchor="start" x="464.2253" y="-254.9" font-family="Helvetica,sans-Serif" font-size="11.00" fill="#000000">[2000000000,10]</text>
<polygon fill="#ffffff" stroke="transparent" points="212.5,-228.2 212.5,-247.2 341.5,-247.2 341.5,-228.2 212.5,-228.2"/>
<polygon fill="none" stroke="#000000" points="212.5,-228.2 212.5,-247.2 341.5,-247.2 341.5,-228.2 212.5,-228.2"/>
<text text-anchor="start" x="215.5" y="-234.3" font-family="Helvetica,sans-Serif" font-size="11.00" fill="#000000">&lt; 0</text>
<polygon fill="#ffffff" stroke="transparent" points="341.5,-228.2 341.5,-247.2 461.5,-247.2 461.5,-228.2 341.5,-228.2"/>
<polygon fill="none" stroke="#000000" points="341.5,-228.2 341.5,-247.2 461.5,-247.2 461.5,-228.2 341.5,-228.2"/>
<text text-anchor="start" x="452.3862" y="-234.3" font-family="Helvetica,sans-Serif" font-size="11.00" fill="#000000"> &#160;</text>
<polygon fill="#ffffff" stroke="transparent" points="461.5,-228.2 461.5,-247.2 549.5,-247.2 549.5,-228.2 461.5,-228.2"/>
<polygon fill="none" stroke="#000000" points="461.5,-228.2 461.5,-247.2 549.5,-247.2 549.5,-228.2 461.5,-228.2"/>
<text text-anchor="start" x="530.9053" y="-234.3" font-family="Helvetica,sans-Serif" font-size="11.00" fill="#000000">3 &gt;</text>
<polygon fill="none" stroke="#000000" stroke-width="2" points="211,-227.2 211,-315.2 550,-315.2 550,-227.2 211,-227.2"/>
</a>
</g>
</g>
<!-- AgDeletedOzAlbumAssetIds&#45;&gt;AgPendingOzAlbumAssetIds_sortOrder -->
<g id="edge1" class="edge">
<title>AgDeletedOzAlbumAssetIds:w&#45;&gt;AgPendingOzAlbumAssetIds_sortOrder:e</title>
<path fill="none" stroke="#000000" stroke-dasharray="5,2" d="M630.8744,-279.243C599.6654,-279.4344 586.8354,-280.2 549.5,-280.2"/>
<polygon fill="#000000" stroke="#000000" points="637.5,-279.2236 645.5106,-282.8 641.5,-279.2118 645.5,-279.2 645.5,-279.2 645.5,-279.2 641.5,-279.2118 645.4894,-275.6 637.5,-279.2236 637.5,-279.2236"/>
<ellipse fill="none" stroke="#000000" cx="634.3" cy="-279.233" rx="3.2" ry="3.2"/>
</g>
<!-- AgLibraryCollectionImage -->
<g id="node3" class="node">
<title>AgLibraryCollectionImage</title>
<g id="a_node3"><a xlink:href="../../tables/AgLibraryCollectionImage.html" xlink:title="AgLibraryCollectionImage" target="_top">
<polygon fill="#ffffff" stroke="transparent" points="286.5,-143.7 286.5,-204.7 474.5,-204.7 474.5,-143.7 286.5,-143.7"/>
<polygon fill="#f5f5f5" stroke="transparent" points="286.5,-181.2 286.5,-204.2 474.5,-204.2 474.5,-181.2 286.5,-181.2"/>
<polygon fill="none" stroke="#000000" points="286.5,-181.2 286.5,-204.2 474.5,-204.2 474.5,-181.2 286.5,-181.2"/>
<text text-anchor="start" x="291.5" y="-189.8" font-family="Helvetica,sans-Serif" font-weight="bold" font-size="11.00" fill="#000000">AgLibraryCollectionImage</text>
<text text-anchor="start" x="440.0219" y="-189.3" font-family="Helvetica,sans-Serif" font-size="11.00" fill="#000000">[table]</text>
<polygon fill="none" stroke="#000000" points="286.5,-162.2 286.5,-181.2 474.5,-181.2 474.5,-162.2 286.5,-162.2"/>
<text text-anchor="start" x="289.5" y="-168.3" font-family="Helvetica,sans-Serif" font-size="11.00" fill="#000000">...</text>
<polygon fill="#ffffff" stroke="transparent" points="286.5,-143.2 286.5,-162.2 374.5,-162.2 374.5,-143.2 286.5,-143.2"/>
<polygon fill="none" stroke="#000000" points="286.5,-143.2 286.5,-162.2 374.5,-162.2 374.5,-143.2 286.5,-143.2"/>
<text text-anchor="start" x="289.5" y="-149.3" font-family="Helvetica,sans-Serif" font-size="11.00" fill="#000000">&lt; 2</text>
<polygon fill="#ffffff" stroke="transparent" points="374.5,-143.2 374.5,-162.2 419.5,-162.2 419.5,-143.2 374.5,-143.2"/>
<polygon fill="none" stroke="#000000" points="374.5,-143.2 374.5,-162.2 419.5,-162.2 419.5,-143.2 374.5,-143.2"/>
<text text-anchor="start" x="410.3862" y="-149.3" font-family="Helvetica,sans-Serif" font-size="11.00" fill="#000000"> &#160;</text>
<polygon fill="#ffffff" stroke="transparent" points="419.5,-143.2 419.5,-162.2 474.5,-162.2 474.5,-143.2 419.5,-143.2"/>
<polygon fill="none" stroke="#000000" points="419.5,-143.2 419.5,-162.2 474.5,-162.2 474.5,-143.2 419.5,-143.2"/>
<text text-anchor="start" x="455.9053" y="-149.3" font-family="Helvetica,sans-Serif" font-size="11.00" fill="#000000">3 &gt;</text>
</a>
</g>
</g>
<!-- AgLibraryCollection -->
<g id="node4" class="node">
<title>AgLibraryCollection</title>
<g id="a_node4"><a xlink:href="../../tables/AgLibraryCollection.html" xlink:title="AgLibraryCollection" target="_top">
<polygon fill="#ffffff" stroke="transparent" points="8,-144.7 8,-205.7 161,-205.7 161,-144.7 8,-144.7"/>
<polygon fill="#f5f5f5" stroke="transparent" points="8.5,-182.2 8.5,-205.2 161.5,-205.2 161.5,-182.2 8.5,-182.2"/>
<polygon fill="none" stroke="#000000" points="8.5,-182.2 8.5,-205.2 161.5,-205.2 161.5,-182.2 8.5,-182.2"/>
<text text-anchor="start" x="13.5" y="-190.8" font-family="Helvetica,sans-Serif" font-weight="bold" font-size="11.00" fill="#000000">AgLibraryCollection</text>
<text text-anchor="start" x="127.0219" y="-190.3" font-family="Helvetica,sans-Serif" font-size="11.00" fill="#000000">[table]</text>
<polygon fill="none" stroke="#000000" points="8.5,-163.2 8.5,-182.2 161.5,-182.2 161.5,-163.2 8.5,-163.2"/>
<text text-anchor="start" x="11.5" y="-169.3" font-family="Helvetica,sans-Serif" font-size="11.00" fill="#000000">...</text>
<polygon fill="#ffffff" stroke="transparent" points="8.5,-144.2 8.5,-163.2 75.5,-163.2 75.5,-144.2 8.5,-144.2"/>
<polygon fill="none" stroke="#000000" points="8.5,-144.2 8.5,-163.2 75.5,-163.2 75.5,-144.2 8.5,-144.2"/>
<text text-anchor="start" x="11.5" y="-150.3" font-family="Helvetica,sans-Serif" font-size="11.00" fill="#000000">&lt; 1</text>
<polygon fill="#ffffff" stroke="transparent" points="75.5,-144.2 75.5,-163.2 110.5,-163.2 110.5,-144.2 75.5,-144.2"/>
<polygon fill="none" stroke="#000000" points="75.5,-144.2 75.5,-163.2 110.5,-163.2 110.5,-144.2 75.5,-144.2"/>
<text text-anchor="start" x="101.3862" y="-150.3" font-family="Helvetica,sans-Serif" font-size="11.00" fill="#000000"> &#160;</text>
<polygon fill="#ffffff" stroke="transparent" points="110.5,-144.2 110.5,-163.2 161.5,-163.2 161.5,-144.2 110.5,-144.2"/>
<polygon fill="none" stroke="#000000" points="110.5,-144.2 110.5,-163.2 161.5,-163.2 161.5,-144.2 110.5,-144.2"/>
<text text-anchor="start" x="136.7904" y="-150.3" font-family="Helvetica,sans-Serif" font-size="11.00" fill="#000000">13 &gt;</text>
</a>
</g>
</g>
<!-- AgLibraryCollectionImage&#45;&gt;AgLibraryCollection -->
<g id="edge2" class="edge">
<title>AgLibraryCollectionImage:w&#45;&gt;AgLibraryCollection:e</title>
<path fill="none" stroke="#000000" d="M271.9046,-171.2247C227.9729,-171.3787 211.8488,-172.2 161.5,-172.2"/>
<polygon fill="#000000" stroke="#000000" points="278.5,-171.2136 286.5061,-174.8 282.5,-171.2068 286.5,-171.2 286.5,-171.2 286.5,-171.2 282.5,-171.2068 286.4939,-167.6 278.5,-171.2136 278.5,-171.2136"/>
<ellipse fill="none" stroke="#000000" cx="275.3" cy="-171.219" rx="3.2" ry="3.2"/>
</g>
<!-- Adobe_images -->
<g id="node5" class="node">
<title>Adobe_images</title>
<g id="a_node5"><a xlink:href="../../tables/Adobe_images.html" xlink:title="Adobe_images" target="_top">
<polygon fill="#ffffff" stroke="transparent" points="22.5,-62.7 22.5,-123.7 146.5,-123.7 146.5,-62.7 22.5,-62.7"/>
<polygon fill="#f5f5f5" stroke="transparent" points="22.5,-100.2 22.5,-123.2 146.5,-123.2 146.5,-100.2 22.5,-100.2"/>
<polygon fill="none" stroke="#000000" points="22.5,-100.2 22.5,-123.2 146.5,-123.2 146.5,-100.2 22.5,-100.2"/>
<text text-anchor="start" x="27.5" y="-108.8" font-family="Helvetica,sans-Serif" font-weight="bold" font-size="11.00" fill="#000000">Adobe_images</text>
<text text-anchor="start" x="112.0219" y="-108.3" font-family="Helvetica,sans-Serif" font-size="11.00" fill="#000000">[table]</text>
<polygon fill="none" stroke="#000000" points="22.5,-81.2 22.5,-100.2 146.5,-100.2 146.5,-81.2 22.5,-81.2"/>
<text text-anchor="start" x="25.5" y="-87.3" font-family="Helvetica,sans-Serif" font-size="11.00" fill="#000000">...</text>
<polygon fill="#ffffff" stroke="transparent" points="22.5,-62.2 22.5,-81.2 75.5,-81.2 75.5,-62.2 22.5,-62.2"/>
<polygon fill="none" stroke="#000000" points="22.5,-62.2 22.5,-81.2 75.5,-81.2 75.5,-62.2 22.5,-62.2"/>
<text text-anchor="start" x="25.5" y="-68.3" font-family="Helvetica,sans-Serif" font-size="11.00" fill="#000000">&lt; 2</text>
<polygon fill="#ffffff" stroke="transparent" points="75.5,-62.2 75.5,-81.2 103.5,-81.2 103.5,-62.2 75.5,-62.2"/>
<polygon fill="none" stroke="#000000" points="75.5,-62.2 75.5,-81.2 103.5,-81.2 103.5,-62.2 75.5,-62.2"/>
<text text-anchor="start" x="94.3862" y="-68.3" font-family="Helvetica,sans-Serif" font-size="11.00" fill="#000000"> &#160;</text>
<polygon fill="#ffffff" stroke="transparent" points="103.5,-62.2 103.5,-81.2 146.5,-81.2 146.5,-62.2 103.5,-62.2"/>
<polygon fill="none" stroke="#000000" points="103.5,-62.2 103.5,-81.2 146.5,-81.2 146.5,-62.2 103.5,-62.2"/>
<text text-anchor="start" x="121.7904" y="-68.3" font-family="Helvetica,sans-Serif" font-size="11.00" fill="#000000">31 &gt;</text>
</a>
</g>
</g>
<!-- AgLibraryCollectionImage&#45;&gt;Adobe_images -->
<g id="edge3" class="edge">
<title>AgLibraryCollectionImage:w&#45;&gt;Adobe_images:e</title>
<path fill="none" stroke="#000000" d="M272.0436,-169.9921C214.764,-159.916 213.1912,-90.2 146.5,-90.2"/>
<polygon fill="#000000" stroke="#000000" points="278.5278,-170.5338 286.2002,-174.7875 282.5139,-170.8669 286.5,-171.2 286.5,-171.2 286.5,-171.2 282.5139,-170.8669 286.7998,-167.6125 278.5278,-170.5338 278.5278,-170.5338"/>
<ellipse fill="none" stroke="#000000" cx="275.3389" cy="-170.2674" rx="3.2" ry="3.2"/>
</g>
<!-- AgLibraryCollectionImageOzAlbumAssetIds -->
<g id="node6" class="node">
<title>AgLibraryCollectionImageOzAlbumAssetIds</title>
<g id="a_node6"><a xlink:href="../../tables/AgLibraryCollectionImageOzAlbumAssetIds.html" xlink:title="AgLibraryCollectionImageOzAlbumAssetIds" target="_top">
<polygon fill="#ffffff" stroke="transparent" points="600,-38.2 600,-190.2 891,-190.2 891,-38.2 600,-38.2"/>
<polygon fill="#f5f5f5" stroke="transparent" points="600.5,-167.2 600.5,-190.2 891.5,-190.2 891.5,-167.2 600.5,-167.2"/>
<polygon fill="none" stroke="#000000" points="600.5,-167.2 600.5,-190.2 891.5,-190.2 891.5,-167.2 600.5,-167.2"/>
<text text-anchor="start" x="605.5" y="-175.8" font-family="Helvetica,sans-Serif" font-weight="bold" font-size="11.00" fill="#000000">AgLibraryCollectionImageOzAlbumAssetIds</text>
<text text-anchor="start" x="857.0219" y="-175.3" font-family="Helvetica,sans-Serif" font-size="11.00" fill="#000000">[table]</text>
<polygon fill="#ffffff" stroke="transparent" points="600.5,-145.2 600.5,-167.2 891.5,-167.2 891.5,-145.2 600.5,-145.2"/>
<polygon fill="none" stroke="#000000" points="600.5,-145.2 600.5,-167.2 891.5,-167.2 891.5,-145.2 600.5,-145.2"/>
<image xlink:href="../../images/foreignKeys.png" width="11px" height="12px" preserveAspectRatio="xMinYMin meet" x="605.5" y="-162.2"/>
<text text-anchor="start" x="629.5" y="-152.3" font-family="Helvetica,sans-Serif" font-size="11.00" fill="#000000">collectionImage</text>
<polygon fill="#ffffff" stroke="transparent" points="600.5,-123.2 600.5,-145.2 891.5,-145.2 891.5,-123.2 600.5,-123.2"/>
<polygon fill="none" stroke="#000000" points="600.5,-123.2 600.5,-145.2 891.5,-145.2 891.5,-123.2 600.5,-123.2"/>
<image xlink:href="../../images/foreignKeys.png" width="11px" height="12px" preserveAspectRatio="xMinYMin meet" x="605.5" y="-140.2"/>
<text text-anchor="start" x="629.5" y="-130.3" font-family="Helvetica,sans-Serif" font-size="11.00" fill="#000000">collection</text>
<polygon fill="#ffffff" stroke="transparent" points="600.5,-101.2 600.5,-123.2 891.5,-123.2 891.5,-101.2 600.5,-101.2"/>
<polygon fill="none" stroke="#000000" points="600.5,-101.2 600.5,-123.2 891.5,-123.2 891.5,-101.2 600.5,-101.2"/>
<image xlink:href="../../images/foreignKeys.png" width="11px" height="12px" preserveAspectRatio="xMinYMin meet" x="605.5" y="-118.2"/>
<text text-anchor="start" x="629.5" y="-108.3" font-family="Helvetica,sans-Serif" font-size="11.00" fill="#000000">image</text>
<polygon fill="#ffffff" stroke="transparent" points="600.5,-79.2 600.5,-101.2 891.5,-101.2 891.5,-79.2 600.5,-79.2"/>
<polygon fill="none" stroke="#000000" points="600.5,-79.2 600.5,-101.2 891.5,-101.2 891.5,-79.2 600.5,-79.2"/>
<text text-anchor="start" x="629.5" y="-86.3" font-family="Helvetica,sans-Serif" font-size="11.00" fill="#000000">ozCatalogId</text>
<polygon fill="#ffffff" stroke="transparent" points="600.5,-57.2 600.5,-79.2 891.5,-79.2 891.5,-57.2 600.5,-57.2"/>
<polygon fill="none" stroke="#000000" points="600.5,-57.2 600.5,-79.2 891.5,-79.2 891.5,-57.2 600.5,-57.2"/>
<image xlink:href="../../images/foreignKeys.png" width="11px" height="12px" preserveAspectRatio="xMinYMin meet" x="605.5" y="-74.2"/>
<text text-anchor="start" x="629.5" y="-64.3" font-family="Helvetica,sans-Serif" font-size="11.00" fill="#000000">ozAlbumAssetId</text>
<polygon fill="#ffffff" stroke="transparent" points="600.5,-38.2 600.5,-57.2 744.5,-57.2 744.5,-38.2 600.5,-38.2"/>
<polygon fill="none" stroke="#000000" points="600.5,-38.2 600.5,-57.2 744.5,-57.2 744.5,-38.2 600.5,-38.2"/>
<text text-anchor="start" x="603.5" y="-44.3" font-family="Helvetica,sans-Serif" font-size="11.00" fill="#000000">&lt; 4</text>
<polygon fill="#ffffff" stroke="transparent" points="744.5,-38.2 744.5,-57.2 817.5,-57.2 817.5,-38.2 744.5,-38.2"/>
<polygon fill="none" stroke="#000000" points="744.5,-38.2 744.5,-57.2 817.5,-57.2 817.5,-38.2 744.5,-38.2"/>
<text text-anchor="start" x="808.3862" y="-44.3" font-family="Helvetica,sans-Serif" font-size="11.00" fill="#000000"> &#160;</text>
<polygon fill="#ffffff" stroke="transparent" points="817.5,-38.2 817.5,-57.2 891.5,-57.2 891.5,-38.2 817.5,-38.2"/>
<polygon fill="none" stroke="#000000" points="817.5,-38.2 817.5,-57.2 891.5,-57.2 891.5,-38.2 817.5,-38.2"/>
<text text-anchor="start" x="882.3862" y="-44.3" font-family="Helvetica,sans-Serif" font-size="11.00" fill="#000000"> &#160;</text>
</a>
</g>
</g>
<!-- AgLibraryCollectionImageOzAlbumAssetIds&#45;&gt;AgPendingOzAlbumAssetIds_sortOrder -->
<g id="edge7" class="edge">
<title>AgLibraryCollectionImageOzAlbumAssetIds:w&#45;&gt;AgPendingOzAlbumAssetIds_sortOrder:e</title>
<path fill="none" stroke="#000000" stroke-dasharray="5,2" d="M585.8377,-70.2982C519.5034,-92.3159 640.732,-280.2 549.5,-280.2"/>
<polygon fill="#000000" stroke="#000000" points="592.5807,-69.3333 601.01,-71.7637 596.5403,-68.7667 600.5,-68.2 600.5,-68.2 600.5,-68.2 596.5403,-68.7667 599.99,-64.6363 592.5807,-69.3333 592.5807,-69.3333"/>
<ellipse fill="none" stroke="#000000" cx="589.4129" cy="-69.7867" rx="3.2" ry="3.2"/>
</g>
<!-- AgLibraryCollectionImageOzAlbumAssetIds&#45;&gt;AgLibraryCollectionImage -->
<g id="edge5" class="edge">
<title>AgLibraryCollectionImageOzAlbumAssetIds:w&#45;&gt;AgLibraryCollectionImage:e</title>
<path fill="none" stroke="#000000" d="M585.9942,-156.556C541.3155,-158.8275 525.7185,-171.2 474.5,-171.2"/>
<polygon fill="#000000" stroke="#000000" points="592.5024,-156.3963 600.5883,-159.7989 596.5012,-156.2982 600.5,-156.2 600.5,-156.2 600.5,-156.2 596.5012,-156.2982 600.4117,-152.6011 592.5024,-156.3963 592.5024,-156.3963"/>
<ellipse fill="none" stroke="#000000" cx="589.3034" cy="-156.4749" rx="3.2" ry="3.2"/>
</g>
<!-- AgLibraryCollectionImageOzAlbumAssetIds&#45;&gt;AgLibraryCollection -->
<g id="edge4" class="edge">
<title>AgLibraryCollectionImageOzAlbumAssetIds:w&#45;&gt;AgLibraryCollection:e</title>
<path fill="none" stroke="#000000" d="M585.9691,-133.9493C489.1826,-130.9085 279.9602,-101.766 202,-133.2 178.8241,-142.5446 186.4889,-172.2 161.5,-172.2"/>
<polygon fill="#000000" stroke="#000000" points="592.5012,-134.062 600.4379,-137.7995 596.5006,-134.131 600.5,-134.2 600.5,-134.2 600.5,-134.2 596.5006,-134.131 600.5621,-130.6005 592.5012,-134.062 592.5012,-134.062"/>
<ellipse fill="none" stroke="#000000" cx="589.3017" cy="-134.0068" rx="3.2" ry="3.2"/>
</g>
<!-- AgLibraryCollectionImageOzAlbumAssetIds&#45;&gt;Adobe_images -->
<g id="edge6" class="edge">
<title>AgLibraryCollectionImageOzAlbumAssetIds:w&#45;&gt;Adobe_images:e</title>
<path fill="none" stroke="#000000" d="M586.1067,-111.7023C577.6669,-111.0615 571.5472,-109.9424 559,-109.2 375.7927,-98.3606 330.0277,-90.2 146.5,-90.2"/>
<polygon fill="#000000" stroke="#000000" points="592.5048,-111.9235 600.3756,-115.7978 596.5024,-112.0617 600.5,-112.2 600.5,-112.2 600.5,-112.2 596.5024,-112.0617 600.6244,-108.6022 592.5048,-111.9235 592.5048,-111.9235"/>
<ellipse fill="none" stroke="#000000" cx="589.3067" cy="-111.8129" rx="3.2" ry="3.2"/>
</g>
<!-- AgPendingOzAlbumAssetIds -->
<g id="node7" class="node">
<title>AgPendingOzAlbumAssetIds</title>
<g id="a_node7"><a xlink:href="../../tables/AgPendingOzAlbumAssetIds.html" xlink:title="AgPendingOzAlbumAssetIds" target="_top">
<polygon fill="#ffffff" stroke="transparent" points="643,-356.2 643,-486.2 848,-486.2 848,-356.2 643,-356.2"/>
<polygon fill="#f5f5f5" stroke="transparent" points="643.5,-463.2 643.5,-486.2 848.5,-486.2 848.5,-463.2 643.5,-463.2"/>
<polygon fill="none" stroke="#000000" points="643.5,-463.2 643.5,-486.2 848.5,-486.2 848.5,-463.2 643.5,-463.2"/>
<text text-anchor="start" x="648.5" y="-471.8" font-family="Helvetica,sans-Serif" font-weight="bold" font-size="11.00" fill="#000000">AgPendingOzAlbumAssetIds</text>
<text text-anchor="start" x="814.0219" y="-471.3" font-family="Helvetica,sans-Serif" font-size="11.00" fill="#000000">[table]</text>
<polygon fill="#ffffff" stroke="transparent" points="643.5,-441.2 643.5,-463.2 848.5,-463.2 848.5,-441.2 643.5,-441.2"/>
<polygon fill="none" stroke="#000000" points="643.5,-441.2 643.5,-463.2 848.5,-463.2 848.5,-441.2 643.5,-441.2"/>
<text text-anchor="start" x="672.5" y="-448.3" font-family="Helvetica,sans-Serif" font-size="11.00" fill="#000000">ozCatalogId</text>
<polygon fill="#ffffff" stroke="transparent" points="643.5,-419.2 643.5,-441.2 848.5,-441.2 848.5,-419.2 643.5,-419.2"/>
<polygon fill="none" stroke="#000000" points="643.5,-419.2 643.5,-441.2 848.5,-441.2 848.5,-419.2 643.5,-419.2"/>
<image xlink:href="../../images/foreignKeys.png" width="11px" height="12px" preserveAspectRatio="xMinYMin meet" x="648.5" y="-436.2"/>
<text text-anchor="start" x="672.5" y="-426.3" font-family="Helvetica,sans-Serif" font-size="11.00" fill="#000000">ozAlbumAssetId</text>
<polygon fill="#ffffff" stroke="transparent" points="643.5,-397.2 643.5,-419.2 848.5,-419.2 848.5,-397.2 643.5,-397.2"/>
<polygon fill="none" stroke="#000000" points="643.5,-397.2 643.5,-419.2 848.5,-419.2 848.5,-397.2 643.5,-397.2"/>
<text text-anchor="start" x="672.5" y="-404.3" font-family="Helvetica,sans-Serif" font-size="11.00" fill="#000000">ozAssetId</text>
<polygon fill="#ffffff" stroke="transparent" points="643.5,-375.2 643.5,-397.2 848.5,-397.2 848.5,-375.2 643.5,-375.2"/>
<polygon fill="none" stroke="#000000" points="643.5,-375.2 643.5,-397.2 848.5,-397.2 848.5,-375.2 643.5,-375.2"/>
<text text-anchor="start" x="672.5" y="-382.3" font-family="Helvetica,sans-Serif" font-size="11.00" fill="#000000">ozAlbumId</text>
<polygon fill="#ffffff" stroke="transparent" points="643.5,-356.2 643.5,-375.2 744.5,-375.2 744.5,-356.2 643.5,-356.2"/>
<polygon fill="none" stroke="#000000" points="643.5,-356.2 643.5,-375.2 744.5,-375.2 744.5,-356.2 643.5,-356.2"/>
<text text-anchor="start" x="646.5" y="-362.3" font-family="Helvetica,sans-Serif" font-size="11.00" fill="#000000">&lt; 1</text>
<polygon fill="#ffffff" stroke="transparent" points="744.5,-356.2 744.5,-375.2 796.5,-375.2 796.5,-356.2 744.5,-356.2"/>
<polygon fill="none" stroke="#000000" points="744.5,-356.2 744.5,-375.2 796.5,-375.2 796.5,-356.2 744.5,-356.2"/>
<text text-anchor="start" x="787.3862" y="-362.3" font-family="Helvetica,sans-Serif" font-size="11.00" fill="#000000"> &#160;</text>
<polygon fill="#ffffff" stroke="transparent" points="796.5,-356.2 796.5,-375.2 848.5,-375.2 848.5,-356.2 796.5,-356.2"/>
<polygon fill="none" stroke="#000000" points="796.5,-356.2 796.5,-375.2 848.5,-375.2 848.5,-356.2 796.5,-356.2"/>
<text text-anchor="start" x="839.3862" y="-362.3" font-family="Helvetica,sans-Serif" font-size="11.00" fill="#000000"> &#160;</text>
</a>
</g>
</g>
<!-- AgPendingOzAlbumAssetIds&#45;&gt;AgPendingOzAlbumAssetIds_sortOrder -->
<g id="edge8" class="edge">
<title>AgPendingOzAlbumAssetIds:w&#45;&gt;AgPendingOzAlbumAssetIds_sortOrder:e</title>
<path fill="none" stroke="#000000" stroke-dasharray="5,2" d="M633.6966,-418.9256C610.5146,-384.0414 557.6826,-280.2 549.5,-280.2"/>
<polygon fill="#000000" stroke="#000000" points="638.2507,-424.163 640.7834,-432.5622 640.8753,-427.1815 643.5,-430.2 643.5,-430.2 643.5,-430.2 640.8753,-427.1815 646.2166,-427.8378 638.2507,-424.163 638.2507,-424.163"/>
<ellipse fill="none" stroke="#000000" cx="636.151" cy="-421.7482" rx="3.2" ry="3.2"/>
</g>
</g>
</svg>
