digraph "oneDegreeRelationshipsDiagram" {
  graph [    rankdir="RL"    bgcolor="#ffffff"    label="\nGenerated by SchemaSpy"    labeljust="l"    nodesep="0.18"    ranksep="0.46"    fontname="Helvetica"    fontsize="11"    ration="compress"  ];  node [    fontname="Helvetica"    fontsize="11"    shape="plaintext"  ];  edge [    arrowsize="0.8"  ];
  "AgRemotePhoto" [
   label=<
    <TABLE BORDER="2" CELLBORDER="1" CELLSPACING="0" BGCOLOR="#ffffff">
      <TR><TD COLSPAN="4"  BGCOLOR="#f5f5f5"><TABLE BORDER="0" CELLSPACING="0"><TR><TD ALIGN="LEFT" FIXEDSIZE="TRUE" WIDTH="93" HEIGHT="16"><B>AgRemotePhoto</B></TD><TD ALIGN="RIGHT">[table]</TD></TR></TABLE></TD></TR>
      <TR><TD PORT="id_local" COLSPAN="2" ALIGN="LEFT"><TABLE BORDER="0" CELLSPACING="0" ALIGN="LEFT"><TR ALIGN="LEFT"><TD ALIGN="LEFT" FIXEDSIZE="TRUE" WIDTH="15" HEIGHT="16"><IMG SRC="../../images/primaryKeys.png"/></TD><TD ALIGN="LEFT" FIXEDSIZE="TRUE" WIDTH="152" HEIGHT="16">id_local</TD></TR></TABLE></TD><TD PORT="id_local.type" ALIGN="LEFT">integer[2000000000,10]</TD></TR>
      <TR><TD PORT="id_global" COLSPAN="2" BGCOLOR="#ffffff" ALIGN="LEFT"><TABLE BORDER="0" CELLSPACING="0" ALIGN="LEFT"><TR ALIGN="LEFT"><TD ALIGN="LEFT" FIXEDSIZE="TRUE" WIDTH="15" HEIGHT="16"></TD><TD ALIGN="LEFT" FIXEDSIZE="TRUE" WIDTH="152" HEIGHT="16">id_global</TD></TR></TABLE></TD><TD PORT="id_global.type" ALIGN="LEFT">[2000000000,10]</TD></TR>
      <TR><TD PORT="collection" COLSPAN="2" BGCOLOR="#ffffff" ALIGN="LEFT"><TABLE BORDER="0" CELLSPACING="0" ALIGN="LEFT"><TR ALIGN="LEFT"><TD ALIGN="LEFT" FIXEDSIZE="TRUE" WIDTH="15" HEIGHT="16"></TD><TD ALIGN="LEFT" FIXEDSIZE="TRUE" WIDTH="152" HEIGHT="16">collection</TD></TR></TABLE></TD><TD PORT="collection.type" ALIGN="LEFT">integer[2000000000,10]</TD></TR>
      <TR><TD PORT="commentCount" COLSPAN="2" ALIGN="LEFT"><TABLE BORDER="0" CELLSPACING="0" ALIGN="LEFT"><TR ALIGN="LEFT"><TD ALIGN="LEFT" FIXEDSIZE="TRUE" WIDTH="15" HEIGHT="16"></TD><TD ALIGN="LEFT" FIXEDSIZE="TRUE" WIDTH="152" HEIGHT="16">commentCount</TD></TR></TABLE></TD><TD PORT="commentCount.type" ALIGN="LEFT">[2000000000,10]</TD></TR>
      <TR><TD PORT="developSettingsDigest" COLSPAN="2" ALIGN="LEFT"><TABLE BORDER="0" CELLSPACING="0" ALIGN="LEFT"><TR ALIGN="LEFT"><TD ALIGN="LEFT" FIXEDSIZE="TRUE" WIDTH="15" HEIGHT="16"></TD><TD ALIGN="LEFT" FIXEDSIZE="TRUE" WIDTH="152" HEIGHT="16">developSettingsDigest</TD></TR></TABLE></TD><TD PORT="developSettingsDigest.type" ALIGN="LEFT">[2000000000,10]</TD></TR>
      <TR><TD PORT="fileContentsHash" COLSPAN="2" ALIGN="LEFT"><TABLE BORDER="0" CELLSPACING="0" ALIGN="LEFT"><TR ALIGN="LEFT"><TD ALIGN="LEFT" FIXEDSIZE="TRUE" WIDTH="15" HEIGHT="16"></TD><TD ALIGN="LEFT" FIXEDSIZE="TRUE" WIDTH="152" HEIGHT="16">fileContentsHash</TD></TR></TABLE></TD><TD PORT="fileContentsHash.type" ALIGN="LEFT">[2000000000,10]</TD></TR>
      <TR><TD PORT="fileModTimestamp" COLSPAN="2" ALIGN="LEFT"><TABLE BORDER="0" CELLSPACING="0" ALIGN="LEFT"><TR ALIGN="LEFT"><TD ALIGN="LEFT" FIXEDSIZE="TRUE" WIDTH="15" HEIGHT="16"></TD><TD ALIGN="LEFT" FIXEDSIZE="TRUE" WIDTH="152" HEIGHT="16">fileModTimestamp</TD></TR></TABLE></TD><TD PORT="fileModTimestamp.type" ALIGN="LEFT">[2000000000,10]</TD></TR>
      <TR><TD PORT="metadataDigest" COLSPAN="2" ALIGN="LEFT"><TABLE BORDER="0" CELLSPACING="0" ALIGN="LEFT"><TR ALIGN="LEFT"><TD ALIGN="LEFT" FIXEDSIZE="TRUE" WIDTH="15" HEIGHT="16"></TD><TD ALIGN="LEFT" FIXEDSIZE="TRUE" WIDTH="152" HEIGHT="16">metadataDigest</TD></TR></TABLE></TD><TD PORT="metadataDigest.type" ALIGN="LEFT">[2000000000,10]</TD></TR>
      <TR><TD PORT="mostRecentCommentTime" COLSPAN="2" ALIGN="LEFT"><TABLE BORDER="0" CELLSPACING="0" ALIGN="LEFT"><TR ALIGN="LEFT"><TD ALIGN="LEFT" FIXEDSIZE="TRUE" WIDTH="15" HEIGHT="16"></TD><TD ALIGN="LEFT" FIXEDSIZE="TRUE" WIDTH="152" HEIGHT="16">mostRecentCommentTime</TD></TR></TABLE></TD><TD PORT="mostRecentCommentTime.type" ALIGN="LEFT">[2000000000,10]</TD></TR>
      <TR><TD PORT="orientation" COLSPAN="2" ALIGN="LEFT"><TABLE BORDER="0" CELLSPACING="0" ALIGN="LEFT"><TR ALIGN="LEFT"><TD ALIGN="LEFT" FIXEDSIZE="TRUE" WIDTH="15" HEIGHT="16"></TD><TD ALIGN="LEFT" FIXEDSIZE="TRUE" WIDTH="152" HEIGHT="16">orientation</TD></TR></TABLE></TD><TD PORT="orientation.type" ALIGN="LEFT">[2000000000,10]</TD></TR>
      <TR><TD PORT="photo" COLSPAN="2" BGCOLOR="#ffffff" ALIGN="LEFT"><TABLE BORDER="0" CELLSPACING="0" ALIGN="LEFT"><TR ALIGN="LEFT"><TD ALIGN="LEFT" FIXEDSIZE="TRUE" WIDTH="15" HEIGHT="16"></TD><TD ALIGN="LEFT" FIXEDSIZE="TRUE" WIDTH="152" HEIGHT="16">photo</TD></TR></TABLE></TD><TD PORT="photo.type" ALIGN="LEFT">integer[2000000000,10]</TD></TR>
      <TR><TD PORT="photoNeedsUpdating" COLSPAN="2" BGCOLOR="#ffffff" ALIGN="LEFT"><TABLE BORDER="0" CELLSPACING="0" ALIGN="LEFT"><TR ALIGN="LEFT"><TD ALIGN="LEFT" FIXEDSIZE="TRUE" WIDTH="15" HEIGHT="16"></TD><TD ALIGN="LEFT" FIXEDSIZE="TRUE" WIDTH="152" HEIGHT="16">photoNeedsUpdating</TD></TR></TABLE></TD><TD PORT="photoNeedsUpdating.type" ALIGN="LEFT">[2000000000,10]</TD></TR>
      <TR><TD PORT="publishCount" COLSPAN="2" ALIGN="LEFT"><TABLE BORDER="0" CELLSPACING="0" ALIGN="LEFT"><TR ALIGN="LEFT"><TD ALIGN="LEFT" FIXEDSIZE="TRUE" WIDTH="15" HEIGHT="16"></TD><TD ALIGN="LEFT" FIXEDSIZE="TRUE" WIDTH="152" HEIGHT="16">publishCount</TD></TR></TABLE></TD><TD PORT="publishCount.type" ALIGN="LEFT">[2000000000,10]</TD></TR>
      <TR><TD PORT="remoteId" COLSPAN="2" BGCOLOR="#ffffff" ALIGN="LEFT"><TABLE BORDER="0" CELLSPACING="0" ALIGN="LEFT"><TR ALIGN="LEFT"><TD ALIGN="LEFT" FIXEDSIZE="TRUE" WIDTH="15" HEIGHT="16"></TD><TD ALIGN="LEFT" FIXEDSIZE="TRUE" WIDTH="152" HEIGHT="16">remoteId</TD></TR></TABLE></TD><TD PORT="remoteId.type" ALIGN="LEFT">[2000000000,10]</TD></TR>
      <TR><TD PORT="serviceAggregateRating" COLSPAN="2" ALIGN="LEFT"><TABLE BORDER="0" CELLSPACING="0" ALIGN="LEFT"><TR ALIGN="LEFT"><TD ALIGN="LEFT" FIXEDSIZE="TRUE" WIDTH="15" HEIGHT="16"></TD><TD ALIGN="LEFT" FIXEDSIZE="TRUE" WIDTH="152" HEIGHT="16">serviceAggregateRating</TD></TR></TABLE></TD><TD PORT="serviceAggregateRating.type" ALIGN="LEFT">[2000000000,10]</TD></TR>
      <TR><TD PORT="url" COLSPAN="2" ALIGN="LEFT"><TABLE BORDER="0" CELLSPACING="0" ALIGN="LEFT"><TR ALIGN="LEFT"><TD ALIGN="LEFT" FIXEDSIZE="TRUE" WIDTH="15" HEIGHT="16"></TD><TD ALIGN="LEFT" FIXEDSIZE="TRUE" WIDTH="152" HEIGHT="16">url</TD></TR></TABLE></TD><TD PORT="url.type" ALIGN="LEFT">[2000000000,10]</TD></TR>
      <TR><TD ALIGN="LEFT" BGCOLOR="#ffffff">&lt; 0</TD><TD ALIGN="RIGHT" BGCOLOR="#ffffff">  </TD><TD ALIGN="RIGHT" BGCOLOR="#ffffff">0 &gt;</TD></TR>
    </TABLE>>
    URL="../../tables/AgRemotePhoto.html"
    target="_top"
    tooltip="AgRemotePhoto"
  ];
}
